@ title  "Pressure (P) and density (D) over 101 frames"
@ xlabel "Z [nm]"
@ ylabel "P [bar] or D [kg/m^3]"
@ s0 legend "P_T"
@ s1 legend "P_N"
        -6.0117        861.5752        848.5995
        -5.8902        867.0283        866.4085
        -5.7688        867.6184        869.7847
        -5.6473        847.6486        850.7980
        -5.5259        860.0554        854.6241
        -5.4044        882.9023        881.3106
        -5.2830        862.7508        872.2280
        -5.1616        850.9263        854.2965
        -5.0401        851.8887        854.5650
        -4.9187        846.3666        852.5699
        -4.7972        855.6428        847.0068
        -4.6758        859.2386        877.2871
        -4.5543        866.6057        856.2706
        -4.4329        859.2483        870.6558
        -4.3114        854.0353        850.0567
        -4.1900        864.3690        885.7910
        -4.0685        851.2023        870.1740
        -3.9471        862.4862        864.5979
        -3.8256        850.5544        853.6257
        -3.7042        865.1172        877.9796
        -3.5827        865.9249        867.0066
        -3.4613        863.7440        876.2026
        -3.3398        850.2463        850.0554
        -3.2184        853.1466        856.6412
        -3.0969        865.8784        871.1450
        -2.9755        860.3964        850.5621
        -2.8540        863.2803        863.4039
        -2.7326        869.7737        872.7639
        -2.6111        846.7188        821.0945
        -2.4897        825.9627        822.2803
        -2.3682        824.3409        818.2927
        -2.2468        790.0557        792.1145
        -2.1253        710.0228        718.5402
        -2.0039        655.1523        682.4175
        -1.8824        639.4922        671.2621
        -1.7610        609.8972        627.7512
        -1.6396        563.1444        606.5220
        -1.5181        537.8374        546.5079
        -1.3967        475.4542        464.7280
        -1.2752        416.1028        417.5902
        -1.1538        406.1719        408.5475
        -1.0323        405.6661        400.2619
        -0.9109        393.6814        389.5461
        -0.7894        395.2364        402.4404
        -0.6680        386.3770        393.8588
        -0.5465        392.2063        397.1859
        -0.4251        387.4750        384.2220
        -0.3036        387.4440        373.8540
        -0.1822        370.4497        362.8805
        -0.0607        376.3988        363.5903
         0.0607        353.8594        363.7581
         0.1822        354.5601        349.4192
         0.3036        373.2203        369.8150
         0.4251        386.4104        383.9727
         0.5465        377.4402        374.1793
         0.6680        383.7513        400.5867
         0.7894        410.2378        397.7073
         0.9109        385.4465        399.0718
         1.0323        394.0736        397.4679
         1.1538        402.9783        401.1952
         1.2752        401.5002        408.5548
         1.3967        416.7247        413.3324
         1.5181        454.5165        457.6303
         1.6396        510.5594        523.0203
         1.7610        561.5989        574.3892
         1.8824        602.0239        625.4373
         2.0039        620.0928        646.7363
         2.1253        653.8926        686.4857
         2.2468        717.2835        740.4854
         2.3682        738.1995        749.6539
         2.4897        796.2341        811.7383
         2.6111        822.6119        823.1667
         2.7326        836.4089        828.1998
         2.8540        854.0876        841.3559
         2.9755        870.3428        882.2556
         3.0969        861.6465        858.1000
         3.2184        868.6004        878.5070
         3.3398        869.9866        869.9109
         3.4613        870.3021        871.0228
         3.5827        869.2305        849.1104
         3.7042        870.9617        859.1713
         3.8256        878.9518        849.6302
         3.9471        863.3386        863.7319
         4.0685        859.6481        862.8298
         4.1900        862.3472        859.4360
         4.3114        865.7807        870.7222
         4.4329        867.8928        877.1914
         4.5543        868.9771        871.1310
         4.6758        872.3163        872.9063
         4.7972        833.7717        879.9798
         4.9187        863.7931        868.5547
         5.0401        858.6342        851.3918
         5.1615        865.1279        863.5787
         5.2830        878.7192        864.9092
         5.4044        865.2532        853.8989
         5.5259        863.4315        855.0176
         5.6473        852.7205        866.0852
         5.7688        856.3495        897.9616
         5.8902        850.0439        861.9291
         6.0117        855.7725        856.6103
