@ title  "Pressure (P) and density (D) over 101 frames"
@ xlabel "Z [nm]"
@ ylabel "P [bar] or D [kg/m^3]"
@ s0 legend "P_T"
@ s1 legend "P_N"
        -6.0674         28.3068        -69.3236
        -5.9448        -49.0668        -59.5117
        -5.8222         -6.9743        -54.0807
        -5.6996       -108.8995        -58.9757
        -5.5771         43.0060        -20.0869
        -5.4545          6.5688         -7.1400
        -5.3319         24.3028         -5.5712
        -5.2093         86.9471         13.0042
        -5.0868        -17.0491         -6.3519
        -4.9642         82.3147          2.5821
        -4.8416         -4.0825         39.5919
        -4.7191         -2.0641         22.7198
        -4.5965         -4.6164         -2.2716
        -4.4739        -17.2249          4.7328
        -4.3513         37.0248         49.7836
        -4.2288         30.7292         45.7542
        -4.1062        -71.5045         45.8076
        -3.9836        -64.3616          5.6120
        -3.8610         62.2810         -7.6218
        -3.7385         38.2522         -3.0972
        -3.6159         79.3799         48.7711
        -3.4933         47.0312         37.8354
        -3.3708         -2.4736         54.7335
        -3.2482          7.0220         63.2859
        -3.1256         51.2545         27.6407
        -3.0030        -22.9988         25.3811
        -2.8805        117.9550         13.9101
        -2.7579        132.3070        -37.7612
        -2.6353        135.6969        -50.5153
        -2.5127        262.1485        -93.2516
        -2.3902        253.2860        -67.0246
        -2.2676        193.6628        -44.3212
        -2.1450        -73.2652        -46.1319
        -2.0225       -127.9129         26.3847
        -1.8999       -103.9602         23.2544
        -1.7773       -340.0879         26.8042
        -1.6547       -477.7284          7.0742
        -1.5322       -434.5650          7.8029
        -1.4096       -292.9805        -23.6396
        -1.2870        -76.1253        -20.1777
        -1.1644         33.0130        -10.5033
        -1.0419         61.1075         -5.7665
        -0.9193        155.9730        -12.5449
        -0.7967        121.9755        -23.2760
        -0.6741        105.0056          0.5704
        -0.5516         74.6354          3.1383
        -0.4290         89.4334         21.0540
        -0.3064        134.8791         30.1864
        -0.1839        213.9352         28.6147
        -0.0613        197.6357         10.2429
         0.0613        213.8551         -8.5576
         0.1839        182.0771        -23.4458
         0.3064        124.8581        -16.9942
         0.4290         68.8009        -18.5850
         0.5516        111.5862          9.4214
         0.6742        118.4261         13.3183
         0.7967         86.1795         -9.3512
         0.9193         72.1304        -14.3873
         1.0419         80.6935        -14.5423
         1.1644         63.8532        -16.3790
         1.2870         89.0382        -17.3612
         1.4096         -3.4365          6.6889
         1.5322       -182.1584         27.4986
         1.6547       -359.3170         14.5027
         1.7773       -422.1859         46.2077
         1.8999       -486.0201         11.9929
         2.0225       -390.9507          4.8154
         2.1450       -137.1039          1.4241
         2.2676       -112.4920          9.1644
         2.3902        196.8775         31.7368
         2.5127        173.1628         40.8501
         2.6353        170.4237         25.2419
         2.7579        203.7905         24.8014
         2.8805        172.7548          0.4022
         3.0030         71.7609        -21.0042
         3.1256         90.4241         10.3596
         3.2482         41.5120        -19.6323
         3.3708         46.5890         -5.1025
         3.4933        -57.8764          8.0747
         3.6159        -21.5022         49.9111
         3.7385         39.7051         70.2570
         3.8610         41.7101         98.3346
         3.9836         72.7542         48.3887
         4.1062         13.9849         23.1312
         4.2288        -38.5816          3.4876
         4.3513         29.3704          0.0535
         4.4739         16.7206         -8.6688
         4.5965         93.9490         11.5737
         4.7191        105.6667        -19.8960
         4.8416         45.4598         35.6023
         4.9642        105.5273          6.5993
         5.0868         23.9514         10.5272
         5.2094       -107.6953         29.5365
         5.3319         48.8136         38.2689
         5.4545         38.2556         75.4209
         5.5771        -55.9218         50.0154
         5.6996         -0.1539         38.3451
         5.8222         46.7482        -11.4748
         5.9448        -33.9163        -53.3486
         6.0674        -38.7550        -22.9268
