@ title  "Pressure (P) and density (D) over 101 frames"
@ xlabel "Z [nm]"
@ ylabel "P [bar] or D [kg/m^3]"
@ s0 legend "P_T"
@ s1 legend "P_N"
        -5.9395         50.6948          6.8169
        -5.8196        -44.4751         11.7272
        -5.6996        -54.0714         31.6252
        -5.5796         25.5339         19.1265
        -5.4596         20.5811         13.1519
        -5.3396        -35.3464         10.1315
        -5.2196         68.3748        -35.0868
        -5.0996        -10.7856         10.0012
        -4.9796         10.7449         51.7389
        -4.8596        -23.0998         25.0545
        -4.7396          4.0040          6.6687
        -4.6196        -49.3355        -17.9406
        -4.4997         21.7288        -12.8634
        -4.3797        -29.9392         22.1796
        -4.2597         -9.2106         73.7778
        -4.1397         81.4948         24.2913
        -4.0197        -22.0783          5.5528
        -3.8997          7.4293        -17.9252
        -3.7797         47.6396        -45.1420
        -3.6597         20.7303         44.4884
        -3.5397         49.9026         20.9315
        -3.4197        -69.5940         37.2396
        -3.2997         26.8433          9.0721
        -3.1798          5.8014         14.4735
        -3.0598         61.9470        -27.1163
        -2.9398         44.9111         -6.4649
        -2.8198         87.4956         14.7176
        -2.6998        164.7377          9.0234
        -2.5798        183.0521         16.5017
        -2.4598        246.9756         31.2077
        -2.3398        206.0576        -13.1181
        -2.2198        200.4319        -33.4721
        -2.0998        -22.0719        -43.0092
        -1.9798       -219.2818        -54.5605
        -1.8599       -421.7235        -29.3005
        -1.7399       -562.4525        -23.8851
        -1.6199       -564.9085          1.8904
        -1.4999       -507.0688         28.5241
        -1.3799       -307.6982         22.3065
        -1.2599       -108.3454         13.1515
        -1.1399         57.1444         10.1392
        -1.0199        130.5046          3.4597
        -0.8999         70.2144          6.7705
        -0.7799         69.9420        -17.2525
        -0.6599        126.4865        -24.9994
        -0.5400         97.9054        -66.9024
        -0.4200         79.2271        -54.2971
        -0.3000        136.9547        -15.4876
        -0.1800        159.6624         13.8463
        -0.0600        231.6239         21.7868
         0.0600        162.7065          4.1470
         0.1800        121.8698          9.6364
         0.3000        154.2900         30.6201
         0.4200         63.1281         38.8860
         0.5400         96.4992         38.7754
         0.6600        167.1195         31.4608
         0.7799        182.1908          4.3581
         0.8999         68.5548          8.8472
         1.0199        114.5707         -0.4078
         1.1399         54.4293        -11.8466
         1.2599         85.4033         24.2490
         1.3799        -30.5063         30.5168
         1.4999       -234.4648         24.0610
         1.6199       -386.4744         10.2119
         1.7399       -460.2365         20.4134
         1.8599       -353.9560         30.7240
         1.9799       -254.1741         19.1103
         2.0998       -286.3771         10.5092
         2.2198        -22.9242          5.2068
         2.3398        311.7877        -18.9639
         2.4598        269.0828        -10.7778
         2.5798        252.1816         -4.2789
         2.6998        203.9747          5.9075
         2.8198         88.4123         -9.9461
         2.9398         84.8576        -31.5513
         3.0598         41.8281        -16.2962
         3.1798         40.6104        -34.4954
         3.2997         -7.1516        -21.6618
         3.4197         37.7975        -23.3032
         3.5397         27.1870         13.0624
         3.6597        -49.0637         54.8503
         3.7797         -9.9046         31.3305
         3.8997         81.5490          5.5447
         4.0197          5.7744          7.5891
         4.1397         14.0173        -33.0951
         4.2597        -50.2141         -0.2056
         4.3797         -4.4975        -22.8957
         4.4997        -18.4530        -26.4884
         4.6196          0.5871        -38.0446
         4.7396        -87.5756         18.0412
         4.8596         72.5615         41.3020
         4.9796        -29.4457         74.6688
         5.0996         -5.3010         86.5045
         5.2196        143.2063         52.7029
         5.3396        -43.5460         18.8240
         5.4596         70.2826         55.3971
         5.5796         25.1901          9.8945
         5.6996        -48.6139          7.5522
         5.8196        -24.6851         -3.4870
         5.9395        116.8248          6.8961
