@ title  "Pressure (P) and density (D) over 101 frames"
@ xlabel "Z [nm]"
@ ylabel "P [bar] or D [kg/m^3]"
@ s0 legend "P_T"
@ s1 legend "P_N"
        -5.9857        -43.0880          0.0000
        -5.8647        -82.3142          0.0000
        -5.7438        -10.3958          0.0000
        -5.6229         37.3764          0.0000
        -5.5020        126.4368          0.0000
        -5.3810        -94.6347          0.0000
        -5.2601         -9.2656          0.0000
        -5.1392        -14.1965          0.0000
        -5.0183          0.9736          0.0000
        -4.8974        -28.0849          0.0000
        -4.7764        -33.2614          0.0000
        -4.6555         46.9576          0.0000
        -4.5346        -23.0655          0.0000
        -4.4137        -20.9163          0.0000
        -4.2927        -21.1991          0.0000
        -4.1718         -6.7558          0.0000
        -4.0509         -6.8408          0.0000
        -3.9300         22.4682          0.0000
        -3.8091         41.7243          0.0000
        -3.6881        -37.2463          0.0000
        -3.5672        -29.1130          0.0000
        -3.4463         55.2853          0.0000
        -3.3254         -5.6721          0.0000
        -3.2044         -7.0811          0.0000
        -3.0835         87.7674          0.0000
        -2.9626        -13.3918          0.0000
        -2.8417        159.7165          0.0000
        -2.7208         71.9681          0.0000
        -2.5998        159.2889          0.0000
        -2.4789        159.6001          0.0000
        -2.3580         72.7331          0.0000
        -2.2371        106.9023          0.0000
        -2.1161         44.3247          0.0000
        -1.9952       -131.1644          0.0000
        -1.8743       -256.0615          0.0000
        -1.7534       -269.3472          0.0000
        -1.6325       -410.9060          0.0000
        -1.5115       -310.0655          0.0000
        -1.3906       -311.5626          0.0000
        -1.2697       -183.7094          0.0000
        -1.1488         -4.2820          0.0000
        -1.0278         32.3172          0.0000
        -0.9069         80.7152          0.0000
        -0.7860        156.6192          0.0000
        -0.6651        169.8024          0.0000
        -0.5442         96.7318          0.0000
        -0.4232        146.9623          0.0000
        -0.3023         96.2662          0.0000
        -0.1814        136.3772          0.0000
        -0.0605        220.9231          0.0000
         0.0605        139.0565          0.0000
         0.1814        102.4420          0.0000
         0.3023         56.7722          0.0000
         0.4232        137.5613          0.0000
         0.5442        138.8488          0.0000
         0.6651        122.9632          0.0000
         0.7860        136.9548          0.0000
         0.9069        133.4713          0.0000
         1.0278        150.1705          0.0000
         1.1488        102.3584          0.0000
         1.2697         65.4068          0.0000
         1.3906        -39.5350          0.0000
         1.5115       -259.3572          0.0000
         1.6325       -313.8489          0.0000
         1.7534       -437.1539          0.0000
         1.8743       -387.1646          0.0000
         1.9952       -269.7990          0.0000
         2.1161       -268.1621          0.0000
         2.2371        -18.6032          0.0000
         2.3580        105.4811          0.0000
         2.4789         77.4027          0.0000
         2.5998        166.7022          0.0000
         2.7208        134.0622          0.0000
         2.8417         94.5659          0.0000
         2.9626         10.0138          0.0000
         3.0835         20.8922          0.0000
         3.2044         -1.0665          0.0000
         3.3254        -32.5890          0.0000
         3.4463         47.9610          0.0000
         3.5672         35.8900          0.0000
         3.6881        -34.1030          0.0000
         3.8091          3.6015          0.0000
         3.9300         16.8456          0.0000
         4.0509         -4.3144          0.0000
         4.1718        -17.8738          0.0000
         4.2927         75.5208          0.0000
         4.4137        -75.0181          0.0000
         4.5346        -22.9070          0.0000
         4.6555       -112.4581          0.0000
         4.7764        -61.5856          0.0000
         4.8974        -24.3116          0.0000
         5.0183          5.1896          0.0000
         5.1392        -83.8558          0.0000
         5.2601        -57.6150          0.0000
         5.3810         29.7270          0.0000
         5.5020        -20.6585          0.0000
         5.6229         14.2599          0.0000
         5.7438        -10.6256          0.0000
         5.8647        -28.6530          0.0000
         5.9857          2.3778          0.0000
