@ title  "Pressure (P) and density (D) over 101 frames"
@ xlabel "Z [nm]"
@ ylabel "P [bar] or D [kg/m^3]"
@ s0 legend "P_T"
@ s1 legend "P_N"
        -6.0549        845.0019        864.0307
        -5.9326        878.6461        867.8655
        -5.8103        856.3646        844.1720
        -5.6880        869.0751        874.6968
        -5.5656        867.9475        860.6340
        -5.4433        863.4398        861.8284
        -5.3210        840.9341        857.7554
        -5.1987        859.9442        848.7753
        -5.0764        866.0283        849.6726
        -4.9540        862.8149        856.9736
        -4.8317        870.2440        876.1085
        -4.7094        853.6339        864.7075
        -4.5871        866.1744        862.2206
        -4.4647        868.1984        874.1796
        -4.3424        856.4457        855.4930
        -4.2201        850.4946        850.4419
        -4.0978        852.5177        859.0797
        -3.9755        863.8782        870.1224
        -3.8531        871.5157        875.7678
        -3.7308        859.4448        881.4081
        -3.6085        864.7007        853.2890
        -3.4862        868.7643        869.5803
        -3.3638        852.1811        857.1937
        -3.2415        867.0668        863.5427
        -3.1192        872.8605        849.2883
        -2.9969        859.2995        865.3558
        -2.8746        861.1293        853.4996
        -2.7522        863.8125        870.1320
        -2.6299        848.7303        839.1566
        -2.5076        821.5837        816.8903
        -2.3853        811.3021        826.9607
        -2.2630        771.7927        779.2575
        -2.1406        734.0663        739.5125
        -2.0183        694.3672        688.1587
        -1.8960        643.1614        662.3712
        -1.7737        603.9921        633.4009
        -1.6513        587.7114        618.6717
        -1.5290        531.2029        535.2617
        -1.4067        465.1189        469.8148
        -1.2844        434.2214        449.6521
        -1.1621        389.3446        416.5876
        -1.0397        396.6559        397.2705
        -0.9174        398.4818        404.8106
        -0.7951        393.4537        386.9551
        -0.6728        394.6661        389.6474
        -0.5504        391.0619        389.7108
        -0.4281        397.1764        390.4670
        -0.3058        378.9849        375.9907
        -0.1835        380.5413        385.7284
        -0.0612        372.4785        353.7957
         0.0612        357.9038        359.5780
         0.1835        362.8978        365.0342
         0.3058        383.8565        373.8919
         0.4281        376.1333        378.7958
         0.5504        366.2698        381.8657
         0.6728        399.6125        401.0256
         0.7951        391.7774        391.8713
         0.9174        397.0442        383.1922
         1.0397        395.0682        390.5039
         1.1621        397.9502        398.7877
         1.2844        397.1733        401.3391
         1.4067        411.9045        419.4705
         1.5290        461.6574        462.0832
         1.6513        516.5917        523.9971
         1.7737        555.5349        566.5930
         1.8960        591.1468        629.4830
         2.0183        612.1181        649.8268
         2.1406        647.5764        695.3324
         2.2630        697.7965        700.9346
         2.3853        759.5491        752.0729
         2.5076        789.3602        788.7372
         2.6299        820.2649        816.7151
         2.7522        835.5623        843.6185
         2.8746        852.4139        863.6070
         2.9969        855.5486        861.9702
         3.1192        863.9020        870.0443
         3.2415        858.0264        870.3944
         3.3638        862.6932        852.7966
         3.4862        881.9558        864.8367
         3.6085        859.6914        876.1108
         3.7308        855.9453        864.7252
         3.8531        857.2792        859.0759
         3.9755        853.3860        855.5914
         4.0978        872.4126        867.4241
         4.2201        859.0333        841.9158
         4.3424        865.0672        862.9946
         4.4647        874.5828        870.0996
         4.5871        863.0097        875.9917
         4.7094        860.7274        848.0264
         4.8317        867.3430        855.1713
         4.9540        858.4202        870.1787
         5.0764        862.7250        871.6000
         5.1987        861.6281        853.7569
         5.3210        854.7608        860.8554
         5.4433        877.7009        868.5894
         5.5656        861.2751        853.4737
         5.6880        846.7878        860.8877
         5.8103        851.1373        855.7202
         5.9326        867.2927        881.5358
         6.0549        862.9635        874.1868
