@ title  "Pressure (P) and density (D) over 101 frames"
@ xlabel "Z [nm]"
@ ylabel "P [bar] or D [kg/m^3]"
@ s0 legend "P_T"
@ s1 legend "P_N"
        -5.9961         15.4238          0.0000
        -5.8750         -9.9114          0.0000
        -5.7538         58.6687          0.0000
        -5.6327        -36.0759          0.0000
        -5.5116        -31.0829          0.0000
        -5.3904         53.6908          0.0000
        -5.2693        -35.8649          0.0000
        -5.1482         -4.9691          0.0000
        -5.0270        -20.8160          0.0000
        -4.9059        -23.2561          0.0000
        -4.7848        -26.6008          0.0000
        -4.6636        -25.6718          0.0000
        -4.5425        -67.9866          0.0000
        -4.4214         10.6565          0.0000
        -4.3002         37.0634          0.0000
        -4.1791        -16.8151          0.0000
        -4.0580         -3.5530          0.0000
        -3.9368        -64.4284          0.0000
        -3.8157        -25.8183          0.0000
        -3.6946         28.0314          0.0000
        -3.5734        -44.6666          0.0000
        -3.4523         -7.8924          0.0000
        -3.3312         11.2171          0.0000
        -3.2100         64.8662          0.0000
        -3.0889        123.1399          0.0000
        -2.9678         45.5485          0.0000
        -2.8466         -0.0300          0.0000
        -2.7255         36.0503          0.0000
        -2.6044        259.6037          0.0000
        -2.4832        214.6430          0.0000
        -2.3621        123.7249          0.0000
        -2.2410        146.6827          0.0000
        -2.1198        -11.2390          0.0000
        -1.9987       -129.3011          0.0000
        -1.8776        -90.3289          0.0000
        -1.7564       -280.0815          0.0000
        -1.6353       -407.5268          0.0000
        -1.5142       -387.8379          0.0000
        -1.3930       -352.8940          0.0000
        -1.2719       -144.9108          0.0000
        -1.1508         40.7675          0.0000
        -1.0296        119.8615          0.0000
        -0.9085        148.6716          0.0000
        -0.7874        172.9267          0.0000
        -0.6662        211.3130          0.0000
        -0.5451        143.4077          0.0000
        -0.4240        151.1820          0.0000
        -0.3028        169.5906          0.0000
        -0.1817        105.9858          0.0000
        -0.0606        145.4916          0.0000
         0.0606        186.6458          0.0000
         0.1817        100.6704          0.0000
         0.3028         79.2807          0.0000
         0.4240         79.4604          0.0000
         0.5451         53.9207          0.0000
         0.6662        143.2400          0.0000
         0.7874        122.7049          0.0000
         0.9085         71.1731          0.0000
         1.0296        135.3938          0.0000
         1.1508          4.4706          0.0000
         1.2719         81.3586          0.0000
         1.3930       -148.8404          0.0000
         1.5142       -238.7431          0.0000
         1.6353       -440.3061          0.0000
         1.7564       -542.7736          0.0000
         1.8776       -459.9182          0.0000
         1.9987       -254.8457          0.0000
         2.1198        -83.7149          0.0000
         2.2410        -76.1512          0.0000
         2.3621        123.7038          0.0000
         2.4832        138.2254          0.0000
         2.6044        234.2016          0.0000
         2.7255        188.9680          0.0000
         2.8466        149.5237          0.0000
         2.9678        120.8644          0.0000
         3.0889         57.7788          0.0000
         3.2100        -16.2476          0.0000
         3.3312         82.1301          0.0000
         3.4523        -33.2960          0.0000
         3.5734        -27.5538          0.0000
         3.6946         84.7816          0.0000
         3.8157         46.0549          0.0000
         3.9368        -44.2308          0.0000
         4.0580         40.1324          0.0000
         4.1791         -0.9871          0.0000
         4.3002         53.2694          0.0000
         4.4214        -82.4278          0.0000
         4.5425          8.3661          0.0000
         4.6636         33.9839          0.0000
         4.7848         38.2841          0.0000
         4.9059        -82.2438          0.0000
         5.0270         19.5936          0.0000
         5.1482         -4.2381          0.0000
         5.2693        -49.3426          0.0000
         5.3904         75.9048          0.0000
         5.5116          4.1971          0.0000
         5.6327        -56.7848          0.0000
         5.7538        -18.0854          0.0000
         5.8750        -21.6052          0.0000
         5.9961        -57.0936          0.0000
