@ title  "Pressure (P) and density (D) over 101 frames"
@ xlabel "Z [nm]"
@ ylabel "P [bar] or D [kg/m^3]"
@ s0 legend "P_T"
@ s1 legend "P_N"
        -6.0474        -19.1535          0.0000
        -5.9252         -3.5351          0.0000
        -5.8031       -178.5163          0.0000
        -5.6809         21.8576          0.0000
        -5.5587         16.2304          0.0000
        -5.4365        -69.7628          0.0000
        -5.3144        -60.1768          0.0000
        -5.1922         17.2173          0.0000
        -5.0700         -7.0400          0.0000
        -4.9479        -58.3722          0.0000
        -4.8257        -17.5785          0.0000
        -4.7035         -8.0100          0.0000
        -4.5814         57.5516          0.0000
        -4.4592        -14.7525          0.0000
        -4.3370          5.7225          0.0000
        -4.2148         42.4439          0.0000
        -4.0927        -53.7678          0.0000
        -3.9705         90.4217          0.0000
        -3.8483        -45.3353          0.0000
        -3.7262        -36.8769          0.0000
        -3.6040          9.5051          0.0000
        -3.4818         24.5807          0.0000
        -3.3597         -6.5032          0.0000
        -3.2375         23.6744          0.0000
        -3.1153         -3.2003          0.0000
        -2.9932         12.7916          0.0000
        -2.8710        114.5889          0.0000
        -2.7488         54.3629          0.0000
        -2.6266        167.9492          0.0000
        -2.5045        136.2642          0.0000
        -2.3823        190.8717          0.0000
        -2.2601         12.4712          0.0000
        -2.1380       -189.7264          0.0000
        -2.0158       -272.7099          0.0000
        -1.8936       -286.6761          0.0000
        -1.7715       -336.0613          0.0000
        -1.6493       -485.9158          0.0000
        -1.5271       -586.8584          0.0000
        -1.4049       -354.0196          0.0000
        -1.2828       -193.6671          0.0000
        -1.1606         58.5292          0.0000
        -1.0384         82.9140          0.0000
        -0.9163        110.2949          0.0000
        -0.7941        151.1054          0.0000
        -0.6719        153.1273          0.0000
        -0.5498        110.1467          0.0000
        -0.4276         71.5277          0.0000
        -0.3054        167.2179          0.0000
        -0.1833        133.0654          0.0000
        -0.0611        118.7499          0.0000
         0.0611        174.2599          0.0000
         0.1833        195.9422          0.0000
         0.3054         86.3333          0.0000
         0.4276         83.0397          0.0000
         0.5498        137.6383          0.0000
         0.6719        128.6450          0.0000
         0.7941        143.5655          0.0000
         0.9163        202.0530          0.0000
         1.0384        137.7392          0.0000
         1.1606        116.5634          0.0000
         1.2828         54.5596          0.0000
         1.4049        -20.0031          0.0000
         1.5271       -161.5329          0.0000
         1.6493       -342.1224          0.0000
         1.7715       -462.2120          0.0000
         1.8936       -456.3306          0.0000
         2.0158       -306.3260          0.0000
         2.1380       -291.4438          0.0000
         2.2601        -21.1490          0.0000
         2.3823         26.5416          0.0000
         2.5045        104.3740          0.0000
         2.6266        162.8098          0.0000
         2.7488        127.6890          0.0000
         2.8710         79.9856          0.0000
         2.9932        125.9603          0.0000
         3.1153         77.6291          0.0000
         3.2375        101.9210          0.0000
         3.3597        -66.3635          0.0000
         3.4818         59.1709          0.0000
         3.6040        -73.5381          0.0000
         3.7262         -1.0193          0.0000
         3.8483        -24.6271          0.0000
         3.9705        -92.1048          0.0000
         4.0927        -26.0503          0.0000
         4.2148         41.0170          0.0000
         4.3370        -27.2098          0.0000
         4.4592        -85.0438          0.0000
         4.5814        -85.7466          0.0000
         4.7035         -0.3413          0.0000
         4.8257        -29.9698          0.0000
         4.9479         48.0301          0.0000
         5.0700          9.3685          0.0000
         5.1922          7.3805          0.0000
         5.3144        -16.2274          0.0000
         5.4365         69.3511          0.0000
         5.5587        -44.0249          0.0000
         5.6809         24.8668          0.0000
         5.8031        -28.8050          0.0000
         5.9252         17.5677          0.0000
         6.0474       -118.7689          0.0000
