@ title  "Pressure (P) and density (D) over 101 frames"
@ xlabel "Z [nm]"
@ ylabel "P [bar] or D [kg/m^3]"
@ s0 legend "P_T"
@ s1 legend "P_N"
        -6.0410         38.3449          0.0000
        -5.9190        -33.5310          0.0000
        -5.7969         49.7840          0.0000
        -5.6749        -68.5155          0.0000
        -5.5528         27.1161          0.0000
        -5.4308        -24.2354          0.0000
        -5.3088        -32.7444          0.0000
        -5.1867        -59.0965          0.0000
        -5.0647        -49.8109          0.0000
        -4.9426          1.8226          0.0000
        -4.8206         16.0000          0.0000
        -4.6986        -18.9581          0.0000
        -4.5765         42.3208          0.0000
        -4.4545         28.4399          0.0000
        -4.3324         18.5419          0.0000
        -4.2104        -49.0989          0.0000
        -4.0884         61.6813          0.0000
        -3.9663          6.4426          0.0000
        -3.8443         55.1835          0.0000
        -3.7222        -10.5982          0.0000
        -3.6002          6.2786          0.0000
        -3.4781        -44.7584          0.0000
        -3.3561         77.4925          0.0000
        -3.2341         -8.6615          0.0000
        -3.1120         25.5159          0.0000
        -2.9900         54.1249          0.0000
        -2.8679        126.0854          0.0000
        -2.7459        251.8007          0.0000
        -2.6239        165.1713          0.0000
        -2.5018         64.4785          0.0000
        -2.3798         91.5296          0.0000
        -2.2577        162.8946          0.0000
        -2.1357        -47.8969          0.0000
        -2.0137         27.1261          0.0000
        -1.8916       -163.6376          0.0000
        -1.7696       -312.5187          0.0000
        -1.6475       -320.0528          0.0000
        -1.5255       -376.9988          0.0000
        -1.4035       -333.6661          0.0000
        -1.2814       -260.7895          0.0000
        -1.1594        -78.3598          0.0000
        -1.0373         16.7216          0.0000
        -0.9153         92.7661          0.0000
        -0.7933        168.1921          0.0000
        -0.6712        193.1755          0.0000
        -0.5492        226.0726          0.0000
        -0.4271        189.4465          0.0000
        -0.3051         75.7682          0.0000
        -0.1831        136.2665          0.0000
        -0.0610        115.4207          0.0000
         0.0610        137.6752          0.0000
         0.1831        136.3976          0.0000
         0.3051        176.2934          0.0000
         0.4271        147.5406          0.0000
         0.5492        147.4940          0.0000
         0.6712        158.1286          0.0000
         0.7933        152.6988          0.0000
         0.9153        125.7708          0.0000
         1.0373        147.0953          0.0000
         1.1594        106.5400          0.0000
         1.2814         94.4007          0.0000
         1.4035        -68.8127          0.0000
         1.5255       -210.3074          0.0000
         1.6475       -465.6486          0.0000
         1.7696       -529.5259          0.0000
         1.8916       -543.3540          0.0000
         2.0137       -392.8492          0.0000
         2.1357       -254.7173          0.0000
         2.2577        -42.2274          0.0000
         2.3798        115.6420          0.0000
         2.5018        183.9423          0.0000
         2.6239        217.4237          0.0000
         2.7459        163.7188          0.0000
         2.8679        137.5580          0.0000
         2.9900        144.5346          0.0000
         3.1120        141.8822          0.0000
         3.2341         12.7790          0.0000
         3.3561         50.5917          0.0000
         3.4781        -41.3026          0.0000
         3.6002         41.2287          0.0000
         3.7222        -18.5045          0.0000
         3.8443        -25.6429          0.0000
         3.9663         57.8311          0.0000
         4.0883         32.2813          0.0000
         4.2104        -20.1442          0.0000
         4.3324        -84.9522          0.0000
         4.4545         73.2203          0.0000
         4.5765        -50.2578          0.0000
         4.6986        -48.4838          0.0000
         4.8206        114.6507          0.0000
         4.9426         26.3162          0.0000
         5.0647        -33.6606          0.0000
         5.1867         19.6888          0.0000
         5.3088          2.6771          0.0000
         5.4308       -108.1918          0.0000
         5.5528        -17.5723          0.0000
         5.6749        -57.4022          0.0000
         5.7969         42.4269          0.0000
         5.9190        -26.6645          0.0000
         6.0410          2.2480          0.0000
