@ title  "Pressure (P) and density (D) over 101 frames"
@ xlabel "Z [nm]"
@ ylabel "P [bar] or D [kg/m^3]"
@ s0 legend "P_T"
@ s1 legend "P_N"
        -6.0436        -44.2298          0.0000
        -5.9215        -51.8102          0.0000
        -5.7994       -108.7933          0.0000
        -5.6773        -10.2246          0.0000
        -5.5552         -2.4144          0.0000
        -5.4331         11.0028          0.0000
        -5.3110        -12.8812          0.0000
        -5.1889        -67.9831          0.0000
        -5.0668        107.8150          0.0000
        -4.9447        -62.6075          0.0000
        -4.8226         74.8312          0.0000
        -4.7006         12.9178          0.0000
        -4.5785         -8.2642          0.0000
        -4.4564        -50.8916          0.0000
        -4.3343        -25.0214          0.0000
        -4.2122        -17.2706          0.0000
        -4.0901         28.2820          0.0000
        -3.9680        -16.7224          0.0000
        -3.8459        -80.6985          0.0000
        -3.7238        -16.1454          0.0000
        -3.6017        -60.8699          0.0000
        -3.4796        -14.5861          0.0000
        -3.3575         93.8254          0.0000
        -3.2354        101.3553          0.0000
        -3.1134         77.8069          0.0000
        -2.9913         38.1928          0.0000
        -2.8692        132.0437          0.0000
        -2.7471        143.4002          0.0000
        -2.6250         94.1454          0.0000
        -2.5029        109.2298          0.0000
        -2.3808        150.0945          0.0000
        -2.2587         89.7693          0.0000
        -2.1366        -25.6404          0.0000
        -2.0145        -16.0567          0.0000
        -1.8924       -227.0238          0.0000
        -1.7703       -370.7223          0.0000
        -1.6482       -449.0008          0.0000
        -1.5262       -476.4643          0.0000
        -1.4041       -340.3401          0.0000
        -1.2820       -107.2401          0.0000
        -1.1599         -0.8977          0.0000
        -1.0378        135.1426          0.0000
        -0.9157         81.5750          0.0000
        -0.7936        110.0391          0.0000
        -0.6715        112.3287          0.0000
        -0.5494        131.1063          0.0000
        -0.4273        137.4181          0.0000
        -0.3052        122.5052          0.0000
        -0.1831        145.3304          0.0000
        -0.0610        185.6353          0.0000
         0.0610        193.8542          0.0000
         0.1831        170.8065          0.0000
         0.3052        157.8068          0.0000
         0.4273         87.6298          0.0000
         0.5494         86.3066          0.0000
         0.6715        133.2133          0.0000
         0.7936        118.8867          0.0000
         0.9157        121.3706          0.0000
         1.0378        123.3324          0.0000
         1.1599         79.8123          0.0000
         1.2820         56.8452          0.0000
         1.4041       -100.2863          0.0000
         1.5262       -282.0588          0.0000
         1.6482       -421.4624          0.0000
         1.7703       -432.4758          0.0000
         1.8924       -282.7732          0.0000
         2.0145       -269.9153          0.0000
         2.1366       -155.6098          0.0000
         2.2587        -43.7353          0.0000
         2.3808        234.2303          0.0000
         2.5029         90.9047          0.0000
         2.6250          1.1900          0.0000
         2.7471        233.2769          0.0000
         2.8692        106.4600          0.0000
         2.9913         55.6532          0.0000
         3.1134         82.4822          0.0000
         3.2354         30.4326          0.0000
         3.3575         -3.0170          0.0000
         3.4796         28.9087          0.0000
         3.6017         11.7425          0.0000
         3.7238        -18.8656          0.0000
         3.8459        -18.1582          0.0000
         3.9680         56.2659          0.0000
         4.0901         38.1706          0.0000
         4.2122        -63.3973          0.0000
         4.3343        -38.8710          0.0000
         4.4564        -14.4621          0.0000
         4.5785        -14.3988          0.0000
         4.7006         -1.2499          0.0000
         4.8226         -6.0914          0.0000
         4.9447         24.2891          0.0000
         5.0668         52.7679          0.0000
         5.1889         -3.4632          0.0000
         5.3110        -39.8447          0.0000
         5.4331        -61.9347          0.0000
         5.5552        -33.3031          0.0000
         5.6773        -32.2792          0.0000
         5.7994        -26.6643          0.0000
         5.9215        -28.7722          0.0000
         6.0436        -77.7688          0.0000
