@ title  "Pressure (P) and density (D) over 101 frames"
@ xlabel "Z [nm]"
@ ylabel "P [bar] or D [kg/m^3]"
@ s0 legend "P_T"
@ s1 legend "P_N"
        -5.9755          6.8510        -19.5542
        -5.8548        -49.1854        -29.6493
        -5.7340        -55.2035        -59.4484
        -5.6133        -98.8162        -33.9812
        -5.4926        -20.1668         -8.6020
        -5.3719         45.2004        -32.5379
        -5.2512        -30.4818          2.0421
        -5.1305         62.3713         31.3460
        -5.0097        -37.7036         46.9308
        -4.8890        -24.8493         19.5632
        -4.7683         58.8162         -6.4402
        -4.6476        -19.8903         13.6445
        -4.5269         -6.3366        -15.3232
        -4.4062         50.8332         -9.1224
        -4.2854          7.6947        -10.0349
        -4.1647          0.1752        -42.7617
        -4.0440         -5.3793        -21.1087
        -3.9233        -21.5675         -4.1299
        -3.8026         12.8036         35.1366
        -3.6819         47.2760         35.2519
        -3.5611        108.6650         42.2537
        -3.4404        -10.0739         63.1073
        -3.3197        -41.9318         20.5859
        -3.1990         45.4025         35.5108
        -3.0783        166.1873         66.3377
        -2.9576         92.9046        100.7424
        -2.8368         73.7971         83.2574
        -2.7161         92.6404         39.0109
        -2.5954        126.3432        -23.1577
        -2.4747        203.5658          0.3110
        -2.3540        166.0491         -9.4873
        -2.2333         61.9490         -6.0168
        -2.1125        -35.7288        -12.7723
        -1.9918       -180.2060        -22.6543
        -1.8711       -235.1249        -13.7567
        -1.7504       -499.1477         -5.5827
        -1.6297       -603.3314        -55.7127
        -1.5090       -629.8993        -40.0414
        -1.3882       -363.1331        -12.1297
        -1.2675       -120.6413         -8.4787
        -1.1468         48.5130          3.5887
        -1.0261         88.0753        -49.3048
        -0.9054        100.1036        -47.9971
        -0.7847        125.3323        -18.7889
        -0.6639        142.3649         20.3047
        -0.5432        207.0536         38.1899
        -0.4225        160.8047         38.0624
        -0.3018         99.5742         10.1678
        -0.1811        122.2168          4.9534
        -0.0604        131.7077        -10.4636
         0.0604        175.1281          4.9570
         0.1811        150.6029        -28.4989
         0.3018        203.0362        -14.0333
         0.4225        156.3685        -28.6776
         0.5432         50.8517        -62.3322
         0.6639        127.2888        -44.9067
         0.7847         30.2962        -53.4106
         0.9054         99.7291          4.4811
         1.0261         34.1945         35.1525
         1.1468         72.4646         52.2030
         1.2675        114.2263         38.6367
         1.3882        -44.9896         14.7449
         1.5090       -201.7598         33.4435
         1.6297       -373.9778         56.1754
         1.7504       -447.7795         63.7129
         1.8711       -350.1852         40.3654
         1.9918       -147.8146         42.2009
         2.1125        -80.2541          9.6293
         2.2333       -129.5027         23.6974
         2.3540         88.3681         78.3803
         2.4747         86.1008         61.1671
         2.5954        218.8694         49.6693
         2.7161        189.1796         21.3775
         2.8368        123.0496        -18.9505
         2.9576         82.3003        -39.5111
         3.0783        132.0565        -26.3000
         3.1990         37.1315         -8.4253
         3.3197         21.5901          0.1692
         3.4404        -14.7924         20.0676
         3.5611        -64.9127          2.0294
         3.6819          6.8064          6.9017
         3.8026        -25.0612        -11.4506
         3.9233         11.1651         -2.4238
         4.0440          0.8049         14.1053
         4.1647        -39.8956        -14.4245
         4.2854        -29.1665        -41.8299
         4.4062          1.8224        -30.0761
         4.5269        -16.2962        -35.1740
         4.6476         11.6750         18.4740
         4.7683         80.1469        -15.6637
         4.8890         82.8901        -25.8141
         5.0097        -20.6166        -53.9791
         5.1305         36.1920          2.3300
         5.2512        -20.1449        -47.3196
         5.3719        -49.1267        -50.9203
         5.4926        -33.5476        -14.4984
         5.6133         54.0158        -26.4660
         5.7340        -46.1226        -17.5021
         5.8548         -5.3175         -6.7176
         5.9755        -69.1405        -31.3557
