@ title  "Pressure (P) and density (D) over 101 frames"
@ xlabel "Z [nm]"
@ ylabel "P [bar] or D [kg/m^3]"
@ s0 legend "P_T"
@ s1 legend "P_N"
        -6.0424         61.3018          0.0000
        -5.9204         60.7235          0.0000
        -5.7983        -13.7475          0.0000
        -5.6762         82.6342          0.0000
        -5.5542        -73.7958          0.0000
        -5.4321         43.5559          0.0000
        -5.3100         44.7076          0.0000
        -5.1879        -28.0282          0.0000
        -5.0659         82.9474          0.0000
        -4.9438        -57.3276          0.0000
        -4.8217        -59.0900          0.0000
        -4.6997         -9.4007          0.0000
        -4.5776         -5.2922          0.0000
        -4.4555        -16.8649          0.0000
        -4.3335         70.9441          0.0000
        -4.2114        -44.5038          0.0000
        -4.0893         -6.6432          0.0000
        -3.9673         46.3481          0.0000
        -3.8452        -53.1850          0.0000
        -3.7231        -60.8758          0.0000
        -3.6010         -9.3585          0.0000
        -3.4790         41.7969          0.0000
        -3.3569         78.9448          0.0000
        -3.2348        -50.1183          0.0000
        -3.1128         97.8785          0.0000
        -2.9907         65.8868          0.0000
        -2.8686        131.5029          0.0000
        -2.7466         41.6406          0.0000
        -2.6245         13.6562          0.0000
        -2.5024        212.6036          0.0000
        -2.3804        139.6461          0.0000
        -2.2583        150.2479          0.0000
        -2.1362        -10.0525          0.0000
        -2.0141       -114.1277          0.0000
        -1.8921       -329.1107          0.0000
        -1.7700       -358.9759          0.0000
        -1.6479       -479.1232          0.0000
        -1.5259       -540.1697          0.0000
        -1.4038       -367.7876          0.0000
        -1.2817        -97.0839          0.0000
        -1.1597         35.2079          0.0000
        -1.0376        115.6721          0.0000
        -0.9155        124.7499          0.0000
        -0.7934         83.8497          0.0000
        -0.6714        131.0242          0.0000
        -0.5493        159.9103          0.0000
        -0.4272        108.0378          0.0000
        -0.3052        149.9500          0.0000
        -0.1831        112.8136          0.0000
        -0.0610        119.2418          0.0000
         0.0610        200.5154          0.0000
         0.1831        133.8638          0.0000
         0.3052        127.7878          0.0000
         0.4272        113.8660          0.0000
         0.5493        197.0215          0.0000
         0.6714        216.0527          0.0000
         0.7935        122.6702          0.0000
         0.9155        152.4394          0.0000
         1.0376         76.2065          0.0000
         1.1597         52.1958          0.0000
         1.2817         37.6096          0.0000
         1.4038       -110.9636          0.0000
         1.5259       -188.4448          0.0000
         1.6479       -288.3477          0.0000
         1.7700       -388.5689          0.0000
         1.8921       -390.9519          0.0000
         2.0141       -206.2234          0.0000
         2.1362       -109.0104          0.0000
         2.2583       -197.6097          0.0000
         2.3804         75.4637          0.0000
         2.5024        203.5138          0.0000
         2.6245         92.5918          0.0000
         2.7466        157.9558          0.0000
         2.8686         78.2184          0.0000
         2.9907         83.0585          0.0000
         3.1128         74.6443          0.0000
         3.2348        111.4897          0.0000
         3.3569         59.5093          0.0000
         3.4790         19.3397          0.0000
         3.6011         24.1839          0.0000
         3.7231        -72.0130          0.0000
         3.8452         87.2251          0.0000
         3.9673         37.7852          0.0000
         4.0893        -24.2733          0.0000
         4.2114         86.2733          0.0000
         4.3335        -15.9808          0.0000
         4.4555          0.8977          0.0000
         4.5776        -44.9390          0.0000
         4.6997         -7.3031          0.0000
         4.8217         23.9839          0.0000
         4.9438         37.3319          0.0000
         5.0659        -40.2927          0.0000
         5.1880        -68.6458          0.0000
         5.3100         -7.2589          0.0000
         5.4321         28.6520          0.0000
         5.5542         26.0924          0.0000
         5.6762        -72.1083          0.0000
         5.7983         34.2481          0.0000
         5.9204        -26.5819          0.0000
         6.0424        -66.5441          0.0000
