#  Job_num         Ptan         Pnor
       000      -3.3323       0.0000
       001     -11.4482       0.0000
       002       2.1093       0.0000
       003       9.4515       0.0000
       004      12.6247       0.0000
       005       5.9298       0.0000
       006       2.6939       0.0000
       007       0.1113       0.0000
       008       5.3040       0.0000
       009     -18.9468       0.0000
       010       4.8620       0.0000
       011      -2.1824       0.0000
       012      -4.9286       0.0000
       013      -0.3500       0.0000
       014      -1.5466       0.0000
       015       1.7610       0.0000
       016      -3.7611       0.0000
       017       8.1172       0.0000
       018      -5.5341       0.0000
       019       0.1486       0.0000
       020       4.9247       0.0000
       021      10.3892       0.0000
       022       3.5654       0.0000
       023       2.6894       0.0000
       024      -7.3469       0.0000
       025      -1.5375       0.0000
       026       0.8208       0.0000
       027      -2.3826       0.0000
       028     -13.6999       0.0000
       029      -3.6835       0.0000
       030     -16.7389       0.0000
       031      -7.7613       0.0000
       032      -3.1188       0.0000
       033      -1.8890       0.0000
       034       8.1368       0.0000
       035      10.3710       0.0000
       036       2.8481       0.0000
       037       3.8853       0.0000
       038      -5.8519       0.0000
       039       4.7493       0.0000
       040     -11.6216       0.0000
       041       2.0573       0.0000
       042       5.9327       0.0000
       043      -4.8814       0.0000
       044      -5.8793       0.0000
       045      -8.9803       0.0000
       046       3.1756       0.0000
       047       9.2692       0.0000
       048      -1.6558       0.0000
       049       2.0750       0.0000
       AVG      -0.4211       0.0000
