@ title  "Pressure (P) and density (D) over 101 frames"
@ xlabel "Z [nm]"
@ ylabel "P [bar] or D [kg/m^3]"
@ s0 legend "P_T"
@ s1 legend "P_N"
        -6.1274        -37.5408          0.0000
        -6.0036        -33.6639          0.0000
        -5.8798         36.7446          0.0000
        -5.7560        -64.7551          0.0000
        -5.6322       -112.6992          0.0000
        -5.5084        -36.2336          0.0000
        -5.3846        -77.7226          0.0000
        -5.2609         -8.0519          0.0000
        -5.1371         13.4347          0.0000
        -5.0133        -24.2757          0.0000
        -4.8895         17.4340          0.0000
        -4.7657         -9.4932          0.0000
        -4.6419        -38.0852          0.0000
        -4.5182        -33.8347          0.0000
        -4.3944        -49.1132          0.0000
        -4.2706          7.3159          0.0000
        -4.1468        -66.3643          0.0000
        -4.0230        -91.2684          0.0000
        -3.8992         84.5704          0.0000
        -3.7754         26.8835          0.0000
        -3.6517         51.1305          0.0000
        -3.5279         55.9485          0.0000
        -3.4041         53.0181          0.0000
        -3.2803        107.1438          0.0000
        -3.1565          7.3954          0.0000
        -3.0327         52.9271          0.0000
        -2.9089         24.1983          0.0000
        -2.7852         92.3141          0.0000
        -2.6614         90.1396          0.0000
        -2.5376        199.9185          0.0000
        -2.4138         28.4420          0.0000
        -2.2900        136.0313          0.0000
        -2.1662         -7.3787          0.0000
        -2.0425       -153.0788          0.0000
        -1.9187       -202.5274          0.0000
        -1.7949       -284.7079          0.0000
        -1.6711       -398.9700          0.0000
        -1.5473       -515.3560          0.0000
        -1.4235       -434.3002          0.0000
        -1.2997       -259.3411          0.0000
        -1.1760        -21.7623          0.0000
        -1.0522        104.1987          0.0000
        -0.9284         62.0137          0.0000
        -0.8046        121.5342          0.0000
        -0.6808         91.9711          0.0000
        -0.5570        147.4524          0.0000
        -0.4332        135.8080          0.0000
        -0.3095        144.5255          0.0000
        -0.1857        135.5623          0.0000
        -0.0619        169.1833          0.0000
         0.0619        191.5808          0.0000
         0.1857        116.8562          0.0000
         0.3095        106.0540          0.0000
         0.4332        118.9212          0.0000
         0.5570         87.1534          0.0000
         0.6808        110.2179          0.0000
         0.8046        173.0627          0.0000
         0.9284        193.6753          0.0000
         1.0522        139.3887          0.0000
         1.1760        115.6907          0.0000
         1.2997         12.6566          0.0000
         1.4235        -86.3239          0.0000
         1.5473       -316.7992          0.0000
         1.6711       -419.7448          0.0000
         1.7949       -444.6590          0.0000
         1.9187       -431.3825          0.0000
         2.0424       -410.2534          0.0000
         2.1662        -55.8101          0.0000
         2.2900       -148.6449          0.0000
         2.4138         52.7431          0.0000
         2.5376        166.1937          0.0000
         2.6614         68.1319          0.0000
         2.7852        118.5764          0.0000
         2.9089        134.2929          0.0000
         3.0327        108.5740          0.0000
         3.1565         91.3576          0.0000
         3.2803         28.7589          0.0000
         3.4041        -65.1129          0.0000
         3.5279         44.6849          0.0000
         3.6517          7.5645          0.0000
         3.7754         29.9455          0.0000
         3.8992        -87.1838          0.0000
         4.0230       -157.4320          0.0000
         4.1468          9.9912          0.0000
         4.2706        -12.8607          0.0000
         4.3944        -56.3616          0.0000
         4.5181       -104.2874          0.0000
         4.6419          3.9054          0.0000
         4.7657        -26.8636          0.0000
         4.8895       -120.8142          0.0000
         5.0133        -20.0306          0.0000
         5.1371         86.1944          0.0000
         5.2609        -79.8277          0.0000
         5.3846        -89.8342          0.0000
         5.5084          5.5998          0.0000
         5.6322          0.7467          0.0000
         5.7560        -64.7707          0.0000
         5.8798         42.1554          0.0000
         6.0036        -98.3944          0.0000
         6.1274         22.1078          0.0000
