@ title  "Pressure (P) and density (D) over 101 frames"
@ xlabel "Z [nm]"
@ ylabel "P [bar] or D [kg/m^3]"
@ s0 legend "P_T"
@ s1 legend "P_N"
        -5.9377         20.5876          0.0000
        -5.8177         58.9903          0.0000
        -5.6978        -16.8229          0.0000
        -5.5778         75.8689          0.0000
        -5.4579         11.9303          0.0000
        -5.3379        -43.7481          0.0000
        -5.2179        -92.4734          0.0000
        -5.0980        -28.6648          0.0000
        -4.9780        -54.3157          0.0000
        -4.8581         54.4926          0.0000
        -4.7381        -40.7218          0.0000
        -4.6182        -20.9170          0.0000
        -4.4982         35.6021          0.0000
        -4.3783         83.8968          0.0000
        -4.2583         -0.6626          0.0000
        -4.1384         -2.9722          0.0000
        -4.0184        -32.7477          0.0000
        -3.8985        -37.4929          0.0000
        -3.7785        -12.5584          0.0000
        -3.6586         10.8665          0.0000
        -3.5386        -26.2588          0.0000
        -3.4187        -84.9903          0.0000
        -3.2987        -82.0823          0.0000
        -3.1787         88.3437          0.0000
        -3.0588         84.0905          0.0000
        -2.9388          3.6543          0.0000
        -2.8189         90.7524          0.0000
        -2.6989         85.8778          0.0000
        -2.5790         52.4977          0.0000
        -2.4590        126.0592          0.0000
        -2.3391         33.8598          0.0000
        -2.2191        120.6785          0.0000
        -2.0992        -27.0782          0.0000
        -1.9792       -110.3453          0.0000
        -1.8593       -157.5574          0.0000
        -1.7393       -269.7935          0.0000
        -1.6194       -467.0044          0.0000
        -1.4994       -531.0613          0.0000
        -1.3795       -344.2514          0.0000
        -1.2595       -186.2754          0.0000
        -1.1396        -40.3134          0.0000
        -1.0196         -3.1114          0.0000
        -0.8996        109.2194          0.0000
        -0.7797        101.2219          0.0000
        -0.6597         45.5966          0.0000
        -0.5398        143.6241          0.0000
        -0.4198         55.3865          0.0000
        -0.2999        156.5350          0.0000
        -0.1799        104.1703          0.0000
        -0.0600        155.1135          0.0000
         0.0600        193.5854          0.0000
         0.1799        211.8961          0.0000
         0.2999        140.0541          0.0000
         0.4198        108.6881          0.0000
         0.5398         87.9911          0.0000
         0.6597        115.0932          0.0000
         0.7797        128.1808          0.0000
         0.8996         96.7365          0.0000
         1.0196        121.9297          0.0000
         1.1396        144.1503          0.0000
         1.2595         -7.9330          0.0000
         1.3795        -47.1416          0.0000
         1.4994       -233.1472          0.0000
         1.6194       -349.0738          0.0000
         1.7393       -438.9668          0.0000
         1.8593       -505.5189          0.0000
         1.9792       -332.2563          0.0000
         2.0992       -247.7775          0.0000
         2.2191       -123.8865          0.0000
         2.3391        -78.2566          0.0000
         2.4590         12.6121          0.0000
         2.5790        141.3765          0.0000
         2.6989        168.4385          0.0000
         2.8189        110.5183          0.0000
         2.9388         69.3587          0.0000
         3.0588         98.5465          0.0000
         3.1788         37.1872          0.0000
         3.2987         42.6464          0.0000
         3.4187        -14.7787          0.0000
         3.5386        -38.1326          0.0000
         3.6586        -42.1302          0.0000
         3.7785        101.9908          0.0000
         3.8985         40.9762          0.0000
         4.0184         -1.0996          0.0000
         4.1384        -54.7118          0.0000
         4.2583         -2.3190          0.0000
         4.3783        -22.7180          0.0000
         4.4982         -6.3962          0.0000
         4.6182          0.1156          0.0000
         4.7381        -26.8538          0.0000
         4.8581        100.5341          0.0000
         4.9780         18.1812          0.0000
         5.0980        -66.0090          0.0000
         5.2180         -5.8634          0.0000
         5.3379         14.5197          0.0000
         5.4579        -44.7270          0.0000
         5.5778        -15.7638          0.0000
         5.6978         28.9778          0.0000
         5.8177         77.4342          0.0000
         5.9377        -63.1151          0.0000
