@ title  "Pressure (P) and density (D) over 101 frames"
@ xlabel "Z [nm]"
@ ylabel "P [bar] or D [kg/m^3]"
@ s0 legend "P_T"
@ s1 legend "P_N"
        -5.9855        853.4572        858.3989
        -5.8646        857.1791        876.4349
        -5.7437        866.5648        883.0259
        -5.6228        856.2549        842.3860
        -5.5019        858.5348        857.4405
        -5.3809        870.8752        880.0285
        -5.2600        847.4429        857.9515
        -5.1391        866.8406        848.4194
        -5.0182        852.2228        862.7641
        -4.8973        876.5971        865.8475
        -4.7763        859.3471        857.4722
        -4.6554        871.7881        870.3016
        -4.5345        857.5610        866.3290
        -4.4136        869.8134        841.9929
        -4.2927        870.1713        867.4897
        -4.1717        862.1991        865.4177
        -4.0508        865.1411        845.8030
        -3.9299        856.2202        847.1241
        -3.8090        862.2321        846.1644
        -3.6881        861.4612        856.3300
        -3.5671        866.0573        844.5077
        -3.4462        850.5955        840.9760
        -3.3253        867.7083        870.1227
        -3.2044        873.1890        886.9235
        -3.0835        864.1551        871.8279
        -2.9625        856.4567        850.0395
        -2.8416        867.4460        857.1898
        -2.7207        868.6627        844.2412
        -2.5998        844.7058        849.1793
        -2.4789        819.0043        814.9426
        -2.3579        810.0771        802.0405
        -2.2370        767.1729        772.3740
        -2.1161        697.8983        705.7010
        -1.9952        669.2866        682.7061
        -1.8743        635.1400        665.7711
        -1.7533        604.8488        631.2891
        -1.6324        581.1601        597.6025
        -1.5115        517.9753        537.0258
        -1.3906        473.4816        468.0159
        -1.2697        419.5744        421.2465
        -1.1487        403.6698        411.9979
        -1.0278        399.2066        400.9808
        -0.9069        400.8676        394.5367
        -0.7860        396.6828        386.2134
        -0.6651        401.3514        399.1219
        -0.5441        387.8836        381.7307
        -0.4232        385.8391        385.7701
        -0.3023        375.4124        390.9322
        -0.1814        372.1405        382.6538
        -0.0605        360.2374        373.7889
         0.0605        359.7209        358.8334
         0.1814        373.3655        371.9052
         0.3023        373.6396        370.2249
         0.4232        380.3003        392.8895
         0.5441        389.0254        387.1653
         0.6651        383.3445        391.3622
         0.7860        398.8265        395.4803
         0.9069        397.8474        389.3544
         1.0278        395.4057        393.6119
         1.1487        389.5388        398.7791
         1.2697        403.0934        403.0626
         1.3906        419.4268        415.9863
         1.5115        446.3334        439.6246
         1.6324        504.8550        512.2173
         1.7533        579.9190        584.4001
         1.8743        594.8947        615.7622
         1.9952        623.5664        639.7751
         2.1161        672.3167        684.5803
         2.2370        722.9718        733.3722
         2.3579        747.1042        753.7695
         2.4789        796.6912        776.5981
         2.5998        828.3192        827.8130
         2.7207        850.0464        835.7483
         2.8416        864.6618        840.6174
         2.9625        858.9781        847.2394
         3.0835        866.9793        851.0974
         3.2044        868.7057        871.5842
         3.3253        858.7792        862.3371
         3.4462        871.3469        864.3193
         3.5671        859.6369        842.6067
         3.6881        869.7131        857.9836
         3.8090        851.1594        866.9830
         3.9299        861.0099        855.9537
         4.0508        853.4249        871.4092
         4.1717        870.8977        860.7933
         4.2927        860.2106        845.7915
         4.4136        855.6319        878.1068
         4.5345        863.1508        863.5231
         4.6554        867.9276        875.7410
         4.7763        859.8980        856.2744
         4.8973        863.8936        856.5284
         5.0182        881.2371        879.3657
         5.1391        867.1753        874.7815
         5.2600        857.6607        834.4011
         5.3809        851.6071        878.5500
         5.5019        869.2215        879.5892
         5.6228        864.5145        874.7049
         5.7437        858.1658        855.1984
         5.8646        862.1561        851.7656
         5.9855        858.3098        860.9653
