@ title  "Pressure (P) and density (D) over 101 frames"
@ xlabel "Z [nm]"
@ ylabel "P [bar] or D [kg/m^3]"
@ s0 legend "P_T"
@ s1 legend "P_N"
        -5.9883         -2.3005          0.0000
        -5.8674       -125.5726          0.0000
        -5.7464        -53.4459          0.0000
        -5.6254        -89.1148          0.0000
        -5.5044        -20.8675          0.0000
        -5.3835         72.5845          0.0000
        -5.2625        -27.2691          0.0000
        -5.1415        -52.9916          0.0000
        -5.0205         10.1597          0.0000
        -4.8995        -12.9570          0.0000
        -4.7786          7.0472          0.0000
        -4.6576          3.0896          0.0000
        -4.5366        -38.6219          0.0000
        -4.4156         -8.2054          0.0000
        -4.2947        -73.7045          0.0000
        -4.1737        -19.3463          0.0000
        -4.0527         29.5643          0.0000
        -3.9317        -48.9107          0.0000
        -3.8108        -54.5170          0.0000
        -3.6898         57.8087          0.0000
        -3.5688        -68.4368          0.0000
        -3.4478         -2.4472          0.0000
        -3.3269        -13.6447          0.0000
        -3.2059          8.5738          0.0000
        -3.0849         70.6034          0.0000
        -2.9639         79.5413          0.0000
        -2.8429         91.6520          0.0000
        -2.7220        173.9181          0.0000
        -2.6010        115.7763          0.0000
        -2.4800         85.6562          0.0000
        -2.3590         98.7492          0.0000
        -2.2381         36.7423          0.0000
        -2.1171        -62.2281          0.0000
        -1.9961       -268.3222          0.0000
        -1.8751       -348.3794          0.0000
        -1.7542       -332.1523          0.0000
        -1.6332       -470.4363          0.0000
        -1.5122       -387.0482          0.0000
        -1.3912       -282.4991          0.0000
        -1.2703       -107.5324          0.0000
        -1.1493         24.9080          0.0000
        -1.0283         54.2270          0.0000
        -0.9073        117.6526          0.0000
        -0.7863        119.2751          0.0000
        -0.6654        104.7314          0.0000
        -0.5444        149.6650          0.0000
        -0.4234         23.6051          0.0000
        -0.3024         66.5762          0.0000
        -0.1815        136.2255          0.0000
        -0.0605        143.0963          0.0000
         0.0605        160.7083          0.0000
         0.1815        148.9277          0.0000
         0.3024         61.1498          0.0000
         0.4234         47.9324          0.0000
         0.5444        102.7095          0.0000
         0.6654         95.3177          0.0000
         0.7863        152.9076          0.0000
         0.9073        180.4768          0.0000
         1.0283        168.1790          0.0000
         1.1493        109.9448          0.0000
         1.2703        -25.6552          0.0000
         1.3912       -145.3974          0.0000
         1.5122       -372.5559          0.0000
         1.6332       -484.1501          0.0000
         1.7542       -499.7022          0.0000
         1.8751       -455.2431          0.0000
         1.9961       -280.2488          0.0000
         2.1171       -108.5264          0.0000
         2.2381         34.7230          0.0000
         2.3590         20.1274          0.0000
         2.4800         92.1063          0.0000
         2.6010         72.6294          0.0000
         2.7220         66.7537          0.0000
         2.8429        165.6170          0.0000
         2.9639         66.7393          0.0000
         3.0849         18.9048          0.0000
         3.2059         49.9579          0.0000
         3.3269         55.6075          0.0000
         3.4478        -30.6143          0.0000
         3.5688         -5.6736          0.0000
         3.6898         22.3943          0.0000
         3.8108         40.8181          0.0000
         3.9317        -72.4788          0.0000
         4.0527         29.6568          0.0000
         4.1737          7.3063          0.0000
         4.2947        -16.1420          0.0000
         4.4156          4.7164          0.0000
         4.5366         30.0450          0.0000
         4.6576       -139.0882          0.0000
         4.7786        -15.7060          0.0000
         4.8995        -12.0613          0.0000
         5.0205         14.9867          0.0000
         5.1415         19.0408          0.0000
         5.2625        -71.2610          0.0000
         5.3834        -49.3461          0.0000
         5.5044        -17.7912          0.0000
         5.6254        -75.4973          0.0000
         5.7464        100.6150          0.0000
         5.8674         -0.0685          0.0000
         5.9883        -68.9466          0.0000
