@ title  "Pressure (P) and density (D) over 101 frames"
@ xlabel "Z [nm]"
@ ylabel "P [bar] or D [kg/m^3]"
@ s0 legend "P_T"
@ s1 legend "P_N"
        -6.0410        866.2509        855.8403
        -5.9189        862.6475        875.0402
        -5.7969        868.9991        856.9116
        -5.6748        852.6154        871.8271
        -5.5528        871.3436        865.0186
        -5.4308        876.0485        876.8525
        -5.3087        862.0712        853.0439
        -5.1867        848.8822        849.9644
        -5.0647        864.8818        879.9360
        -4.9426        857.6873        868.5937
        -4.8206        859.5747        863.6658
        -4.6985        858.9953        864.8149
        -4.5765        860.6537        854.5175
        -4.4545        860.3474        877.0565
        -4.3324        846.7121        855.1685
        -4.2104        876.4819        881.7820
        -4.0883        863.9313        867.5887
        -3.9663        856.3715        867.5126
        -3.8443        856.0204        848.3107
        -3.7222        868.1972        860.8206
        -3.6002        871.6246        882.0048
        -3.4781        848.6322        852.2375
        -3.3561        859.1425        833.5266
        -3.2341        864.7830        857.6586
        -3.1120        868.9485        871.5871
        -2.9900        860.4190        858.2501
        -2.8679        865.3077        849.8145
        -2.7459        839.6294        851.3754
        -2.6239        828.3589        842.3318
        -2.5018        832.0904        836.2402
        -2.3798        823.5981        799.6448
        -2.2577        772.9327        773.7454
        -2.1357        737.9136        749.8854
        -2.0137        698.1000        701.7748
        -1.8916        626.8596        673.4507
        -1.7696        625.9370        645.9151
        -1.6475        588.6553        607.7296
        -1.5255        520.3987        545.4684
        -1.4035        487.3040        503.5626
        -1.2814        433.1121        446.8964
        -1.1594        403.0176        403.2434
        -1.0373        396.6457        403.1829
        -0.9153        391.2870        393.5508
        -0.7933        399.1881        389.7220
        -0.6712        392.8501        384.3232
        -0.5492        398.4131        398.2975
        -0.4271        389.8657        383.6506
        -0.3051        391.0659        372.2939
        -0.1831        379.0422        364.1612
        -0.0610        372.3953        362.4207
         0.0610        374.1318        374.0723
         0.1831        355.3420        354.2870
         0.3051        363.5891        365.4667
         0.4271        396.7505        380.4225
         0.5492        372.4304        374.5269
         0.6712        392.6578        378.3355
         0.7933        393.1096        402.7910
         0.9153        387.5334        379.5569
         1.0373        402.3775        403.2102
         1.1594        400.8120        396.8696
         1.2814        399.5663        395.9952
         1.4035        409.3057        404.8605
         1.5255        442.5508        456.9449
         1.6475        489.2611        501.6109
         1.7696        532.3776        552.6815
         1.8916        585.9249        619.1133
         2.0137        637.6757        651.2786
         2.1357        639.2620        665.0414
         2.2577        693.9006        709.3540
         2.3798        753.2313        754.4578
         2.5018        790.0067        797.0298
         2.6239        824.9120        825.9389
         2.7459        854.4000        846.1039
         2.8679        839.8905        857.9603
         2.9900        856.6060        859.5442
         3.1120        864.7241        848.5362
         3.2341        861.3854        874.3412
         3.3561        861.0056        854.1752
         3.4781        861.6557        865.7211
         3.6002        857.9160        853.1299
         3.7222        861.4564        851.7004
         3.8443        856.6899        859.8583
         3.9663        874.2190        861.6094
         4.0883        857.0486        843.5176
         4.2104        866.4370        860.9339
         4.3324        861.3674        872.4761
         4.4545        866.9788        850.6964
         4.5765        863.6743        864.1862
         4.6985        862.9839        868.2521
         4.8206        850.3895        853.8083
         4.9426        873.0609        874.0000
         5.0647        854.5434        865.6887
         5.1867        863.9130        855.9987
         5.3087        863.3496        881.1519
         5.4308        877.5486        868.6620
         5.5528        875.5324        875.5073
         5.6748        854.0678        865.5014
         5.7969        853.7594        866.3824
         5.9189        852.3503        865.1805
         6.0410        859.9828        869.3292
