@ title  "Pressure (P) and density (D) over 101 frames"
@ xlabel "Z [nm]"
@ ylabel "P [bar] or D [kg/m^3]"
@ s0 legend "P_T"
@ s1 legend "P_N"
        -5.9883         -2.8838          0.0000
        -5.8674       -124.1716          0.0000
        -5.7464        -53.6942          0.0000
        -5.6254        -89.2085          0.0000
        -5.5044        -20.1346          0.0000
        -5.3835         71.1567          0.0000
        -5.2625        -26.0667          0.0000
        -5.1415        -53.7325          0.0000
        -5.0205          9.9940          0.0000
        -4.8995        -12.6805          0.0000
        -4.7786          6.9697          0.0000
        -4.6576          3.3020          0.0000
        -4.5366        -38.9323          0.0000
        -4.4156         -7.3227          0.0000
        -4.2947        -74.9821          0.0000
        -4.1737        -17.8843          0.0000
        -4.0527         27.4647          0.0000
        -3.9317        -48.6218          0.0000
        -3.8108        -54.5748          0.0000
        -3.6898         58.4092          0.0000
        -3.5688        -67.8629          0.0000
        -3.4478         -3.3778          0.0000
        -3.3269        -12.8948          0.0000
        -3.2059          8.3099          0.0000
        -3.0849         71.0322          0.0000
        -2.9639         78.9614          0.0000
        -2.8429         91.0289          0.0000
        -2.7220        173.3769          0.0000
        -2.6010        114.4025          0.0000
        -2.4800         83.2331          0.0000
        -2.3590         96.1026          0.0000
        -2.2381         34.4961          0.0000
        -2.1171        -63.6224          0.0000
        -1.9961       -272.7737          0.0000
        -1.8751       -352.5990          0.0000
        -1.7542       -335.5071          0.0000
        -1.6332       -470.1736          0.0000
        -1.5122       -384.4884          0.0000
        -1.3912       -277.2894          0.0000
        -1.2703       -104.2065          0.0000
        -1.1493         26.0846          0.0000
        -1.0283         52.0179          0.0000
        -0.9073        114.4336          0.0000
        -0.7863        114.5868          0.0000
        -0.6654        101.0893          0.0000
        -0.5444        153.5467          0.0000
        -0.4234         31.9621          0.0000
        -0.3024         75.5233          0.0000
        -0.1815        141.4063          0.0000
        -0.0605        142.9998          0.0000
         0.0605        158.5302          0.0000
         0.1815        148.6657          0.0000
         0.3024         65.0726          0.0000
         0.4234         55.6716          0.0000
         0.5444        110.9848          0.0000
         0.6654         98.3752          0.0000
         0.7863        149.7507          0.0000
         0.9073        176.4693          0.0000
         1.0283        162.9636          0.0000
         1.1493        107.7326          0.0000
         1.2703        -23.8863          0.0000
         1.3912       -139.0620          0.0000
         1.5122       -364.7382          0.0000
         1.6332       -479.5993          0.0000
         1.7542       -500.7619          0.0000
         1.8751       -460.5838          0.0000
         1.9961       -283.9258          0.0000
         2.1171       -113.0565          0.0000
         2.2381         30.4245          0.0000
         2.3590         19.7120          0.0000
         2.4800         88.6562          0.0000
         2.6010         70.9958          0.0000
         2.7220         65.1281          0.0000
         2.8429        165.7418          0.0000
         2.9639         65.0611          0.0000
         3.0849         19.9546          0.0000
         3.2059         49.2310          0.0000
         3.3269         54.7360          0.0000
         3.4478        -31.2688          0.0000
         3.5688         -3.5767          0.0000
         3.6898         21.4942          0.0000
         3.8108         39.2517          0.0000
         3.9317        -70.4104          0.0000
         4.0527         28.4631          0.0000
         4.1737          7.8655          0.0000
         4.2947        -16.0943          0.0000
         4.4156          5.2923          0.0000
         4.5366         29.3402          0.0000
         4.6576       -139.5924          0.0000
         4.7786        -14.7524          0.0000
         4.8995        -12.0054          0.0000
         5.0205         14.6110          0.0000
         5.1415         19.0068          0.0000
         5.2625        -71.4404          0.0000
         5.3834        -49.4333          0.0000
         5.5044        -18.3585          0.0000
         5.6254        -74.9369          0.0000
         5.7464        101.0581          0.0000
         5.8674         -0.0971          0.0000
         5.9883        -69.5413          0.0000
