@ title  "Pressure (P) and density (D) over 101 frames"
@ xlabel "Z [nm]"
@ ylabel "P [bar] or D [kg/m^3]"
@ s0 legend "P_T"
@ s1 legend "P_N"
        -6.0744         15.8227          0.0000
        -5.9517         30.4194          0.0000
        -5.8290         53.0215          0.0000
        -5.7063         -1.9323          0.0000
        -5.5836         55.0941          0.0000
        -5.4608        -40.9818          0.0000
        -5.3381         30.7799          0.0000
        -5.2154         48.0163          0.0000
        -5.0927          1.6379          0.0000
        -4.9700         95.5327          0.0000
        -4.8473         17.3213          0.0000
        -4.7246        -88.3221          0.0000
        -4.6018        -51.5428          0.0000
        -4.4791         -7.8845          0.0000
        -4.3564         -3.9322          0.0000
        -4.2337         25.5710          0.0000
        -4.1110         66.0441          0.0000
        -3.9883         37.7085          0.0000
        -3.8655         54.4960          0.0000
        -3.7428        -35.2792          0.0000
        -3.6201         16.9440          0.0000
        -3.4974         92.7811          0.0000
        -3.3747        -31.3300          0.0000
        -3.2520         15.0222          0.0000
        -3.1292         48.6025          0.0000
        -3.0065         86.6123          0.0000
        -2.8838        114.6613          0.0000
        -2.7611         65.2546          0.0000
        -2.6384         45.0447          0.0000
        -2.5157         38.1088          0.0000
        -2.3930        114.9603          0.0000
        -2.2702        184.3938          0.0000
        -2.1475        182.3698          0.0000
        -2.0248        -40.3433          0.0000
        -1.9021        -62.0311          0.0000
        -1.7794       -310.5405          0.0000
        -1.6567       -448.8791          0.0000
        -1.5339       -366.6250          0.0000
        -1.4112       -323.6384          0.0000
        -1.2885       -145.8079          0.0000
        -1.1658         18.3882          0.0000
        -1.0431         33.0517          0.0000
        -0.9204        134.2098          0.0000
        -0.7977        152.6503          0.0000
        -0.6749         57.3360          0.0000
        -0.5522        138.5570          0.0000
        -0.4295        138.9949          0.0000
        -0.3068        110.8822          0.0000
        -0.1841        155.5138          0.0000
        -0.0614        155.7964          0.0000
         0.0614        259.8969          0.0000
         0.1841        169.6384          0.0000
         0.3068        117.4364          0.0000
         0.4295        118.8630          0.0000
         0.5522         59.7742          0.0000
         0.6749        138.9505          0.0000
         0.7977        194.5257          0.0000
         0.9204        210.9743          0.0000
         1.0431        137.2381          0.0000
         1.1658         87.9895          0.0000
         1.2885         52.9331          0.0000
         1.4112        -58.6304          0.0000
         1.5339       -224.5618          0.0000
         1.6567       -423.0243          0.0000
         1.7794       -497.4786          0.0000
         1.9021       -441.1590          0.0000
         2.0248       -270.3225          0.0000
         2.1475       -238.4111          0.0000
         2.2702        -57.6874          0.0000
         2.3930         21.0837          0.0000
         2.5157        166.4361          0.0000
         2.6384        262.4730          0.0000
         2.7611         72.6175          0.0000
         2.8838        112.6797          0.0000
         3.0065        126.5874          0.0000
         3.1292        -18.2358          0.0000
         3.2520         95.3292          0.0000
         3.3747         56.4407          0.0000
         3.4974          6.6254          0.0000
         3.6201         28.2922          0.0000
         3.7428         37.3887          0.0000
         3.8655        -19.8428          0.0000
         3.9883         10.9775          0.0000
         4.1110         -5.9815          0.0000
         4.2337         16.6190          0.0000
         4.3564        -28.0079          0.0000
         4.4791        -68.3491          0.0000
         4.6018        -97.7522          0.0000
         4.7245          8.7963          0.0000
         4.8473          1.6551          0.0000
         4.9700        -38.6129          0.0000
         5.0927         81.9407          0.0000
         5.2154         -7.0019          0.0000
         5.3381         -6.6967          0.0000
         5.4608        -61.6229          0.0000
         5.5836         44.8812          0.0000
         5.7063         29.0266          0.0000
         5.8290        -11.4371          0.0000
         5.9517        -42.2496          0.0000
         6.0744         30.1434          0.0000
