@ title  "Pressure (P) and density (D) over 101 frames"
@ xlabel "Z [nm]"
@ ylabel "P [bar] or D [kg/m^3]"
@ s0 legend "P_T"
@ s1 legend "P_N"
        -6.0102         22.5729          0.0000
        -5.8888        -46.9939          0.0000
        -5.7673         19.3877          0.0000
        -5.6459        -42.9940          0.0000
        -5.5245        -32.8125          0.0000
        -5.4031         -2.0117          0.0000
        -5.2817         29.1095          0.0000
        -5.1603        -38.9390          0.0000
        -5.0388         -1.1685          0.0000
        -4.9174        -40.6549          0.0000
        -4.7960        -41.1095          0.0000
        -4.6746        -19.0741          0.0000
        -4.5532         13.9861          0.0000
        -4.4317        -24.3029          0.0000
        -4.3103         -0.7778          0.0000
        -4.1889         78.8093          0.0000
        -4.0675         70.6415          0.0000
        -3.9461        -49.4593          0.0000
        -3.8247        125.1572          0.0000
        -3.7032         52.8479          0.0000
        -3.5818         54.4314          0.0000
        -3.4604         32.2306          0.0000
        -3.3390         83.4605          0.0000
        -3.2176        108.8897          0.0000
        -3.0962          0.6641          0.0000
        -2.9747         26.5363          0.0000
        -2.8533         35.9072          0.0000
        -2.7319          9.1510          0.0000
        -2.6105         44.6493          0.0000
        -2.4891        142.1316          0.0000
        -2.3676        116.6117          0.0000
        -2.2462        100.6102          0.0000
        -2.1248         70.0628          0.0000
        -2.0034       -130.5927          0.0000
        -1.8820       -248.1811          0.0000
        -1.7606       -509.2499          0.0000
        -1.6391       -497.7413          0.0000
        -1.5177       -394.7719          0.0000
        -1.3963       -263.3344          0.0000
        -1.2749       -197.4300          0.0000
        -1.1535          2.8240          0.0000
        -1.0321        111.6537          0.0000
        -0.9106        180.7125          0.0000
        -0.7892        133.8677          0.0000
        -0.6678        202.5231          0.0000
        -0.5464        206.5097          0.0000
        -0.4250        126.7889          0.0000
        -0.3035        143.3772          0.0000
        -0.1821         79.6710          0.0000
        -0.0607        157.4575          0.0000
         0.0607        145.3948          0.0000
         0.1821        184.8739          0.0000
         0.3035         87.7543          0.0000
         0.4250         87.4262          0.0000
         0.5464        120.5054          0.0000
         0.6678        145.8348          0.0000
         0.7892        171.3440          0.0000
         0.9106        114.7297          0.0000
         1.0320        141.5542          0.0000
         1.1535         69.1598          0.0000
         1.2749        105.3354          0.0000
         1.3963        -88.1337          0.0000
         1.5177       -295.4228          0.0000
         1.6391       -441.5428          0.0000
         1.7606       -510.2447          0.0000
         1.8820       -478.4854          0.0000
         2.0034       -252.6618          0.0000
         2.1248        -23.9517          0.0000
         2.2462          4.1622          0.0000
         2.3676         61.6635          0.0000
         2.4891         88.4501          0.0000
         2.6105        131.1699          0.0000
         2.7319        130.2280          0.0000
         2.8533        153.3474          0.0000
         2.9747         90.4770          0.0000
         3.0962         41.2729          0.0000
         3.2176         83.4496          0.0000
         3.3390         25.8247          0.0000
         3.4604         25.4544          0.0000
         3.5818        119.0269          0.0000
         3.7032         60.7019          0.0000
         3.8247        112.0002          0.0000
         3.9461          0.1592          0.0000
         4.0675        -18.5209          0.0000
         4.1889         38.0760          0.0000
         4.3103        -57.7530          0.0000
         4.4317         41.4514          0.0000
         4.5532         49.0368          0.0000
         4.6746         -1.8734          0.0000
         4.7960          2.6149          0.0000
         4.9174        -77.3454          0.0000
         5.0388         79.2326          0.0000
         5.1603         -7.0039          0.0000
         5.2817         44.8366          0.0000
         5.4031        -67.2393          0.0000
         5.5245         49.3342          0.0000
         5.6459        -42.1195          0.0000
         5.7673         24.0365          0.0000
         5.8888       -116.7411          0.0000
         6.0102          4.0241          0.0000
