@ title  "Pressure (P) and density (D) over 101 frames"
@ xlabel "Z [nm]"
@ ylabel "P [bar] or D [kg/m^3]"
@ s0 legend "P_T"
@ s1 legend "P_N"
        -5.9755        -48.4726          0.0000
        -5.8548         -3.1777          0.0000
        -5.7340        -65.1397          0.0000
        -5.6133        -64.9757          0.0000
        -5.4926        -37.3976          0.0000
        -5.3719         31.8642          0.0000
        -5.2512         -6.6141          0.0000
        -5.1305         -5.4668          0.0000
        -5.0097        -16.9931          0.0000
        -4.8890         10.8090          0.0000
        -4.7683         22.5110          0.0000
        -4.6476         -0.2476          0.0000
        -4.5269         -5.1723          0.0000
        -4.4062          8.2740          0.0000
        -4.2854         52.6911          0.0000
        -4.1647         -4.3661          0.0000
        -4.0440         -5.7981          0.0000
        -3.9233        -24.7432          0.0000
        -3.8026         41.9665          0.0000
        -3.6819         61.4764          0.0000
        -3.5611         58.0061          0.0000
        -3.4404        -25.9963          0.0000
        -3.3197         64.5109          0.0000
        -3.1990          8.4587          0.0000
        -3.0783        105.9920          0.0000
        -2.9576         84.4836          0.0000
        -2.8368        111.9094          0.0000
        -2.7161         84.5940          0.0000
        -2.5954        136.5367          0.0000
        -2.4747        119.0982          0.0000
        -2.3540        140.1181          0.0000
        -2.2333         22.7829          0.0000
        -2.1125        -77.1171          0.0000
        -1.9918       -109.2759          0.0000
        -1.8711       -239.6167          0.0000
        -1.7504       -471.6340          0.0000
        -1.6297       -522.2950          0.0000
        -1.5090       -531.0829          0.0000
        -1.3882       -432.3882          0.0000
        -1.2675       -152.1273          0.0000
        -1.1468        -18.2324          0.0000
        -1.0261         60.6544          0.0000
        -0.9054        148.6859          0.0000
        -0.7847        181.3122          0.0000
        -0.6639        160.4236          0.0000
        -0.5432        218.0452          0.0000
        -0.4225        175.4226          0.0000
        -0.3018         91.9950          0.0000
        -0.1811        108.2328          0.0000
        -0.0604        113.0983          0.0000
         0.0604        160.7482          0.0000
         0.1811        130.7645          0.0000
         0.3018        193.3992          0.0000
         0.4225        114.4258          0.0000
         0.5432        104.4585          0.0000
         0.6639        111.8066          0.0000
         0.7847         62.6291          0.0000
         0.9054        120.6041          0.0000
         1.0261         69.7674          0.0000
         1.1468        100.5525          0.0000
         1.2675         64.1011          0.0000
         1.3882        -85.2877          0.0000
         1.5090       -189.4619          0.0000
         1.6297       -386.5007          0.0000
         1.7504       -435.6631          0.0000
         1.8711       -278.5511          0.0000
         1.9918       -167.6505          0.0000
         2.1125          1.0721          0.0000
         2.2333        -56.0900          0.0000
         2.3540         60.7035          0.0000
         2.4747         10.9940          0.0000
         2.5954        136.8001          0.0000
         2.7161        151.7051          0.0000
         2.8368        117.9182          0.0000
         2.9576        106.7695          0.0000
         3.0783        110.9886          0.0000
         3.1990          9.6397          0.0000
         3.3197         57.7669          0.0000
         3.4404        -39.6586          0.0000
         3.5611        -41.6922          0.0000
         3.6819        -18.2766          0.0000
         3.8026        -16.0100          0.0000
         3.9233         88.1684          0.0000
         4.0440        -74.4066          0.0000
         4.1647        -19.4280          0.0000
         4.2854        -39.4588          0.0000
         4.4062        -14.2454          0.0000
         4.5269         58.1093          0.0000
         4.6476        -38.5535          0.0000
         4.7683         92.3486          0.0000
         4.8890         10.5328          0.0000
         5.0097         71.3028          0.0000
         5.1305         12.2315          0.0000
         5.2512        -24.7487          0.0000
         5.3719        -39.2336          0.0000
         5.4926         -1.9442          0.0000
         5.6133         16.2663          0.0000
         5.7340        -26.0869          0.0000
         5.8548        -29.3859          0.0000
         5.9755        -45.4400          0.0000
