@ title  "Pressure (P) and density (D) over 101 frames"
@ xlabel "Z [nm]"
@ ylabel "P [bar] or D [kg/m^3]"
@ s0 legend "P_T"
@ s1 legend "P_N"
        -5.9818        -78.4650         13.0263
        -5.8609         65.1162        -25.1318
        -5.7401         43.8579         -1.0275
        -5.6193          9.6353         -6.2145
        -5.4984        -34.3775         -8.9728
        -5.3776         11.5956         50.6264
        -5.2567         53.0374         63.9531
        -5.1359         27.2798         96.2946
        -5.0150        -45.0046         46.6402
        -4.8942        -28.3475        -34.2659
        -4.7733        -47.8560        -38.7433
        -4.6525        -38.1343         18.4963
        -4.5317          4.6505         48.9513
        -4.4108         -4.2225         28.5661
        -4.2900        -93.4700        -31.3925
        -4.1691        -70.2603        -45.3517
        -4.0483         29.7084        -89.1314
        -3.9274        -64.3806       -125.6306
        -3.8066         12.4619        -82.2033
        -3.6858        -51.0058        -77.2403
        -3.5649        -14.9837        -86.7471
        -3.4441          6.5077        -49.5857
        -3.3232         44.1581         19.0482
        -3.2024         -4.8432         29.3988
        -3.0815         56.9753         42.9735
        -2.9607         99.2193          3.5527
        -2.8398        147.2763        -36.9498
        -2.7190         49.7194        -20.0289
        -2.5982         -9.4218        -21.9102
        -2.4773        148.7593         26.5912
        -2.3565        337.5928          7.0358
        -2.2356        112.8912         31.7373
        -2.1148        -57.1850         47.0046
        -1.9939       -129.1378         13.7159
        -1.8731       -309.6577        -18.2205
        -1.7522       -488.6273         -5.7443
        -1.6314       -430.0283         17.9861
        -1.5106       -534.0460         41.8465
        -1.3897       -378.8276        -16.2093
        -1.2689       -134.1742          6.4402
        -1.1480         79.7315          6.3331
        -1.0272         70.5971        -29.6207
        -0.9063         21.3629        -47.4921
        -0.7855        105.3136        -32.6069
        -0.6646        118.5498        -18.7209
        -0.5438        169.1159         18.0295
        -0.4230        142.0232         23.0096
        -0.3021        117.9459        -16.8752
        -0.1813         90.4258        -23.2361
        -0.0604         92.2738        -53.7994
         0.0604        174.8725        -51.1516
         0.1813        176.8455        -35.6661
         0.3021        121.3507         -9.0812
         0.4230         92.0437         -7.2023
         0.5438        127.8881         12.9001
         0.6646        237.9498         42.9049
         0.7855        161.3530         41.4146
         0.9063         41.2981         21.5508
         1.0272         40.7103        -15.7371
         1.1480         52.2208        -38.2005
         1.2689         46.7709        -37.1709
         1.3897        -69.8897        -36.1901
         1.5106       -220.2689         35.9320
         1.6314       -401.3531         65.3680
         1.7522       -497.2008         67.6411
         1.8731       -513.0789         47.9998
         1.9939       -123.6372         66.7652
         2.1148       -112.4591         25.1191
         2.2356         -2.2656          6.8903
         2.3565        161.0772        -12.4198
         2.4773        262.4020         13.4601
         2.5982        250.7207          4.3744
         2.7190        176.3766         37.1857
         2.8398        113.7033         17.7533
         2.9607        155.1151         20.3996
         3.0815        113.3861         36.9498
         3.2024         45.4770         18.9815
         3.3232         14.8096        -45.1282
         3.4441          4.8023        -40.3716
         3.5649         65.8023        -42.9907
         3.6857        109.9721         -8.5232
         3.8066         -1.0375        -30.3460
         3.9274        -95.9208        -24.2277
         4.0483          2.2805        -37.3462
         4.1691        -30.1771         -8.4313
         4.2900          2.1936         56.0473
         4.4108          6.3809         51.8084
         4.5317        -76.2253        -23.1617
         4.6525        -13.1023        -33.7226
         4.7733         -2.9382         -2.5703
         4.8942         21.8876         10.8927
         5.0150         58.0523        -12.3422
         5.1359        -66.1495        -20.0354
         5.2567         76.8572        -39.6811
         5.3776        -37.6309        -25.9748
         5.4984         35.2334        -41.2701
         5.6193         33.5503        -40.8134
         5.7401         -6.0478        -22.2297
         5.8609        -19.5518        -13.1256
         5.9818         49.2223         -5.0627
