@ title  "Pressure (P) and density (D) over 101 frames"
@ xlabel "Z [nm]"
@ ylabel "P [bar] or D [kg/m^3]"
@ s0 legend "P_T"
@ s1 legend "P_N"
        -4.7787         58.4703         38.3514
        -4.6822         61.2433         75.3703
        -4.5856         13.8847         42.9563
        -4.4891        -26.1092         28.8437
        -4.3925         56.0688         20.5438
        -4.2960         32.3870         -2.6667
        -4.1995         33.6291        -17.3471
        -4.1029         57.3042        -16.0460
        -4.0064         -0.7040          5.3591
        -3.9098         -9.7316         44.1771
        -3.8133        130.2486         58.2025
        -3.7168         -8.1032         23.5191
        -3.6202         23.4372        -14.6446
        -3.5237         94.1023        -18.7106
        -3.4271         57.4552        -14.7502
        -3.3306         40.7498          4.2802
        -3.2341         11.8247        -20.3511
        -3.1375        -78.9292          0.3005
        -3.0410          4.8950          3.1707
        -2.9445        -23.1792          5.6222
        -2.8479         -1.9573         48.8073
        -2.7514         38.3759         18.3347
        -2.6548         -4.3907         29.0123
        -2.5583       -107.7214         45.4136
        -2.4618         90.4283         34.8545
        -2.3652         30.2450        -17.6310
        -2.2687         29.3777        -13.6897
        -2.1721         80.0840         -0.0121
        -2.0756         66.1612         21.6249
        -1.9791         16.3568          2.9668
        -1.8825         39.6666         11.7315
        -1.7860        -29.9435        -17.0671
        -1.6894        -54.9623        -43.0751
        -1.5929        -60.8105        -36.8162
        -1.4964         23.2762         -7.4151
        -1.3998         73.2921         -1.9702
        -1.3033          9.8264         12.7071
        -1.2067         12.5242         -0.8522
        -1.1102         21.4669         18.3736
        -1.0137         43.3574          4.6246
        -0.9171        -59.0553          3.4469
        -0.8206        -25.4042        -33.6956
        -0.7240         49.9680        -47.5534
        -0.6275         18.1262        -42.1669
        -0.5310         29.3001        -45.9138
        -0.4344        -56.7355        -48.0154
        -0.3379        -18.6194        -25.4985
        -0.2413          1.6204         -6.2066
        -0.1448          6.1022         17.4929
        -0.0483         13.4107         33.3449
         0.0483        -13.4735         25.6188
         0.1448         -2.7260         49.0334
         0.2413         37.9457        -11.1758
         0.3379         79.9663          6.6963
         0.4344         12.4997          8.2546
         0.5310        -27.9658        -19.2902
         0.6275        -61.1029        -45.3424
         0.7240         13.5999        -56.7046
         0.8206          3.2090        -17.5323
         0.9171        -62.0427         -7.3536
         1.0137        -43.9070         21.0698
         1.1102        -30.8418         30.6006
         1.2067         45.5003         -2.6601
         1.3033         14.0898          6.8234
         1.3998         12.3306         37.9684
         1.4964        -31.0901         11.5513
         1.5929         23.1411         58.2687
         1.6894         -2.2279         65.9989
         1.7860         -0.9962         19.4941
         1.8825         11.3569        -12.1419
         1.9791         17.1522        -16.3997
         2.0756         28.9404        -24.0089
         2.1721         22.9425         -9.2636
         2.2687         93.8410         36.5394
         2.3652         18.0292         43.1242
         2.4618         -3.2249         30.0991
         2.5583        -53.5105         14.4849
         2.6548         27.4422         22.3361
         2.7514         48.6735         17.3302
         2.8479         52.4476         35.4634
         2.9444         46.1230         18.3782
         3.0410        -74.2387          8.9333
         3.1375         94.4251          3.9226
         3.2341        -24.9183         38.5161
         3.3306          0.3251         15.2845
         3.4271         58.5647         22.7601
         3.5237         44.7422         25.1708
         3.6202         -3.9248         24.6646
         3.7168        -26.7158         50.8872
         3.8133         -0.7522         47.7473
         3.9098        -80.9635         20.7219
         4.0064         23.8902        -26.5038
         4.1029         65.1660        -65.8080
         4.1995         15.4719        -38.7177
         4.2960         15.4736         12.5816
         4.3925         77.9717         28.9543
         4.4891         16.4698         58.3109
         4.5856         66.3970         44.7561
         4.6822         96.2490          9.9338
         4.7787         85.0636         35.2609
