@ title  "Pressure (P) and density (D) over 101 frames"
@ xlabel "Z [nm]"
@ ylabel "P [bar] or D [kg/m^3]"
@ s0 legend "P_T"
@ s1 legend "P_N"
        -4.7801        -16.0779        -15.8290
        -4.6835         39.5133          3.8279
        -4.5869         15.7692          4.2189
        -4.4904          1.8301        -15.7375
        -4.3938        -74.0892        -27.6000
        -4.2972         -8.0637        -20.4938
        -4.2007          4.0772         -5.1063
        -4.1041        101.3090         13.1698
        -4.0075         23.1781        -28.7825
        -3.9110        -79.2725        -39.7840
        -3.8144         18.9321        -22.1381
        -3.7178          0.1901          7.5197
        -3.6213         16.5668          7.7014
        -3.5247         24.5080          9.4536
        -3.4281        -30.8661        -33.1110
        -3.3316        -17.5948        -41.4806
        -3.2350         36.7386        -30.7167
        -3.1384         86.5823          1.8540
        -3.0419          4.8421         42.4642
        -2.9453         14.0188         29.9977
        -2.8487         53.0340         45.3067
        -2.7522         41.2715          5.3874
        -2.6556        -36.1687          5.3477
        -2.5590         39.9300        -21.5821
        -2.4625         28.8805         -6.5504
        -2.3659         81.9840         -4.1508
        -2.2693         18.7202          3.8715
        -2.1728        -50.9451         10.7408
        -2.0762       -110.9215         48.3155
        -1.9796        -54.0262         42.0336
        -1.8831       -103.9923         -1.1764
        -1.7865        -42.2127        -13.0145
        -1.6899         14.4423        -51.4986
        -1.5934         -1.4923        -20.8705
        -1.4968         14.7422          1.2458
        -1.4002        -40.2042          4.3510
        -1.3037         35.5976          1.8609
        -1.2071        -45.3014        -12.3391
        -1.1105         13.0870         10.2610
        -1.0140         65.7106         47.1957
        -0.9174        -18.9595          5.6900
        -0.8208        -14.0918         -3.2222
        -0.7243         45.8340         10.7137
        -0.6277         -9.0437         -5.3057
        -0.5311         16.7402          9.9367
        -0.4346         26.9967         41.6685
        -0.3380        -11.2239         12.4147
        -0.2414         31.4345         18.8560
        -0.1449         39.9152         44.9601
        -0.0483        -49.9071         11.5310
         0.0483         42.2738         -5.6393
         0.1448        -27.3226        -12.0234
         0.2414         17.5356        -39.3990
         0.3380         48.1564        -50.2880
         0.4345        106.0028        -43.4772
         0.5311         74.2144        -43.8890
         0.6277         76.9326        -22.1488
         0.7243         41.0883        -14.9329
         0.8208        -10.6964         19.6303
         0.9174         -1.3120          4.7353
         1.0140          6.6304         -1.3715
         1.1105        -18.4114         -8.8555
         1.2071        -45.1632          5.0534
         1.3037         43.0608          3.1338
         1.4002         85.8875        -12.3577
         1.4968        -50.2377        -19.0236
         1.5934        -50.7129        -68.8066
         1.6899         11.3838        -65.7405
         1.7865         31.9042        -40.0956
         1.8831        -38.1834        -26.3706
         1.9796         73.1610         20.4607
         2.0762         10.6963         43.7415
         2.1728        -14.3711         13.9067
         2.2693         17.9944        -16.0436
         2.3659         14.8839         -8.4702
         2.4625         -0.3175        -15.0816
         2.5590         94.5169         28.0727
         2.6556         10.3874        -14.6805
         2.7522        -79.4826          4.3006
         2.8487        -12.8781         38.9410
         2.9453         -0.0849         33.0943
         3.0419         -3.3949         60.1942
         3.1384         -6.8914         46.8408
         3.2350         21.3127         54.4878
         3.3316         -9.3111         29.1156
         3.4281        -10.5547          7.2969
         3.5247        -50.3576          0.1812
         3.6213         13.9901          3.0987
         3.7178        -56.1948        -12.3620
         3.8144       -100.0040        -11.4167
         3.9110        -70.6503         -1.9373
         4.0075        -37.7996         10.7562
         4.1041         22.6183         40.6263
         4.2007         -9.5717         18.5806
         4.2972         41.2512         50.9666
         4.3938        -49.1703         36.4946
         4.4904        -43.0676         29.9163
         4.5869        145.3461         51.9715
         4.6835         58.2287         19.5565
         4.7801        -56.6621          6.2688
