@ title  "Pressure (P) and density (D) over 101 frames"
@ xlabel "Z [nm]"
@ ylabel "P [bar] or D [kg/m^3]"
@ s0 legend "P_T"
@ s1 legend "P_N"
        -4.7772         -3.4227        -16.0033
        -4.6807         39.0279         -4.4468
        -4.5842        -46.6635         26.2692
        -4.4877        -71.2656         60.6094
        -4.3912        -10.7246         36.8816
        -4.2947          3.6171         81.2731
        -4.1982         19.9186         47.4412
        -4.1017         63.3820         -2.7560
        -4.0052         78.0487        -19.8856
        -3.9087          1.0106        -50.9336
        -3.8121        -62.4955        -49.4970
        -3.7156        -73.8619        -34.9904
        -3.6191        -26.9905        -21.9129
        -3.5226        -39.9827        -10.2108
        -3.4261        -77.9530         -9.3052
        -3.3296        -19.1975         -9.9816
        -3.2331         -6.7094        -24.6392
        -3.1366         29.3948        -38.0819
        -3.0401         28.8128         -6.9155
        -2.9436         34.1458        -24.6853
        -2.8470        -74.4536         14.2203
        -2.7505         -4.0090         40.0742
        -2.6540          7.3650         24.4573
        -2.5575         47.7629          2.8021
        -2.4610         50.3606        -34.2285
        -2.3645        -85.9308        -63.5201
        -2.2680         21.2991        -61.4629
        -2.1715         18.2533         -2.1690
        -2.0750        -93.7290          2.3377
        -1.9785         -3.0020         30.6558
        -1.8819         -0.7449         47.4369
        -1.7854         30.4923         32.0923
        -1.6889         93.2932         33.7242
        -1.5924         69.9613         37.7440
        -1.4959         51.9769          1.1378
        -1.3994         59.7757        -15.0425
        -1.3029         14.7182        -17.1425
        -1.2064         13.1232         -9.6325
        -1.1099        -10.4797          7.9083
        -1.0134          4.8206         35.5023
        -0.9168         -3.3040         23.0818
        -0.8203         21.2313         29.5294
        -0.7238         27.3533         54.2876
        -0.6273         24.7641         89.4235
        -0.5308         56.9352         49.7947
        -0.4343        -62.6694        -15.4360
        -0.3378        -19.0575          2.3190
        -0.2413        -50.6357        -31.9508
        -0.1448        -54.8778        -25.8399
        -0.0483        -18.9285          8.1288
         0.0483         91.9857         74.9499
         0.1448        103.6129         76.0268
         0.2413         52.9618         43.9351
         0.3378         62.1526         63.1896
         0.4343         60.4387         65.6317
         0.5308         14.6016         74.3724
         0.6273         69.5563         82.8668
         0.7238         81.5023         90.2794
         0.8203         98.9172         69.3674
         0.9168         45.1473         27.1659
         1.0134        -34.4095         24.2330
         1.1099        -51.5695         15.6962
         1.2064        -30.5860          0.4520
         1.3029         42.7085          5.0120
         1.3994         22.3963        -25.6198
         1.4959        -30.9633        -32.1855
         1.5924        -21.6423        -32.2571
         1.6889        -42.7867        -24.2546
         1.7854         14.5683        -17.8554
         1.8819         88.0359         17.6283
         1.9785         -4.4494         -0.0541
         2.0750        -52.6866         27.4073
         2.1715         78.0660         53.3879
         2.2680         25.6506         51.0052
         2.3645         -7.0523         16.0432
         2.4610        -14.1276          3.3936
         2.5575         30.3573        -34.4356
         2.6540        -55.4439        -52.3844
         2.7505        -42.8301        -68.0927
         2.8470         17.7465        -80.1622
         2.9436         10.9305        -20.4861
         3.0401         -0.4799        -36.5025
         3.1366         -6.6233        -35.9551
         3.2331         31.4091        -42.0079
         3.3296         19.9858        -35.1705
         3.4261        -23.5676        -42.9069
         3.5226         87.9530         -7.6842
         3.6191         56.9387        -10.4161
         3.7156        -37.3418        -31.0037
         3.8121          3.1834        -17.0404
         3.9087        -27.6004          5.0602
         4.0052        -97.6273          7.3360
         4.1017        -16.0190         45.0061
         4.1982         49.7686         73.7911
         4.2947         98.4953         54.0234
         4.3912         68.4902         19.4785
         4.4877        -43.6306          8.8409
         4.5842        -21.7430        -27.0933
         4.6807         14.3314        -42.2707
         4.7772         22.8881        -23.3857
