@ title  "Pressure (P) and density (D) over 101 frames"
@ xlabel "Z [nm]"
@ ylabel "P [bar] or D [kg/m^3]"
@ s0 legend "P_T"
@ s1 legend "P_N"
        -4.7823        -52.8768          0.0000
        -4.6857         57.4208          0.0000
        -4.5891         -0.3832          0.0000
        -4.4925         33.6728          0.0000
        -4.3958         41.5277          0.0000
        -4.2992         59.0972          0.0000
        -4.2026         28.9698          0.0000
        -4.1060         24.3290          0.0000
        -4.0094        -81.9205          0.0000
        -3.9128        -89.6258          0.0000
        -3.8162         21.6409          0.0000
        -3.7196         13.2516          0.0000
        -3.6230        -46.4442          0.0000
        -3.5263          4.5066          0.0000
        -3.4297        -53.8485          0.0000
        -3.3331        -24.5708          0.0000
        -3.2365         -1.5254          0.0000
        -3.1399        106.1959          0.0000
        -3.0433         17.7158          0.0000
        -2.9467         25.9981          0.0000
        -2.8501        -27.6006          0.0000
        -2.7534         40.8784          0.0000
        -2.6568          0.2872          0.0000
        -2.5602         33.0931          0.0000
        -2.4636         78.8695          0.0000
        -2.3670         17.9719          0.0000
        -2.2704          1.7506          0.0000
        -2.1738        -60.6166          0.0000
        -2.0772        -25.5967          0.0000
        -1.9805         -9.0315          0.0000
        -1.8839        -29.8376          0.0000
        -1.7873         16.9857          0.0000
        -1.6907         23.4220          0.0000
        -1.5941         94.4903          0.0000
        -1.4975         57.1093          0.0000
        -1.4009        -18.9801          0.0000
        -1.3043        -12.8181          0.0000
        -1.2076         39.1207          0.0000
        -1.1110        -23.0673          0.0000
        -1.0144        -27.6035          0.0000
        -0.9178         38.1044          0.0000
        -0.8212         -4.7322          0.0000
        -0.7246         -0.0941          0.0000
        -0.6280        -42.8384          0.0000
        -0.5314         -0.0554          0.0000
        -0.4348        -13.7187          0.0000
        -0.3381        -14.7947          0.0000
        -0.2415        -12.9908          0.0000
        -0.1449         58.5896          0.0000
        -0.0483         40.2782          0.0000
         0.0483         56.2061          0.0000
         0.1449        -28.6813          0.0000
         0.2415         22.2088          0.0000
         0.3381        -44.5360          0.0000
         0.4348        -38.5790          0.0000
         0.5314         59.6372          0.0000
         0.6280         12.8088          0.0000
         0.7246         -6.6180          0.0000
         0.8212         76.7874          0.0000
         0.9178         24.8747          0.0000
         1.0144         48.9367          0.0000
         1.1110          8.6104          0.0000
         1.2077         23.1298          0.0000
         1.3043         -2.3332          0.0000
         1.4009        -24.5236          0.0000
         1.4975        -24.4814          0.0000
         1.5941         -3.6089          0.0000
         1.6907       -124.1561          0.0000
         1.7873          7.3520          0.0000
         1.8839         13.5780          0.0000
         1.9805        -53.4033          0.0000
         2.0772         -2.2552          0.0000
         2.1738          5.4898          0.0000
         2.2704        -16.1463          0.0000
         2.3670        -11.0171          0.0000
         2.4636        -17.7712          0.0000
         2.5602        -49.3992          0.0000
         2.6568         72.5801          0.0000
         2.7534          8.5505          0.0000
         2.8501         10.7637          0.0000
         2.9467          4.9214          0.0000
         3.0433          2.8155          0.0000
         3.1399        -53.2005          0.0000
         3.2365        -29.6533          0.0000
         3.3331         21.8295          0.0000
         3.4297         26.1799          0.0000
         3.5263         16.7182          0.0000
         3.6230         72.7933          0.0000
         3.7196         46.3537          0.0000
         3.8162         44.3757          0.0000
         3.9128        -48.9740          0.0000
         4.0094          7.4471          0.0000
         4.1060         19.0818          0.0000
         4.2026         10.9097          0.0000
         4.2992        -20.3096          0.0000
         4.3958        -74.1275          0.0000
         4.4925       -138.4624          0.0000
         4.5891        -23.8352          0.0000
         4.6857        -23.6041          0.0000
         4.7823         20.5795          0.0000
