@ title  "Pressure (P) and density (D) over 101 frames"
@ xlabel "Z [nm]"
@ ylabel "P [bar] or D [kg/m^3]"
@ s0 legend "P_T"
@ s1 legend "P_N"
        -4.7796          5.7910         64.7016
        -4.6830         24.9877         43.1892
        -4.5864         75.1661         95.0142
        -4.4899         34.9330         57.9176
        -4.3933         27.2253         62.4187
        -4.2968         69.5244         63.0718
        -4.2002        -27.5381         38.1670
        -4.1037         21.1941         30.7029
        -4.0071        -65.4770         41.1647
        -3.9106         14.7904          2.8376
        -3.8140        -45.9368        -19.7855
        -3.7174         11.0160        -10.3734
        -3.6209         16.4038         -2.0412
        -3.5243         15.4846        -14.2384
        -3.4278        -66.7098         -4.2712
        -3.3312        -60.3764         -8.0529
        -3.2347         18.8189         23.2399
        -3.1381         41.4033         28.1013
        -3.0415         61.7749         18.1032
        -2.9450         23.2278         11.4284
        -2.8484        -25.7570         22.4211
        -2.7519        -30.9067         -8.1409
        -2.6553        -67.2585          0.0524
        -2.5588         13.8161         16.7613
        -2.4622         14.8962         45.9058
        -2.3656         14.9101         58.8928
        -2.2691        -52.0879         37.2149
        -2.1725          5.9178         17.3437
        -2.0760        -48.5767         34.8539
        -1.9794         21.3223         12.3447
        -1.8829        -53.4089          9.3010
        -1.7863         44.7330         34.5874
        -1.6897         58.4381         82.2317
        -1.5932        110.1168         95.3706
        -1.4966         42.8054         76.8002
        -1.4001        -20.8766         49.8974
        -1.3035          5.0282         21.5322
        -1.2070        -12.8905         12.3149
        -1.1104        -18.3001          2.9321
        -1.0138        -15.2877         28.7521
        -0.9173         -7.8092         10.7370
        -0.8207        -54.6511         -0.3959
        -0.7242         30.0821         24.5152
        -0.6276        -33.8368         22.1824
        -0.5311        -60.0301         20.7702
        -0.4345         10.0522         19.5233
        -0.3379         67.6323          6.6655
        -0.2414        -32.8546         -6.2113
        -0.1448         -8.3000          0.4090
        -0.0483         38.7974         18.0018
         0.0483         -9.8523         -6.7868
         0.1448        -44.0859        -31.3880
         0.2414        -32.4339        -32.7434
         0.3379         -7.7623        -27.8676
         0.4345        -41.7252        -36.6633
         0.5311        -65.0807        -48.7768
         0.6276        -44.2338        -76.0785
         0.7242        -55.3232        -57.2851
         0.8207        -41.5651        -63.5672
         0.9173        -40.4881        -67.6601
         1.0138        -39.6742        -26.4458
         1.1104        -12.0916         -5.5529
         1.2070        -69.4362        -31.0842
         1.3035         32.6381        -23.1999
         1.4001        -53.5499         19.4227
         1.4966         -2.8333         19.2101
         1.5932         77.0358         12.0364
         1.6897         78.1833         24.9344
         1.7863        -37.5829        -22.1088
         1.8829        -57.5952        -38.8241
         1.9794        -95.3914        -27.3357
         2.0760         20.0714         -8.3226
         2.1725         52.6306        -36.5157
         2.2691         56.2290        -34.2528
         2.3656         33.9080        -27.6319
         2.4622        -10.7132        -76.8693
         2.5588        -30.7418        -46.2500
         2.6553         75.0600        -14.4446
         2.7519         31.0680        -40.7457
         2.8484        -52.4095        -55.6316
         2.9450        -25.8424        -66.2015
         3.0415        -15.1948        -88.0917
         3.1381        -19.8705        -37.5606
         3.2347        -51.3130        -15.7616
         3.3312         -5.3647        -28.5833
         3.4278         -4.2135          2.8718
         3.5243         -3.6220        -10.2163
         3.6209        -24.4874         15.7928
         3.7174         40.4741         10.8003
         3.8140         67.2227         11.6698
         3.9105         37.7173         30.8605
         4.0071         32.3906         20.1207
         4.1037        -12.0079         20.7712
         4.2002          9.7567         14.5496
         4.2968         17.7902         15.4893
         4.3933          1.4971         24.3829
         4.4899        -10.4872         34.5758
         4.5864         14.1954         61.9345
         4.6830         95.1061         75.7393
         4.7796         35.0892         39.8710
