@ title  "Pressure (P) and density (D) over 101 frames"
@ xlabel "Z [nm]"
@ ylabel "P [bar] or D [kg/m^3]"
@ s0 legend "P_T"
@ s1 legend "P_N"
        -4.7805         -5.9395        -27.9642
        -4.6839         38.2306         10.4456
        -4.5873          3.3908         22.8202
        -4.4908         -8.3985         42.6653
        -4.3942         14.4334         33.4908
        -4.2976        -73.5177         10.2611
        -4.2010       -107.3678        -22.8551
        -4.1045        -58.0646        -89.2290
        -4.0079         -4.0956        -52.2993
        -3.9113        100.3552          0.9397
        -3.8147         20.2242          6.6632
        -3.7182         -7.8806         17.5528
        -3.6216         -5.1453         51.4256
        -3.5250         81.5940         48.2224
        -3.4284         56.4681         68.2894
        -3.3319          6.2910        117.5525
        -3.2353        -13.1795        105.6266
        -3.1387        -54.8468         76.2893
        -3.0421         74.2206         54.0854
        -2.9456         17.0519         13.6561
        -2.8490         62.5408        -20.9458
        -2.7524        -80.2379        -72.5380
        -2.6558       -106.5574        -74.1474
        -2.5593        -47.0287        -73.5885
        -2.4627        -37.8594        -32.0827
        -2.3661        -10.2820        -19.5058
        -2.2695        -49.0825         -2.7283
        -2.1730         -8.5847         19.7482
        -2.0764        -25.2249         20.7053
        -1.9798          7.3271          2.5367
        -1.8832         18.6475         19.7060
        -1.7866         10.5833          6.1727
        -1.6901         -0.8569         -3.6956
        -1.5935          8.2681        -28.1018
        -1.4969        -61.9152        -44.3257
        -1.4003        -55.8061        -29.5903
        -1.3038        -21.2516         -1.1379
        -1.2072        -28.0527        -28.6263
        -1.1106        -32.0892        -40.7296
        -1.0140         16.5314        -43.4518
        -0.9175        -41.0918        -24.3972
        -0.8209        -33.5929        -47.1190
        -0.7243        -12.3643        -53.7463
        -0.6277          4.9967        -34.2649
        -0.5312         -9.0006        -26.2602
        -0.4346         -4.3016        -13.6356
        -0.3380        -15.2351          5.5618
        -0.2414        -44.5324          5.8730
        -0.1449          5.8491         -8.9164
        -0.0483         16.2057        -10.6061
         0.0483        -36.9192        -28.0220
         0.1449        -16.7894        -20.8355
         0.2414         20.5665        -11.2395
         0.3380         78.2313         -4.2924
         0.4346         10.4931          5.5012
         0.5312         19.1236          1.3327
         0.6277         34.8432         -8.8949
         0.7243        -20.8358        -49.7220
         0.8209        -91.8852        -55.5262
         0.9175        -58.6239        -68.3018
         1.0140         66.9287        -64.9997
         1.1106        -20.6745        -43.9327
         1.2072         -8.5826        -82.2727
         1.3038        -27.2330          1.6806
         1.4003        -89.7161          7.6746
         1.4969         23.1726          1.6191
         1.5935        -87.5280        -45.5240
         1.6901        -95.7848        -22.0750
         1.7867        -84.2925        -56.0868
         1.8832       -102.5342        -44.1047
         1.9798         37.2583         -2.4215
         2.0764         62.1940        -20.7495
         2.1730        -29.3087         18.8072
         2.2695          3.6103         51.6863
         2.3661        -22.8692         16.4377
         2.4627       -109.8763         -8.8773
         2.5593        -51.9968          5.8864
         2.6558          7.0451        -11.1412
         2.7524        -85.9948        -27.8684
         2.8490        -39.6021        -37.8249
         2.9456         37.6482        -30.3805
         3.0421        -58.2336        -21.1483
         3.1387         13.9536        -14.1191
         3.2353        -23.7887        -23.8142
         3.3319        -28.2014        -37.3303
         3.4284        -52.8094        -49.1105
         3.5250        -20.9732         -7.7405
         3.6216        -75.4575         -2.3079
         3.7182        -31.5052          6.7007
         3.8147        -16.4243         40.8383
         3.9113        -71.8358          2.8500
         4.0079        -16.9564         -2.4205
         4.1045         28.6661          4.0671
         4.2010         32.3831        -13.5011
         4.2976        -43.6214        -41.8981
         4.3942         -6.5278        -44.2880
         4.4908         31.3159         -5.0131
         4.5873         19.0471         -3.5001
         4.6839         20.8346          6.9491
         4.7805         16.0434          7.3771
