@ title  "Pressure (P) and density (D) over 101 frames"
@ xlabel "Z [nm]"
@ ylabel "P [bar] or D [kg/m^3]"
@ s0 legend "P_T"
@ s1 legend "P_N"
        -4.7791        -36.1079          0.0000
        -4.6826        -19.3914          0.0000
        -4.5860        -29.8873          0.0000
        -4.4895          5.7376          0.0000
        -4.3929         93.3017          0.0000
        -4.2964        -73.6187          0.0000
        -4.1998          3.9677          0.0000
        -4.1033         22.8909          0.0000
        -4.0067        -58.4338          0.0000
        -3.9102        -45.0424          0.0000
        -3.8136         23.0331          0.0000
        -3.7171         39.7672          0.0000
        -3.6205         10.8641          0.0000
        -3.5240         56.1722          0.0000
        -3.4274        -35.4843          0.0000
        -3.3309          4.6430          0.0000
        -3.2343         13.9587          0.0000
        -3.1378        -67.5041          0.0000
        -3.0413         14.5911          0.0000
        -2.9447          7.3900          0.0000
        -2.8482          2.3380          0.0000
        -2.7516          7.3392          0.0000
        -2.6551        -21.7962          0.0000
        -2.5585        -12.9684          0.0000
        -2.4620        -74.2131          0.0000
        -2.3654        -49.7204          0.0000
        -2.2689         16.9043          0.0000
        -2.1723        -82.0302          0.0000
        -2.0758       -104.0689          0.0000
        -1.9792        -67.9747          0.0000
        -1.8827         -0.0515          0.0000
        -1.7861         -8.8025          0.0000
        -1.6896        -30.1174          0.0000
        -1.5930          1.3006          0.0000
        -1.4965        -14.2811          0.0000
        -1.3999        -53.0340          0.0000
        -1.3034        -36.2346          0.0000
        -1.2068         14.8424          0.0000
        -1.1103         -2.0638          0.0000
        -1.0138        -27.7177          0.0000
        -0.9172        -44.3683          0.0000
        -0.8207         -5.2133          0.0000
        -0.7241        -33.8807          0.0000
        -0.6276          2.0664          0.0000
        -0.5310        -27.0926          0.0000
        -0.4345         55.6536          0.0000
        -0.3379         -6.0695          0.0000
        -0.2414         41.3249          0.0000
        -0.1448        -33.1088          0.0000
        -0.0483         11.2781          0.0000
         0.0483         17.1397          0.0000
         0.1448          4.2299          0.0000
         0.2414        -15.5231          0.0000
         0.3379        -37.2061          0.0000
         0.4345        -70.2777          0.0000
         0.5310         -5.9499          0.0000
         0.6276        -30.6203          0.0000
         0.7241        -92.8259          0.0000
         0.8207        -41.9166          0.0000
         0.9172        -30.0582          0.0000
         1.0138        -42.2005          0.0000
         1.1103        -25.1968          0.0000
         1.2068        -26.8153          0.0000
         1.3034         88.5430          0.0000
         1.3999          3.3985          0.0000
         1.4965         -2.0741          0.0000
         1.5930         13.7858          0.0000
         1.6896         39.6852          0.0000
         1.7861         -0.2572          0.0000
         1.8827         33.7704          0.0000
         1.9792       -125.0386          0.0000
         2.0758        -28.0467          0.0000
         2.1723        -11.5272          0.0000
         2.2689          9.0647          0.0000
         2.3654        -11.2357          0.0000
         2.4620         46.0009          0.0000
         2.5585         -0.2226          0.0000
         2.6551        -67.1836          0.0000
         2.7516        -68.4299          0.0000
         2.8482          2.1200          0.0000
         2.9447        -67.2765          0.0000
         3.0413        -55.4747          0.0000
         3.1378         -3.1984          0.0000
         3.2343        -59.8699          0.0000
         3.3309         27.4482          0.0000
         3.4274         46.0627          0.0000
         3.5240          6.7724          0.0000
         3.6205        -16.7079          0.0000
         3.7171         45.4405          0.0000
         3.8136         18.1142          0.0000
         3.9102         25.2774          0.0000
         4.0067         29.8041          0.0000
         4.1033         22.0010          0.0000
         4.1998         -4.8872          0.0000
         4.2964         52.6979          0.0000
         4.3929         54.8999          0.0000
         4.4895         36.4352          0.0000
         4.5860        -28.5169          0.0000
         4.6826         59.7143          0.0000
         4.7791        -42.6727          0.0000
