@ title  "Pressure (P) and density (D) over 101 frames"
@ xlabel "Z [nm]"
@ ylabel "P [bar] or D [kg/m^3]"
@ s0 legend "P_T"
@ s1 legend "P_N"
        -4.7774        321.5416        334.0999
        -4.6809        323.9634        330.8893
        -4.5844        331.6273        336.1636
        -4.4879        341.4622        332.6464
        -4.3914        329.2180        322.5372
        -4.2948        333.6237        349.3308
        -4.1983        324.4867        335.1882
        -4.1018        332.7574        334.4631
        -4.0053        330.6646        344.7740
        -3.9088        326.3195        324.0909
        -3.8123        320.8756        340.6048
        -3.7158        317.8867        325.5992
        -3.6192        322.7463        315.1292
        -3.5227        319.3751        320.7310
        -3.4262        313.4449        306.3791
        -3.3297        323.6257        332.1674
        -3.2332        309.8707        318.5967
        -3.1367        314.9477        320.8945
        -3.0402        315.5663        322.3488
        -2.9437        314.6191        330.1506
        -2.8471        324.3547        332.5790
        -2.7506        319.0276        313.6670
        -2.6541        334.0420        329.5973
        -2.5576        330.6592        332.4239
        -2.4611        330.8554        344.1039
        -2.3646        329.1446        331.3251
        -2.2681        325.9807        330.3096
        -2.1715        332.4175        332.2104
        -2.0750        327.4980        325.2852
        -1.9785        318.2618        333.1191
        -1.8820        329.4685        332.4746
        -1.7855        318.8933        314.2155
        -1.6890        303.3156        310.2628
        -1.5925        329.4567        319.2218
        -1.4960        321.3241        333.0238
        -1.3994        317.8248        305.0711
        -1.3029        303.1672        318.5989
        -1.2064        318.2317        315.0372
        -1.1099        320.1993        327.9359
        -1.0134        321.7728        318.2361
        -0.9169        308.2874        298.4540
        -0.8204        323.3700        308.4355
        -0.7238        322.3551        320.9166
        -0.6273        314.1385        328.3059
        -0.5308        315.9529        322.6663
        -0.4343        316.3380        319.1404
        -0.3378        318.7463        321.9731
        -0.2413        329.5025        310.3763
        -0.1448        323.4267        319.4969
        -0.0483        321.3829        323.0771
         0.0483        303.1843        310.6808
         0.1448        324.3872        333.4371
         0.2413        339.9400        329.4013
         0.3378        328.5593        319.8714
         0.4343        317.1610        315.4588
         0.5308        321.1719        318.4550
         0.6273        332.9620        321.7470
         0.7238        331.0201        340.3828
         0.8204        324.4871        311.7410
         0.9169        309.7861        307.9119
         1.0134        328.4754        335.2098
         1.1099        321.9545        314.3002
         1.2064        317.7332        343.3319
         1.3029        307.3789        311.5446
         1.3994        317.7055        314.4563
         1.4960        326.1640        312.0827
         1.5925        321.8545        316.5030
         1.6890        322.7465        336.3992
         1.7855        316.7761        310.6333
         1.8820        326.4857        330.4896
         1.9785        318.7333        321.7495
         2.0750        330.6811        314.9802
         2.1715        315.0420        309.1306
         2.2681        331.3621        325.3000
         2.3646        329.4426        323.5317
         2.4611        323.5171        334.8629
         2.5576        314.6842        320.8233
         2.6541        319.9474        332.8886
         2.7506        332.4064        323.3016
         2.8471        338.2106        333.9270
         2.9437        333.1564        318.3141
         3.0402        318.6883        317.4076
         3.1367        331.5106        324.8730
         3.2332        322.7139        322.8941
         3.3297        330.6795        314.5574
         3.4262        320.1996        308.5000
         3.5227        331.2915        323.9655
         3.6192        319.5169        324.2467
         3.7158        328.7224        318.5513
         3.8123        329.7450        316.5989
         3.9088        315.8726        325.2139
         4.0053        320.7787        319.0186
         4.1018        327.4299        325.3391
         4.1983        318.2135        305.7435
         4.2948        318.3687        322.8958
         4.3914        320.0806        315.8875
         4.4879        316.8944        309.0664
         4.5844        319.0461        332.0103
         4.6809        324.9254        322.1909
         4.7774        321.8051        326.8955
