@ title  "Pressure (P) and density (D) over 101 frames"
@ xlabel "Z [nm]"
@ ylabel "P [bar] or D [kg/m^3]"
@ s0 legend "P_T"
@ s1 legend "P_N"
        -4.7809         61.4083          0.0000
        -4.6843        -40.0412          0.0000
        -4.5877         10.3676          0.0000
        -4.4911          3.7677          0.0000
        -4.3945        -46.3592          0.0000
        -4.2980          1.6571          0.0000
        -4.2014          8.4613          0.0000
        -4.1048        -32.7395          0.0000
        -4.0082          8.1516          0.0000
        -3.9116         32.2823          0.0000
        -3.8150        -21.9295          0.0000
        -3.7185        -23.1368          0.0000
        -3.6219         16.9815          0.0000
        -3.5253          0.5817          0.0000
        -3.4287        -33.6136          0.0000
        -3.3321        -23.7775          0.0000
        -3.2355         23.8401          0.0000
        -3.1390         61.1999          0.0000
        -3.0424         14.8319          0.0000
        -2.9458         85.7103          0.0000
        -2.8492        149.0761          0.0000
        -2.7526          5.6101          0.0000
        -2.6560          1.9850          0.0000
        -2.5595         89.7892          0.0000
        -2.4629         -9.7693          0.0000
        -2.3663        -11.0029          0.0000
        -2.2697        -56.5024          0.0000
        -2.1731        -59.6254          0.0000
        -2.0765        -44.0858          0.0000
        -1.9800        -72.8581          0.0000
        -1.8834        -61.2663          0.0000
        -1.7868         25.5729          0.0000
        -1.6902        -29.1455          0.0000
        -1.5936        -49.7807          0.0000
        -1.4970        -65.5532          0.0000
        -1.4005         16.0636          0.0000
        -1.3039         18.3690          0.0000
        -1.2073        106.3248          0.0000
        -1.1107        -28.0585          0.0000
        -1.0141         48.7834          0.0000
        -0.9175         -8.5669          0.0000
        -0.8210         14.1231          0.0000
        -0.7244        -42.0028          0.0000
        -0.6278         46.7535          0.0000
        -0.5312          2.9085          0.0000
        -0.4346       -113.5188          0.0000
        -0.3380        -54.0876          0.0000
        -0.2415        -57.7643          0.0000
        -0.1449        -40.5473          0.0000
        -0.0483        -13.4465          0.0000
         0.0483        -39.0462          0.0000
         0.1449        -40.4140          0.0000
         0.2415         50.1323          0.0000
         0.3380         -8.7674          0.0000
         0.4346         41.9557          0.0000
         0.5312         49.3925          0.0000
         0.6278        -11.3772          0.0000
         0.7244         -1.3504          0.0000
         0.8210        -55.8217          0.0000
         0.9175          4.5891          0.0000
         1.0141         63.8331          0.0000
         1.1107        -34.4085          0.0000
         1.2073         31.5300          0.0000
         1.3039        -50.3707          0.0000
         1.4005          4.3596          0.0000
         1.4970        -52.5349          0.0000
         1.5936         63.8170          0.0000
         1.6902        -16.3254          0.0000
         1.7868        -18.4046          0.0000
         1.8834        102.8111          0.0000
         1.9800        -16.2024          0.0000
         2.0765        -26.4270          0.0000
         2.1731         71.9292          0.0000
         2.2697          6.3617          0.0000
         2.3663         -7.5895          0.0000
         2.4629         -9.4922          0.0000
         2.5595         18.9780          0.0000
         2.6560         33.1600          0.0000
         2.7526         70.0222          0.0000
         2.8492          1.5232          0.0000
         2.9458        -26.1640          0.0000
         3.0424        -29.1393          0.0000
         3.1390        -21.2756          0.0000
         3.2355          6.8296          0.0000
         3.3321         20.1843          0.0000
         3.4287        -29.8356          0.0000
         3.5253        -41.8427          0.0000
         3.6219        -37.6741          0.0000
         3.7185         15.6662          0.0000
         3.8150         44.0007          0.0000
         3.9116         11.0663          0.0000
         4.0082        -15.2692          0.0000
         4.1048         59.5006          0.0000
         4.2014        -88.4595          0.0000
         4.2980        -15.0219          0.0000
         4.3945        -26.3755          0.0000
         4.4911         -3.9280          0.0000
         4.5877          8.9568          0.0000
         4.6843         94.3739          0.0000
         4.7809        -21.9859          0.0000
