@ title  "Pressure (P) and density (D) over 101 frames"
@ xlabel "Z [nm]"
@ ylabel "P [bar] or D [kg/m^3]"
@ s0 legend "P_T"
@ s1 legend "P_N"
        -4.7779        -45.6782          0.0000
        -4.6813        -26.2269          0.0000
        -4.5848         43.6285          0.0000
        -4.4883        -78.0373          0.0000
        -4.3918         72.7148          0.0000
        -4.2953         -7.5121          0.0000
        -4.1987         13.1027          0.0000
        -4.1022        -19.5090          0.0000
        -4.0057        -36.1283          0.0000
        -3.9092         22.1199          0.0000
        -3.8126         32.3421          0.0000
        -3.7161         27.1593          0.0000
        -3.6196        -21.2611          0.0000
        -3.5231        -22.9181          0.0000
        -3.4266         67.0385          0.0000
        -3.3300         56.3272          0.0000
        -3.2335         56.8248          0.0000
        -3.1370        -24.7544          0.0000
        -3.0405         -4.7074          0.0000
        -2.9439         34.8573          0.0000
        -2.8474         40.1860          0.0000
        -2.7509        -78.4449          0.0000
        -2.6544        -48.7154          0.0000
        -2.5578        -70.1709          0.0000
        -2.4613        -53.3830          0.0000
        -2.3648        -70.3943          0.0000
        -2.2683        -11.7011          0.0000
        -2.1718        -31.6418          0.0000
        -2.0752        -31.0663          0.0000
        -1.9787         25.5457          0.0000
        -1.8822         21.6822          0.0000
        -1.7857        -33.5121          0.0000
        -1.6891         -3.9764          0.0000
        -1.5926        -20.8371          0.0000
        -1.4961        -35.4349          0.0000
        -1.3996         21.4350          0.0000
        -1.3031        -18.8893          0.0000
        -1.2065          0.7893          0.0000
        -1.1100         14.3821          0.0000
        -1.0135        -67.9994          0.0000
        -0.9170          8.8586          0.0000
        -0.8204         73.8404          0.0000
        -0.7239         33.0388          0.0000
        -0.6274         37.8660          0.0000
        -0.5309        -14.1942          0.0000
        -0.4344        -58.3460          0.0000
        -0.3378        -18.3944          0.0000
        -0.2413        -19.6185          0.0000
        -0.1448        -57.6561          0.0000
        -0.0483         61.7748          0.0000
         0.0483         88.7481          0.0000
         0.1448        -36.6098          0.0000
         0.2413         98.0322          0.0000
         0.3378         88.9498          0.0000
         0.4344         17.4114          0.0000
         0.5309         56.6229          0.0000
         0.6274         -1.8078          0.0000
         0.7239         74.1930          0.0000
         0.8204         49.0957          0.0000
         0.9170        -27.7968          0.0000
         1.0135          5.1658          0.0000
         1.1100         27.9957          0.0000
         1.2065          0.4348          0.0000
         1.3031        -12.9222          0.0000
         1.3996         80.3890          0.0000
         1.4961         14.0302          0.0000
         1.5926         65.7664          0.0000
         1.6891         24.3541          0.0000
         1.7857         21.7327          0.0000
         1.8822        -49.2434          0.0000
         1.9787         56.9575          0.0000
         2.0752        -46.7597          0.0000
         2.1718        -58.1197          0.0000
         2.2683        -44.5269          0.0000
         2.3648         74.2991          0.0000
         2.4613        -19.8398          0.0000
         2.5578        -14.7833          0.0000
         2.6544        -20.3427          0.0000
         2.7509        -61.2760          0.0000
         2.8474        -91.9421          0.0000
         2.9439        -40.4461          0.0000
         3.0405        -23.9916          0.0000
         3.1370         -6.8080          0.0000
         3.2335         11.5516          0.0000
         3.3300        -14.2093          0.0000
         3.4265         37.4674          0.0000
         3.5231        -20.8162          0.0000
         3.6196        -14.4403          0.0000
         3.7161          9.4046          0.0000
         3.8126        -37.4641          0.0000
         3.9092         -1.3610          0.0000
         4.0057         56.9289          0.0000
         4.1022          5.1562          0.0000
         4.1987         57.6439          0.0000
         4.2953         23.5174          0.0000
         4.3918          3.5546          0.0000
         4.4883         38.4280          0.0000
         4.5848        -34.3581          0.0000
         4.6813         78.1572          0.0000
         4.7779         61.3368          0.0000
