@ title  "Pressure (P) and density (D) over 101 frames"
@ xlabel "Z [nm]"
@ ylabel "P [bar] or D [kg/m^3]"
@ s0 legend "P_T"
@ s1 legend "P_N"
        -4.7816        -15.4114        -47.5795
        -4.6850        -55.9316          0.1194
        -4.5884        -25.1992          8.9924
        -4.4918         -3.4857         20.4590
        -4.3952         87.6528         31.8849
        -4.2986        -76.5245         -2.9771
        -4.2020         76.1467         33.8895
        -4.1054          3.3446         23.1208
        -4.0088         10.8363         -6.1523
        -3.9122        -27.9098        -11.5944
        -3.8156         85.7202          7.8610
        -3.7190         89.0193         26.6119
        -3.6224         55.9185         17.2935
        -3.5259          5.7068         31.1302
        -3.4293         52.3719         15.7824
        -3.3327         50.2133        -10.6632
        -3.2361        -22.1493        -29.1824
        -3.1395         33.3269        -29.7150
        -3.0429        -18.4264        -31.9784
        -2.9463         47.2708          3.4323
        -2.8497         -2.5159        -10.8397
        -2.7531          2.7051        -26.8748
        -2.6565       -118.5534        -40.0578
        -2.5599        -68.2730        -64.4825
        -2.4633         -3.3397        -34.5570
        -2.3667        102.3095          0.9245
        -2.2701        -16.7805         10.4217
        -2.1735        -31.4179         -3.5128
        -2.0769         14.5405         -3.4632
        -1.9803         29.6789         13.4445
        -1.8837        -39.1588        -26.7628
        -1.7871         25.0633        -47.5358
        -1.6905        -12.5689        -52.9596
        -1.5939        -12.8604        -65.7235
        -1.4973         23.6054        -68.1430
        -1.4007         52.9086        -35.0304
        -1.3041         -9.0199        -23.9551
        -1.2075        -29.0837        -22.0250
        -1.1109        -43.4688          4.1061
        -1.0143         31.9034          8.5398
        -0.9177         -9.3058        -10.7531
        -0.8211         -0.2861         22.2818
        -0.7245         35.4141         20.9123
        -0.6279        -92.5580         -0.0239
        -0.5313        -37.0910          7.3460
        -0.4347        -66.0280          0.3555
        -0.3381         44.8189          6.3641
        -0.2415         34.6806        -13.1270
        -0.1449         10.9419        -35.0781
        -0.0483        -29.5865        -21.8975
         0.0483        -13.6968        -69.5473
         0.1449        -30.6043        -46.5018
         0.2415         -6.2558        -27.3847
         0.3381         55.9983        -13.0141
         0.4347        -45.9047         -2.1804
         0.5313        -45.7561        -14.2265
         0.6279        -43.8278        -48.8543
         0.7245        -11.7110        -44.9258
         0.8211        -17.8650        -53.4956
         0.9177        -53.4472        -87.8065
         1.0143         -8.4049        -66.4317
         1.1109          8.9452        -24.1991
         1.2075         13.8117         -4.8889
         1.3041         23.8126         -9.9481
         1.4007         48.3858         17.5287
         1.4973          1.9449         23.5091
         1.5939        -18.8005         15.9059
         1.6905         23.4424         -1.8476
         1.7871        -51.6727        -26.3084
         1.8837        -78.7000        -31.6412
         1.9803         -1.8063        -46.5948
         2.0769        -28.5709        -58.6479
         2.1735        -30.6726        -46.2079
         2.2701         74.3505        -65.0234
         2.3667         22.3386        -63.5071
         2.4633        -63.8047        -84.7548
         2.5599        -39.9057        -44.4129
         2.6565         30.6309         -0.3191
         2.7531         27.2284         22.3902
         2.8497         53.2986         39.8906
         2.9463         96.7311         49.2405
         3.0429         65.3647         12.2088
         3.1395         25.0885          3.2584
         3.2361         94.4841          4.1743
         3.3326          4.5681        -16.0996
         3.4292         19.3284        -39.9554
         3.5258         -1.1056        -26.9715
         3.6224         -8.8177         19.9084
         3.7190        -20.8822        -18.2792
         3.8156          4.2931          3.7005
         3.9122         85.3059          8.6304
         4.0088        -29.0471        -15.9013
         4.1054        -33.4536        -17.8443
         4.2020        119.5018        -19.9486
         4.2986         19.1292        -25.3021
         4.3952        -29.4405        -14.2379
         4.4918        -30.5046        -37.4684
         4.5884         -3.5164        -31.9611
         4.6850        -53.9696        -65.0721
         4.7816        -25.2183        -75.7324
