@ title  "Pressure (P) and density (D) over 101 frames"
@ xlabel "Z [nm]"
@ ylabel "P [bar] or D [kg/m^3]"
@ s0 legend "P_T"
@ s1 legend "P_N"
        -4.7803        -72.9736         15.1805
        -4.6838        -31.2031         12.7209
        -4.5872        -56.0621        -16.7020
        -4.4906          0.9467        -32.2423
        -4.3940        -43.4277        -27.4468
        -4.2975         16.7265        -46.4273
        -4.2009         -6.8661         -8.8237
        -4.1043        -11.4098        -32.0923
        -4.0078         10.8823        -14.7280
        -3.9112        -24.6593          8.7250
        -3.8146         27.8005         40.6101
        -3.7180         41.2073         22.4735
        -3.6215        -27.4074         14.6882
        -3.5249        -67.0106        -28.6942
        -3.4283        -47.7849        -33.3740
        -3.3317        -49.1993        -31.1519
        -3.2352        -37.3742        -21.5313
        -3.1386        -23.2467          1.8224
        -3.0420        -90.3546        -10.8547
        -2.9455        -56.6599          8.3697
        -2.8489         10.6681         11.9766
        -2.7523        -39.6309         24.3338
        -2.6557         44.0298          6.5757
        -2.5592        -58.9923          5.5072
        -2.4626         21.7804         12.2079
        -2.3660          8.1425        -39.2062
        -2.2695        -92.4302        -59.5364
        -2.1729        -97.3590        -68.7823
        -2.0763        -32.1385        -22.3273
        -1.9797         32.9349         27.8588
        -1.8832         -6.9688         11.8651
        -1.7866        -19.1051         13.7751
        -1.6900        -61.6892         -9.4788
        -1.5934        -17.7642        -33.0086
        -1.4969        -19.5778        -59.0407
        -1.4003        -38.9830        -73.8507
        -1.3037        -38.9488        -58.3380
        -1.2072        -75.2203        -54.9984
        -1.1106         62.7092        -56.6576
        -1.0140        102.6585          4.5554
        -0.9174        -34.1702          2.3189
        -0.8209        -74.0043         11.9304
        -0.7243         -1.4367         -1.2186
        -0.6277         89.0344        -31.7479
        -0.5311        -22.8705        -55.3076
        -0.4346        -47.3327        -88.7751
        -0.3380       -112.6516        -51.7279
        -0.2414         33.5922        -16.2373
        -0.1449         28.0379        -11.3644
        -0.0483         10.3546         15.3009
         0.0483         14.2362         51.2220
         0.1449        -41.1257         10.0677
         0.2414        -11.3883        -13.2301
         0.3380        -59.5690        -40.7981
         0.4346        -83.9663        -45.5722
         0.5311         23.3915         -1.6477
         0.6277        -94.1468        -37.5700
         0.7243        -38.7637        -22.4658
         0.8209        -24.2492        -19.3567
         0.9174         79.4937         -3.3458
         1.0140         97.2949          1.0808
         1.1106        -38.7345          7.6657
         1.2072       -127.9927         -9.0638
         1.3037        -39.7107         21.4538
         1.4003         29.9065         32.7842
         1.4969          2.3039         -5.3430
         1.5934         23.7087          0.4136
         1.6900         35.3079         12.2504
         1.7866       -139.9969        -21.3372
         1.8832        -75.6838        -22.8056
         1.9797          4.6052         -8.2135
         2.0763        -21.6411        -19.4142
         2.1729        -52.9383         56.7808
         2.2695         44.3154         65.0784
         2.3660         82.6612         65.2528
         2.4626         85.0402         52.7414
         2.5592         42.4333         38.5920
         2.6557          2.7864         -6.3692
         2.7523         -2.5067          2.8001
         2.8489          4.2330          7.2007
         2.9455         60.4555         30.7607
         3.0420         47.2404         69.1109
         3.1386        -36.3092         64.2699
         3.2352        -10.0308         35.9335
         3.3318         66.8240         28.9148
         3.4283         41.3595        -45.6340
         3.5249        -23.7557        -56.0564
         3.6215         30.5278        -74.9918
         3.7180        -30.8552        -88.2887
         3.8146        -63.2249        -57.9837
         3.9112        -41.1649        -65.6486
         4.0078        -54.9940        -34.2541
         4.1043         -9.7651         -5.3734
         4.2009        -27.1341        -10.8757
         4.2975        -17.7202        -21.8702
         4.3940       -116.9160        -19.4054
         4.4906        -42.5685         -5.9375
         4.5872         30.5891          7.9549
         4.6838         10.9562         19.9906
         4.7803        -10.1836         26.3975
