@ title  "Pressure (P) and density (D) over 101 frames"
@ xlabel "Z [nm]"
@ ylabel "P [bar] or D [kg/m^3]"
@ s0 legend "P_T"
@ s1 legend "P_N"
        -4.7810        304.2401        316.5670
        -4.6844        314.3830        321.3253
        -4.5878        319.7812        320.8098
        -4.4912        333.6700        319.3115
        -4.3946        326.2169        328.2309
        -4.2981        323.0003        304.8202
        -4.2015        324.1313        315.8763
        -4.1049        320.3947        315.4607
        -4.0083        317.9533        332.2092
        -3.9117        331.4732        324.3621
        -3.8151        318.8788        323.5064
        -3.7185        326.0074        327.0785
        -3.6220        326.8583        304.2927
        -3.5254        317.8358        322.2849
        -3.4288        320.2457        331.7021
        -3.3322        317.3969        307.0084
        -3.2356        323.0412        316.2701
        -3.1390        323.5540        315.0505
        -3.0424        306.2937        307.1437
        -2.9459        315.5487        312.9416
        -2.8493        317.6684        305.8843
        -2.7527        319.9380        314.2054
        -2.6561        317.1841        320.9689
        -2.5595        318.4577        321.0449
        -2.4629        319.1021        335.8145
        -2.3663        321.9055        319.7855
        -2.2698        324.1230        317.7666
        -2.1732        324.2831        328.0171
        -2.0766        329.1485        308.9744
        -1.9800        322.7705        325.0340
        -1.8834        316.7673        314.1151
        -1.7868        316.1403        318.8756
        -1.6902        325.7142        316.7375
        -1.5937        337.6095        331.6797
        -1.4971        326.7077        334.4919
        -1.4005        321.1519        331.5207
        -1.3039        312.2921        308.2450
        -1.2073        327.2224        329.2410
        -1.1107        327.5731        324.1386
        -1.0141        321.1838        318.2107
        -0.9176        307.8204        321.5755
        -0.8210        329.7705        322.3508
        -0.7244        327.8612        324.2825
        -0.6278        320.5762        328.4257
        -0.5312        320.9667        319.3401
        -0.4346        326.3181        321.9455
        -0.3380        321.7878        320.0706
        -0.2415        329.2363        326.9617
        -0.1449        318.5016        336.6314
        -0.0483        321.9750        322.2736
         0.0483        331.5609        330.6438
         0.1449        331.3396        338.9361
         0.2415        330.5280        314.5627
         0.3380        309.2766        326.8803
         0.4346        314.3235        306.7643
         0.5312        338.5886        327.7399
         0.6278        317.1762        331.6027
         0.7244        314.2963        311.9406
         0.8210        309.6085        310.1131
         0.9176        315.6775        313.5068
         1.0141        326.9895        316.8742
         1.1107        333.0380        326.2528
         1.2073        331.6401        320.8592
         1.3039        327.6564        316.3828
         1.4005        335.0207        338.8170
         1.4971        328.3591        333.6646
         1.5937        316.7536        325.1785
         1.6902        332.6500        321.7369
         1.7868        332.1983        334.5134
         1.8834        315.7113        314.5863
         1.9800        320.0793        335.7507
         2.0766        311.2417        313.9338
         2.1732        307.5880        304.1870
         2.2698        324.6100        318.4037
         2.3663        315.0344        309.5233
         2.4629        311.0241        326.8690
         2.5595        300.2233        315.3555
         2.6561        320.7869        310.6147
         2.7527        326.1318        316.1792
         2.8493        328.4663        327.5071
         2.9459        330.8333        320.5451
         3.0424        321.1136        307.9670
         3.1390        318.4980        313.4607
         3.2356        326.1545        336.9257
         3.3322        337.6961        347.4892
         3.4288        318.0268        337.5421
         3.5254        323.2643        327.4599
         3.6220        327.1424        316.8745
         3.7185        322.4940        324.3883
         3.8151        331.0748        324.5094
         3.9117        312.7599        312.5319
         4.0083        322.5320        321.1918
         4.1049        309.3969        315.0557
         4.2015        315.6662        312.4872
         4.2981        326.4239        321.0938
         4.3946        299.0322        304.4962
         4.4912        319.0437        329.2650
         4.5878        322.1841        312.0043
         4.6844        329.7313        319.2423
         4.7810        316.4390        321.0064
