@ title  "Pressure (P) and density (D) over 101 frames"
@ xlabel "Z [nm]"
@ ylabel "P [bar] or D [kg/m^3]"
@ s0 legend "P_T"
@ s1 legend "P_N"
        -4.7831         64.6201        -10.3408
        -4.6865         40.8178         21.5006
        -4.5899        -11.4818         22.5663
        -4.4932        -31.2101         11.8146
        -4.3966         25.2592         -6.7462
        -4.3000         12.5044        -30.3922
        -4.2034        -85.4338        -38.4962
        -4.1067        -15.4668         -2.0581
        -4.0101        -14.7112         17.4355
        -3.9135        -55.8288          1.3250
        -3.8168       -113.6329         -5.4974
        -3.7202       -152.6852        -29.6909
        -3.6236        -44.4677        -34.5145
        -3.5270         -0.5321        -25.4892
        -3.4303         17.6238        -25.5609
        -3.3337        -14.5841         10.1859
        -3.2371        -12.8462         -8.0903
        -3.1404         62.6394          7.4463
        -3.0438        -78.4390         11.3990
        -2.9472         55.1872         10.6966
        -2.8505         -4.3699         -2.0327
        -2.7539         37.3039          2.6508
        -2.6573         61.6364         26.5561
        -2.5607         46.4413         44.5854
        -2.4640         65.7873         38.4270
        -2.3674          9.3520         46.0193
        -2.2708         24.0916         36.5504
        -2.1741        -47.1712          5.5093
        -2.0775        -82.1883          5.9814
        -1.9809        -48.2761         13.6676
        -1.8843         -6.6770          8.9125
        -1.7876        -35.5054         21.0651
        -1.6910         -8.5527         19.3084
        -1.5944          1.4099          7.4993
        -1.4977        -40.8481         28.5625
        -1.4011         24.9795         51.5977
        -1.3045         16.2204         54.0747
        -1.2079         35.7880         77.7160
        -1.1112         36.9671         80.8795
        -1.0146         15.1914         78.7883
        -0.9180          4.5965         72.4096
        -0.8213         34.3972         86.2872
        -0.7247         -7.0917         29.6603
        -0.6281        -26.1831         27.0530
        -0.5315        -42.4779         21.2863
        -0.4348         78.5635         49.2307
        -0.3382        -11.9618         21.8081
        -0.2416        -44.3848        -28.8729
        -0.1449         -9.7231        -21.2368
        -0.0483         79.9077          8.6419
         0.0483         36.1954         16.4000
         0.1449         21.6752         -0.4395
         0.2416        -90.5914         23.0498
         0.3382        -69.3552         -9.0850
         0.4348        -83.2848        -62.1054
         0.5315        -56.2322        -33.6676
         0.6281        -32.2310        -25.2732
         0.7247        -25.7139        -19.7581
         0.8213        -75.0211        -15.1695
         0.9180          4.1228         22.8362
         1.0146        -41.2871         28.7176
         1.1112        -44.2455        -13.5656
         1.2079        -34.5935        -18.2058
         1.3045         45.3975         41.6789
         1.4011         -4.7343        -14.0126
         1.4977        -49.7584        -36.1617
         1.5944          6.5516        -21.2742
         1.6910         15.4504        -17.8171
         1.7876         73.5821          7.4267
         1.8843         74.6603         -1.3346
         1.9809          8.9060         20.7594
         2.0775         44.5412         35.1865
         2.1741         34.9957         38.0961
         2.2708        -31.2217         50.0273
         2.3674        -10.8336         69.8597
         2.4640        -56.0589         35.3648
         2.5607        -32.5486        -23.2974
         2.6573        -73.1368        -55.6454
         2.7539        -22.4314        -60.5904
         2.8505        -58.5200        -49.3801
         2.9472       -139.3746        -57.8042
         3.0438        -65.6967        -58.8905
         3.1404        -46.5973        -29.0197
         3.2371         50.3600         23.0855
         3.3337         82.8686         10.8035
         3.4303        -18.0284         -3.9374
         3.5269        -13.9324        -25.4773
         3.6236         19.6249        -37.3648
         3.7202        -10.9385        -14.3782
         3.8168         24.0209        -14.1791
         3.9135         49.1675         23.4127
         4.0101         19.7506         41.5011
         4.1067         -9.1990         40.5193
         4.2034         52.8299          8.9236
         4.3000         17.2731          4.0657
         4.3966          0.0350          1.2044
         4.4932        -17.1817        -11.5094
         4.5899        -23.8520        -26.8032
         4.6865        -50.0291        -34.2198
         4.7831         -0.0750        -40.6950
