@ title  "Pressure (P) and density (D) over 101 frames"
@ xlabel "Z [nm]"
@ ylabel "P [bar] or D [kg/m^3]"
@ s0 legend "P_T"
@ s1 legend "P_N"
        -4.7816        -19.2225          0.0000
        -4.6850         90.1749          0.0000
        -4.5884         28.8692          0.0000
        -4.4918         -3.6481          0.0000
        -4.3952        -10.9195          0.0000
        -4.2986         28.2912          0.0000
        -4.2020        -11.4742          0.0000
        -4.1054        -26.5022          0.0000
        -4.0088         91.4479          0.0000
        -3.9122        -27.2556          0.0000
        -3.8156        -37.1705          0.0000
        -3.7190        -45.7876          0.0000
        -3.6224        -32.2807          0.0000
        -3.5258        -56.2975          0.0000
        -3.4292        -15.4674          0.0000
        -3.3326          6.3757          0.0000
        -3.2360          1.9273          0.0000
        -3.1394         28.8608          0.0000
        -3.0428        -14.1803          0.0000
        -2.9462         -9.4566          0.0000
        -2.8496         26.0675          0.0000
        -2.7530         89.6382          0.0000
        -2.6564        -35.8526          0.0000
        -2.5598         53.8333          0.0000
        -2.4632         23.5274          0.0000
        -2.3666        129.0439          0.0000
        -2.2700         52.3760          0.0000
        -2.1734         -8.1851          0.0000
        -2.0768        -23.6090          0.0000
        -1.9802        -28.4908          0.0000
        -1.8836         19.5836          0.0000
        -1.7870          3.7216          0.0000
        -1.6904        -45.7239          0.0000
        -1.5938        -61.1827          0.0000
        -1.4973        -14.1923          0.0000
        -1.4007         40.8562          0.0000
        -1.3041         30.0149          0.0000
        -1.2075         61.5558          0.0000
        -1.1109        -51.8724          0.0000
        -1.0143         69.8775          0.0000
        -0.9177         79.4271          0.0000
        -0.8211        -39.3617          0.0000
        -0.7245         25.9740          0.0000
        -0.6279         84.7321          0.0000
        -0.5313        114.4378          0.0000
        -0.4347        -14.4190          0.0000
        -0.3381        -19.1033          0.0000
        -0.2415         18.6832          0.0000
        -0.1449         19.2685          0.0000
        -0.0483          4.1798          0.0000
         0.0483          1.0452          0.0000
         0.1449        -14.1238          0.0000
         0.2415          4.0029          0.0000
         0.3381        -97.2446          0.0000
         0.4347        -33.0919          0.0000
         0.5313        -18.0771          0.0000
         0.6279        -42.9745          0.0000
         0.7245         13.7385          0.0000
         0.8211         34.0664          0.0000
         0.9177        -14.5267          0.0000
         1.0143          6.0202          0.0000
         1.1109        -63.3214          0.0000
         1.2075        -64.3432          0.0000
         1.3041        -74.9239          0.0000
         1.4007        -50.6481          0.0000
         1.4973        -21.7962          0.0000
         1.5939        -57.4848          0.0000
         1.6904        -20.0423          0.0000
         1.7870         34.3934          0.0000
         1.8836         -7.0053          0.0000
         1.9802         -4.5163          0.0000
         2.0768        166.9838          0.0000
         2.1734         59.9620          0.0000
         2.2700         46.4252          0.0000
         2.3666         -2.9137          0.0000
         2.4632         -4.9691          0.0000
         2.5598         -6.8155          0.0000
         2.6564          0.1656          0.0000
         2.7530         49.1194          0.0000
         2.8496         24.1209          0.0000
         2.9462         49.2633          0.0000
         3.0428        -39.5556          0.0000
         3.1394        -60.4900          0.0000
         3.2360        -48.9935          0.0000
         3.3326         45.3402          0.0000
         3.4292         27.7055          0.0000
         3.5258         45.1513          0.0000
         3.6224        -35.2821          0.0000
         3.7190        -26.8402          0.0000
         3.8156         30.7889          0.0000
         3.9122         34.2331          0.0000
         4.0088         44.7311          0.0000
         4.1054        -14.4928          0.0000
         4.2020        -18.7115          0.0000
         4.2986          3.5788          0.0000
         4.3952         25.0440          0.0000
         4.4918         -5.4811          0.0000
         4.5884         65.2424          0.0000
         4.6850         50.7452          0.0000
         4.7816        -27.0490          0.0000
