@ title  "Pressure (P) and density (D) over 101 frames"
@ xlabel "Z [nm]"
@ ylabel "P [bar] or D [kg/m^3]"
@ s0 legend "P_T"
@ s1 legend "P_N"
        -4.7831         66.1785          0.0000
        -4.6865         21.3442          0.0000
        -4.5899         23.3390          0.0000
        -4.4932        -57.6760          0.0000
        -4.3966        -32.7408          0.0000
        -4.3000         37.7502          0.0000
        -4.2034        -58.5638          0.0000
        -4.1067        -11.0813          0.0000
        -4.0101        -50.1488          0.0000
        -3.9135        -22.0827          0.0000
        -3.8168       -119.6700          0.0000
        -3.7202       -118.8586          0.0000
        -3.6236        -27.8209          0.0000
        -3.5270        -27.3336          0.0000
        -3.4303        -38.0211          0.0000
        -3.3337         21.6172          0.0000
        -3.2371        -11.6132          0.0000
        -3.1404         31.5411          0.0000
        -3.0438        -26.4136          0.0000
        -2.9472         13.7937          0.0000
        -2.8505         -1.6280          0.0000
        -2.7539         62.0871          0.0000
        -2.6573         58.8716          0.0000
        -2.5607         29.9204          0.0000
        -2.4640         64.4464          0.0000
        -2.3674          0.7940          0.0000
        -2.2708         46.2526          0.0000
        -2.1741        -59.2989          0.0000
        -2.0775        -48.3811          0.0000
        -1.9809        -43.9926          0.0000
        -1.8843        -96.7137          0.0000
        -1.7876         30.2817          0.0000
        -1.6910         32.7183          0.0000
        -1.5944        -29.4080          0.0000
        -1.4977        -35.0195          0.0000
        -1.4011         -5.9745          0.0000
        -1.3045         33.6780          0.0000
        -1.2079         31.1060          0.0000
        -1.1112         22.9213          0.0000
        -1.0146         29.4247          0.0000
        -0.9180         29.5018          0.0000
        -0.8213        -37.9813          0.0000
        -0.7247         14.7417          0.0000
        -0.6281         22.1340          0.0000
        -0.5315        -10.0454          0.0000
        -0.4348        -39.3421          0.0000
        -0.3382         21.8424          0.0000
        -0.2416        -11.4452          0.0000
        -0.1449         34.3498          0.0000
        -0.0483         27.5091          0.0000
         0.0483         36.2740          0.0000
         0.1449         -6.9037          0.0000
         0.2416        -58.5154          0.0000
         0.3382        -72.5297          0.0000
         0.4348        -73.3743          0.0000
         0.5315        -64.9218          0.0000
         0.6281        -59.5014          0.0000
         0.7247         -5.6883          0.0000
         0.8213        -10.1324          0.0000
         0.9180        -59.3482          0.0000
         1.0146        -80.5443          0.0000
         1.1112         36.1493          0.0000
         1.2079        -51.5928          0.0000
         1.3045         -5.8810          0.0000
         1.4011         -9.4035          0.0000
         1.4977        -15.7188          0.0000
         1.5944         49.8127          0.0000
         1.6910         24.1072          0.0000
         1.7876         32.4608          0.0000
         1.8843         34.5568          0.0000
         1.9809         35.8713          0.0000
         2.0775         55.5530          0.0000
         2.1741         23.1662          0.0000
         2.2708          1.4845          0.0000
         2.3674        -77.0189          0.0000
         2.4640        -56.6291          0.0000
         2.5607          9.5427          0.0000
         2.6573        -36.3736          0.0000
         2.7539        -66.8790          0.0000
         2.8505        -72.0820          0.0000
         2.9472       -105.5542          0.0000
         3.0438        -96.6238          0.0000
         3.1404        -11.9415          0.0000
         3.2371         36.7279          0.0000
         3.3337         60.0536          0.0000
         3.4303        -20.6389          0.0000
         3.5269        -14.1086          0.0000
         3.6236         41.0774          0.0000
         3.7202          5.1910          0.0000
         3.8168         38.7099          0.0000
         3.9135         17.5794          0.0000
         4.0101         -0.0025          0.0000
         4.1067         -7.7313          0.0000
         4.2034         61.3627          0.0000
         4.3000         38.1340          0.0000
         4.3966        -27.7382          0.0000
         4.4932        -32.4791          0.0000
         4.5899        -22.6718          0.0000
         4.6865         -8.1219          0.0000
         4.7831          5.8054          0.0000
