@ title  "Pressure (P) and density (D) over 101 frames"
@ xlabel "Z [nm]"
@ ylabel "P [bar] or D [kg/m^3]"
@ s0 legend "P_T"
@ s1 legend "P_N"
        -4.7813        321.2951        327.9822
        -4.6847        325.4994        321.3228
        -4.5882        342.4835        332.3300
        -4.4916        321.7790        324.9059
        -4.3950        325.9211        335.8050
        -4.2984        329.5291        333.5504
        -4.2018        323.3427        330.4350
        -4.1052        328.6030        327.6060
        -4.0086        326.8063        312.7858
        -3.9120        340.4068        325.8649
        -3.8154        330.4271        325.2558
        -3.7188        319.2776        334.5651
        -3.6222        324.3087        324.8831
        -3.5256        324.9559        317.8726
        -3.4290        323.5908        318.7492
        -3.3324        329.7119        321.4586
        -3.2359        326.9850        318.1581
        -3.1393        317.3250        306.8721
        -3.0427        321.3407        333.1787
        -2.9461        326.5108        322.3734
        -2.8495        312.8405        323.6022
        -2.7529        315.2649        306.3276
        -2.6563        317.9539        305.8529
        -2.5597        329.6546        329.7073
        -2.4631        318.7073        320.2104
        -2.3665        314.3506        320.2640
        -2.2699        328.1508        319.4676
        -2.1733        320.6331        314.3700
        -2.0767        331.3096        336.5253
        -1.9802        320.0473        330.7826
        -1.8836        324.4573        316.0872
        -1.7870        320.6983        333.3416
        -1.6904        316.9539        324.5680
        -1.5938        326.7915        328.4269
        -1.4972        316.8835        325.6321
        -1.4006        324.2354        317.1196
        -1.3040        334.1077        329.1811
        -1.2074        334.6172        322.7285
        -1.1108        317.1419        319.4468
        -1.0142        325.2429        338.2283
        -0.9176        334.6216        321.4156
        -0.8210        334.3553        336.8328
        -0.7244        325.1509        330.2899
        -0.6279        321.1685        316.0322
        -0.5313        334.4049        329.5627
        -0.4347        332.7019        326.2176
        -0.3381        326.0737        325.5954
        -0.2415        322.2652        317.2785
        -0.1449        321.4081        313.1339
        -0.0483        326.2540        325.9130
         0.0483        317.8126        336.8559
         0.1449        321.5035        328.8006
         0.2415        315.2050        306.6429
         0.3381        331.9044        341.3507
         0.4347        330.9055        353.2244
         0.5313        325.5552        322.5508
         0.6279        326.3878        326.5043
         0.7244        298.7745        298.0751
         0.8210        330.0538        339.6439
         0.9176        337.5533        335.1621
         1.0142        318.3539        311.0205
         1.1108        315.8401        305.9111
         1.2074        321.3329        317.1864
         1.3040        332.8226        326.5623
         1.4006        325.5685        329.9971
         1.4972        317.7111        333.8520
         1.5938        310.9625        311.2306
         1.6904        324.8791        333.9244
         1.7870        334.1824        337.7815
         1.8836        321.8164        327.3175
         1.9801        317.7162        334.2163
         2.0767        326.7216        338.2820
         2.1733        331.5584        329.2704
         2.2699        341.5688        331.3434
         2.3665        315.8239        302.6813
         2.4631        318.3379        316.2554
         2.5597        327.3729        333.3861
         2.6563        320.3418        325.7193
         2.7529        328.8289        328.0360
         2.8495        299.9468        300.9503
         2.9461        319.9640        317.7762
         3.0427        319.1149        324.4409
         3.1393        315.6326        299.4974
         3.2359        317.5821        328.7682
         3.3324        314.8062        320.1381
         3.4290        320.1325        315.7913
         3.5256        321.1945        323.6228
         3.6222        318.1754        314.2480
         3.7188        319.8679        320.2882
         3.8154        330.5627        315.2443
         3.9120        322.3453        328.5459
         4.0086        314.8020        317.2708
         4.1052        314.0800        323.0158
         4.2018        314.8524        311.7660
         4.2984        320.8840        320.8451
         4.3950        316.4298        317.9575
         4.4916        330.8878        315.1173
         4.5881        311.7260        316.5579
         4.6847        329.0177        310.2567
         4.7813        324.2595        330.8697
