#  Job_num       Pt_tot       Pn_tot       Pt_cfg       Pn_cfg       Pt_kin       Pn_kin
       000       3.6021       9.3279    -319.0965    -312.8180     322.6985     322.1460
       001       3.0364      -2.1414    -319.1435    -324.4930     322.1805     322.3520
       002     -14.4888      -8.5331    -336.9190    -330.9770     322.4300     322.4440
       003       3.4703      -0.9936    -319.3935    -322.2960     322.8635     321.3030
       004      -0.1423       0.8282    -323.5700    -322.5390     323.4280     323.3670
       005      -0.6181       5.5588    -322.1050    -317.1820     321.4865     322.7410
       006      15.1350      20.0457    -307.7685    -302.3290     322.9035     322.3740
       007      -1.5416      -3.4500    -324.0935    -326.2830     322.5520     322.8330
       008       6.1941       0.9762    -314.8805    -321.2680     321.0750     322.2440
       009      -9.1373     -16.4637    -331.8555    -339.9850     322.7185     323.5210
       010       2.0213      -5.1064    -319.0520    -327.2630     321.0735     322.1560
       011       2.4658     -16.1021    -318.2750    -337.7050     320.7405     321.6020
       012       8.1788      13.8674    -314.1090    -308.2180     322.2880     322.0850
       013      -2.6890      -9.1066    -324.6285    -330.2610     321.9395     321.1540
       014      10.0682      -0.6621    -312.7470    -322.5350     322.8150     321.8730
       015       3.2114      -2.2124    -318.7595    -324.4640     321.9710     322.2510
       016      -2.6980       6.7929    -324.5625    -315.0660     321.8645     321.8590
       017       4.7589      -0.5616    -316.7895    -322.9490     321.5485     322.3880
       018      -4.4802       1.9407    -326.9990    -321.0480     322.5190     322.9890
       019       4.1878      -1.5340    -317.3965    -323.1250     321.5850     321.5910
       020       2.2016      -4.8413    -320.3395    -327.0590     322.5410     322.2170
       021      -0.3582      -2.2532    -322.6015    -323.4630     322.2435     321.2100
       022       3.0004       2.8674    -320.4220    -318.7770     323.4225     321.6440
       023      -3.3753       4.3905    -327.2640    -319.0190     323.8890     323.4090
       024       0.5962      -5.1083    -321.7030    -326.0570     322.2995     320.9490
       025     -22.1921     -21.9273    -345.1095    -342.8010     322.9180     320.8730
       026     -10.3933      -5.8774    -333.2790    -327.6200     322.8855     321.7430
       027       3.7027       6.0657    -319.4475    -317.8320     323.1500     323.8970
       028      -9.6320      -4.0439    -331.8120    -326.5160     322.1800     322.4720
       029       1.9004      -4.2332    -320.2810    -326.6730     322.1820     322.4400
       030      -4.7359      10.7488    -326.4330    -310.2540     321.6975     321.0020
       031      17.5178       9.8302    -304.5810    -312.1810     322.0985     322.0120
       032       2.4977       0.6272    -319.7960    -321.1410     322.2940     321.7680
       033       6.6529       8.0822    -315.5365    -314.4510     322.1890     322.5330
       034     -14.1745      -9.5693    -336.4605    -331.4810     322.2860     321.9120
       035      -5.5378       2.9516    -327.7610    -318.6340     322.2235     321.5860
       036       4.2657      -1.7484    -318.5500    -324.9210     322.8160     323.1730
       037       2.1069       4.2248    -318.8620    -317.0840     320.9690     321.3090
       038       8.3423      15.7295    -314.1005    -305.4760     322.4425     321.2060
       039      -7.6326       5.6245    -328.7440    -316.2890     321.1110     321.9130
       040       5.8094       6.8383    -316.4645    -314.7480     322.2735     321.5860
       041       4.6990      17.8210    -317.9705    -304.5980     322.6690     322.4190
       042      -1.1894       5.7058    -323.1355    -317.6150     321.9460     323.3210
       043      15.5029       8.4153    -306.1805    -311.8850     321.6840     320.3000
       044       4.3991       2.4672    -318.6315    -319.5270     323.0305     321.9940
       045       8.1478       5.9869    -314.4725    -316.9440     322.6200     322.9310
       046       4.8331       2.8460    -317.5710    -317.8580     322.4040     320.7040
       047      -2.6808      -7.4784    -324.7350    -329.3710     322.0540     321.8930
       048      -5.2472     -15.2003    -326.8190    -337.3440     321.5720     322.1430
       049       0.2235       5.4748    -322.4520    -316.7580     322.6755     322.2330
       AVG       0.7957       0.7378    -321.4730    -321.3440     322.2690     322.0810
