@ title  "Pressure (P) and density (D) over 101 frames"
@ xlabel "Z [nm]"
@ ylabel "P [bar] or D [kg/m^3]"
@ s0 legend "P_T"
@ s1 legend "P_N"
       -10.1594         21.3676          0.0000
        -9.9541        -37.0723          0.0000
        -9.7489         29.4005          0.0000
        -9.5437         -0.1073          0.0000
        -9.3384         34.5162          0.0000
        -9.1332        -34.5890          0.0000
        -8.9279         19.2692          0.0000
        -8.7227         47.8615          0.0000
        -8.5175         20.7560          0.0000
        -8.3122        -31.1106          0.0000
        -8.1070        -74.7177          0.0000
        -7.9017        -38.7887          0.0000
        -7.6965        -38.8400          0.0000
        -7.4913         -2.0089          0.0000
        -7.2860         35.7192          0.0000
        -7.0808        -66.5368          0.0000
        -6.8755        -24.1316          0.0000
        -6.6703         -0.7979          0.0000
        -6.4651          3.7733          0.0000
        -6.2598         41.6688          0.0000
        -6.0546         28.0088          0.0000
        -5.8493         60.1025          0.0000
        -5.6441         23.7681          0.0000
        -5.4389         10.3578          0.0000
        -5.2336         93.3531          0.0000
        -5.0284         48.1064          0.0000
        -4.8231         89.7295          0.0000
        -4.6179         69.3851          0.0000
        -4.4127        131.8304          0.0000
        -4.2074         23.0011          0.0000
        -4.0022         43.3624          0.0000
        -3.7969          9.0906          0.0000
        -3.5917         16.9830          0.0000
        -3.3865       -137.1847          0.0000
        -3.1812       -203.7863          0.0000
        -2.9760       -137.6089          0.0000
        -2.7707        -87.1271          0.0000
        -2.5655         -1.1327          0.0000
        -2.3603        -14.0181          0.0000
        -2.1550         17.6956          0.0000
        -1.9498         10.2474          0.0000
        -1.7445         76.8657          0.0000
        -1.5393         27.7673          0.0000
        -1.3341         12.2954          0.0000
        -1.1288        -69.2142          0.0000
        -0.9236        -11.6255          0.0000
        -0.7183        -74.9698          0.0000
        -0.5131        -32.9191          0.0000
        -0.3079        -50.7546          0.0000
        -0.1026        -19.2165          0.0000
         0.1026        -65.6897          0.0000
         0.3079         -4.6999          0.0000
         0.5131         50.9019          0.0000
         0.7183         28.2041          0.0000
         0.9236         22.1832          0.0000
         1.1288        -31.2772          0.0000
         1.3341        -28.1066          0.0000
         1.5393          9.9313          0.0000
         1.7445          8.2073          0.0000
         1.9498         -9.2107          0.0000
         2.1550         55.5820          0.0000
         2.3603          3.0031          0.0000
         2.5655        -79.9003          0.0000
         2.7707       -111.0522          0.0000
         2.9760       -139.5524          0.0000
         3.1812       -177.5940          0.0000
         3.3865       -162.1989          0.0000
         3.5917        -91.3308          0.0000
         3.7969         62.7477          0.0000
         4.0022        118.9411          0.0000
         4.2074        137.2526          0.0000
         4.4127         89.8315          0.0000
         4.6179         98.2367          0.0000
         4.8231         37.7361          0.0000
         5.0284         37.0687          0.0000
         5.2336         51.0838          0.0000
         5.4389         12.9204          0.0000
         5.6441         67.2035          0.0000
         5.8493         20.0250          0.0000
         6.0546         -1.8684          0.0000
         6.2598        -42.9223          0.0000
         6.4651        -14.5940          0.0000
         6.6703        -17.2094          0.0000
         6.8755         39.8930          0.0000
         7.0808        -14.5527          0.0000
         7.2860         13.0840          0.0000
         7.4913         18.5926          0.0000
         7.6965         34.4265          0.0000
         7.9017        -10.8858          0.0000
         8.1070        -21.7672          0.0000
         8.3122         -2.1864          0.0000
         8.5175          3.2870          0.0000
         8.7227         14.2250          0.0000
         8.9279        -55.8080          0.0000
         9.1332         45.0826          0.0000
         9.3384          0.9094          0.0000
         9.5437        -18.0980          0.0000
         9.7489         -9.4223          0.0000
         9.9541         -1.2244          0.0000
        10.1594         50.5030          0.0000
