@ title  "Pressure (P) and density (D) over 101 frames"
@ xlabel "Z [nm]"
@ ylabel "P [bar] or D [kg/m^3]"
@ s0 legend "P_T"
@ s1 legend "P_N"
       -10.2882        -28.8427          0.0000
       -10.0804          3.8687          0.0000
        -9.8726         13.7171          0.0000
        -9.6647          9.7183          0.0000
        -9.4569         15.6109          0.0000
        -9.2490         69.8570          0.0000
        -9.0412         99.9534          0.0000
        -8.8333        -14.7856          0.0000
        -8.6255        -14.3870          0.0000
        -8.4176         57.5752          0.0000
        -8.2098         48.4611          0.0000
        -8.0020         26.1595          0.0000
        -7.7941         10.8507          0.0000
        -7.5863        -10.9856          0.0000
        -7.3784         55.0171          0.0000
        -7.1706        -25.4250          0.0000
        -6.9627        -59.5019          0.0000
        -6.7549         76.9595          0.0000
        -6.5471         -9.2527          0.0000
        -6.3392         -9.5680          0.0000
        -6.1314         46.7986          0.0000
        -5.9235         -7.2857          0.0000
        -5.7157         -4.1659          0.0000
        -5.5078         20.5099          0.0000
        -5.3000         61.7204          0.0000
        -5.0922         15.2696          0.0000
        -4.8843        100.4959          0.0000
        -4.6765         66.4436          0.0000
        -4.4686         47.2777          0.0000
        -4.2608        105.1288          0.0000
        -4.0529         43.2331          0.0000
        -3.8451        -25.2849          0.0000
        -3.6373       -173.0232          0.0000
        -3.4294       -271.7500          0.0000
        -3.2216       -296.0161          0.0000
        -3.0137       -202.8811          0.0000
        -2.8059        -96.3767          0.0000
        -2.5980         11.0128          0.0000
        -2.3902         71.6059          0.0000
        -2.1824         21.9144          0.0000
        -1.9745         20.4548          0.0000
        -1.7667        -32.7339          0.0000
        -1.5588         40.6310          0.0000
        -1.3510         30.6561          0.0000
        -1.1431         29.2297          0.0000
        -0.9353        -30.1224          0.0000
        -0.7274         16.1527          0.0000
        -0.5196        -15.2719          0.0000
        -0.3118        -10.7161          0.0000
        -0.1039         51.1812          0.0000
         0.1039        -33.7978          0.0000
         0.3118         50.9117          0.0000
         0.5196         56.0662          0.0000
         0.7275         31.3242          0.0000
         0.9353         11.1258          0.0000
         1.1431         -2.5831          0.0000
         1.3510        -26.9379          0.0000
         1.5588         -6.4938          0.0000
         1.7667         10.9255          0.0000
         1.9745         -9.9876          0.0000
         2.1824         55.8150          0.0000
         2.3902         22.5426          0.0000
         2.5980        -48.9867          0.0000
         2.8059       -132.2494          0.0000
         3.0137       -235.5107          0.0000
         3.2216       -275.2981          0.0000
         3.4294       -183.1845          0.0000
         3.6373        -63.8099          0.0000
         3.8451         36.1075          0.0000
         4.0529         47.7806          0.0000
         4.2608        101.9128          0.0000
         4.4686         35.0070          0.0000
         4.6765         70.8616          0.0000
         4.8843         74.2399          0.0000
         5.0922        156.5588          0.0000
         5.3000         68.4459          0.0000
         5.5078         35.7994          0.0000
         5.7157         95.4197          0.0000
         5.9235         14.5779          0.0000
         6.1314         16.2408          0.0000
         6.3392         54.2919          0.0000
         6.5471         27.4403          0.0000
         6.7549         25.9795          0.0000
         6.9627         61.3728          0.0000
         7.1706         29.2628          0.0000
         7.3784         41.2833          0.0000
         7.5863         56.0442          0.0000
         7.7941        -10.3572          0.0000
         8.0020         -0.5156          0.0000
         8.2098         47.8635          0.0000
         8.4177         51.0323          0.0000
         8.6255         -4.9766          0.0000
         8.8333         42.8136          0.0000
         9.0412         73.4452          0.0000
         9.2490         71.1244          0.0000
         9.4569         32.8529          0.0000
         9.6647         38.6113          0.0000
         9.8726        -11.5663          0.0000
        10.0804          3.5629          0.0000
        10.2882        -38.4401          0.0000
