@ title  "Pressure (P) and density (D) over 101 frames"
@ xlabel "Z [nm]"
@ ylabel "P [bar] or D [kg/m^3]"
@ s0 legend "P_T"
@ s1 legend "P_N"
       -10.4081         63.0984         -5.1382
       -10.1979        -17.4269         -6.3047
        -9.9876        -10.8118         17.5062
        -9.7773         39.3482         57.8146
        -9.5671         -1.8237         79.4161
        -9.3568         30.0174         67.3348
        -9.1465          8.9113         61.0582
        -8.9363         43.3681         49.9971
        -8.7260         40.2365         63.4462
        -8.5157        -14.7512         29.5918
        -8.3055         18.0675         -3.3559
        -8.0952        -16.0278        -31.7770
        -7.8849        -33.8929        -18.4942
        -7.6747          5.8488        -18.7521
        -7.4644        -42.6222         22.9992
        -7.2542        -29.6988         37.2696
        -7.0439         39.9566         30.3881
        -6.8336         48.5424         33.3305
        -6.6234         20.4686         14.1605
        -6.4131        -35.0829        -36.0145
        -6.2028         33.9122        -40.2652
        -5.9926        -24.2931        -47.4891
        -5.7823          8.0725        -42.8574
        -5.5720         58.8184         20.7850
        -5.3618         43.5013         25.0058
        -5.1515          4.9156        -48.9199
        -4.9412         17.3671        -47.7047
        -4.7310         41.8822        -45.6763
        -4.5207         64.0300          5.6334
        -4.3104        113.0436         42.5310
        -4.1002        104.3831         22.4751
        -3.8899        -35.3929         -7.5828
        -3.6796       -171.2370        -29.1812
        -3.4694       -193.3729         17.8782
        -3.2591       -213.7607         21.3299
        -3.0488       -224.2257          1.7168
        -2.8386        -96.8895        -14.4377
        -2.6283         -3.4648        -11.6458
        -2.4181         45.2377          7.4157
        -2.2078         27.5046         30.3940
        -1.9975         57.9092         21.2640
        -1.7873         55.5555         -6.5155
        -1.5770         13.4610         19.2348
        -1.3667          5.4952         32.2150
        -1.1565         42.1418        -11.4788
        -0.9462         -9.6200        -46.4975
        -0.7359         -8.2534        -44.5082
        -0.5257        -39.6069         -6.9645
        -0.3154         10.9633        -23.8427
        -0.1051          8.5956        -38.5861
         0.1051          5.2214        -32.4053
         0.3154         59.5323        -31.5173
         0.5257        -17.8039         -8.0614
         0.7359         13.6744          9.4778
         0.9462         15.6831         15.4719
         1.1565         20.5923         33.4911
         1.3667        -14.3695         17.3891
         1.5770          1.7014         -4.7367
         1.7873        -41.0311          9.7608
         1.9975         34.3636         35.2005
         2.2078         31.7026         45.6148
         2.4181        -65.7543        -31.6883
         2.6283       -112.1426        -38.4372
         2.8386       -131.5392        -22.5520
         3.0488       -191.9910        -18.3483
         3.2591       -286.0964          5.9839
         3.4694       -219.0766         15.7528
         3.6796        -75.0598         38.0500
         3.8899         36.1245          8.2235
         4.1002         95.3999          6.8495
         4.3104        133.3773         19.7958
         4.5207        101.0023         50.3061
         4.7310        118.3964         12.4017
         4.9412         -0.9924        -25.3245
         5.1515         41.7936         -4.1219
         5.3618        117.8409         22.5448
         5.5720         -1.8567         12.6809
         5.7823         30.9880        -56.8524
         5.9926        -58.8076         -8.4335
         6.2028        -11.7783        -13.8447
         6.4131         44.2436        -30.9386
         6.6234         -8.2191         12.1993
         6.8336         42.1591         24.6951
         7.0439         13.0665         -7.8151
         7.2542          9.7222        -10.1710
         7.4644         39.0882        -56.7373
         7.6747         34.3964         -5.1656
         7.8850          9.2511         18.8368
         8.0952          8.7165        -25.2523
         8.3055         -3.7089        -10.9545
         8.5157         46.8853         -5.8230
         8.7260         30.8446         38.5437
         8.9363         -2.7657         23.1351
         9.1465         45.3290         16.8432
         9.3568        -14.0098         -6.5744
         9.5671         32.1605        -13.5758
         9.7773         47.7988        -24.3880
         9.9876         28.0634        -23.7296
        10.1979         -0.4760         -8.5723
        10.4081          5.3457         11.1939
