#  Job_num     Pt_all_H    Pt_all_IK    Pn_all_IK       Pt_kin       Pn_kin
       000      -0.0988      -0.0989      -0.0877      -0.0315      -0.0330 
       001      -0.0879      -0.0879      -0.0722      -0.0360      -0.0360 
       002      -0.0916      -0.0916      -0.0907      -0.0315      -0.0310 
       003      -0.1084      -0.1084      -0.1100      -0.0210      -0.0230 
       004      -0.1073      -0.1073      -0.1060      -0.0380      -0.0370 
       005      -0.0944      -0.0944      -0.0861      -0.0165      -0.0140 
       006      -0.1193      -0.1193      -0.1055      -0.0195      -0.0210 
       007      -0.0902      -0.0902      -0.1004      -0.0310      -0.0330 
       008      -0.1474      -0.1474      -0.1146      -0.0160      -0.0150 
       009      -0.1312      -0.1312      -0.1109      -0.0340      -0.0330 
       010      -0.0936      -0.0936      -0.0817      -0.0185      -0.0210 
       011      -0.1149      -0.1149      -0.1209      -0.0115      -0.0140 
       012      -0.0961      -0.0961      -0.0940      -0.0275      -0.0270 
       013      -0.0989      -0.0989      -0.0926      -0.0290      -0.0300 
       014      -0.0941      -0.0941      -0.0895      -0.0175      -0.0150 
       015      -0.0874      -0.0874      -0.0933      -0.0225      -0.0240 
       016      -0.1196      -0.1196      -0.0974      -0.0290      -0.0280 
       017      -0.0926      -0.0926      -0.1148      -0.0115      -0.0130 
       018      -0.1031      -0.1031      -0.0997      -0.0690      -0.0680 
       019      -0.1077      -0.1077      -0.1025      -0.0290      -0.0280 
       020      -0.0932      -0.0932      -0.0918      -0.0500      -0.0510 
       021      -0.0895      -0.0895      -0.0982      -0.0145      -0.0150 
       022      -0.1047      -0.1047      -0.0919      -0.0265      -0.0250 
       023      -0.0939      -0.0939      -0.0945      -0.0255      -0.0240 
       024      -0.1041      -0.1040      -0.0928      -0.0480      -0.0460 
       025      -0.0974      -0.0974      -0.1016      -0.0245      -0.0250 
       026      -0.1084      -0.1084      -0.1112      -0.0190      -0.0180 
       027      -0.1026      -0.1026      -0.0833      -0.0105      -0.0100 
       028      -0.1122      -0.1122      -0.1063      -0.0350      -0.0380 
       029      -0.1015      -0.1015      -0.1114      -0.0130      -0.0150 
       030      -0.0930      -0.0930      -0.0957      -0.0130      -0.0140 
       031      -0.0996      -0.0996      -0.0928      -0.0315      -0.0320 
       032      -0.1151      -0.1151      -0.1004      -0.0165      -0.0120 
       033      -0.1120      -0.1120      -0.1028      -0.0435      -0.0440 
       034      -0.1053      -0.1053      -0.0967      -0.0130      -0.0120 
       035      -0.0969      -0.0969      -0.0971      -0.0295      -0.0310 
       036      -0.1082      -0.1082      -0.1102      -0.0205      -0.0210 
       037      -0.0929      -0.0929      -0.1012      -0.0170      -0.0190 
       038      -0.1155      -0.1155      -0.1006      -0.0170      -0.0170 
       039      -0.1053      -0.1053      -0.1048      -0.0405      -0.0390 
       040      -0.1023      -0.1023      -0.0951      -0.0305      -0.0280 
       041      -0.1017      -0.1017      -0.0988      -0.0285      -0.0280 
       042      -0.1089      -0.1089      -0.1147      -0.0120      -0.0130 
       043      -0.1049      -0.1049      -0.0903      -0.0140      -0.0140 
       044      -0.1051      -0.1051      -0.0899      -0.0125      -0.0110 
       045      -0.1084      -0.1084      -0.1155      -0.0380      -0.0390 
       046      -0.1259      -0.1258      -0.1282      -0.0535      -0.0560 
       047      -0.1008      -0.1008      -0.0878      -0.0425      -0.0440 
       048      -0.0957      -0.0957      -0.1105      -0.0210      -0.0250 
       049      -0.0849      -0.0849      -0.0806      -0.0160      -0.0160 
       AVG      -0.1035      -0.1035      -0.0994      -0.0270      -0.0260 
