@ title  "Pressure (P) and density (D) over 101 frames"
@ xlabel "Z [nm]"
@ ylabel "P [bar] or D [kg/m^3]"
@ s0 legend "P_T"
@ s1 legend "P_N"
       -10.2882        -28.8276         -8.5973
       -10.0804        -30.8926          0.2815
        -9.8726         23.7818         11.5366
        -9.6647         42.3442        -23.4910
        -9.4569         -3.4664        -28.8026
        -9.2490         60.4701         20.7073
        -9.0412        101.0832         40.8286
        -8.8333         19.7795         32.7192
        -8.6255        -16.9501        -11.0542
        -8.4176          4.0623        -39.0989
        -8.2098         53.6040         15.4606
        -8.0020         44.7810         57.0175
        -7.7941         -9.4940         21.8859
        -7.5863         13.3770         28.5914
        -7.3784         57.2538         35.6079
        -7.1706        -18.1717         23.8248
        -6.9627        -44.7757         -9.1505
        -6.7549         64.8462        -30.7507
        -6.5471          9.0985        -25.7100
        -6.3392        -35.2289        -27.5167
        -6.1314         87.8072        -13.5808
        -5.9235        -34.4111         -5.1527
        -5.7157         13.0872          1.0773
        -5.5078         48.1193         41.1782
        -5.3000         12.8890         -4.5185
        -5.0922          5.3884         -9.9627
        -4.8843         87.0609        -27.4331
        -4.6765        103.4229        -33.0160
        -4.4686         66.0493        -57.9913
        -4.2608         70.8375        -40.7067
        -4.0529         90.3112        -67.5642
        -3.8451        -73.5289        -79.2825
        -3.6373       -187.2247         -5.3092
        -3.4294       -312.1275          6.4332
        -3.2216       -315.7989        -19.2553
        -3.0137       -219.6254        -40.5506
        -2.8059        -63.9471          1.4890
        -2.5980         26.6102         26.1622
        -2.3902         88.4141         40.7025
        -2.1824         39.2911         25.7957
        -1.9745         -8.6882        -20.5319
        -1.7667          7.2150         -8.5187
        -1.5588         19.5430          4.6358
        -1.3510         46.3010          2.6986
        -1.1431          0.7836          8.8209
        -0.9353        -19.1288         30.7715
        -0.7274         33.3297          7.2851
        -0.5196        -34.5819        -22.4613
        -0.3118          1.2595         -4.2414
        -0.1039         64.9428        -24.1078
         0.1039        -52.4345        -22.1893
         0.3118         45.2948          3.1331
         0.5196         61.5744          9.3032
         0.7275         43.4961          3.0610
         0.9353         18.6659         22.3893
         1.1431        -34.0661          3.4200
         1.3510        -10.9507         11.2460
         1.5588        -20.9256          5.3946
         1.7667         36.1794         13.1450
         1.9745        -44.7132         27.4074
         2.1824        110.7353         35.2042
         2.3902         21.5652          5.6179
         2.5980         -4.3692        -27.1641
         2.8059       -134.6384        -27.8753
         3.0137       -253.7062        -13.4702
         3.2216       -292.1323         55.4849
         3.4294       -264.9748          7.9681
         3.6373        -56.4051        -23.3845
         3.8451         -8.1913          5.9127
         4.0529        113.1773         -7.5591
         4.2608         94.5843         -5.2187
         4.4686         52.3243         13.0134
         4.6765         42.0896         39.1432
         4.8843         71.3122         -4.8069
         5.0922        163.8252         26.2963
         5.3000         48.6889          8.0176
         5.5078         66.6296         31.7771
         5.7157         91.3173         21.0809
         5.9235         32.8235         -9.4830
         6.1314         19.2024         11.2060
         6.3392         25.0049         14.0365
         6.5471         40.0687         43.7426
         6.7549         26.9332         24.2122
         6.9627         90.7057         35.9975
         7.1706         19.5338         -3.3661
         7.3784         30.3735         16.6863
         7.5863         57.3249         24.6206
         7.7941        -10.5090         12.5787
         8.0020          3.9259         28.3817
         8.2098         67.3997          6.3586
         8.4177         32.6495        -15.1888
         8.6255        -20.0443          5.8666
         8.8333         62.4430         18.6066
         9.0412         79.0938        -25.6164
         9.2490         58.4750         27.1850
         9.4569         55.4824         39.8264
         9.6647         22.9231         21.0246
         9.8726         -3.3323         23.3175
        10.0804        -30.6304         21.0602
        10.2882         -1.0348        -39.6368
