@ title  "Pressure (P) and density (D) over 101 frames"
@ xlabel "Z [nm]"
@ ylabel "P [bar] or D [kg/m^3]"
@ s0 legend "P_T"
@ s1 legend "P_N"
       -10.1534         15.8247          0.0000
        -9.9483        -47.6295          0.0000
        -9.7431          6.2891          0.0000
        -9.5380         19.7651          0.0000
        -9.3329         14.7576          0.0000
        -9.1278         -9.3614          0.0000
        -8.9227         14.1502          0.0000
        -8.7176        -19.2032          0.0000
        -8.5124        -21.3140          0.0000
        -8.3073        -28.1802          0.0000
        -8.1022        -32.4607          0.0000
        -7.8971        -39.6855          0.0000
        -7.6920         36.4421          0.0000
        -7.4868         31.2749          0.0000
        -7.2817        -19.9848          0.0000
        -7.0766         40.8695          0.0000
        -6.8715        -15.4503          0.0000
        -6.6664         43.2952          0.0000
        -6.4612         31.2514          0.0000
        -6.2561         -5.7091          0.0000
        -6.0510         70.0321          0.0000
        -5.8459        -31.1427          0.0000
        -5.6408        -18.8286          0.0000
        -5.4357         53.1265          0.0000
        -5.2305         48.9212          0.0000
        -5.0254         -0.0465          0.0000
        -4.8203         53.2736          0.0000
        -4.6152         13.7117          0.0000
        -4.4101         93.2318          0.0000
        -4.2049         85.3749          0.0000
        -3.9998        117.2577          0.0000
        -3.7947          6.7739          0.0000
        -3.5896        -33.6879          0.0000
        -3.3845        -94.4368          0.0000
        -3.1793       -167.9183          0.0000
        -2.9742       -196.4968          0.0000
        -2.7691       -103.5053          0.0000
        -2.5640        -29.6975          0.0000
        -2.3589          7.4931          0.0000
        -2.1537         41.5360          0.0000
        -1.9486         -4.6800          0.0000
        -1.7435         20.9546          0.0000
        -1.5384         32.0921          0.0000
        -1.3333         -9.4683          0.0000
        -1.1282         10.7525          0.0000
        -0.9230        -55.7010          0.0000
        -0.7179         16.4011          0.0000
        -0.5128        -24.3924          0.0000
        -0.3077         17.0010          0.0000
        -0.1026         54.5531          0.0000
         0.1026        -13.2722          0.0000
         0.3077         30.7615          0.0000
         0.5128          2.4245          0.0000
         0.7179         64.8532          0.0000
         0.9230         45.7770          0.0000
         1.1282         27.1221          0.0000
         1.3333        -11.3635          0.0000
         1.5384         19.2542          0.0000
         1.7435        -20.7821          0.0000
         1.9486        -41.6873          0.0000
         2.1538        -53.6148          0.0000
         2.3589        -31.9975          0.0000
         2.5640        -25.6285          0.0000
         2.7691        -62.4041          0.0000
         2.9742       -130.4052          0.0000
         3.1793       -212.3692          0.0000
         3.3845       -197.9284          0.0000
         3.5896       -142.8445          0.0000
         3.7947         58.2355          0.0000
         3.9998         64.9232          0.0000
         4.2049        141.5824          0.0000
         4.4101        153.1082          0.0000
         4.6152        126.3445          0.0000
         4.8203        101.5664          0.0000
         5.0254         90.9302          0.0000
         5.2305         24.4383          0.0000
         5.4357         13.4748          0.0000
         5.6408         25.3463          0.0000
         5.8459         67.6254          0.0000
         6.0510         36.4514          0.0000
         6.2561          0.1474          0.0000
         6.4612         18.0286          0.0000
         6.6664         87.3811          0.0000
         6.8715          1.4585          0.0000
         7.0766         30.6462          0.0000
         7.2817         -4.1380          0.0000
         7.4868         -9.8397          0.0000
         7.6920         47.9860          0.0000
         7.8971         20.0109          0.0000
         8.1022        -16.4566          0.0000
         8.3073         29.8096          0.0000
         8.5124         22.1409          0.0000
         8.7176         51.7091          0.0000
         8.9227        -23.1563          0.0000
         9.1278         10.1924          0.0000
         9.3329          9.5676          0.0000
         9.5380         27.3780          0.0000
         9.7432        -16.7099          0.0000
         9.9483         -6.9895          0.0000
        10.1534         -1.3122          0.0000
