@ title  "Pressure (P) and density (D) over 101 frames"
@ xlabel "Z [nm]"
@ ylabel "P [bar] or D [kg/m^3]"
@ s0 legend "P_T"
@ s1 legend "P_N"
       -10.2275         49.0545        -24.3526
       -10.0209         43.7529         10.5131
        -9.8143         26.0207        -11.6673
        -9.6076        -37.2717        -35.0310
        -9.4010        -59.9876        -34.5161
        -9.1944        -48.3091         20.1162
        -8.9878         20.9804          6.6528
        -8.7812         10.7166          5.0600
        -8.5746        -24.7548         31.9350
        -8.3679          1.5070         35.7200
        -8.1613         10.5064         58.6261
        -7.9547        -42.9492         10.2233
        -7.7481         22.2255         32.5546
        -7.5415        -16.3463         29.1329
        -7.3349        -37.0283        -21.7469
        -7.1283         17.9857        -41.7840
        -6.9216         14.4169         -1.6943
        -6.7150         59.8447         18.0853
        -6.5084        -22.1429         -7.4799
        -6.3018         31.7438        -28.0335
        -6.0952        -89.4152        -46.0009
        -5.8886          7.4956         10.4925
        -5.6819         30.3330        -14.6547
        -5.4753         15.9759          1.6139
        -5.2687         48.2789         45.0644
        -5.0621        107.7404         70.7519
        -4.8555         46.3046         76.5183
        -4.6489        112.6827         72.3343
        -4.4422         76.9971         -0.2746
        -4.2356         23.1687        -20.2151
        -4.0290         76.2714        -30.6002
        -3.8224        -11.8702          4.0006
        -3.6158         -6.9560        100.9838
        -3.4092       -145.7013         86.7132
        -3.2026       -276.6804         44.1382
        -2.9959       -244.2024         66.8328
        -2.7893       -100.0147         46.4672
        -2.5827         41.2739         -5.0453
        -2.3761         72.9348        -24.4508
        -2.1695        -12.2177        -42.0210
        -1.9629         31.6841        -14.7340
        -1.7562         24.5711         -4.0051
        -1.5496         15.2784         -9.1070
        -1.3430          3.5286          4.1688
        -1.1364         85.4587         -0.8336
        -0.9298         58.7276        -32.3353
        -0.7232         32.2248        -48.7675
        -0.5165        -33.7399        -19.7565
        -0.3099         45.5799        -23.8544
        -0.1033        -88.5177        -11.4469
         0.1033        -29.9303         35.3761
         0.3099         22.0366         40.5380
         0.5165         48.3031         20.7836
         0.7232         13.9865        -45.8623
         0.9298         22.5981        -41.6758
         1.1364          2.6504        -21.1546
         1.3430         57.2695        -15.6182
         1.5496        -26.1570        -39.1615
         1.7562        -18.1305        -14.5978
         1.9628         -6.8483        -15.0702
         2.1695         41.2096          8.3187
         2.3761         46.9115         34.5291
         2.5827        -16.1380         22.1660
         2.7893       -123.5113          5.7831
         2.9959       -226.5414          8.0909
         3.2025       -244.6007         -7.1782
         3.4092       -218.1423        -31.9960
         3.6158        -58.6086        -43.4589
         3.8224        -11.8447          4.6067
         4.0290         30.2043       -121.2052
         4.2356         82.4885        -59.3011
         4.4422         81.6909        -36.5940
         4.6489        157.2521        -16.2423
         4.8555        -23.2970         -6.2266
         5.0621         75.0412         34.6353
         5.2687         31.0707         -1.9227
         5.4753         66.7120         34.8071
         5.6819         72.4846         52.9901
         5.8885         25.1549         -1.2569
         6.0952         49.6493          7.1437
         6.3018         58.9417         59.2686
         6.5084          0.4492         23.9709
         6.7150        -45.9423        -25.7766
         6.9216        -35.7483        -20.3244
         7.1282        -49.4672        -57.5458
         7.3349        -41.3305        -28.5126
         7.5415        -12.1470         35.4824
         7.7481         -3.6428         54.5904
         7.9547        -23.0368         28.5031
         8.1613        -53.5499        -18.9610
         8.3679         41.5241         26.0292
         8.5746         -1.2417         11.5142
         8.7812        -15.1116        -29.0873
         8.9878         -3.7490        -71.8927
         9.1944        -14.6697        -97.3013
         9.4010         -1.0005        -23.4608
         9.6076         52.4678          0.8407
         9.8143         32.1671          0.6291
        10.0209         23.6992         -7.1960
        10.2275        -27.7219        -18.4510
