@ title  "Pressure (P) and density (D) over 101 frames"
@ xlabel "Z [nm]"
@ ylabel "P [bar] or D [kg/m^3]"
@ s0 legend "P_T"
@ s1 legend "P_N"
       -10.0250        -66.1342          0.0000
        -9.8225         27.4605          0.0000
        -9.6199        -42.6437          0.0000
        -9.4174          2.7104          0.0000
        -9.2149        -22.0265          0.0000
        -9.0124        -43.5984          0.0000
        -8.8098        -32.5791          0.0000
        -8.6073        -10.7936          0.0000
        -8.4048        -63.7430          0.0000
        -8.2023         -2.4154          0.0000
        -7.9997        -20.8897          0.0000
        -7.7972         32.3466          0.0000
        -7.5947        -31.3750          0.0000
        -7.3922          8.1653          0.0000
        -7.1896        -14.2010          0.0000
        -6.9871          5.3453          0.0000
        -6.7846          1.5685          0.0000
        -6.5821         41.7796          0.0000
        -6.3795        -28.7176          0.0000
        -6.1770         26.6598          0.0000
        -5.9745         -8.1177          0.0000
        -5.7720         13.4818          0.0000
        -5.5694         -9.2803          0.0000
        -5.3669         93.3722          0.0000
        -5.1644         68.6586          0.0000
        -4.9619         63.7841          0.0000
        -4.7593          3.5656          0.0000
        -4.5568         40.2534          0.0000
        -4.3543        115.7289          0.0000
        -4.1518         48.6722          0.0000
        -3.9492        105.9669          0.0000
        -3.7467        -11.8506          0.0000
        -3.5442        -46.6541          0.0000
        -3.3417       -243.0555          0.0000
        -3.1391       -347.5744          0.0000
        -2.9366       -281.0419          0.0000
        -2.7341       -127.4763          0.0000
        -2.5316         13.5233          0.0000
        -2.3290         70.6322          0.0000
        -2.1265         22.0712          0.0000
        -1.9240          8.1587          0.0000
        -1.7215         12.4097          0.0000
        -1.5189         22.2176          0.0000
        -1.3164         -2.8321          0.0000
        -1.1139          9.0217          0.0000
        -0.9114         38.2318          0.0000
        -0.7088         11.5569          0.0000
        -0.5063         30.4572          0.0000
        -0.3038         43.7541          0.0000
        -0.1013         45.1060          0.0000
         0.1013        -46.0342          0.0000
         0.3038         10.8932          0.0000
         0.5063         27.4763          0.0000
         0.7088         10.1610          0.0000
         0.9114         41.6973          0.0000
         1.1139        -32.9274          0.0000
         1.3164         57.2800          0.0000
         1.5189         36.6487          0.0000
         1.7215        -27.7591          0.0000
         1.9240         26.5004          0.0000
         2.1265        -23.0500          0.0000
         2.3290          7.1172          0.0000
         2.5316        -83.6747          0.0000
         2.7341       -155.7120          0.0000
         2.9366       -247.1724          0.0000
         3.1391       -278.1409          0.0000
         3.3417       -170.1886          0.0000
         3.5442          7.8637          0.0000
         3.7467         18.1942          0.0000
         3.9492         43.9135          0.0000
         4.1518         25.0777          0.0000
         4.3543         23.7275          0.0000
         4.5568        106.5448          0.0000
         4.7593         71.8904          0.0000
         4.9619         39.2448          0.0000
         5.1644          6.3028          0.0000
         5.3669          1.2035          0.0000
         5.5694         80.9022          0.0000
         5.7720         26.5111          0.0000
         5.9745         30.4093          0.0000
         6.1770         25.6477          0.0000
         6.3795        -12.0492          0.0000
         6.5821          3.6975          0.0000
         6.7846        -32.8053          0.0000
         6.9871        -42.7596          0.0000
         7.1896        -11.3114          0.0000
         7.3922        -67.4011          0.0000
         7.5947        -55.9216          0.0000
         7.7972         22.6564          0.0000
         7.9997        -15.5020          0.0000
         8.2023        -36.4717          0.0000
         8.4048         47.5589          0.0000
         8.6073         -3.4412          0.0000
         8.8098        -27.8717          0.0000
         9.0124         10.0311          0.0000
         9.2149         36.6725          0.0000
         9.4174         10.5309          0.0000
         9.6199          8.5966          0.0000
         9.8225        -14.0442          0.0000
        10.0250         38.2378          0.0000
