@ title  "Pressure (P) and density (D) over 101 frames"
@ xlabel "Z [nm]"
@ ylabel "P [bar] or D [kg/m^3]"
@ s0 legend "P_T"
@ s1 legend "P_N"
       -10.1417         -4.0581        -23.1049
        -9.9369         29.8084         -5.7634
        -9.7320         25.1287         23.6991
        -9.5271         -1.5541         18.2739
        -9.3222        -22.6483         16.7981
        -9.1173        -12.1643          9.8331
        -8.9124        -18.8437        -30.6443
        -8.7076         21.6493        -52.5100
        -8.5027        -35.3734        -27.4443
        -8.2978         -1.3446        -19.3133
        -8.0929         37.9347         36.4031
        -7.8880         18.6048         36.5536
        -7.6831          2.9351         28.7481
        -7.4782         -7.2404         49.7983
        -7.2734         50.2908         18.6900
        -7.0685         30.0338          5.5957
        -6.8636        -15.7051          1.1322
        -6.6587         -8.0760         15.8620
        -6.4538        -15.5715        -15.9966
        -6.2489         37.5719        -34.0015
        -6.0441         28.9567        -24.0314
        -5.8392         43.5406          8.8862
        -5.6343         41.9579         11.4381
        -5.4294          4.7454          0.0478
        -5.2245         59.6854         16.7840
        -5.0196        102.8878        -69.0851
        -4.8148         28.5756       -108.1435
        -4.6099        105.9045        -10.8676
        -4.4050         62.4752          5.6941
        -4.2001        123.0690        -36.2011
        -3.9952         78.3013         -8.0433
        -3.7903         26.7521         20.1919
        -3.5855       -150.2213        -55.9310
        -3.3806       -243.1856        -60.3282
        -3.1757       -286.3788        -17.0560
        -2.9708       -252.8433        -12.4523
        -2.7659        -28.2341        -12.0834
        -2.5610          9.4868        -43.3713
        -2.3562         59.5919        -49.7273
        -2.1513         34.2489         21.1360
        -1.9464         24.1202         44.1385
        -1.7415        -37.6839         -0.3697
        -1.5366        -41.1641         25.7011
        -1.3317         -2.9462         35.8391
        -1.1269         61.0887         41.0514
        -0.9220        -17.1658        -14.9926
        -0.7171         84.7830        -22.1847
        -0.5122         59.3455        -44.3598
        -0.3073         67.0701        -11.0969
        -0.1024         -4.8802         14.7071
         0.1024         11.4989         14.2211
         0.3073         21.8466        -15.8632
         0.5122        -68.7772        -39.9372
         0.7171        -35.1290        -41.1085
         0.9220         66.1693         -4.2363
         1.1269         18.7067         -8.0062
         1.3317          8.3855         19.1423
         1.5366         48.2600         70.4880
         1.7415         62.2893         55.2304
         1.9464         60.6417         48.8843
         2.1513         93.1718         42.4275
         2.3562         11.7800          7.3751
         2.5610        -29.3033          5.1415
         2.7659       -148.5212        -37.3629
         2.9708       -210.6456        -47.1722
         3.1757       -289.6904          3.2149
         3.3806       -214.6406        -33.2918
         3.5855        -67.5436          9.6661
         3.7903        -55.7237        -27.5663
         3.9952        121.6763          1.0794
         4.2001        106.1623        -10.8971
         4.4050         67.4650         48.8982
         4.6099        131.9241         80.2911
         4.8148         85.6644         23.5437
         5.0196        -64.8869         -6.4104
         5.2245        172.5272         56.9805
         5.4294        121.8315         48.6257
         5.6343         43.9975         35.6542
         5.8392        112.9498         13.5689
         6.0441         81.6739         17.1644
         6.2489         65.5912         51.2521
         6.4538         24.4562         37.9071
         6.6587        -64.7478        -36.6878
         6.8636        -24.9734         -8.0456
         7.0685         71.6697         37.4032
         7.2734         53.9477         25.2970
         7.4782         45.4025         -0.5542
         7.6831         12.1354        -17.0520
         7.8880         71.9927        -24.7150
         8.0929         56.7280        -31.4602
         8.2978         63.3167          8.8472
         8.5027          0.9320          9.0619
         8.7076         -7.5388        -22.8150
         8.9124        -24.7527        -37.0516
         9.1173         -6.1284         15.7908
         9.3222          0.9278         13.6364
         9.5271        -19.1035         22.6331
         9.7320          0.9757          9.1683
         9.9369          9.0833        -26.1675
        10.1417        -22.5468        -25.5394
