@ title  "Pressure (P) and density (D) over 101 frames"
@ xlabel "Z [nm]"
@ ylabel "P [bar] or D [kg/m^3]"
@ s0 legend "P_T"
@ s1 legend "P_N"
       -10.0946         69.0948        -60.7280
        -9.8907         22.8331         -2.8641
        -9.6868         35.0444         11.1659
        -9.4828        -45.0627         25.4733
        -9.2789         -5.2991          2.1971
        -9.0750        -18.7337          9.7069
        -8.8710         30.3728         49.5970
        -8.6671         54.3725         52.2919
        -8.4632         56.1979         39.1529
        -8.2592        -32.2117         17.8580
        -8.0553         71.0592         -5.3348
        -7.8514          6.3445        -35.8631
        -7.6474         22.6695        -40.7967
        -7.4435        -10.8565        -72.9537
        -7.2396         -2.7681        -62.1255
        -7.0356         14.7106          8.0273
        -6.8317         56.6598         55.9878
        -6.6278        -12.2816         19.2060
        -6.4238         11.0641         29.5452
        -6.2199          3.9179         34.8775
        -6.0160        -13.5185          2.0885
        -5.8121        101.5642        -41.8904
        -5.6081         22.2485        -18.5710
        -5.4042         24.4366         -7.5929
        -5.2003         73.1720         34.2539
        -4.9963         71.8907         35.2761
        -4.7924         56.3635         56.8258
        -4.5885         67.4988         40.5896
        -4.3845         91.3221         14.4428
        -4.1806        147.1241         -2.1642
        -3.9767        147.9682        -14.6539
        -3.7727         96.5813         34.3453
        -3.5688       -127.3125         54.9439
        -3.3649       -191.8289         37.8038
        -3.1609       -202.6419         -9.4651
        -2.9570       -205.6595         -4.2192
        -2.7531        -15.0244         55.3779
        -2.5491         57.8950         47.5051
        -2.3452          4.9433        -17.0197
        -2.1413         35.0023        -48.1618
        -1.9373         -4.9187        -14.6126
        -1.7334         48.5685         27.5627
        -1.5295         57.9699         -9.4341
        -1.3256         23.6668        -17.4918
        -1.1216        -22.8629         -4.7330
        -0.9177          0.9016          8.8699
        -0.7138        -13.7165         29.7887
        -0.5098         18.3539         19.0737
        -0.3059          9.7653        -23.2214
        -0.1020       -102.0878        -16.1330
         0.1020         33.0638         -2.6725
         0.3059         37.6245         -4.1201
         0.5098         16.5198        -20.4361
         0.7138        -41.3948        -23.1825
         0.9177        -13.8694          3.2412
         1.1216        -44.7121          9.9006
         1.3256          8.8657         17.5844
         1.5295        -13.7581         -1.5853
         1.7334          1.3157          6.1533
         1.9374         64.4671         -8.7238
         2.1413          3.0800         -7.7342
         2.3452         65.7140         17.3732
         2.5491        -11.0771         43.1337
         2.7531        -85.6487         69.2395
         2.9570       -167.2475         48.6264
         3.1609       -358.7779          8.4357
         3.3649       -228.1595         66.2010
         3.5688       -114.2265          8.3594
         3.7727        -27.0674        -12.3747
         3.9767        140.5350          6.7344
         4.1806        103.0719         -5.8908
         4.3845        112.0552        -21.1642
         4.5885        104.0331        -66.1077
         4.7924         31.7415        -31.3270
         4.9963         24.1583        -25.2116
         5.2003        163.6963          7.6583
         5.4042         24.5145         48.9637
         5.6081         38.9864        -25.7036
         5.8121         42.2044        -37.5297
         6.0160         39.8724         15.1101
         6.2199         27.4380         21.5208
         6.4238        -33.2026        -13.1071
         6.6278         20.9033        -11.6515
         6.8317         22.8132        -13.1838
         7.0356        -39.7699        -11.6712
         7.2396        -74.2965        -74.6779
         7.4435        -17.4922        -80.5176
         7.6474        -12.7930        -32.2848
         7.8514         18.9480         13.4853
         8.0553         -9.1018          7.5460
         8.2592        -27.8806        -36.8560
         8.4632         -7.0079          1.0840
         8.6671         58.7254        -28.9486
         8.8710          2.5966        -43.9261
         9.0750        -23.7800        -29.3550
         9.2789         -3.7676         11.7396
         9.4828        -58.3314        -34.2096
         9.6868        -17.8328        -28.8887
         9.8907          6.7381        -40.3743
        10.0946         33.7927        -51.0284
