@ title  "Pressure (P) and density (D) over 101 frames"
@ xlabel "Z [nm]"
@ ylabel "P [bar] or D [kg/m^3]"
@ s0 legend "P_T"
@ s1 legend "P_N"
       -10.5261         20.8141          0.0000
       -10.3134         23.7745          0.0000
       -10.1008          5.9975          0.0000
        -9.8881        -22.7153          0.0000
        -9.6755        -48.5980          0.0000
        -9.4628        -42.7258          0.0000
        -9.2502        -13.5955          0.0000
        -9.0375         -8.6043          0.0000
        -8.8249          4.3836          0.0000
        -8.6122         21.7342          0.0000
        -8.3996         11.2437          0.0000
        -8.1869        -31.8893          0.0000
        -7.9743        -22.0045          0.0000
        -7.7616          8.2217          0.0000
        -7.5490        -15.2182          0.0000
        -7.3363        -33.2196          0.0000
        -7.1237        -17.7360          0.0000
        -6.9110         34.4520          0.0000
        -6.6984        -24.7170          0.0000
        -6.4858         -5.4207          0.0000
        -6.2731         42.9602          0.0000
        -6.0605         -6.8554          0.0000
        -5.8478         40.7200          0.0000
        -5.6352         43.5263          0.0000
        -5.4225         23.8858          0.0000
        -5.2099         94.3944          0.0000
        -4.9972         93.6834          0.0000
        -4.7846         65.1829          0.0000
        -4.5719         98.1087          0.0000
        -4.3593        152.8438          0.0000
        -4.1466         92.5629          0.0000
        -3.9340         15.9476          0.0000
        -3.7213        -80.6367          0.0000
        -3.5087       -137.5717          0.0000
        -3.2960       -131.1288          0.0000
        -3.0834       -165.9102          0.0000
        -2.8707       -125.8322          0.0000
        -2.6581        -77.8803          0.0000
        -2.4454        -33.2934          0.0000
        -2.2328         43.9584          0.0000
        -2.0202          7.3824          0.0000
        -1.8075         20.9414          0.0000
        -1.5949         13.1385          0.0000
        -1.3822         21.2970          0.0000
        -1.1696        -69.3119          0.0000
        -0.9569          2.6544          0.0000
        -0.7443         27.7440          0.0000
        -0.5316         61.9047          0.0000
        -0.3190         -1.1320          0.0000
        -0.1063         -0.3316          0.0000
         0.1063        -23.8736          0.0000
         0.3190        -18.7786          0.0000
         0.5316        -35.1731          0.0000
         0.7443          5.7409          0.0000
         0.9569         -3.6664          0.0000
         1.1696         41.9060          0.0000
         1.3822        -23.3769          0.0000
         1.5949         38.3467          0.0000
         1.8075         -7.2382          0.0000
         2.0201         43.0130          0.0000
         2.2328         14.8159          0.0000
         2.4454         -1.0063          0.0000
         2.6581         19.9821          0.0000
         2.8707        -75.0010          0.0000
         3.0834       -201.5399          0.0000
         3.2960       -231.4999          0.0000
         3.5087       -155.3812          0.0000
         3.7213        -45.0126          0.0000
         3.9340         32.4588          0.0000
         4.1466         76.2437          0.0000
         4.3593        174.5274          0.0000
         4.5719        142.4562          0.0000
         4.7846        140.8114          0.0000
         4.9972        132.6400          0.0000
         5.2099         27.1489          0.0000
         5.4225        103.2899          0.0000
         5.6352         49.6186          0.0000
         5.8478        -10.1294          0.0000
         6.0605        -12.5029          0.0000
         6.2731         51.2857          0.0000
         6.4857         12.0479          0.0000
         6.6984         55.3523          0.0000
         6.9110         73.4162          0.0000
         7.1237         26.3560          0.0000
         7.3363        -13.9373          0.0000
         7.5490          3.1573          0.0000
         7.7616        -43.3244          0.0000
         7.9743         21.7438          0.0000
         8.1869         56.4754          0.0000
         8.3996         13.0645          0.0000
         8.6122        -25.5892          0.0000
         8.8249         -2.6206          0.0000
         9.0375         50.8475          0.0000
         9.2502         15.3365          0.0000
         9.4628         34.8047          0.0000
         9.6755         51.3325          0.0000
         9.8881         10.1802          0.0000
        10.1008          3.9618          0.0000
        10.3134        -66.0301          0.0000
        10.5260          0.0276          0.0000
