@ title  "Pressure (P) and density (D) over 101 frames"
@ xlabel "Z [nm]"
@ ylabel "P [bar] or D [kg/m^3]"
@ s0 legend "P_T"
@ s1 legend "P_N"
       -10.2882        -28.9354          0.0000
       -10.0804          3.7326          0.0000
        -9.8726         14.0123          0.0000
        -9.6647          9.6032          0.0000
        -9.4569         15.8996          0.0000
        -9.2490         70.0018          0.0000
        -9.0412        100.0139          0.0000
        -8.8333        -15.2446          0.0000
        -8.6255        -14.4148          0.0000
        -8.4176         57.5124          0.0000
        -8.2098         48.7345          0.0000
        -8.0020         25.5884          0.0000
        -7.7941         11.4307          0.0000
        -7.5863        -11.4047          0.0000
        -7.3784         55.2995          0.0000
        -7.1706        -25.4697          0.0000
        -6.9627        -59.2157          0.0000
        -6.7549         77.4531          0.0000
        -6.5471         -8.7518          0.0000
        -6.3392         -9.2789          0.0000
        -6.1314         47.2649          0.0000
        -5.9235         -6.2185          0.0000
        -5.7157         -2.0643          0.0000
        -5.5078         19.9669          0.0000
        -5.3000         60.5442          0.0000
        -5.0922         14.2724          0.0000
        -4.8843        101.3592          0.0000
        -4.6765         64.4056          0.0000
        -4.4686         47.0926          0.0000
        -4.2608        106.6867          0.0000
        -4.0529         43.3454          0.0000
        -3.8451        -25.7317          0.0000
        -3.6373       -175.0074          0.0000
        -3.4294       -271.7188          0.0000
        -3.2216       -299.0541          0.0000
        -3.0137       -199.4714          0.0000
        -2.8059        -91.3923          0.0000
        -2.5980         12.3280          0.0000
        -2.3902         65.9833          0.0000
        -2.1824         19.0246          0.0000
        -1.9745         19.6533          0.0000
        -1.7667        -33.6194          0.0000
        -1.5588         38.3340          0.0000
        -1.3510         30.5741          0.0000
        -1.1431         31.9392          0.0000
        -0.9353        -25.9027          0.0000
        -0.7274         15.4850          0.0000
        -0.5196        -16.1123          0.0000
        -0.3118        -12.6700          0.0000
        -0.1039         50.6213          0.0000
         0.1039        -35.4656          0.0000
         0.3118         55.2168          0.0000
         0.5196         59.8653          0.0000
         0.7275         27.7685          0.0000
         0.9353         11.0777          0.0000
         1.1431          2.2333          0.0000
         1.3510        -24.2069          0.0000
         1.5588         -9.0487          0.0000
         1.7667          4.0825          0.0000
         1.9745        -14.4874          0.0000
         2.1824         55.0399          0.0000
         2.3902         28.4764          0.0000
         2.5980        -48.3229          0.0000
         2.8059       -131.2057          0.0000
         3.0137       -233.9428          0.0000
         3.2216       -275.6233          0.0000
         3.4294       -186.8470          0.0000
         3.6373        -65.1205          0.0000
         3.8451         34.1185          0.0000
         4.0529         49.7544          0.0000
         4.2608        103.3277          0.0000
         4.4686         35.4594          0.0000
         4.6765         69.1396          0.0000
         4.8843         75.9204          0.0000
         5.0922        156.5773          0.0000
         5.3000         66.2371          0.0000
         5.5078         36.6478          0.0000
         5.7157         95.8193          0.0000
         5.9235         14.5050          0.0000
         6.1314         17.3992          0.0000
         6.3392         54.3149          0.0000
         6.5471         27.7942          0.0000
         6.7549         26.5919          0.0000
         6.9627         61.0585          0.0000
         7.1706         29.5977          0.0000
         7.3784         41.4037          0.0000
         7.5863         55.7942          0.0000
         7.7941        -10.2413          0.0000
         8.0020         -0.3744          0.0000
         8.2098         47.6953          0.0000
         8.4177         51.3244          0.0000
         8.6255         -5.5340          0.0000
         8.8333         42.9087          0.0000
         9.0412         73.7026          0.0000
         9.2490         71.2480          0.0000
         9.4569         33.1292          0.0000
         9.6647         38.1828          0.0000
         9.8726        -11.3281          0.0000
        10.0804          3.6656          0.0000
        10.2882        -38.7777          0.0000
