#  Job_num       Pt_tot       Pn_tot       Pt_cfg       Pn_cfg       Pt_kin       Pn_kin
       000       7.9371       3.8993    -677.5955    -682.0970     685.5325     685.9960
       001      -0.0841       1.5747    -685.2715    -685.6060     685.1880     687.1800
       002      -6.3298       3.3904    -691.2375    -682.7490     684.9075     686.1390
       003       2.0730       5.6668    -683.4880    -680.0130     685.5610     685.6800
       004       8.0612      11.2611    -677.5240    -674.9410     685.5850     686.2020
       005       2.0874      -7.9290    -683.0530    -693.2340     685.1405     685.3050
       006      -1.0617      -0.7960    -686.2315    -686.8670     685.1705     686.0710
       007      -1.3930       0.4627    -687.0185    -685.7880     685.6250     686.2510
       008       7.2663       5.3789    -678.9150    -681.6790     686.1810     687.0580
       009       7.8773       7.1978    -677.9970    -679.2820     685.8740     686.4800
       010       5.7871       5.3273    -679.5040    -680.0820     685.2915     685.4090
       011       5.7031      -0.4409    -679.6930    -685.8510     685.3955     685.4100
       012       6.5309      10.5405    -679.3295    -675.8030     685.8605     686.3430
       013      -9.0150      -7.7681    -693.4465    -692.9050     684.4320     685.1370
       014       1.6052       2.9634    -683.6690    -682.6390     685.2745     685.6030
       015       2.5883       3.4978    -684.0720    -681.7930     686.6605     685.2910
       016       9.0462      11.1850    -676.4120    -674.8190     685.4580     686.0040
       017       5.0965       9.7135    -680.5180    -676.9340     685.6145     686.6480
       018       0.5888      -2.9904    -684.4500    -689.0430     685.0390     686.0530
       019       5.1461      14.4383    -680.7275    -672.4200     685.8740     686.8580
       020       5.3830       6.1361    -680.5710    -680.2180     685.9540     686.3550
       021      -1.1773      -7.9642    -686.7610    -693.3090     685.5835     685.3450
       022      -7.1667      -4.9396    -692.1845    -690.9530     685.0175     686.0140
       023       0.5513      -2.3554    -685.7690    -689.3590     686.3205     687.0030
       024       6.5845       2.9592    -679.3460    -682.9600     685.9310     685.9190
       025       7.4745       0.7652    -678.5570    -684.3210     686.0315     685.0870
       026       6.2073      -0.9623    -679.6525    -687.0930     685.8600     686.1300
       027       3.5654       2.7370    -682.5060    -684.2980     686.0715     687.0350
       028      -0.5940       1.8725    -686.1290    -684.9460     685.5350     686.8190
       029      -1.8317       3.2584    -688.5225    -684.0660     686.6910     687.3250
       030       5.2234       3.0449    -681.1825    -683.2060     686.4060     686.2510
       031      -0.0220       3.4625    -685.9205    -683.2940     685.8985     686.7560
       032       4.5341       5.1360    -681.5340    -681.5490     686.0685     686.6850
       033      -6.9471      -3.3755    -692.3215    -689.1240     685.3745     685.7490
       034       7.3512      10.3360    -678.3560    -675.6900     685.7070     686.0260
       035       7.5552       0.1401    -678.5655    -687.1090     686.1205     687.2490
       036       9.0600       4.8550    -676.8575    -681.6420     685.9175     686.4970
       037       4.1036      -0.5843    -681.2455    -686.3910     685.3490     685.8070
       038       1.9383       1.6404    -683.4345    -683.6950     685.3720     685.3350
       039       4.2573       3.6360    -681.0100    -682.9510     685.2675     686.5870
       040      -0.2212      -2.7691    -685.6665    -687.2390     685.4455     684.4700
       041       5.6295       9.2658    -679.8275    -676.8290     685.4575     686.0950
       042      -2.1810      -0.2068    -687.7560    -686.1560     685.5750     685.9490
       043      -2.5017      -6.3001    -688.5470    -691.4010     686.0450     685.1010
       044       2.3070      -3.3786    -682.9330    -688.6360     685.2405     685.2570
       045      -2.1420      -3.6069    -687.6740    -688.9170     685.5320     685.3100
       046       7.3697       0.4137    -677.8310    -684.9630     685.2005     685.3760
       047       2.4980       6.0969    -682.4945    -679.0250     684.9925     685.1220
       048      -4.3508      -4.2656    -689.9625    -690.2820     685.6120     686.0160
       049      -1.1357      -2.6925    -687.0215    -688.4210     685.8860     685.7290
       AVG       2.4167       1.9786    -683.2060    -684.0520     685.6230     686.0300
