@ title  "Pressure (P) and density (D) over 101 frames"
@ xlabel "Z [nm]"
@ ylabel "P [bar] or D [kg/m^3]"
@ s0 legend "P_T"
@ s1 legend "P_N"
       -10.1122         22.7503          0.0000
        -9.9080         17.0492          0.0000
        -9.7037         37.3424          0.0000
        -9.4994         60.2257          0.0000
        -9.2951         57.2266          0.0000
        -9.0908         14.9281          0.0000
        -8.8865         12.4097          0.0000
        -8.6822          2.4925          0.0000
        -8.4779         17.5621          0.0000
        -8.2737          5.3872          0.0000
        -8.0694         19.2702          0.0000
        -7.8651         23.0608          0.0000
        -7.6608        -18.9339          0.0000
        -7.4565         26.0829          0.0000
        -7.2522         23.6042          0.0000
        -7.0479         23.7014          0.0000
        -6.8436        -13.4153          0.0000
        -6.6394         60.0517          0.0000
        -6.4351        -12.9490          0.0000
        -6.2308         -6.8749          0.0000
        -6.0265          4.1815          0.0000
        -5.8222         55.8938          0.0000
        -5.6179         56.1958          0.0000
        -5.4136         15.6167          0.0000
        -5.2093          6.7789          0.0000
        -5.0051         53.0124          0.0000
        -4.8008         63.9605          0.0000
        -4.5965        109.2383          0.0000
        -4.3922        171.5412          0.0000
        -4.1879        145.0022          0.0000
        -3.9836         24.5761          0.0000
        -3.7793        -15.4264          0.0000
        -3.5750        -98.7497          0.0000
        -3.3708       -206.7556          0.0000
        -3.1665       -186.2321          0.0000
        -2.9622       -225.3355          0.0000
        -2.7579       -120.4452          0.0000
        -2.5536        -50.9724          0.0000
        -2.3493        -59.3927          0.0000
        -2.1450         11.9925          0.0000
        -1.9407         43.2050          0.0000
        -1.7364         57.8269          0.0000
        -1.5322         61.4127          0.0000
        -1.3279         41.0237          0.0000
        -1.1236         29.9597          0.0000
        -0.9193        -39.3250          0.0000
        -0.7150        -17.1781          0.0000
        -0.5107         38.2089          0.0000
        -0.3064         66.3131          0.0000
        -0.1021         23.8173          0.0000
         0.1021          0.9599          0.0000
         0.3064         34.7085          0.0000
         0.5107         43.1709          0.0000
         0.7150        -19.3378          0.0000
         0.9193         10.2994          0.0000
         1.1236          3.2163          0.0000
         1.3279         26.5935          0.0000
         1.5322         61.0450          0.0000
         1.7364         -8.0203          0.0000
         1.9407        -18.7987          0.0000
         2.1450         59.4097          0.0000
         2.3493         79.4617          0.0000
         2.5536         -1.6063          0.0000
         2.7579        -27.5430          0.0000
         2.9622       -239.5459          0.0000
         3.1665       -312.7615          0.0000
         3.3707       -182.9743          0.0000
         3.5750        -14.7779          0.0000
         3.7793         89.5976          0.0000
         3.9836         89.0695          0.0000
         4.1879         73.8637          0.0000
         4.3922         51.9192          0.0000
         4.5965        105.0386          0.0000
         4.8008         15.9957          0.0000
         5.0050         79.3089          0.0000
         5.2093         33.0645          0.0000
         5.4136         -6.5533          0.0000
         5.6179        -35.2409          0.0000
         5.8222        -14.9148          0.0000
         6.0265         19.1024          0.0000
         6.2308         14.0386          0.0000
         6.4351         -8.9593          0.0000
         6.6393         20.5323          0.0000
         6.8436        -11.4154          0.0000
         7.0479        -23.1317          0.0000
         7.2522         38.9314          0.0000
         7.4565         36.6766          0.0000
         7.6608         25.6173          0.0000
         7.8651        -15.8242          0.0000
         8.0694         46.0489          0.0000
         8.2737        -46.3080          0.0000
         8.4779        -47.3027          0.0000
         8.6822         16.7876          0.0000
         8.8865         19.8938          0.0000
         9.0908         30.8049          0.0000
         9.2951         27.1568          0.0000
         9.4994         35.5963          0.0000
         9.7037        -16.0647          0.0000
         9.9080         18.9004          0.0000
        10.1122        -27.8266          0.0000
