@ title  "Pressure (P) and density (D) over 101 frames"
@ xlabel "Z [nm]"
@ ylabel "P [bar] or D [kg/m^3]"
@ s0 legend "P_T"
@ s1 legend "P_N"
       -10.5786          9.6897          0.0000
       -10.3649         55.6196          0.0000
       -10.1512        -31.7171          0.0000
        -9.9375         33.4724          0.0000
        -9.7238        -27.2906          0.0000
        -9.5101        -10.9978          0.0000
        -9.2964         58.4492          0.0000
        -9.0827          0.5972          0.0000
        -8.8690         69.7893          0.0000
        -8.6553         24.6714          0.0000
        -8.4415         32.0041          0.0000
        -8.2278         33.9848          0.0000
        -8.0141         24.1061          0.0000
        -7.8004         -0.0717          0.0000
        -7.5867        -49.6201          0.0000
        -7.3730        -25.4554          0.0000
        -7.1593         25.4697          0.0000
        -6.9456         14.7219          0.0000
        -6.7319         29.8868          0.0000
        -6.5182         41.3590          0.0000
        -6.3044         -7.2494          0.0000
        -6.0907         18.9928          0.0000
        -5.8770         67.1306          0.0000
        -5.6633         17.9216          0.0000
        -5.4496         64.2338          0.0000
        -5.2359         84.0418          0.0000
        -5.0222         39.9718          0.0000
        -4.8085         85.2436          0.0000
        -4.5948        152.4486          0.0000
        -4.3811        125.5458          0.0000
        -4.1673        112.0788          0.0000
        -3.9536         14.9594          0.0000
        -3.7399        -87.5062          0.0000
        -3.5262       -180.0395          0.0000
        -3.3125       -187.4711          0.0000
        -3.0988       -160.4207          0.0000
        -2.8851        -96.3729          0.0000
        -2.6714        -56.9015          0.0000
        -2.4577          4.9697          0.0000
        -2.2440         27.0982          0.0000
        -2.0302          5.5998          0.0000
        -1.8165        -36.5115          0.0000
        -1.6028        -43.4600          0.0000
        -1.3891        -48.9193          0.0000
        -1.1754         -1.9168          0.0000
        -0.9617         -3.8709          0.0000
        -0.7480         -8.7229          0.0000
        -0.5343         11.6582          0.0000
        -0.3206          1.3878          0.0000
        -0.1069          9.2189          0.0000
         0.1069        -48.6173          0.0000
         0.3206         -1.7943          0.0000
         0.5343         67.9706          0.0000
         0.7480         40.3983          0.0000
         0.9617         -0.2150          0.0000
         1.1754         -8.2817          0.0000
         1.3891       -101.7545          0.0000
         1.6028         30.5672          0.0000
         1.8165         44.6952          0.0000
         2.0302         64.1026          0.0000
         2.2440        -29.3373          0.0000
         2.4577          2.1460          0.0000
         2.6714        -43.8354          0.0000
         2.8851       -108.4680          0.0000
         3.0988       -221.0578          0.0000
         3.3125       -211.8004          0.0000
         3.5262       -122.7989          0.0000
         3.7399        -61.2437          0.0000
         3.9536         20.6990          0.0000
         4.1674         90.6057          0.0000
         4.3811        118.3884          0.0000
         4.5948        107.2542          0.0000
         4.8085        103.8663          0.0000
         5.0222         98.4728          0.0000
         5.2359         71.6985          0.0000
         5.4496        -14.6225          0.0000
         5.6633         -0.1545          0.0000
         5.8770         -2.1184          0.0000
         6.0907         16.1871          0.0000
         6.3045         37.8278          0.0000
         6.5182         30.5801          0.0000
         6.7319        -17.3148          0.0000
         6.9456         -3.6346          0.0000
         7.1593        -13.8462          0.0000
         7.3730         27.9938          0.0000
         7.5867        -44.8940          0.0000
         7.8004         12.4908          0.0000
         8.0141         13.1755          0.0000
         8.2278         -4.3151          0.0000
         8.4416        -50.5463          0.0000
         8.6553        -47.9911          0.0000
         8.8690         31.4531          0.0000
         9.0827          7.0898          0.0000
         9.2964        -58.6658          0.0000
         9.5101         13.4174          0.0000
         9.7238         11.7084          0.0000
         9.9375        -24.6193          0.0000
        10.1512          5.2230          0.0000
        10.3649          3.0218          0.0000
        10.5787        -15.1787          0.0000
