@ title  "Pressure (P) and density (D) over 101 frames"
@ xlabel "Z [nm]"
@ ylabel "P [bar] or D [kg/m^3]"
@ s0 legend "P_T"
@ s1 legend "P_N"
       -10.0636        -44.1030         -2.4317
        -9.8603        -28.0903         -7.4084
        -9.6570         14.0975        -13.1613
        -9.4537         18.2086        -53.8791
        -9.2504        -50.1159        -27.5609
        -9.0471         23.9670        -12.2028
        -8.8438        -19.3251        -17.6626
        -8.6405        -16.1372         -0.5421
        -8.4372        -52.7406          2.7386
        -8.2339        -13.1634          6.5575
        -8.0305         13.6003         56.1347
        -7.8272         43.5661         73.2079
        -7.6239         22.9901         60.6920
        -7.4206         39.3208         31.6768
        -7.2173         10.9978         -3.7102
        -7.0140          3.0357         17.5468
        -6.8107         26.0002         41.7505
        -6.6074         56.4976          4.3961
        -6.4041         14.7564         -3.9541
        -6.2008         44.3834          2.6561
        -5.9975         33.6227        -32.5035
        -5.7942          8.1788          1.4048
        -5.5909         41.6945         11.6711
        -5.3876         76.4578         31.9361
        -5.1843         52.2837         -6.2880
        -4.9810         46.0778        -45.2969
        -4.7777         72.3510        -56.6183
        -4.5744         97.2949        -38.3445
        -4.3711         78.4080         38.9013
        -4.1678         70.2322         -6.9061
        -3.9644        118.9105         56.9406
        -3.7611        105.0406         89.4772
        -3.5578        -70.8620         19.5708
        -3.3545       -305.7423         12.6568
        -3.1512       -293.3621        -19.4184
        -2.9479       -265.8258        -41.4730
        -2.7446        -31.2491         34.0307
        -2.5413        -34.3701         18.7591
        -2.3380         -8.6417         -2.3287
        -2.1347         46.3970        -18.3767
        -1.9314         20.6884         -6.8321
        -1.7281         77.4034          4.0943
        -1.5248         66.7320          0.9125
        -1.3215         61.7284        -14.4912
        -1.1182        -20.4969        -29.9574
        -0.9149        -27.6906        -27.9411
        -0.7116        -13.4855        -22.8466
        -0.5083         31.6212        -20.1252
        -0.3050         24.0638        -21.3759
        -0.1017        -10.5761          0.6489
         0.1017         21.5082          2.9663
         0.3050        -58.1019        -16.8368
         0.5083        -13.4191          0.1589
         0.7116        -18.6053          5.4724
         0.9149        -14.1505         -7.2445
         1.1182        -15.8861         10.8206
         1.3215        -40.7064         -2.7475
         1.5248        -28.3130         28.5363
         1.7281        -17.0654         34.0887
         1.9314          8.0055        -21.4295
         2.1347        111.8870        -27.9953
         2.3380        154.4904         12.0365
         2.5413         46.5114          0.9134
         2.7446        -66.1984        -20.0501
         2.9479       -354.6993        -39.8995
         3.1512       -334.3657        -28.0280
         3.3545       -304.9367        -14.8263
         3.5578       -131.3396        -62.1644
         3.7611         37.6515        -30.7595
         3.9644        142.2289         31.0895
         4.1678        192.2804         88.9724
         4.3711        127.9507         47.4445
         4.5744         72.6638          3.8343
         4.7777         60.1654         -1.5593
         4.9810         70.3799         26.3066
         5.1843         70.1553         25.8564
         5.3876         42.6590        -52.8255
         5.5909        -67.0728        -64.6318
         5.7942          2.6738         38.2891
         5.9975         34.7783         45.6280
         6.2008         27.2306         -0.8596
         6.4041        -15.9773        -16.4129
         6.6074         15.1038        -35.1183
         6.8107         36.5751        -15.3053
         7.0140        -22.9771        -36.2764
         7.2173        -59.3771        -51.2913
         7.4206        -51.2705        -14.8256
         7.6239         10.5500         45.3481
         7.8272         28.2125         62.1699
         8.0306          9.6701          8.4389
         8.2339         26.4749        -13.2278
         8.4372         80.2671         30.8628
         8.6405         60.3094         21.7501
         8.8438         43.6970         37.2599
         9.0471         47.3553         41.5068
         9.2504         45.2832         57.0262
         9.4537         33.7652         21.1979
         9.6570         22.3499         33.2350
         9.8603         61.3319         57.4701
        10.0636        -34.2433         31.3622
