@ title  "Pressure (P) and density (D) over 101 frames"
@ xlabel "Z [nm]"
@ ylabel "P [bar] or D [kg/m^3]"
@ s0 legend "P_T"
@ s1 legend "P_N"
       -10.2137         27.0117          0.0000
       -10.0074         47.5886          0.0000
        -9.8011          7.0732          0.0000
        -9.5947         45.2806          0.0000
        -9.3884        -38.0898          0.0000
        -9.1820          1.8212          0.0000
        -8.9757        -11.5996          0.0000
        -8.7694         32.3634          0.0000
        -8.5630        -30.0915          0.0000
        -8.3567         40.4796          0.0000
        -8.1503          4.2597          0.0000
        -7.9440         -1.6287          0.0000
        -7.7377         15.6509          0.0000
        -7.5313         41.7455          0.0000
        -7.3250         -2.9966          0.0000
        -7.1187         -1.4137          0.0000
        -6.9123        -18.1481          0.0000
        -6.7060         74.4463          0.0000
        -6.4996         22.9408          0.0000
        -6.2933         14.5616          0.0000
        -6.0870         34.2045          0.0000
        -5.8806        -11.8619          0.0000
        -5.6743          3.2082          0.0000
        -5.4680         77.4332          0.0000
        -5.2616        -22.1175          0.0000
        -5.0553         28.1842          0.0000
        -4.8489         70.8266          0.0000
        -4.6426         52.2246          0.0000
        -4.4363         63.5880          0.0000
        -4.2299        121.7523          0.0000
        -4.0236        115.1763          0.0000
        -3.8173         95.9896          0.0000
        -3.6109        -39.3297          0.0000
        -3.4046       -162.7080          0.0000
        -3.1982       -264.3192          0.0000
        -2.9919       -249.5062          0.0000
        -2.7856        -76.1779          0.0000
        -2.5792         63.7722          0.0000
        -2.3729        -17.4987          0.0000
        -2.1665        -12.6532          0.0000
        -1.9602          4.6157          0.0000
        -1.7539        -31.0327          0.0000
        -1.5475         13.8378          0.0000
        -1.3412         -3.0083          0.0000
        -1.1349        -19.0856          0.0000
        -0.9285          1.3049          0.0000
        -0.7222         -8.1141          0.0000
        -0.5158        -55.3050          0.0000
        -0.3095        -59.8498          0.0000
        -0.1032        -59.3029          0.0000
         0.1032        -20.1723          0.0000
         0.3095          1.6045          0.0000
         0.5158         13.2649          0.0000
         0.7222          3.7454          0.0000
         0.9285         11.4640          0.0000
         1.1349         16.3656          0.0000
         1.3412         -1.9339          0.0000
         1.5475        -43.3243          0.0000
         1.7539        -34.8329          0.0000
         1.9602         31.1396          0.0000
         2.1665         35.9235          0.0000
         2.3729         21.1892          0.0000
         2.5792         43.1436          0.0000
         2.7856        -35.5833          0.0000
         2.9919       -125.3239          0.0000
         3.1982       -225.2558          0.0000
         3.4046       -192.0696          0.0000
         3.6109        -76.8335          0.0000
         3.8173         54.5175          0.0000
         4.0236        104.7689          0.0000
         4.2299        132.0647          0.0000
         4.4363        122.9615          0.0000
         4.6426         90.1215          0.0000
         4.8489         65.5549          0.0000
         5.0553         31.5134          0.0000
         5.2616        -16.0334          0.0000
         5.4680          1.0389          0.0000
         5.6743         70.4184          0.0000
         5.8806         39.2796          0.0000
         6.0870         32.8482          0.0000
         6.2933          5.0646          0.0000
         6.4996         16.2357          0.0000
         6.7060        -19.8121          0.0000
         6.9123         61.6789          0.0000
         7.1187         80.0060          0.0000
         7.3250        -12.4915          0.0000
         7.5313         -8.4137          0.0000
         7.7377        -14.6479          0.0000
         7.9440         10.2883          0.0000
         8.1503         -6.4328          0.0000
         8.3567         12.5240          0.0000
         8.5630         40.7482          0.0000
         8.7694        -45.5017          0.0000
         8.9757         17.1963          0.0000
         9.1820        -50.9252          0.0000
         9.3884         -6.8759          0.0000
         9.5947         -0.5525          0.0000
         9.8011         11.6461          0.0000
        10.0074        -30.8187          0.0000
        10.2137         46.2928          0.0000
