@ title  "Pressure (P) and density (D) over 101 frames"
@ xlabel "Z [nm]"
@ ylabel "P [bar] or D [kg/m^3]"
@ s0 legend "P_T"
@ s1 legend "P_N"
       -10.0636        -80.9663          0.0000
        -9.8603          0.7399          0.0000
        -9.6570         -5.6496          0.0000
        -9.4537         13.4155          0.0000
        -9.2504        -12.3811          0.0000
        -9.0471         16.3290          0.0000
        -8.8438        -29.7419          0.0000
        -8.6405        -16.5979          0.0000
        -8.4372        -46.9448          0.0000
        -8.2339        -15.8121          0.0000
        -8.0305         19.9297          0.0000
        -7.8272         27.3026          0.0000
        -7.6239          9.9972          0.0000
        -7.4206         52.3321          0.0000
        -7.2173         -2.5867          0.0000
        -7.0140          6.1996          0.0000
        -6.8107         31.2895          0.0000
        -6.6074         44.3013          0.0000
        -6.4041         21.4741          0.0000
        -6.2008         12.7191          0.0000
        -5.9975         25.3593          0.0000
        -5.7942         33.8428          0.0000
        -5.5909         39.5989          0.0000
        -5.3876         85.5262          0.0000
        -5.1843         32.7209          0.0000
        -4.9810         54.6835          0.0000
        -4.7777         67.5876          0.0000
        -4.5744        108.4191          0.0000
        -4.3711         68.9208          0.0000
        -4.1678         72.9268          0.0000
        -3.9644        117.4426          0.0000
        -3.7611         81.0792          0.0000
        -3.5578        -24.6181          0.0000
        -3.3545       -268.1204          0.0000
        -3.1512       -274.9659          0.0000
        -2.9479       -219.2092          0.0000
        -2.7446       -107.0949          0.0000
        -2.5413        -27.9013          0.0000
        -2.3380        -36.4888          0.0000
        -2.1347         62.5959          0.0000
        -1.9314         23.9072          0.0000
        -1.7281         60.3698          0.0000
        -1.5248         88.9751          0.0000
        -1.3215         31.6982          0.0000
        -1.1182          8.0684          0.0000
        -0.9149        -60.6788          0.0000
        -0.7116          5.5355          0.0000
        -0.5083         24.8484          0.0000
        -0.3050         15.6690          0.0000
        -0.1017        -11.0791          0.0000
         0.1017         15.1580          0.0000
         0.3050        -24.1903          0.0000
         0.5083        -31.5850          0.0000
         0.7116        -20.0864          0.0000
         0.9149         -2.4950          0.0000
         1.1182        -30.0953          0.0000
         1.3215        -27.8346          0.0000
         1.5248        -44.7907          0.0000
         1.7281         -9.3090          0.0000
         1.9314         18.6966          0.0000
         2.1347         93.0398          0.0000
         2.3380        125.5457          0.0000
         2.5413         46.3405          0.0000
         2.7446       -119.4619          0.0000
         2.9479       -318.9892          0.0000
         3.1512       -335.5741          0.0000
         3.3545       -233.1794          0.0000
         3.5578        -99.0921          0.0000
         3.7611         34.9235          0.0000
         3.9644        149.2023          0.0000
         4.1678        161.3969          0.0000
         4.3711        127.6321          0.0000
         4.5744         73.0184          0.0000
         4.7777         69.3814          0.0000
         4.9810         74.1944          0.0000
         5.1843         60.5586          0.0000
         5.3876         53.7643          0.0000
         5.5909        -55.1237          0.0000
         5.7942         -7.0862          0.0000
         5.9975         14.8704          0.0000
         6.2008         21.3331          0.0000
         6.4041         10.9490          0.0000
         6.6074        -28.5548          0.0000
         6.8107         39.9829          0.0000
         7.0140          5.9591          0.0000
         7.2173       -112.5429          0.0000
         7.4206        -15.8344          0.0000
         7.6239          6.0425          0.0000
         7.8272          8.4553          0.0000
         8.0306         40.5966          0.0000
         8.2339          4.0778          0.0000
         8.4372         63.8203          0.0000
         8.6405         86.5365          0.0000
         8.8438         60.0766          0.0000
         9.0471         15.8067          0.0000
         9.2504         46.7532          0.0000
         9.4537         47.5103          0.0000
         9.6570         42.8525          0.0000
         9.8603         14.6333          0.0000
        10.0636          7.8382          0.0000
