@ title  "Pressure (P) and density (D) over 101 frames"
@ xlabel "Z [nm]"
@ ylabel "P [bar] or D [kg/m^3]"
@ s0 legend "P_T"
@ s1 legend "P_N"
       -10.5506         -9.4639          0.0000
       -10.3375         42.5340          0.0000
       -10.1243         21.7736          0.0000
        -9.9112         10.8972          0.0000
        -9.6980         70.8901          0.0000
        -9.4849         14.4357          0.0000
        -9.2718         -1.7171          0.0000
        -9.0586          9.4268          0.0000
        -8.8455        -58.2594          0.0000
        -8.6323         16.0252          0.0000
        -8.4192         13.2072          0.0000
        -8.2060         10.6082          0.0000
        -7.9929         24.2639          0.0000
        -7.7797         20.0846          0.0000
        -7.5666         37.5619          0.0000
        -7.3535        -13.8627          0.0000
        -7.1403         29.2082          0.0000
        -6.9272         31.6564          0.0000
        -6.7140        -15.7790          0.0000
        -6.5009         74.0014          0.0000
        -6.2877        110.4282          0.0000
        -6.0746         32.3747          0.0000
        -5.8615         -6.0354          0.0000
        -5.6483         98.2525          0.0000
        -5.4352         22.2383          0.0000
        -5.2220        139.4086          0.0000
        -5.0089        103.1202          0.0000
        -4.7957        102.0784          0.0000
        -4.5826         31.2378          0.0000
        -4.3694         58.9806          0.0000
        -4.1563         72.8571          0.0000
        -3.9432         10.1258          0.0000
        -3.7300        -90.8910          0.0000
        -3.5169        -42.9928          0.0000
        -3.3037       -159.1862          0.0000
        -3.0906       -150.7378          0.0000
        -2.8774        -53.4437          0.0000
        -2.6643        -62.5121          0.0000
        -2.4512        -19.0794          0.0000
        -2.2380        -19.2480          0.0000
        -2.0249        -46.6841          0.0000
        -1.8117        -27.9968          0.0000
        -1.5986         -0.2120          0.0000
        -1.3854        -27.8375          0.0000
        -1.1723        -13.7781          0.0000
        -0.9591         43.3658          0.0000
        -0.7460         -4.3067          0.0000
        -0.5329          1.5936          0.0000
        -0.3197         61.5823          0.0000
        -0.1066         65.1429          0.0000
         0.1066         32.1976          0.0000
         0.3197         -2.3456          0.0000
         0.5329          2.0613          0.0000
         0.7460          9.5550          0.0000
         0.9591         -9.8121          0.0000
         1.1723         52.6920          0.0000
         1.3854         -3.7143          0.0000
         1.5986         38.8801          0.0000
         1.8117          3.0679          0.0000
         2.0249         -1.1553          0.0000
         2.2380          7.6958          0.0000
         2.4512         -5.2737          0.0000
         2.6643        -82.7295          0.0000
         2.8774       -143.4596          0.0000
         3.0906       -184.8447          0.0000
         3.3037       -220.2292          0.0000
         3.5169       -135.6777          0.0000
         3.7300         11.2064          0.0000
         3.9432         -8.1737          0.0000
         4.1563        132.8038          0.0000
         4.3695        141.6365          0.0000
         4.5826         76.3545          0.0000
         4.7957        116.2893          0.0000
         5.0089         80.8161          0.0000
         5.2220         24.6336          0.0000
         5.4352         92.7367          0.0000
         5.6483         86.8743          0.0000
         5.8615         57.6231          0.0000
         6.0746          3.0094          0.0000
         6.2877        -19.8150          0.0000
         6.5009        -24.6573          0.0000
         6.7140         20.6967          0.0000
         6.9272         -4.8991          0.0000
         7.1403        -30.9648          0.0000
         7.3535        -64.9765          0.0000
         7.5666         21.4251          0.0000
         7.7798          9.9388          0.0000
         7.9929         22.9015          0.0000
         8.2060          8.9350          0.0000
         8.4192        -16.8145          0.0000
         8.6323        -36.9505          0.0000
         8.8455        -35.4945          0.0000
         9.0586         -3.3681          0.0000
         9.2718        -42.6423          0.0000
         9.4849        -10.4626          0.0000
         9.6980         49.5176          0.0000
         9.9112        -29.4221          0.0000
        10.1243        -14.1994          0.0000
        10.3375         -5.2482          0.0000
        10.5506          7.4218          0.0000
