@ title  "Pressure (P) and density (D) over 101 frames"
@ xlabel "Z [nm]"
@ ylabel "P [bar] or D [kg/m^3]"
@ s0 legend "P_T"
@ s1 legend "P_N"
       -10.1237          6.3168          0.0000
        -9.9192         27.3637          0.0000
        -9.7147         16.8960          0.0000
        -9.5102         21.6959          0.0000
        -9.3056        -20.0301          0.0000
        -9.1011        -24.6735          0.0000
        -8.8966        -18.0357          0.0000
        -8.6921        -88.1157          0.0000
        -8.4876          3.1919          0.0000
        -8.2830        -27.0375          0.0000
        -8.0785         58.5560          0.0000
        -7.8740          0.7503          0.0000
        -7.6695         50.1590          0.0000
        -7.4650          6.8242          0.0000
        -7.2604        -37.0398          0.0000
        -7.0559         17.3562          0.0000
        -6.8514        -71.4246          0.0000
        -6.6469         24.4422          0.0000
        -6.4424         59.4196          0.0000
        -6.2378         19.3386          0.0000
        -6.0333          6.7816          0.0000
        -5.8288        -33.0700          0.0000
        -5.6243          9.9071          0.0000
        -5.4198         47.2990          0.0000
        -5.2152         97.0322          0.0000
        -5.0107         22.1487          0.0000
        -4.8062         78.6171          0.0000
        -4.6017        120.5144          0.0000
        -4.3972        168.1806          0.0000
        -4.1926        119.7119          0.0000
        -3.9881         82.4069          0.0000
        -3.7836         83.2701          0.0000
        -3.5791         17.9948          0.0000
        -3.3746       -157.8444          0.0000
        -3.1701       -210.6486          0.0000
        -2.9655       -161.1418          0.0000
        -2.7610       -118.0589          0.0000
        -2.5565        -51.9005          0.0000
        -2.3520         -1.2538          0.0000
        -2.1475         53.4409          0.0000
        -1.9429         78.7965          0.0000
        -1.7384         41.5284          0.0000
        -1.5339         -3.5755          0.0000
        -1.3294         24.1040          0.0000
        -1.1249          9.3253          0.0000
        -0.9203          6.3924          0.0000
        -0.7158         -1.2827          0.0000
        -0.5113        -12.7253          0.0000
        -0.3068        -10.7400          0.0000
        -0.1023         37.5067          0.0000
         0.1023         26.2842          0.0000
         0.3068         31.2241          0.0000
         0.5113        -12.7873          0.0000
         0.7158         -4.7379          0.0000
         0.9203         55.2469          0.0000
         1.1249         29.5817          0.0000
         1.3294         17.0022          0.0000
         1.5339        -11.6233          0.0000
         1.7384        -37.1976          0.0000
         1.9429         -6.2168          0.0000
         2.1475         -1.2000          0.0000
         2.3520        -13.0490          0.0000
         2.5565       -102.6473          0.0000
         2.7610       -131.0060          0.0000
         2.9655       -252.6666          0.0000
         3.1701       -284.4197          0.0000
         3.3746       -204.7653          0.0000
         3.5791        -48.1783          0.0000
         3.7836         25.8550          0.0000
         3.9881         -7.1236          0.0000
         4.1927         86.9854          0.0000
         4.3972         -2.5376          0.0000
         4.6017         44.6695          0.0000
         4.8062         88.6149          0.0000
         5.0107         64.0098          0.0000
         5.2152         88.8360          0.0000
         5.4198         20.4728          0.0000
         5.6243         -1.1605          0.0000
         5.8288         21.8834          0.0000
         6.0333         10.4296          0.0000
         6.2378         19.3434          0.0000
         6.4424         24.8235          0.0000
         6.6469          5.4985          0.0000
         6.8514        -30.4710          0.0000
         7.0559         30.4230          0.0000
         7.2604        -36.3655          0.0000
         7.4650        -11.6405          0.0000
         7.6695          4.6472          0.0000
         7.8740          3.7487          0.0000
         8.0785        -29.2062          0.0000
         8.2830        -20.8022          0.0000
         8.4876         22.8768          0.0000
         8.6921         14.7707          0.0000
         8.8966         13.5514          0.0000
         9.1011         19.1846          0.0000
         9.3056         48.0239          0.0000
         9.5102         80.7586          0.0000
         9.7147         -4.6400          0.0000
         9.9192        -17.4409          0.0000
        10.1237        -12.7325          0.0000
