@ title  "Pressure (P) and density (D) over 101 frames"
@ xlabel "Z [nm]"
@ ylabel "P [bar] or D [kg/m^3]"
@ s0 legend "P_T"
@ s1 legend "P_N"
       -10.0777        -42.7278          9.8178
        -9.8741        -24.3165        -27.3144
        -9.6705         25.8103        -28.3345
        -9.4669         80.1837          6.0257
        -9.2633         14.6221         -0.7415
        -9.0597        -37.4248          5.8783
        -8.8562         13.1391         55.9809
        -8.6526         33.8929         63.4851
        -8.4490        -16.3583        -26.5114
        -8.2454        -43.6246        -54.4132
        -8.0418          1.5090        -17.8441
        -7.8382         -2.0845         20.4902
        -7.6346         31.3204         32.7542
        -7.4310          5.7164         50.4450
        -7.2274         44.0082         26.8969
        -7.0238          4.1292        -16.9807
        -6.8203         -4.2867        -12.8145
        -6.6167         51.9397         25.8500
        -6.4131         10.5384         24.4902
        -6.2095         25.9852         35.2432
        -6.0059         -7.0271          7.6019
        -5.8023         36.4117         13.8005
        -5.5987         30.6566         55.9696
        -5.3951         66.2664         34.8501
        -5.1915         35.0963         14.9120
        -4.9879         39.5379         18.3516
        -4.7844         22.8676         39.7174
        -4.5808         52.6160         38.5828
        -4.3772        126.1427         47.3122
        -4.1736         63.2105         -1.8718
        -3.9700        139.6281         59.8812
        -3.7664         84.3972         59.1271
        -3.5628         -0.0127        -66.3116
        -3.3592       -220.0709          2.8455
        -3.1556       -258.2384         68.1605
        -2.9521       -187.5853         19.0302
        -2.7485       -114.0206         -9.8165
        -2.5449         27.3665        -45.9482
        -2.3413        107.5275         -9.0018
        -2.1377         65.8963          5.5088
        -1.9341         65.7394         22.6652
        -1.7305        -21.5406         54.8415
        -1.5269        -11.5467         15.5554
        -1.3233        -84.0771        -30.8611
        -1.1197         37.4259         28.2987
        -0.9162         25.5207         50.6394
        -0.7126         82.0909         39.8877
        -0.5090         10.2644         38.7362
        -0.3054         26.4747         50.0836
        -0.1018        -27.3462          8.3807
         0.1018        -18.9295          9.7504
         0.3054        -61.5855        -24.2363
         0.5090        -13.7525         -6.2351
         0.7126         -7.4232          7.3093
         0.9162         12.7806         11.7109
         1.1197         25.4002         10.1222
         1.3233        102.9500        -18.4889
         1.5269         34.4649         20.0085
         1.7305         18.6409         20.5777
         1.9341        -28.7677         -7.2865
         2.1377         68.6219         12.8959
         2.3413          5.7779         34.9316
         2.5449          6.2083         16.9944
         2.7485       -151.1208         -0.3288
         2.9520       -247.0329         48.6754
         3.1556       -249.2200         34.5622
         3.3592       -142.3227         10.6603
         3.5628         25.7623         -1.8440
         3.7664         67.3225         26.7180
         3.9700        154.0129         33.0598
         4.1736         99.5104        -32.6251
         4.3772        106.5699        -61.3702
         4.5808         34.9626        -44.0930
         4.7844        132.5653         28.5507
         4.9879         48.1733         16.5937
         5.1915         95.8281        -24.6498
         5.3951        -15.9585        -51.8528
         5.5987        -14.4273        -44.7113
         5.8023         60.5702         34.3235
         6.0059         34.0958         64.7876
         6.2095         50.3480         38.1880
         6.4131         22.4161         34.1271
         6.6167         72.3383         19.9493
         6.8203        -20.4171          4.5445
         7.0238         10.3026        -27.0764
         7.2274        -27.2614        -16.6788
         7.4310         17.1690        -43.1903
         7.6346         42.2358        -31.2104
         7.8382        -27.5470         21.2928
         8.0418          5.2894        -23.9588
         8.2454        -40.1412        -13.3830
         8.4490          7.5071         -5.7209
         8.6526         14.1941         37.2238
         8.8561         -5.1638         34.4819
         9.0597         31.0434         38.8338
         9.2633         37.9226         25.3311
         9.4669         37.6870         24.2608
         9.6705          8.6228         16.8736
         9.8741         12.0332          9.8389
        10.0777        -22.5088         43.9385
