@ title  "Pressure (P) and density (D) over 101 frames"
@ xlabel "Z [nm]"
@ ylabel "P [bar] or D [kg/m^3]"
@ s0 legend "P_T"
@ s1 legend "P_N"
       -10.1122        860.0184        850.7009
        -9.9080        865.2785        864.8834
        -9.7037        862.4142        867.0186
        -9.4994        860.3945        867.2385
        -9.2951        854.8461        850.8105
        -9.0908        871.9220        867.6672
        -8.8865        871.8176        871.9155
        -8.6822        858.5422        861.2487
        -8.4779        861.4229        868.1647
        -8.2737        859.6564        854.4315
        -8.0694        871.4965        872.0709
        -7.8651        861.7948        862.3051
        -7.6608        859.3275        855.6547
        -7.4565        863.5331        871.4699
        -7.2522        858.0074        858.4975
        -7.0479        871.3376        865.4703
        -6.8436        849.7938        866.1580
        -6.6394        859.5544        864.7435
        -6.4351        856.3820        866.4796
        -6.2308        847.8810        858.9917
        -6.0265        842.1957        845.9571
        -5.8222        824.5962        822.1860
        -5.6179        808.1767        804.6432
        -5.4136        792.2393        789.3757
        -5.2093        797.2705        789.5175
        -5.0051        786.2758        794.7481
        -4.8008        785.5877        785.6958
        -4.5965        777.4817        774.7559
        -4.3922        765.1412        776.0304
        -4.1879        760.8049        757.9249
        -3.9836        733.2860        749.7148
        -3.7793        715.3971        721.4565
        -3.5750        685.8893        698.4195
        -3.3708        640.7755        625.7670
        -3.1665        559.1584        554.7349
        -2.9622        492.8230        481.3196
        -2.7579        412.1508        409.4623
        -2.5536        390.0537        396.1143
        -2.3493        372.8571        371.9879
        -2.1450        368.7306        366.3624
        -1.9407        371.5666        379.8952
        -1.7364        367.9100        363.5699
        -1.5322        372.4494        373.4714
        -1.3279        373.8082        373.2260
        -1.1236        363.3486        352.4102
        -0.9193        372.9887        366.8568
        -0.7150        359.8653        362.4378
        -0.5107        370.8438        375.1452
        -0.3064        367.2073        368.3005
        -0.1021        370.6908        368.6271
         0.1021        359.9401        357.1041
         0.3064        364.3669        366.3260
         0.5107        366.0120        372.0009
         0.7150        361.7118        363.0333
         0.9193        373.2649        369.8434
         1.1236        362.3112        362.4581
         1.3279        374.5527        375.5320
         1.5322        361.9800        365.2326
         1.7364        372.1352        371.9890
         1.9407        362.3785        362.9295
         2.1450        373.1376        367.0650
         2.3493        369.1287        370.9056
         2.5536        380.2348        381.0478
         2.7579        409.3765        405.3672
         2.9622        497.4663        491.5647
         3.1665        569.8327        565.6506
         3.3707        659.1731        671.0662
         3.5750        701.4517        705.1316
         3.7793        734.2039        735.5541
         3.9836        753.5015        757.2810
         4.1879        771.5327        767.8534
         4.3922        769.2382        766.3701
         4.5965        785.4357        781.5678
         4.8008        765.7351        768.5328
         5.0050        788.4430        772.8778
         5.2093        794.9467        785.8035
         5.4136        805.4496        795.1719
         5.6179        808.8851        816.3527
         5.8222        827.0933        824.6633
         6.0265        841.0948        829.5986
         6.2308        841.2729        851.2949
         6.4351        851.3147        857.3592
         6.6393        856.1881        858.2769
         6.8436        857.9327        855.9463
         7.0479        863.3574        866.9688
         7.2522        871.7111        866.6547
         7.4565        860.7891        865.9549
         7.6608        873.5308        872.1121
         7.8651        863.1883        867.7134
         8.0694        865.0438        860.8352
         8.2737        857.0239        856.8811
         8.4779        860.2318        861.1702
         8.6822        865.0911        866.0492
         8.8865        863.9448        852.2738
         9.0908        866.3072        865.9603
         9.2951        861.7280        858.2668
         9.4994        865.9799        861.3552
         9.7037        874.2595        865.4319
         9.9080        862.2067        866.7184
        10.1122        866.3151        870.4377
