@ title  "Pressure (P) and density (D) over 101 frames"
@ xlabel "Z [nm]"
@ ylabel "P [bar] or D [kg/m^3]"
@ s0 legend "P_T"
@ s1 legend "P_N"
       -10.5506         -8.9680          0.0000
       -10.3375         42.5564          0.0000
       -10.1243         21.9892          0.0000
        -9.9112         10.0191          0.0000
        -9.6980         70.9777          0.0000
        -9.4849         14.9557          0.0000
        -9.2718         -2.3616          0.0000
        -9.0586         10.1330          0.0000
        -8.8455        -58.8062          0.0000
        -8.6323         16.1288          0.0000
        -8.4192         13.3853          0.0000
        -8.2060         10.5762          0.0000
        -7.9929         24.5877          0.0000
        -7.7797         19.8747          0.0000
        -7.5666         37.6042          0.0000
        -7.3535        -14.1137          0.0000
        -7.1403         28.7370          0.0000
        -6.9272         31.6952          0.0000
        -6.7140        -15.5841          0.0000
        -6.5009         73.1358          0.0000
        -6.2877        109.9409          0.0000
        -6.0746         32.4501          0.0000
        -5.8615         -7.4062          0.0000
        -5.6483         98.2373          0.0000
        -5.4352         22.0966          0.0000
        -5.2220        140.5737          0.0000
        -5.0089        102.4612          0.0000
        -4.7957        102.0039          0.0000
        -4.5826         32.2505          0.0000
        -4.3694         56.8712          0.0000
        -4.1563         73.1346          0.0000
        -3.9432         11.7321          0.0000
        -3.7300        -90.5717          0.0000
        -3.5169        -39.2058          0.0000
        -3.3037       -159.2139          0.0000
        -3.0906       -152.5922          0.0000
        -2.8774        -57.7514          0.0000
        -2.6643        -63.7540          0.0000
        -2.4512        -16.3417          0.0000
        -2.2380        -17.1624          0.0000
        -2.0249        -46.6567          0.0000
        -1.8117        -23.5705          0.0000
        -1.5986          0.1492          0.0000
        -1.3854        -26.2668          0.0000
        -1.1723        -13.9519          0.0000
        -0.9591         36.1729          0.0000
        -0.7460         -5.0069          0.0000
        -0.5329          1.1715          0.0000
        -0.3197         62.3324          0.0000
        -0.1066         68.4428          0.0000
         0.1066         29.5318          0.0000
         0.3197         -4.0301          0.0000
         0.5329          3.9816          0.0000
         0.7460          9.7784          0.0000
         0.9591        -10.1538          0.0000
         1.1723         52.4481          0.0000
         1.3854         -3.9104          0.0000
         1.5986         42.1271          0.0000
         1.8117          3.5234          0.0000
         2.0249         -0.7480          0.0000
         2.2380          6.5156          0.0000
         2.4512         -4.7149          0.0000
         2.6643        -83.8130          0.0000
         2.8774       -149.4290          0.0000
         3.0906       -183.6840          0.0000
         3.3037       -214.7437          0.0000
         3.5169       -135.3184          0.0000
         3.7300         10.8418          0.0000
         3.9432         -5.9246          0.0000
         4.1563        132.5834          0.0000
         4.3695        140.7016          0.0000
         4.5826         76.1147          0.0000
         4.7957        115.9236          0.0000
         5.0089         80.3373          0.0000
         5.2220         26.3572          0.0000
         5.4352         93.1011          0.0000
         5.6483         87.5834          0.0000
         5.8615         56.1654          0.0000
         6.0746          2.6184          0.0000
         6.2877        -21.2452          0.0000
         6.5009        -24.9911          0.0000
         6.7140         19.9470          0.0000
         6.9272         -4.8796          0.0000
         7.1403        -31.0129          0.0000
         7.3535        -64.9196          0.0000
         7.5666         21.1346          0.0000
         7.7798         10.4071          0.0000
         7.9929         22.6790          0.0000
         8.2060          8.8819          0.0000
         8.4192        -16.3660          0.0000
         8.6323        -37.2064          0.0000
         8.8455        -35.7392          0.0000
         9.0586         -3.3037          0.0000
         9.2718        -42.3939          0.0000
         9.4849        -10.0428          0.0000
         9.6980         48.5067          0.0000
         9.9112        -29.0813          0.0000
        10.1243        -14.2436          0.0000
        10.3375         -5.2877          0.0000
        10.5506          7.2778          0.0000
