@ title  "Pressure (P) and density (D) over 101 frames"
@ xlabel "Z [nm]"
@ ylabel "P [bar] or D [kg/m^3]"
@ s0 legend "P_T"
@ s1 legend "P_N"
       -10.0946         69.3371        -60.7280
        -9.8907         22.5004         -2.8641
        -9.6868         35.4836         11.1659
        -9.4828        -45.0081         25.4733
        -9.2789         -5.7103          2.1971
        -9.0750        -18.5686          9.7069
        -8.8710         30.1545         49.5970
        -8.6671         54.2434         52.2919
        -8.4632         56.0341         39.1529
        -8.2592        -31.8119         17.8580
        -8.0553         70.9138         -5.3348
        -7.8514          6.6146        -35.8631
        -7.6474         22.7890        -40.7967
        -7.4435        -10.6570        -72.9537
        -7.2396         -3.2886        -62.1255
        -7.0356         14.8640          8.0273
        -6.8317         57.0325         55.9878
        -6.6278        -12.3002         19.2060
        -6.4238         12.0001         29.5452
        -6.2199          3.4581         34.8775
        -6.0160        -13.2444          2.0885
        -5.8121        104.3098        -41.8904
        -5.6081         21.7472        -18.5711
        -5.4042         24.4270         -7.5929
        -5.2003         72.0171         34.2540
        -4.9963         72.3877         35.2761
        -4.7924         56.3677         56.8258
        -4.5885         66.0236         40.5895
        -4.3845         91.6847         14.4429
        -4.1806        148.6167         -2.1642
        -3.9767        151.3586        -14.6538
        -3.7727         97.8559         34.3451
        -3.5688       -129.3542         54.9438
        -3.3649       -196.8719         37.8039
        -3.1609       -206.0067         -9.4650
        -2.9570       -206.1994         -4.2193
        -2.7531         -8.3249         55.3779
        -2.5491         60.0950         47.5051
        -2.3452          0.0407        -17.0197
        -2.1413         35.7700        -48.1618
        -1.9373         -5.6075        -14.6127
        -1.7334         46.7188         27.5627
        -1.5295         59.8476         -9.4341
        -1.3256         19.3787        -17.4918
        -1.1216        -27.0845         -4.7330
        -0.9177         -1.1454          8.8699
        -0.7138         -5.5089         29.7887
        -0.5098         21.8008         19.0736
        -0.3059          7.1381        -23.2214
        -0.1020       -103.7208        -16.1330
         0.1020         34.5933         -2.6725
         0.3059         39.3128         -4.1201
         0.5098         22.6263        -20.4361
         0.7138        -40.4574        -23.1825
         0.9177        -12.5335          3.2412
         1.1216        -53.4038          9.9006
         1.3256          7.0626         17.5844
         1.5295         -9.4359         -1.5853
         1.7334         -0.7934          6.1533
         1.9374         58.9010         -8.7238
         2.1413          4.0577         -7.7343
         2.3452         65.5551         17.3732
         2.5491        -10.2612         43.1338
         2.7531        -85.2280         69.2395
         2.9570       -160.7637         48.6265
         3.1609       -366.0126          8.4358
         3.3649       -231.9978         66.2012
         3.5688       -114.2252          8.3595
         3.7727        -25.2668        -12.3747
         3.9767        144.0004          6.7344
         4.1806        102.5294         -5.8908
         4.3845        110.6617        -21.1644
         4.5885        105.3363        -66.1077
         4.7924         32.9913        -31.3270
         4.9963         21.8875        -25.2116
         5.2003        163.3645          7.6584
         5.4042         25.7426         48.9637
         5.6081         39.4427        -25.7036
         5.8121         43.2056        -37.5297
         6.0160         39.5521         15.1101
         6.2199         27.5258         21.5208
         6.4238        -32.3578        -13.1071
         6.6278         21.2477        -11.6515
         6.8317         22.8746        -13.1838
         7.0356        -40.0311        -11.6711
         7.2396        -73.5240        -74.6779
         7.4435        -17.8257        -80.5176
         7.6474        -13.1107        -32.2848
         7.8514         18.9243         13.4853
         8.0553         -8.9024          7.5460
         8.2592        -28.0101        -36.8560
         8.4632         -7.0442          1.0840
         8.6671         59.1538        -28.9486
         8.8710          2.1355        -43.9261
         9.0750        -23.8697        -29.3550
         9.2789         -3.2629         11.7396
         9.4828        -58.8275        -34.2096
         9.6868        -17.5353        -28.8887
         9.8907          6.9708        -40.3743
        10.0946         33.4991        -51.0284
