@ title  "Pressure (P) and density (D) over 101 frames"
@ xlabel "Z [nm]"
@ ylabel "P [bar] or D [kg/m^3]"
@ s0 legend "P_T"
@ s1 legend "P_N"
       -10.0927         34.0406         43.6802
        -9.8888        -29.5433          4.5843
        -9.6849        -21.0152         10.1625
        -9.4810        -15.4799         26.6166
        -9.2771         43.1221         59.6416
        -9.0732        -16.1516         56.0179
        -8.8693          9.8040         35.6134
        -8.6654         23.9550         16.6728
        -8.4615        -12.1398        -12.6949
        -8.2576          2.6060        -10.3298
        -8.0537         45.1486         12.2339
        -7.8498         -0.0582          0.7837
        -7.6460         20.9475          6.5482
        -7.4421         21.8777         53.0315
        -7.2382         71.8236         70.3075
        -7.0343         32.0281         77.3498
        -6.8304         31.3363         62.5750
        -6.6265         65.2746         -4.7102
        -6.4226        -27.7808        -15.9190
        -6.2187          0.5037         -3.8872
        -6.0148        -14.4104         31.3395
        -5.8109         -8.0992        -16.0018
        -5.6070         37.8696         -8.9510
        -5.4031         62.0386         -7.2127
        -5.1992          9.2628         15.5604
        -4.9954         73.0928         21.3426
        -4.7915         44.1520          0.8300
        -4.5876        112.2170        -18.6148
        -4.3837        118.5245        -29.7392
        -4.1798        114.7509         16.2683
        -3.9759        102.6920         47.7011
        -3.7720        -56.2705         60.5985
        -3.5681       -142.4895        -13.7323
        -3.3642       -267.3698         -8.2277
        -3.1603       -254.9296         63.8527
        -2.9564       -163.9321         59.2140
        -2.7525        -82.6054         19.8037
        -2.5486        118.5096         24.3418
        -2.3448         82.9881         54.4350
        -2.1409         29.8530         27.5951
        -1.9370         -4.5553          9.0321
        -1.7331        -39.6097        -14.2413
        -1.5292         14.6008        -18.1068
        -1.3253          3.6945         10.2445
        -1.1214         -8.6582         32.4271
        -0.9175         81.6656          5.7876
        -0.7136        -23.7261         -4.2946
        -0.5097         24.9588         17.8008
        -0.3058         -6.5107         13.1850
        -0.1019        -16.3353         42.2804
         0.1019         93.1715         45.5575
         0.3058         12.4873         19.1889
         0.5097         18.2535         15.3684
         0.7136         22.1651         -1.1756
         0.9175         50.1484        -19.2406
         1.1214         17.4886        -12.6005
         1.3253         30.9130          0.2347
         1.5292         14.6105         -1.5583
         1.7331         13.5473          1.2544
         1.9370        -29.7767        -22.8862
         2.1409        -81.0694        -34.5440
         2.3448        -22.5909         -9.8821
         2.5487          2.1651         23.3324
         2.7525        -78.3178        -10.0338
         2.9564       -189.2439        -16.6351
         3.1603       -244.5679         36.2014
         3.3642       -178.1528         12.1871
         3.5681        -79.5178        -23.5976
         3.7720         74.9649         28.8552
         3.9759         42.4126         -4.1839
         4.1798        127.1527         31.0861
         4.3837        134.9091         -0.2687
         4.5876         83.0344        -26.0916
         4.7915         12.4401        -14.1707
         4.9954         47.2358         23.4954
         5.1993         17.9272          2.0775
         5.4031         82.2447        -15.9122
         5.6070         36.8523        -69.8819
         5.8109         34.4941        -63.8581
         6.0148         24.1543        -21.4244
         6.2187         66.2435         12.3078
         6.4226         36.8144        -16.3131
         6.6265         62.2271          6.6446
         6.8304        -36.6690         -5.4865
         7.0343        -35.7631         -5.9362
         7.2382        -48.5244          3.0339
         7.4421        -25.2585        -33.6537
         7.6460         59.3402        -34.5876
         7.8498          9.2650          0.7326
         8.0537         23.8951        -28.1273
         8.2576        -39.7910        -44.8960
         8.4615        -12.8383         -4.2308
         8.6654        -85.0317         -8.0066
         8.8693        -32.3828        -35.2907
         9.0732         15.9076        -20.0549
         9.2771        -60.0866        -23.8259
         9.4810          9.7739        -24.6138
         9.6849         -8.2470         20.6239
         9.8888         25.4069         13.6385
        10.0927          4.2379         35.2637
