@ title  "Pressure (P) and density (D) over 101 frames"
@ xlabel "Z [nm]"
@ ylabel "P [bar] or D [kg/m^3]"
@ s0 legend "P_T"
@ s1 legend "P_N"
       -10.3070        -23.1214         49.9064
       -10.0988         46.0702         63.9327
        -9.8905         13.6640         23.2973
        -9.6823         48.3840         -1.8142
        -9.4741          4.3227          2.8248
        -9.2659        -26.5221          7.0797
        -9.0577         29.6772         43.2556
        -8.8494         97.0253         24.0704
        -8.6412         56.4788          7.4592
        -8.4330         -2.8574         -8.9041
        -8.2248         25.7089        -39.3706
        -8.0165         -4.1919        -14.8542
        -7.8083         47.9274         34.9878
        -7.6001         45.7184         42.3046
        -7.3919        -11.1084         37.6414
        -7.1837        -16.3671         20.8963
        -6.9754         31.3927         48.2646
        -6.7672        -19.4529          4.6951
        -6.5590        -16.4315         15.1791
        -6.3508        126.3654         18.5727
        -6.1425         22.5554        -30.6523
        -5.9343          8.2267        -40.8891
        -5.7261          0.1101        -22.1141
        -5.5179         -3.9294         -8.7819
        -5.3097          0.3602        -11.9879
        -5.1014         72.1580         -5.0880
        -4.8932         85.4417        -31.3990
        -4.6850        133.0237        -34.3167
        -4.4768         40.2201          4.2580
        -4.2685        120.6262         15.4409
        -4.0603         54.1928         -0.2741
        -3.8521        140.6491         86.3384
        -3.6439         25.1394         -0.0561
        -3.4357       -229.3464        -21.2810
        -3.2274       -382.5057        -28.0392
        -3.0192       -224.7609         27.8154
        -2.8110         -4.9217         51.2183
        -2.6028         32.2687         65.0906
        -2.3946         43.7001         -0.4739
        -2.1863         49.0448        -25.7150
        -1.9781        -19.2726         11.0008
        -1.7699         23.0567         39.2385
        -1.5617         10.4647         25.8714
        -1.3534         28.3535        -11.0819
        -1.1452         48.6323        -26.1493
        -0.9370         20.3028        -34.9888
        -0.7288         17.5561        -27.1047
        -0.5206        -43.4427        -11.4444
        -0.3123        -24.4313         -5.3282
        -0.1041         37.0975         11.9668
         0.1041        -19.8203         12.1370
         0.3123        -13.0605         15.0631
         0.5206        -22.3644        -26.0246
         0.7288         34.1034        -41.0187
         0.9370        -47.0252        -44.1504
         1.1452          0.3065         25.1471
         1.3534          9.9603         19.8693
         1.5617          2.5508        -35.0830
         1.7699         50.9337          5.8988
         1.9781         48.7819          8.0214
         2.1863         27.5403        -27.0140
         2.3946         68.8989          0.6935
         2.6028         34.9904         -0.9418
         2.8110       -147.7153         -2.3189
         3.0192       -239.2703         10.1236
         3.2274       -388.0151         21.9621
         3.4357       -325.3244        -14.4369
         3.6439        -57.7967        -22.1263
         3.8521         19.8943         -7.8687
         4.0603        206.6471          0.9676
         4.2686        172.2804          4.6310
         4.4768        201.3551         51.7905
         4.6850        104.2505         53.1292
         4.8932         25.2011         62.4825
         5.1014         16.5148         21.3412
         5.3097         18.4829        -10.8715
         5.5179         84.3446         18.9110
         5.7261         82.8836        -15.0148
         5.9343        -11.4089        -39.7079
         6.1426         18.4169        -11.3228
         6.3508         27.1649          8.5801
         6.5590         -1.0697         15.4112
         6.7672         45.0464         21.6819
         6.9754        -46.1045         -3.8523
         7.1837         -6.2305         16.7589
         7.3919         25.6777          4.4108
         7.6001          4.7699         -9.9635
         7.8083         35.7423          1.3301
         8.0165         44.2470         48.9440
         8.2248         11.6346         27.8873
         8.4330         -9.6342        -17.6136
         8.6412         -7.9286        -42.1265
         8.8494          9.3611         -6.4018
         9.0577         51.2581         16.8695
         9.2659          0.5483         34.0817
         9.4741         55.7730         45.6727
         9.6823        -12.8630         32.0063
         9.8905        -43.8742        -37.2768
        10.0988         19.4426        -29.5293
        10.3070         19.1391         24.7889
