@ title  "Pressure (P) and density (D) over 101 frames"
@ xlabel "Z [nm]"
@ ylabel "P [bar] or D [kg/m^3]"
@ s0 legend "P_T"
@ s1 legend "P_N"
       -10.1950         37.9988         20.2214
        -9.9890          9.2033        -21.6678
        -9.7830         54.3478         22.1797
        -9.5771         11.8699         67.0800
        -9.3711         17.6246         42.2055
        -9.1652        -48.6519         72.4463
        -8.9592        -30.1880         19.3447
        -8.7532        -16.4219          9.5375
        -8.5473          7.0182         -2.1468
        -8.3413         11.5855          4.6924
        -8.1354         61.2572        -32.6265
        -7.9294        -21.6139        -22.6767
        -7.7235        -17.4566        -27.8507
        -7.5175          8.9350         12.3210
        -7.3115         -9.2504        -29.4039
        -7.1056         52.5011        -34.3346
        -6.8996        -53.7169        -20.4868
        -6.6937         54.2486         12.8970
        -6.4877         81.6227        -17.8585
        -6.2817        -32.0522        -31.0435
        -6.0758         38.5594         33.4037
        -5.8698        104.8419         67.1578
        -5.6639          0.0479         75.2286
        -5.4579        102.3332         59.5634
        -5.2519          1.0636        -15.2602
        -5.0460        106.1291         -8.4674
        -4.8400         32.7971         17.8111
        -4.6341        -10.5986         42.8146
        -4.4281        -44.4863         21.3900
        -4.2222         40.9627        -27.9516
        -4.0162        104.3470        -29.2651
        -3.8102         -4.1998        -40.2487
        -3.6043       -130.7227        -40.6088
        -3.3983       -212.5818        -84.7637
        -3.1924       -255.6257        -62.9534
        -2.9864       -124.0767         -4.3079
        -2.7804         -9.5667         27.3496
        -2.5745         -0.8431         -4.8666
        -2.3685         44.9610         18.6571
        -2.1626          8.4573        -19.4796
        -1.9566         43.0733        -20.7552
        -1.7506          2.6092        -23.3470
        -1.5447         -4.7909          3.1774
        -1.3387        -15.8933        -10.7319
        -1.1328         16.1273        -28.4467
        -0.9268          9.1568        -41.7488
        -0.7209        -11.6595        -19.8659
        -0.5149          4.6391          9.8464
        -0.3089        -62.7449        -13.6384
        -0.1030        -13.5913        -19.6638
         0.1030        -31.1590         11.4955
         0.3089          8.2459         27.2170
         0.5149         -8.0168         36.2522
         0.7209         20.6398         38.3655
         0.9268         -9.2088         43.5406
         1.1328        -56.1801          4.9046
         1.3387         12.4293         11.2686
         1.5447          4.6714         12.6361
         1.7507         71.6585         -4.1594
         1.9566          3.1286         14.0156
         2.1626         63.7906         11.9785
         2.3685         43.6196         -5.3548
         2.5745        -27.8430        -15.7733
         2.7804        -63.5425          9.7791
         2.9864       -205.8508         -4.3408
         3.1924       -303.7775        -76.4548
         3.3983       -148.6933        -47.7793
         3.6043       -116.2558        -88.2415
         3.8102         85.2194          1.1087
         4.0162         59.1988         21.9016
         4.2222         91.6637          0.5970
         4.4281        200.6077         40.4624
         4.6341         83.9243          4.2009
         4.8400         40.1238        -48.2431
         5.0460         18.5735        -54.2942
         5.2520         34.1150        -35.4652
         5.4579         63.7326         -0.0033
         5.6639         14.1398         -9.8268
         5.8698        -30.5919        -23.8502
         6.0758         80.4995        -68.5154
         6.2817         42.2646        -72.0883
         6.4877         39.4171        -64.8773
         6.6937        -32.3187        -50.6782
         6.8996         -5.2182         22.9106
         7.1056         12.6374         -8.5725
         7.3115        -36.8643          8.0376
         7.5175          6.7870         20.4324
         7.7235        -37.6825        -17.1226
         7.9294         39.0188        -24.2607
         8.1354          4.6347         23.9680
         8.3413          3.3398         13.4410
         8.5473         19.3810        -48.5545
         8.7533         31.1041        -15.2435
         8.9592         -4.9370         49.7247
         9.1652         18.7317         73.7562
         9.3711         33.8504         52.7417
         9.5771        -24.8368         15.1890
         9.7830         14.2667        -25.9177
         9.9890        -47.9264          2.7702
        10.1950         36.4733         25.0501
