@ title  "Pressure (P) and density (D) over 101 frames"
@ xlabel "Z [nm]"
@ ylabel "P [bar] or D [kg/m^3]"
@ s0 legend "P_T"
@ s1 legend "P_N"
       -10.4862        861.6082        857.4520
       -10.2743        868.6353        867.3592
       -10.0625        868.4767        864.9423
        -9.8506        856.0077        858.6955
        -9.6388        867.4452        875.3206
        -9.4270        862.0692        873.9924
        -9.2151        858.1163        857.9473
        -9.0033        869.8284        865.2874
        -8.7914        859.3490        851.9080
        -8.5796        878.2345        875.1114
        -8.3678        851.5181        864.7316
        -8.1559        848.9528        856.5876
        -7.9441        862.9598        855.2178
        -7.7322        873.1310        855.7389
        -7.5204        866.8165        881.5118
        -7.3085        860.3786        866.2997
        -7.0967        866.4726        864.7763
        -6.8849        848.6379        842.8106
        -6.6730        850.2946        859.9642
        -6.4612        838.7842        850.3899
        -6.2493        856.0306        857.5459
        -6.0375        831.9960        826.2103
        -5.8257        817.3225        816.7863
        -5.6138        803.7014        798.2586
        -5.4020        791.0487        791.0768
        -5.1901        788.0549        778.3736
        -4.9783        772.5866        776.8549
        -4.7664        767.0151        769.5056
        -4.5546        753.5815        748.7731
        -4.3428        750.6161        759.3597
        -4.1309        736.5107        746.5817
        -3.9191        730.7622        740.5184
        -3.7072        689.2091        685.5815
        -3.4954        638.1887        638.0739
        -3.2836        552.0040        559.7360
        -3.0717        473.9364        474.4016
        -2.8599        423.0547        410.3723
        -2.6480        386.0183        394.3839
        -2.4362        377.6277        375.5223
        -2.2243        368.1120        367.9038
        -2.0125        375.5750        367.2920
        -1.8007        368.0363        363.9266
        -1.5888        375.7201        366.2173
        -1.3770        364.8924        359.1805
        -1.1651        369.5255        369.9918
        -0.9533        363.4371        366.9073
        -0.7414        368.7241        363.2770
        -0.5296        366.3843        358.5991
        -0.3178        376.1229        375.5440
        -0.1059        362.7221        368.2925
         0.1059        364.7036        363.5571
         0.3178        368.0656        369.4772
         0.5296        358.3711        364.8921
         0.7414        372.8196        362.7793
         0.9533        364.8707        368.1890
         1.1651        366.4641        368.9162
         1.3770        368.2556        363.5984
         1.5888        365.1727        365.8242
         1.8007        370.8797        377.3592
         2.0125        362.9022        357.8948
         2.2243        378.8280        373.4185
         2.4362        368.8168        366.8777
         2.6480        404.1596        405.2590
         2.8599        423.2408        422.2387
         3.0717        494.7738        487.6664
         3.2835        563.7662        563.7395
         3.4954        649.5462        659.2026
         3.7072        686.6528        693.2672
         3.9191        722.0622        741.7281
         4.1309        759.5336        777.1848
         4.3428        760.6316        752.7311
         4.5546        778.1608        771.7365
         4.7664        780.1183        778.5102
         4.9783        780.8140        781.6151
         5.1901        785.9374        781.3026
         5.4020        791.3702        796.4066
         5.6138        806.2191        812.3196
         5.8256        817.8636        813.2303
         6.0375        839.9864        827.3821
         6.2493        841.0357        827.8616
         6.4612        840.0040        836.1174
         6.6730        866.2758        865.5532
         6.8849        855.3579        859.4608
         7.0967        864.8115        864.3506
         7.3085        859.3776        856.1720
         7.5204        868.1592        864.9756
         7.7322        859.0810        862.1044
         7.9441        868.8642        875.6108
         8.1559        873.4262        867.1964
         8.3678        866.4930        866.0806
         8.5796        864.7990        867.4379
         8.7914        866.2169        862.0563
         9.0033        876.4175        863.1614
         9.2151        862.7517        854.6970
         9.4270        866.2302        865.3037
         9.6388        858.8555        855.1226
         9.8506        875.8503        880.0087
        10.0625        861.1636        866.4310
        10.2743        865.8246        870.8320
        10.4862        856.0554        867.3335
