@ title  "Pressure (P) and density (D) over 101 frames"
@ xlabel "Z [nm]"
@ ylabel "P [bar] or D [kg/m^3]"
@ s0 legend "P_T"
@ s1 legend "P_N"
       -10.1677        864.7564        880.1239
        -9.9623        865.4385        854.5355
        -9.7568        865.7485        872.6562
        -9.5514        861.0381        864.1677
        -9.3460        870.9604        872.3008
        -9.1406        860.5464        857.1935
        -8.9352        871.0446        860.4108
        -8.7298        866.5184        857.3638
        -8.5244        861.1792        862.2800
        -8.3190        864.0259        866.4758
        -8.1136        864.5483        875.7136
        -7.9082        871.6475        871.0274
        -7.7028        870.3043        865.1702
        -7.4974        866.9865        871.9484
        -7.2920        860.0593        849.9023
        -7.0866        865.2381        870.0473
        -6.8811        853.8041        862.8658
        -6.6757        863.3573        857.0557
        -6.4703        860.7225        859.8555
        -6.2649        856.4711        860.3546
        -6.0595        827.9108        839.6322
        -5.8541        823.9576        829.6953
        -5.6487        817.7259        816.4449
        -5.4433        801.2076        796.7344
        -5.2379        784.0814        779.9714
        -5.0325        783.8528        787.8325
        -4.8271        774.6564        769.4322
        -4.6217        772.8981        780.8804
        -4.4163        760.2600        754.5835
        -4.2108        756.8128        747.4014
        -4.0054        761.5519        748.8348
        -3.8000        741.2079        758.7695
        -3.5946        692.5717        702.8736
        -3.3892        637.5801        639.6716
        -3.1838        561.1348        563.1445
        -2.9784        475.0862        481.1631
        -2.7730        421.1742        416.2293
        -2.5676        387.4596        387.9577
        -2.3622        374.9473        370.3552
        -2.1568        370.0765        369.8512
        -1.9514        370.6080        365.8950
        -1.7460        367.8099        363.7271
        -1.5406        362.0653        368.6929
        -1.3351        366.8994        365.3199
        -1.1297        368.8249        375.1827
        -0.9243        367.7831        363.7744
        -0.7189        367.6482        367.4275
        -0.5135        364.2347        359.7797
        -0.3081        370.0924        371.1581
        -0.1027        366.3885        362.5369
         0.1027        366.2961        370.7690
         0.3081        362.7511        363.2777
         0.5135        370.5803        374.0126
         0.7189        364.2000        368.0077
         0.9243        370.0750        371.8126
         1.1297        363.4105        360.6670
         1.3351        376.6498        371.8477
         1.5406        363.8179        363.7189
         1.7460        370.9417        364.4846
         1.9514        358.6645        369.7064
         2.1568        375.2537        371.9000
         2.3622        374.8228        374.7030
         2.5676        399.3983        403.3052
         2.7730        431.0349        429.2485
         2.9784        494.4875        502.2685
         3.1838        564.4217        566.3224
         3.3892        634.2571        647.1207
         3.5946        684.2175        694.6865
         3.8000        730.9303        721.5492
         4.0054        741.5798        741.5828
         4.2109        752.6414        739.4559
         4.4163        757.4443        758.4607
         4.6217        766.4758        765.3229
         4.8271        785.0027        776.4637
         5.0325        780.6177        782.0760
         5.2379        806.8752        815.9136
         5.4433        802.9454        805.8407
         5.6487        839.2956        826.8420
         5.8541        838.2925        846.0654
         6.0595        834.2717        840.3057
         6.2649        849.4644        854.8339
         6.4703        853.3506        855.2172
         6.6757        857.8051        853.8390
         6.8811        863.0503        857.8024
         7.0866        872.2613        870.2610
         7.2920        859.8731        861.4941
         7.4974        863.2983        859.6802
         7.7028        860.8491        854.7244
         7.9082        880.2239        874.7527
         8.1136        858.3303        863.7365
         8.3190        864.7080        874.8591
         8.5244        858.1784        867.7706
         8.7298        861.2417        858.7578
         8.9352        859.9238        859.6938
         9.1406        857.5174        874.5321
         9.3460        863.4214        868.0638
         9.5514        870.1714        860.0725
         9.7568        861.6235        853.7526
         9.9623        865.9379        880.6933
        10.1677        863.9380        858.8793
