@ title  "Pressure (P) and density (D) over 101 frames"
@ xlabel "Z [nm]"
@ ylabel "P [bar] or D [kg/m^3]"
@ s0 legend "P_T"
@ s1 legend "P_N"
       -10.1417        866.3101        854.3411
        -9.9369        863.4955        865.9583
        -9.7320        865.2949        871.7127
        -9.5271        865.1025        874.2463
        -9.3222        872.1660        862.1477
        -9.1173        862.6136        858.8179
        -8.9124        864.9474        851.7463
        -8.7076        871.3352        864.5696
        -8.5027        855.2655        864.2946
        -8.2978        872.7380        864.9459
        -8.0929        864.0133        865.5273
        -7.8880        864.2517        856.6931
        -7.6831        865.4796        857.2155
        -7.4782        864.1699        856.0607
        -7.2734        865.4693        856.4642
        -7.0685        865.3905        866.5381
        -6.8636        856.9813        871.3504
        -6.6587        856.7251        867.4033
        -6.4538        858.4346        853.5136
        -6.2489        831.2333        832.1580
        -6.0441        836.6246        829.0953
        -5.8392        813.9587        825.2484
        -5.6343        809.7201        810.8394
        -5.4294        794.2432        790.0286
        -5.2245        788.4115        794.2277
        -5.0196        786.7061        772.8962
        -4.8148        771.4384        762.6774
        -4.6099        774.2186        776.4646
        -4.4050        755.3275        751.5432
        -4.2001        771.9215        762.9674
        -3.9952        750.9072        752.8755
        -3.7903        734.3117        745.4420
        -3.5855        683.2270        692.7903
        -3.3806        620.3714        633.1769
        -3.1757        555.9649        560.1415
        -2.9708        458.8126        469.8928
        -2.7659        433.4995        430.3569
        -2.5610        385.5028        377.1208
        -2.3562        374.8271        371.5454
        -2.1513        368.5029        368.2487
        -1.9464        372.0789        368.2969
        -1.7415        365.0178        361.9378
        -1.5366        366.0284        359.3039
        -1.3317        361.2668        354.4167
        -1.1269        373.2511        374.9706
        -0.9220        361.2798        356.8437
        -0.7171        379.7963        375.0378
        -0.5122        357.5546        354.8658
        -0.3073        372.3562        369.7547
        -0.1024        364.1510        368.2838
         0.1024        366.6428        367.4028
         0.3073        361.3609        367.1198
         0.5122        365.4865        367.3908
         0.7171        357.3141        360.1904
         0.9220        367.3771        374.7471
         1.1269        366.3961        368.7800
         1.3317        370.0226        374.6968
         1.5366        358.8746        372.4894
         1.7415        367.9811        370.4355
         1.9464        371.2660        372.4803
         2.1513        372.2986        371.6349
         2.3562        381.8230        375.6690
         2.5610        398.7644        399.7053
         2.7659        423.5239        420.9198
         2.9708        500.6679        496.1013
         3.1757        577.9252        577.8723
         3.3806        638.5846        642.9344
         3.5855        691.2229        712.2150
         3.7903        714.7519        723.8832
         3.9952        754.8292        758.3621
         4.2001        762.9196        771.7507
         4.4050        771.3721        774.3574
         4.6099        772.3354        763.5648
         4.8148        767.2027        760.7862
         5.0196        778.3257        761.2739
         5.2245        787.7636        789.6957
         5.4294        803.3016        808.3417
         5.6343        829.5513        821.8743
         5.8392        828.3640        840.2644
         6.0441        843.6940        839.1298
         6.2489        855.0853        863.4193
         6.4538        850.7458        856.2400
         6.6587        866.1113        859.5026
         6.8636        868.4832        874.2791
         7.0685        866.6083        873.2576
         7.2734        857.8076        862.4538
         7.4782        862.6079        856.9998
         7.6831        860.2034        861.5809
         7.8880        876.3842        864.4102
         8.0929        868.8455        860.7986
         8.2978        859.2094        858.8750
         8.5027        869.7733        866.8561
         8.7076        865.3814        853.9604
         8.9124        861.2048        862.7205
         9.1173        865.1086        874.3007
         9.3222        846.4554        866.2219
         9.5271        868.3696        878.8210
         9.7320        868.4847        860.4702
         9.9369        867.3437        856.2749
        10.1417        865.8962        877.4625
