@ title  "Pressure (P) and density (D) over 101 frames"
@ xlabel "Z [nm]"
@ ylabel "P [bar] or D [kg/m^3]"
@ s0 legend "P_T"
@ s1 legend "P_N"
       -10.1173         -8.6095          0.0000
        -9.9129          9.2085          0.0000
        -9.7085         49.2940          0.0000
        -9.5041         -1.0142          0.0000
        -9.2997         -8.8938          0.0000
        -9.0953        -22.6972          0.0000
        -8.8909          9.9281          0.0000
        -8.6865         37.2268          0.0000
        -8.4822          0.5183          0.0000
        -8.2778         -3.7586          0.0000
        -8.0734         -9.1840          0.0000
        -7.8690          6.8646          0.0000
        -7.6646         -4.3585          0.0000
        -7.4602        -16.8134          0.0000
        -7.2558         13.9895          0.0000
        -7.0514         11.9971          0.0000
        -6.8470        -24.4438          0.0000
        -6.6427         -4.6468          0.0000
        -6.4383        -30.1226          0.0000
        -6.2339         23.9679          0.0000
        -6.0295        -12.9066          0.0000
        -5.8251         75.2018          0.0000
        -5.6207        -34.7151          0.0000
        -5.4163         14.2751          0.0000
        -5.2119         63.9529          0.0000
        -5.0075          2.9489          0.0000
        -4.8031         77.4247          0.0000
        -4.5988         60.5543          0.0000
        -4.3944        105.4970          0.0000
        -4.1900         84.7742          0.0000
        -3.9856         79.0894          0.0000
        -3.7812        -23.1368          0.0000
        -3.5768       -219.2555          0.0000
        -3.3724       -203.4609          0.0000
        -3.1680       -253.3702          0.0000
        -2.9636       -176.7018          0.0000
        -2.7593        -34.9099          0.0000
        -2.5549        -15.7244          0.0000
        -2.3505         19.3039          0.0000
        -2.1461         26.1336          0.0000
        -1.9417         72.1668          0.0000
        -1.7373         80.3760          0.0000
        -1.5329         73.2116          0.0000
        -1.3285        -34.0059          0.0000
        -1.1241        -17.7997          0.0000
        -0.9198         33.8148          0.0000
        -0.7154         65.1923          0.0000
        -0.5110         88.5450          0.0000
        -0.3066         -3.1085          0.0000
        -0.1022        -23.3911          0.0000
         0.1022         -9.2370          0.0000
         0.3066        -32.7858          0.0000
         0.5110        -13.3879          0.0000
         0.7154         12.4098          0.0000
         0.9198         49.4984          0.0000
         1.1241         21.2127          0.0000
         1.3285         53.5759          0.0000
         1.5329        -70.9968          0.0000
         1.7373          7.0545          0.0000
         1.9417         40.5615          0.0000
         2.1461         27.0926          0.0000
         2.3505        -20.8150          0.0000
         2.5549        -25.4090          0.0000
         2.7593       -126.6921          0.0000
         2.9636       -227.4338          0.0000
         3.1680       -206.9566          0.0000
         3.3724        -98.1902          0.0000
         3.5768        -68.9729          0.0000
         3.7812         40.1155          0.0000
         3.9856         91.6743          0.0000
         4.1900         94.2349          0.0000
         4.3944         35.5633          0.0000
         4.5988         56.2897          0.0000
         4.8031         52.9573          0.0000
         5.0075         81.3919          0.0000
         5.2119        -30.5649          0.0000
         5.4163         22.7477          0.0000
         5.6207         22.5315          0.0000
         5.8251         62.8401          0.0000
         6.0295         -4.7673          0.0000
         6.2339         21.2795          0.0000
         6.4383         47.2915          0.0000
         6.6427         41.6647          0.0000
         6.8470         19.4120          0.0000
         7.0514         12.2315          0.0000
         7.2558        -17.6556          0.0000
         7.4602        -22.4786          0.0000
         7.6646        -57.2306          0.0000
         7.8690        -21.1366          0.0000
         8.0734         -3.1335          0.0000
         8.2778        -13.1282          0.0000
         8.4822         10.4703          0.0000
         8.6865         -7.6944          0.0000
         8.8909        -39.2815          0.0000
         9.0953         45.4050          0.0000
         9.2997         17.2043          0.0000
         9.5041         10.2755          0.0000
         9.7085        -26.1552          0.0000
         9.9129          7.5794          0.0000
        10.1173         23.0050          0.0000
