@ title  "Pressure (P) and density (D) over 101 frames"
@ xlabel "Z [nm]"
@ ylabel "P [bar] or D [kg/m^3]"
@ s0 legend "P_T"
@ s1 legend "P_N"
        -3.8310        856.5659        861.6718
        -3.7536        839.8070        831.9757
        -3.6762        854.0207        854.9548
        -3.5988        876.2960        886.6025
        -3.5215        877.5596        867.5387
        -3.4441        869.0327        875.8484
        -3.3667        864.5258        838.4281
        -3.2893        857.8655        848.8605
        -3.2119        842.3132        849.9473
        -3.1345        865.8861        843.7861
        -3.0571        867.2070        871.6660
        -2.9797        878.5001        876.6504
        -2.9023        851.7388        847.6025
        -2.8249        858.4806        847.2623
        -2.7475        869.6157        870.4262
        -2.6701        860.3093        853.1793
        -2.5927        854.7972        845.8705
        -2.5153        878.2397        861.0812
        -2.4379        855.8392        871.6729
        -2.3605        860.5480        865.4636
        -2.2831        859.4557        864.3309
        -2.2057        847.0895        860.0003
        -2.1284        878.2823        857.2500
        -2.0510        868.2056        848.1522
        -1.9736        862.6007        857.5209
        -1.8962        868.0933        853.3648
        -1.8188        870.8057        880.9178
        -1.7414        863.3447        865.5808
        -1.6640        854.4730        845.1116
        -1.5866        880.4223        867.6570
        -1.5092        864.8600        868.8094
        -1.4318        862.1263        880.1503
        -1.3544        863.7353        873.5374
        -1.2770        852.9594        858.9691
        -1.1996        877.8764        846.4163
        -1.1222        858.5334        858.3069
        -1.0448        860.6293        870.0059
        -0.9674        859.4000        861.6126
        -0.8900        865.7606        848.5061
        -0.8126        867.1680        864.2268
        -0.7352        856.0786        877.9894
        -0.6579        856.0498        871.0356
        -0.5805        877.9138        846.2239
        -0.5031        879.0666        860.6082
        -0.4257        865.9875        855.1444
        -0.3483        871.0751        871.3291
        -0.2709        870.7222        877.0846
        -0.1935        875.4654        857.0870
        -0.1161        874.4647        878.5045
        -0.0387        846.4656        857.3835
         0.0387        845.8124        860.9129
         0.1161        860.2196        843.7774
         0.1935        872.8856        879.0089
         0.2709        868.7723        886.6352
         0.3483        863.9979        858.4203
         0.4257        846.3618        838.3078
         0.5031        859.7573        864.1471
         0.5805        857.9459        856.0077
         0.6579        870.9419        879.0106
         0.7352        865.2686        859.8888
         0.8126        866.1249        854.2680
         0.8900        857.4703        841.7761
         0.9674        862.2084        857.0710
         1.0448        870.0958        866.5771
         1.1222        876.7631        867.8527
         1.1996        855.0262        852.7121
         1.2770        848.8459        845.1149
         1.3544        868.7977        847.6952
         1.4318        857.0785        870.6702
         1.5092        847.6166        878.6988
         1.5866        853.8010        846.0433
         1.6640        866.9719        869.4204
         1.7414        872.3259        888.6083
         1.8188        848.4184        846.1957
         1.8962        857.0179        855.4124
         1.9736        865.3027        865.4167
         2.0510        864.8812        879.1115
         2.1284        857.8226        870.2525
         2.2057        859.3317        871.3805
         2.2831        849.9681        855.1470
         2.3605        859.2427        883.9377
         2.4379        864.3536        856.0446
         2.5153        871.8824        858.8084
         2.5927        868.2506        886.4481
         2.6701        868.6283        873.9886
         2.7475        848.7009        854.3138
         2.8249        866.1440        847.7134
         2.9023        862.4785        854.9140
         2.9797        861.8616        875.7480
         3.0571        865.1418        879.1263
         3.1345        865.1777        878.5173
         3.2119        858.6317        854.7433
         3.2893        852.5450        872.7894
         3.3667        860.4998        873.6997
         3.4441        862.3005        860.9293
         3.5215        877.2602        865.6033
         3.5988        860.1974        878.4163
         3.6762        863.7255        846.2214
         3.7536        877.8671        851.5688
         3.8310        867.2265        842.6730
