@ title  "Pressure (P) and density (D) over 101 frames"
@ xlabel "Z [nm]"
@ ylabel "P [bar] or D [kg/m^3]"
@ s0 legend "P_T"
@ s1 legend "P_N"
        -3.8324        -77.2517        -47.5590
        -3.7550          9.3545        -25.8669
        -3.6776        -15.1854          2.4712
        -3.6002         26.4862         15.0798
        -3.5227         12.2979         28.8441
        -3.4453        110.7453         20.1484
        -3.3679        -86.0926        -17.5889
        -3.2905         59.4929          4.1511
        -3.2131        -26.5489         19.8842
        -3.1356         40.8822         19.7957
        -3.0582         55.1655          9.3937
        -2.9808         58.1764        -31.5072
        -2.9034         53.7235        -47.6662
        -2.8259       -120.9213        -89.4837
        -2.7485         37.5377        -63.8025
        -2.6711        -50.5506        -22.9051
        -2.5937         21.0930         -8.9235
        -2.5162        -11.6704         37.6837
        -2.4388        -20.1158         12.6771
        -2.3614         30.7090        -14.5241
        -2.2840        -43.8179        -15.9270
        -2.2066        -90.4816        -25.5880
        -2.1291         39.5354        -55.7810
        -2.0517          0.0652        -67.0498
        -1.9743        -97.0731        -34.7770
        -1.8969         40.9107        -65.2828
        -1.8194          7.9804        -54.3572
        -1.7420        -49.7629        -62.6820
        -1.6646         18.8575        -51.9312
        -1.5872        -29.5432        -37.4104
        -1.5097        116.9552        -62.5015
        -1.4323        -17.7223        -48.4613
        -1.3549         -0.3846        -30.6625
        -1.2775       -109.3110        -68.8995
        -1.2001        -59.3217        -53.7122
        -1.1226        -54.0978        -86.5050
        -1.0452        -37.4485        -64.5620
        -0.9678         46.9438        -29.5078
        -0.8904         83.1878        -25.2526
        -0.8129         47.5808        -31.9251
        -0.7355         20.4839         15.6988
        -0.6581        -74.3316         32.1704
        -0.5807        -24.5855        -34.4516
        -0.5032         10.8599        -26.7204
        -0.4258         36.2542        -22.2497
        -0.3484         61.2989        -36.8362
        -0.2710        -64.0805        -37.9972
        -0.1936        -65.0440        -39.9956
        -0.1161         44.6303        -59.0560
        -0.0387         12.6555        -38.8351
         0.0387         13.0923         -3.8701
         0.1161        -23.2456         21.5156
         0.1936        -31.9076         12.7352
         0.2710         -1.3631        -16.2549
         0.3484        -44.3346        -41.7512
         0.4258          4.3581        -31.6131
         0.5032          2.5642        -39.9907
         0.5807          8.4027        -20.5909
         0.6581         -7.9238         -2.2954
         0.7355         23.6140        -16.6379
         0.8129         55.7422         18.7650
         0.8904         -2.1298         49.0196
         0.9678        142.7351          5.7873
         1.0452         41.2438         12.4622
         1.1226         11.4433         32.8013
         1.2001         12.6084         22.1130
         1.2775        -26.8638         44.1342
         1.3549        -84.5602         20.4309
         1.4323        -22.4645         -7.8735
         1.5097         58.0454        -62.7861
         1.5872        -69.2149        -68.2073
         1.6646        -88.4337        -20.8278
         1.7420        -78.9715        -40.0084
         1.8194        -56.7509        -16.5235
         1.8969        -39.9940        -30.6074
         1.9743        -39.1268        -38.6119
         2.0517        -33.3855          4.6517
         2.1291         69.7104          1.4552
         2.2066         68.2292        -13.5734
         2.2840        -86.7334         -5.9490
         2.3614        125.1330         -3.6497
         2.4388        -10.8313         -4.7984
         2.5162        -28.9362          5.0443
         2.5937        -30.6656         -9.4268
         2.6711        -64.2084        -46.7206
         2.7485        -15.6780        -47.8207
         2.8259          8.9651        -81.1211
         2.9034         92.2324        -66.1934
         2.9808        -98.4876        -46.6772
         3.0582          5.2126        -30.2301
         3.1356        -55.0235        -23.1456
         3.2131         66.1544        -47.2203
         3.2905        -90.2230        -22.0604
         3.3679         34.1686        -44.3908
         3.4453       -168.4957        -49.3606
         3.5227         54.3983        -25.3452
         3.6002        -59.2659        -83.6979
         3.6776         28.7453        -29.4130
         3.7550        -38.2796        -20.8857
         3.8324        104.8109        -26.6191
