@ title  "Pressure (P) and density (D) over 101 frames"
@ xlabel "Z [nm]"
@ ylabel "P [bar] or D [kg/m^3]"
@ s0 legend "P_T"
@ s1 legend "P_N"
        -3.8320        -80.8597        -12.8699
        -3.7546        -82.0125        -26.8894
        -3.6772         51.2471         13.3864
        -3.5998        -27.9299         62.6841
        -3.5224        -17.9092         46.0245
        -3.4449         15.1159         39.6308
        -3.3675       -102.8934         10.8699
        -3.2901         37.9693        -20.0359
        -3.2127        -89.2990        -26.5534
        -3.1353        -35.4370        -19.8037
        -3.0579         41.7397        -42.9263
        -2.9805        -15.0759        -14.2218
        -2.9030         72.4911          7.5545
        -2.8256        -35.2254        -15.0026
        -2.7482         11.1764        -12.6075
        -2.6708       -106.5689        -32.5420
        -2.5934        -30.1611        -46.9319
        -2.5160        -36.5161        -14.9856
        -2.4386         -3.4857        -17.7838
        -2.3611          4.8948         29.1082
        -2.2837         40.9779         38.0470
        -2.2063         27.0170         36.3860
        -2.1289        -61.9449         23.4481
        -2.0515        115.3819         17.5953
        -1.9741        -34.2402          3.8109
        -1.8967        -91.8991         -2.7076
        -1.8192         52.3524         20.6632
        -1.7418        -12.0725         11.6873
        -1.6644         34.7905         35.2759
        -1.5870         15.3941         11.3718
        -1.5096         24.7082          7.5912
        -1.4322       -104.4000         -4.4680
        -1.3548       -113.6053         42.1426
        -1.2773         49.8867         21.6985
        -1.1999          6.8581         18.3108
        -1.1225        -10.5678         64.3578
        -1.0451        -77.9237         90.5739
        -0.9677         52.9361         64.9294
        -0.8903       -104.3226         45.1631
        -0.8129         10.3408          1.1068
        -0.7354        -48.6076         -2.8843
        -0.6580         16.3592        -17.5405
        -0.5806        -18.7252        -57.1930
        -0.5032         47.9176        -11.4111
        -0.4258        -73.6313         -2.8396
        -0.3484       -100.7743         -6.7573
        -0.2709        100.0623          3.6564
        -0.1935         35.4041          9.9258
        -0.1161         40.1534         40.0584
        -0.0387         19.1337        -15.0666
         0.0387         32.9879        -21.1661
         0.1161        -16.8557         -4.2131
         0.1935        -67.2115        -14.3083
         0.2710         26.1150         18.5748
         0.3484       -147.1857         44.9096
         0.4258         -2.2882         32.3101
         0.5032        -25.9130         58.5560
         0.5806         60.6841         54.5441
         0.6580          7.2441         21.0987
         0.7354         32.4738         -6.6500
         0.8129        -24.0359         29.1826
         0.8903         56.9742         -6.8982
         0.9677          5.2774        -15.6232
         1.0451         45.6137        -12.2412
         1.1225        -45.2946         10.4379
         1.1999         14.8468         37.4617
         1.2773        -41.9486          7.0026
         1.3548        -76.9762          8.0926
         1.4322        -28.5085          2.8502
         1.5096        154.3409          2.1666
         1.5870         11.7110        -31.2092
         1.6644          7.7488        -18.7912
         1.7418        -28.7149         -1.4218
         1.8192        -38.6343         26.5279
         1.8967        -95.4191         18.7517
         1.9741        -78.2222         18.9228
         2.0515        -27.6299         32.3696
         2.1289         94.8355         36.7743
         2.2063        -21.4967         51.8818
         2.2837        -44.5403         32.7971
         2.3611        -35.3805        -25.2564
         2.4386        -71.5368        -44.2797
         2.5160         -8.5128         -9.9096
         2.5934         -6.0149        -17.1713
         2.6708         95.6938        -11.6531
         2.7482        -99.9042         13.1382
         2.8256        -25.2879        -11.9908
         2.9030         39.7810        -22.5428
         2.9805       -139.8820         12.0606
         3.0579         63.3054          3.4931
         3.1353        -30.6484          1.3422
         3.2127        -14.6109         25.4083
         3.2901        -18.6043          4.7445
         3.3675        -19.9353          3.2753
         3.4449         29.5451         15.9981
         3.5224         78.8316          2.0690
         3.5998        -18.2576        -25.2103
         3.6772        -32.9746        -40.5771
         3.7546         -0.7666        -13.4942
         3.8320        -92.4618        -38.3255
