@ title  "Pressure (P) and density (D) over 101 frames"
@ xlabel "Z [nm]"
@ ylabel "P [bar] or D [kg/m^3]"
@ s0 legend "P_T"
@ s1 legend "P_N"
        -3.8323        -59.9392          0.0000
        -3.7549         20.6960          0.0000
        -3.6775         13.6162          0.0000
        -3.6001        -58.5485          0.0000
        -3.5226        -20.3829          0.0000
        -3.4452        -15.5623          0.0000
        -3.3678         60.9831          0.0000
        -3.2904        -68.9613          0.0000
        -3.2129         19.8295          0.0000
        -3.1355         24.3360          0.0000
        -3.0581         14.9977          0.0000
        -2.9807        -60.6125          0.0000
        -2.9033        -66.5414          0.0000
        -2.8258       -121.1439          0.0000
        -2.7484        -80.6795          0.0000
        -2.6710        -78.2469          0.0000
        -2.5936        -72.1164          0.0000
        -2.5162         72.4719          0.0000
        -2.4387        -33.2116          0.0000
        -2.3613         57.5732          0.0000
        -2.2839          6.1674          0.0000
        -2.2065         46.4237          0.0000
        -2.1291        -37.7222          0.0000
        -2.0516         50.3193          0.0000
        -1.9742         45.3294          0.0000
        -1.8968        -93.5723          0.0000
        -1.8194         31.2263          0.0000
        -1.7420         70.5501          0.0000
        -1.6645        -42.0603          0.0000
        -1.5871        -38.0230          0.0000
        -1.5097         -6.3730          0.0000
        -1.4323        -71.9646          0.0000
        -1.3549         19.1835          0.0000
        -1.2774         37.0005          0.0000
        -1.2000        -64.1177          0.0000
        -1.1226        -55.9751          0.0000
        -1.0452         80.4294          0.0000
        -0.9678        -22.0754          0.0000
        -0.8903         -2.8897          0.0000
        -0.8129         -3.8628          0.0000
        -0.7355         19.1099          0.0000
        -0.6581         92.9274          0.0000
        -0.5807         45.7286          0.0000
        -0.5032        -10.0398          0.0000
        -0.4258         18.7057          0.0000
        -0.3484        -17.5405          0.0000
        -0.2710         69.8451          0.0000
        -0.1936         34.8594          0.0000
        -0.1161        -12.7413          0.0000
        -0.0387         19.6474          0.0000
         0.0387        -42.9258          0.0000
         0.1161         24.8248          0.0000
         0.1935         25.4961          0.0000
         0.2710          0.2405          0.0000
         0.3484        -28.1017          0.0000
         0.4258       -128.5722          0.0000
         0.5032        -10.3681          0.0000
         0.5807         29.5703          0.0000
         0.6581         10.2251          0.0000
         0.7355         48.1265          0.0000
         0.8129        -24.3796          0.0000
         0.8903         51.7537          0.0000
         0.9678         95.1685          0.0000
         1.0452         61.5408          0.0000
         1.1226        -46.4283          0.0000
         1.2000         37.8913          0.0000
         1.2774         24.6349          0.0000
         1.3549        -49.5561          0.0000
         1.4323        -33.0363          0.0000
         1.5097         -5.0662          0.0000
         1.5871         39.7444          0.0000
         1.6645          9.9676          0.0000
         1.7420        -53.1988          0.0000
         1.8194         46.3114          0.0000
         1.8968          5.6296          0.0000
         1.9742        -38.1565          0.0000
         2.0516         -3.6885          0.0000
         2.1291        -27.8050          0.0000
         2.2065        -55.1878          0.0000
         2.2839        -15.1324          0.0000
         2.3613        -68.6676          0.0000
         2.4387         52.9810          0.0000
         2.5162          5.0683          0.0000
         2.5936        -57.9107          0.0000
         2.6710         69.1148          0.0000
         2.7484         28.1386          0.0000
         2.8258        -27.4108          0.0000
         2.9033         -2.2810          0.0000
         2.9807        -84.9944          0.0000
         3.0581         38.7295          0.0000
         3.1355         36.7239          0.0000
         3.2129         29.2249          0.0000
         3.2904        -27.4959          0.0000
         3.3678        -25.2288          0.0000
         3.4452         50.9194          0.0000
         3.5226        -28.5320          0.0000
         3.6000         -1.8343          0.0000
         3.6775        -15.1682          0.0000
         3.7549         90.9099          0.0000
         3.8323         26.9306          0.0000
