@ title  "Pressure (P) and density (D) over 101 frames"
@ xlabel "Z [nm]"
@ ylabel "P [bar] or D [kg/m^3]"
@ s0 legend "P_T"
@ s1 legend "P_N"
        -3.8314        161.7219         30.7341
        -3.7540         91.5826         69.4154
        -3.6766         -0.0527         43.6349
        -3.5992         29.2873         26.9695
        -3.5218        125.3871         -7.0717
        -3.4444        -81.0779          9.2875
        -3.3670         87.0354          7.1227
        -3.2896        -58.3844         15.3296
        -3.2122        -51.1803        -21.3454
        -3.1348         46.3934        -20.8292
        -3.0574         -2.4579        -24.9930
        -2.9800         -3.2787         -2.1769
        -2.9026         26.2718         49.8244
        -2.8252        -51.3417         65.4825
        -2.7478        179.6776         55.6347
        -2.6704        -18.9192         51.4788
        -2.5930         -4.6583         37.5226
        -2.5156         -5.6978        -19.5043
        -2.4382         74.7498        -22.1187
        -2.3608        -54.3531        -45.1874
        -2.2834        -10.1318        -23.3265
        -2.2060        -35.5292        -12.5217
        -2.1286          5.3638        -20.7936
        -2.0511         -1.1778         -4.1064
        -1.9737         75.6949         12.2686
        -1.8963         91.0936         -6.4809
        -1.8189         60.1218         17.4948
        -1.7415        -33.3407        -19.9545
        -1.6641          0.4959        -20.6312
        -1.5867        -25.8446        -19.8199
        -1.5093         60.2640         -8.7296
        -1.4319         32.0718         10.6210
        -1.3545        -66.4494         -9.7028
        -1.2771        -66.2662         -1.9000
        -1.1997        -15.3594        -13.3891
        -1.1223        -57.0023        -29.0033
        -1.0449         40.6218          5.7168
        -0.9675        -78.3626          5.9913
        -0.8901        -21.3358          5.2198
        -0.8127        -23.7155         -7.3508
        -0.7353        -77.0849         13.3902
        -0.6579         15.3043         47.2351
        -0.5805         30.7852         24.6359
        -0.5031         56.7557         44.8539
        -0.4257         85.9811         30.0066
        -0.3483         67.5449         18.0475
        -0.2709        -57.7203         -6.2643
        -0.1935        -25.7426         10.5337
        -0.1161         85.0213        -11.9026
        -0.0387         26.8440         12.3946
         0.0387        -75.0101         -9.5502
         0.1161        -13.6272         12.9634
         0.1935        -52.2845         36.1149
         0.2709        -56.4206         23.2715
         0.3483          0.4673         12.4390
         0.4257         49.3411         12.5631
         0.5031        105.6258         45.7459
         0.5805        168.2933         33.6642
         0.6579        -24.2611         61.7879
         0.7353        -45.9482         56.5489
         0.8127        -52.2245         31.1833
         0.8901        -37.2040         29.4752
         0.9675         -6.4983         11.9996
         1.0449         64.4387         -2.5619
         1.1223        -31.3234          3.3201
         1.1997        -58.4815         23.7915
         1.2771        -49.1949         41.0945
         1.3545        -14.6645         22.7533
         1.4319        -30.7471         53.2907
         1.5093         38.0357         69.0025
         1.5867         18.7258         58.3881
         1.6641         32.7610         20.4782
         1.7415        -78.6588         10.5595
         1.8189          7.9353         15.2973
         1.8963         75.5936         22.7218
         1.9737          6.5395         37.4869
         2.0512        -50.4217         55.2684
         2.1286         64.4027         58.2916
         2.2060         32.5148         49.3479
         2.2834        -28.8096         57.0250
         2.3608         50.3743         13.4665
         2.4382         39.9009         15.6505
         2.5156        -20.5256          8.0098
         2.5930         69.4660         24.0371
         2.6704         29.5226          5.4207
         2.7478         26.0992          6.8607
         2.8252        -34.9695         30.9240
         2.9026         43.2649         53.1347
         2.9800          0.1508         16.4167
         3.0574        -44.3132         -5.8249
         3.1348        -54.8530         14.1659
         3.2122        -54.6317         37.9836
         3.2896         18.9028         49.9008
         3.3670        -42.9926         94.9946
         3.4444        123.9014        121.8386
         3.5218        150.9156        104.9235
         3.5992         13.1024         93.4876
         3.6766        -49.5102        111.8578
         3.7540          1.6561         47.8751
         3.8314       -103.7802         64.1221
