@ title  "Pressure (P) and density (D) over 101 frames"
@ xlabel "Z [nm]"
@ ylabel "P [bar] or D [kg/m^3]"
@ s0 legend "P_T"
@ s1 legend "P_N"
        -3.8314         52.5620         36.1912
        -3.7540          6.4861          1.9633
        -3.6766         39.4204         13.8448
        -3.5992         47.4652        -21.4122
        -3.5218         59.7853        -48.3723
        -3.4444        -12.4345        -36.1572
        -3.3670        -24.8573        -40.2189
        -3.2896          2.3551        -34.7727
        -3.2122         63.3089        -36.2679
        -3.1348       -103.6551        -18.1017
        -3.0574       -128.0207         -5.0133
        -2.9800        108.1515        -11.2581
        -2.9026        -76.9194        -19.6482
        -2.8252          8.7167         -4.4079
        -2.7478         16.4479         16.7559
        -2.6704        -99.3899        -26.8144
        -2.5930        -91.4118        -50.9309
        -2.5156        -86.8436        -19.9507
        -2.4382       -120.4541         14.5334
        -2.3608        -41.1943         23.7420
        -2.2834        -61.1861         18.1239
        -2.2059         25.2380          5.0718
        -2.1285         40.6677        -11.0459
        -2.0511        -18.6248         -6.9940
        -1.9737        -15.6328        -12.6003
        -1.8963         -6.4944        -17.1992
        -1.8189        -87.0287        -32.0428
        -1.7415        -60.1970        -31.0022
        -1.6641        -92.3659        -27.5721
        -1.5867         -9.6912        -25.7721
        -1.5093          3.0762        -13.5975
        -1.4319        -67.4936          2.6306
        -1.3545        -96.0686        -38.7339
        -1.2771        -35.1352        -22.3869
        -1.1997         67.4963        -40.2431
        -1.1223         20.0001        -19.1088
        -1.0449         81.0013        -20.8124
        -0.9675        -55.9729        -16.5690
        -0.8901        -17.5082          0.5268
        -0.8127        -23.7451         25.7212
        -0.7353         61.5618          9.8133
        -0.6579         29.9143        -35.9806
        -0.5805        -37.9777        -19.5733
        -0.5031        140.8495        -26.9908
        -0.4257        -49.8873        -19.0331
        -0.3483        -53.2361        -36.2628
        -0.2709         85.3744        -45.8555
        -0.1935        -70.3025        -22.3355
        -0.1161         10.8991         -6.8603
        -0.0387         26.7603          9.3962
         0.0387          3.1043         36.7754
         0.1161        -29.1586         28.0393
         0.1935        123.5519         59.6379
         0.2709        -22.9433         25.1298
         0.3483        -43.2533         24.7185
         0.4257       -194.4824        -20.3344
         0.5031         -1.9773        -35.4434
         0.5805         33.3042          8.9650
         0.6579         -6.8804        -17.7752
         0.7353         14.7254         -8.3314
         0.8127        -81.1722         10.3361
         0.8901         23.3205         29.9515
         0.9675        116.4676         15.6587
         1.0449         27.3534         10.8508
         1.1223         10.8597          8.4159
         1.1997        -14.5366        -41.7509
         1.2771        110.4772        -12.9143
         1.3545          1.5660        -22.0159
         1.4319         49.2725         14.0600
         1.5093        151.8308        -11.0879
         1.5867         -4.7439        -20.4272
         1.6641        -43.9347         26.0537
         1.7415         33.8878         37.5005
         1.8189         -2.6017         74.4526
         1.8963        -20.1514         50.1503
         1.9737         56.7938         43.2498
         2.0511          3.7434         55.0866
         2.1285         18.7243         46.2837
         2.2060          4.8183         34.3285
         2.2834       -113.4860         38.5683
         2.3608        -86.5934         24.1076
         2.4382        -35.6374         32.0647
         2.5156        -38.9798          8.2483
         2.5930         19.9533         33.2892
         2.6704         48.2116         51.5996
         2.7478         12.4435         44.5223
         2.8252         33.6469         15.9051
         2.9026        -56.6145          8.1602
         2.9800       -131.8783         20.0565
         3.0574         69.2152          3.2144
         3.1348         30.8743         -3.7774
         3.2122         48.4793         17.7363
         3.2896        -13.5721         16.0573
         3.3670        -66.8006         41.4008
         3.4444         23.2934         39.8657
         3.5218        -89.3798         41.1494
         3.5992         19.6474         29.4426
         3.6766         30.8424         44.6310
         3.7540        110.1354         65.0777
         3.8314        -18.5477         41.4240
