@ title  "Pressure (P) and density (D) over 101 frames"
@ xlabel "Z [nm]"
@ ylabel "P [bar] or D [kg/m^3]"
@ s0 legend "P_T"
@ s1 legend "P_N"
        -3.8309         79.7535          0.0000
        -3.7535         41.1393          0.0000
        -3.6761         28.2240          0.0000
        -3.5987        -28.1300          0.0000
        -3.5213         82.2159          0.0000
        -3.4439        -22.6673          0.0000
        -3.3665        -52.0925          0.0000
        -3.2891        -66.8467          0.0000
        -3.2117         36.5078          0.0000
        -3.1344         -8.0002          0.0000
        -3.0570       -116.2501          0.0000
        -2.9796        -18.3614          0.0000
        -2.9022         60.4587          0.0000
        -2.8248        -41.2877          0.0000
        -2.7474         42.0892          0.0000
        -2.6700       -146.7823          0.0000
        -2.5926         91.2249          0.0000
        -2.5152         61.3545          0.0000
        -2.4378         28.2671          0.0000
        -2.3604        -87.0874          0.0000
        -2.2830         22.1571          0.0000
        -2.2057         80.5280          0.0000
        -2.1283        -34.7311          0.0000
        -2.0509         85.2329          0.0000
        -1.9735         80.3381          0.0000
        -1.8961         39.7336          0.0000
        -1.8187        -38.1883          0.0000
        -1.7413        -29.2468          0.0000
        -1.6639        -12.4368          0.0000
        -1.5865         68.7267          0.0000
        -1.5091        -46.8233          0.0000
        -1.4317         62.7095          0.0000
        -1.3544         -6.8007          0.0000
        -1.2770         54.1135          0.0000
        -1.1996         15.3333          0.0000
        -1.1222         93.4043          0.0000
        -1.0448         13.8290          0.0000
        -0.9674         34.7585          0.0000
        -0.8900         75.5798          0.0000
        -0.8126         41.1811          0.0000
        -0.7352        -28.3541          0.0000
        -0.6578         16.3513          0.0000
        -0.5804         90.9194          0.0000
        -0.5030         -2.6406          0.0000
        -0.4257          5.3304          0.0000
        -0.3483         14.1277          0.0000
        -0.2709         52.9100          0.0000
        -0.1935         20.8236          0.0000
        -0.1161         38.7568          0.0000
        -0.0387         61.3780          0.0000
         0.0387        -18.6200          0.0000
         0.1161        -78.3300          0.0000
         0.1935         93.7405          0.0000
         0.2709         30.2415          0.0000
         0.3483          1.1396          0.0000
         0.4257         31.8766          0.0000
         0.5030         61.3920          0.0000
         0.5804        -64.1685          0.0000
         0.6578        134.2829          0.0000
         0.7352         23.5037          0.0000
         0.8126         94.8945          0.0000
         0.8900        -82.0994          0.0000
         0.9674         50.6948          0.0000
         1.0448         21.5732          0.0000
         1.1222         -1.9146          0.0000
         1.1996         61.6684          0.0000
         1.2770        -30.9046          0.0000
         1.3544         84.7689          0.0000
         1.4317        -49.1156          0.0000
         1.5091         40.1544          0.0000
         1.5865         45.6888          0.0000
         1.6639         75.6902          0.0000
         1.7413         92.5800          0.0000
         1.8187        -10.3230          0.0000
         1.8961        118.8041          0.0000
         1.9735        -62.2680          0.0000
         2.0509         -3.1113          0.0000
         2.1283          6.0965          0.0000
         2.2057         97.5376          0.0000
         2.2831         12.0430          0.0000
         2.3604         39.0994          0.0000
         2.4378        -42.9901          0.0000
         2.5152        -58.0245          0.0000
         2.5926         48.1750          0.0000
         2.6700         11.5069          0.0000
         2.7474         27.7368          0.0000
         2.8248         14.1798          0.0000
         2.9022          3.6696          0.0000
         2.9796        -12.7414          0.0000
         3.0570         22.5037          0.0000
         3.1344        -41.1557          0.0000
         3.2117         30.4716          0.0000
         3.2891          2.4130          0.0000
         3.3665         14.5077          0.0000
         3.4439         21.5074          0.0000
         3.5213         -8.0267          0.0000
         3.5987        105.0955          0.0000
         3.6761        -45.7593          0.0000
         3.7535         -3.1283          0.0000
         3.8309        -60.5691          0.0000
