@ title  "Pressure (P) and density (D) over 101 frames"
@ xlabel "Z [nm]"
@ ylabel "P [bar] or D [kg/m^3]"
@ s0 legend "P_T"
@ s1 legend "P_N"
        -3.8326        862.6001        868.2030
        -3.7552        853.8209        847.2674
        -3.6777        860.5068        867.9146
        -3.6003        861.5500        863.7570
        -3.5229        854.0450        856.2562
        -3.4455        867.4481        877.6339
        -3.3680        875.3463        861.6066
        -3.2906        877.1620        875.3658
        -3.2132        861.9011        839.8703
        -3.1358        855.0657        851.7091
        -3.0583        855.0179        880.6578
        -2.9809        854.5777        869.4957
        -2.9035        862.9224        865.1760
        -2.8261        858.0557        875.3506
        -2.7486        861.9017        869.3788
        -2.6712        863.0063        868.4894
        -2.5938        872.2534        859.0582
        -2.5164        887.2142        895.1588
        -2.4389        871.0443        877.4010
        -2.3615        845.6224        865.6213
        -2.2841        861.7341        872.6695
        -2.2066        853.6624        874.5598
        -2.1292        858.7793        878.2429
        -2.0518        849.9957        843.8751
        -1.9744        854.2042        857.2697
        -1.8969        854.6699        841.6458
        -1.8195        856.9708        857.6158
        -1.7421        861.6063        865.0734
        -1.6647        855.7850        858.3824
        -1.5872        862.5908        864.5502
        -1.5098        866.1639        878.7333
        -1.4324        850.9702        867.7220
        -1.3550        878.3939        862.4647
        -1.2775        872.1779        869.6978
        -1.2001        877.0382        890.6178
        -1.1227        868.8457        853.1755
        -1.0453        853.3813        851.3048
        -0.9678        856.0619        856.4999
        -0.8904        865.0583        861.2170
        -0.8130        866.8223        864.0811
        -0.7355        863.2594        864.7710
        -0.6581        861.3049        865.7584
        -0.5807        870.3344        858.6828
        -0.5033        867.8379        860.6826
        -0.4258        866.9059        848.5102
        -0.3484        872.6824        861.9963
        -0.2710        857.2789        853.5756
        -0.1936        839.7777        840.7012
        -0.1161        857.2532        865.0397
        -0.0387        881.7767        872.6775
         0.0387        867.8318        861.2222
         0.1161        864.9473        862.1781
         0.1936        872.6389        884.5436
         0.2710        855.2950        854.2884
         0.3484        864.7098        865.2983
         0.4258        868.6501        879.1835
         0.5033        862.5032        864.2562
         0.5807        869.2864        863.2662
         0.6581        860.6909        851.4567
         0.7355        859.0345        856.8326
         0.8130        850.6613        860.7889
         0.8904        854.4570        877.7402
         0.9678        870.2943        862.1354
         1.0453        869.4835        847.5612
         1.1227        861.5897        836.7319
         1.2001        867.3992        858.6661
         1.2775        876.3091        866.2708
         1.3550        854.7247        870.0557
         1.4324        854.8835        866.3498
         1.5098        852.8533        855.4681
         1.5872        862.2188        864.4163
         1.6647        861.0181        848.5416
         1.7421        882.1756        867.8272
         1.8195        868.3267        870.3182
         1.8969        858.0228        858.8829
         1.9744        864.1990        865.8253
         2.0518        872.0596        872.9121
         2.1292        857.4855        867.6657
         2.2066        854.2596        873.8029
         2.2841        858.1686        826.6615
         2.3615        857.6946        858.3934
         2.4389        878.2471        869.0929
         2.5164        862.6595        864.7235
         2.5938        888.4502        888.9550
         2.6712        860.2693        870.5630
         2.7486        869.6418        887.9744
         2.8261        864.5803        856.1922
         2.9035        865.2409        855.7549
         2.9809        856.7720        863.9011
         3.0583        881.3774        868.7491
         3.1358        870.6960        873.4938
         3.2132        865.7023        883.1820
         3.2906        872.7032        858.6871
         3.3680        852.4101        826.3157
         3.4455        868.5175        878.6622
         3.5229        876.1364        876.3617
         3.6003        881.7900        861.3003
         3.6777        846.4606        844.7194
         3.7552        870.4086        878.2454
         3.8326        868.7976        891.9127
