@ title  "Pressure (P) and density (D) over 101 frames"
@ xlabel "Z [nm]"
@ ylabel "P [bar] or D [kg/m^3]"
@ s0 legend "P_T"
@ s1 legend "P_N"
        -3.8310        -54.7354          0.0000
        -3.7536         77.6735          0.0000
        -3.6762         98.4125          0.0000
        -3.5988        -48.6652          0.0000
        -3.5214        -29.4660          0.0000
        -3.4440        -67.9791          0.0000
        -3.3667         24.4072          0.0000
        -3.2893         23.2965          0.0000
        -3.2119        -57.7414          0.0000
        -3.1345        -31.4275          0.0000
        -3.0571         54.1452          0.0000
        -2.9797         51.0509          0.0000
        -2.9023        -39.7549          0.0000
        -2.8249        -41.6487          0.0000
        -2.7475         37.8850          0.0000
        -2.6701         89.0295          0.0000
        -2.5927        -68.8606          0.0000
        -2.5153       -124.9457          0.0000
        -2.4379          4.7236          0.0000
        -2.3605         66.8260          0.0000
        -2.2831         28.0440          0.0000
        -2.2057         96.5734          0.0000
        -2.1283         -4.5344          0.0000
        -2.0510         65.8062          0.0000
        -1.9736         49.1835          0.0000
        -1.8962         29.8687          0.0000
        -1.8188         66.9143          0.0000
        -1.7414         63.3825          0.0000
        -1.6640         16.0220          0.0000
        -1.5866         32.2709          0.0000
        -1.5092         42.3752          0.0000
        -1.4318         14.3862          0.0000
        -1.3544          7.0847          0.0000
        -1.2770        -72.5376          0.0000
        -1.1996         43.9030          0.0000
        -1.1222        -55.3875          0.0000
        -1.0448         -8.1652          0.0000
        -0.9674         52.0820          0.0000
        -0.8900         42.7443          0.0000
        -0.8126          1.4556          0.0000
        -0.7352         71.7720          0.0000
        -0.6579         24.7611          0.0000
        -0.5805        -13.8555          0.0000
        -0.5031         66.7668          0.0000
        -0.4257          8.3641          0.0000
        -0.3483        108.2484          0.0000
        -0.2709         69.7730          0.0000
        -0.1935        -13.1103          0.0000
        -0.1161        -46.7438          0.0000
        -0.0387        -10.5007          0.0000
         0.0387         30.8693          0.0000
         0.1161          9.7761          0.0000
         0.1935        -51.5068          0.0000
         0.2709         -5.2764          0.0000
         0.3483        -89.2310          0.0000
         0.4257         -6.0057          0.0000
         0.5031         15.9531          0.0000
         0.5805         32.6107          0.0000
         0.6579         19.2813          0.0000
         0.7352         31.4005          0.0000
         0.8126         -6.2419          0.0000
         0.8900         25.6364          0.0000
         0.9674         51.4614          0.0000
         1.0448         33.4428          0.0000
         1.1222         35.6677          0.0000
         1.1996         -0.5336          0.0000
         1.2770        -75.8286          0.0000
         1.3544         43.6800          0.0000
         1.4318        -16.9474          0.0000
         1.5092         61.2022          0.0000
         1.5866        -69.8912          0.0000
         1.6640          3.2624          0.0000
         1.7414         72.6047          0.0000
         1.8188         41.3207          0.0000
         1.8962         19.4128          0.0000
         1.9736         50.2832          0.0000
         2.0509        -31.4739          0.0000
         2.1283        -32.8636          0.0000
         2.2057        -37.6040          0.0000
         2.2831         20.8309          0.0000
         2.3605         73.4365          0.0000
         2.4379        -23.4773          0.0000
         2.5153        -20.7965          0.0000
         2.5927         74.8733          0.0000
         2.6701         52.8082          0.0000
         2.7475        -44.0166          0.0000
         2.8249        -31.8590          0.0000
         2.9023        -42.6327          0.0000
         2.9797          6.7650          0.0000
         3.0571         -6.5352          0.0000
         3.1345         47.9699          0.0000
         3.2119        -14.6448          0.0000
         3.2893          9.4131          0.0000
         3.3667         -7.1514          0.0000
         3.4440          5.9479          0.0000
         3.5214        -13.7067          0.0000
         3.5988         35.5000          0.0000
         3.6762        -39.5774          0.0000
         3.7536         42.9546          0.0000
         3.8310         29.6441          0.0000
