@ title  "Pressure (P) and density (D) over 101 frames"
@ xlabel "Z [nm]"
@ ylabel "P [bar] or D [kg/m^3]"
@ s0 legend "P_T"
@ s1 legend "P_N"
        -3.8321         39.1796        -52.3191
        -3.7547         20.2063        -23.9677
        -3.6772        -24.8827        -23.7502
        -3.5998        -39.3260          1.0772
        -3.5224        -94.8036         -3.6659
        -3.4450         36.1974         38.0613
        -3.3676         47.2480        -12.4013
        -3.2902        -53.9441        -33.1132
        -3.2127         22.6940        -36.8741
        -3.1353         15.4418        -46.6454
        -3.0579        -35.7257        -22.7980
        -2.9805          3.1872        -12.2557
        -2.9031         -3.8810         -7.0524
        -2.8257          7.4663          0.8597
        -2.7483         44.4266         28.7186
        -2.6708         -5.1610         25.3157
        -2.5934        -56.6185         30.2465
        -2.5160         67.7620         29.0910
        -2.4386         43.4326          9.9169
        -2.3612        -20.9906         11.1718
        -2.2838         59.6511         32.3719
        -2.2063         10.4904        -13.5361
        -2.1289        -26.1192        -13.1768
        -2.0515          3.7639        -21.6913
        -1.9741        -67.5772        -18.9206
        -1.8967         62.5963        -37.9815
        -1.8193        -43.4914        -33.6022
        -1.7419         61.5983        -27.7927
        -1.6644        -52.4164        -13.7666
        -1.5870         86.7718         12.0486
        -1.5096          4.2823         -4.6672
        -1.4322         17.8619        -23.6522
        -1.3548        -68.0495        -34.2019
        -1.2774        -34.9309        -53.4813
        -1.1999        -51.4130        -10.7578
        -1.1225          0.9417         13.8833
        -1.0451        -15.0319        -12.5470
        -0.9677         -2.0481          7.4753
        -0.8903        -12.9962         -3.7259
        -0.8129        -96.1908         -4.4779
        -0.7354        -70.2243        -10.1905
        -0.6580        -67.1823         16.0154
        -0.5806          8.6717         26.9435
        -0.5032         -1.1162         29.7401
        -0.4258        -54.0538         17.3936
        -0.3484         57.1268         -9.0791
        -0.2710        -21.5490        -31.1875
        -0.1935         -8.7710        -30.5130
        -0.1161         39.7221        -57.7550
        -0.0387        -61.8747        -47.3307
         0.0387        -12.5073        -65.0165
         0.1161        -61.9298        -77.8448
         0.1935          4.8799        -58.5927
         0.2710        -27.2982        -30.8129
         0.3484        -83.3789        -39.6558
         0.4258         96.6428        -22.8002
         0.5032        -49.9498        -23.4211
         0.5806        -30.7121        -43.3231
         0.6580        -43.6636        -80.2267
         0.7354        -36.7085        -83.3893
         0.8129         25.3244       -114.8369
         0.8903          6.5409        -81.6803
         0.9677        -43.5931       -108.1589
         1.0451       -121.9807        -97.5321
         1.1225         12.4266        -85.7115
         1.1999         -4.3793        -87.1377
         1.2774         27.0758        -75.4364
         1.3548        -56.2516        -24.9312
         1.4322         48.0719        -49.8372
         1.5096        -62.9507        -85.1344
         1.5870        -52.5319        -50.1107
         1.6644        -51.2803        -60.5376
         1.7419        -35.5739        -29.1948
         1.8193        -70.4962         -7.5218
         1.8967         -8.0020         24.6516
         1.9741         16.4797        -49.0175
         2.0515        -11.3025        -56.4005
         2.1289        -20.5447        -36.3920
         2.2063         41.3336        -43.6096
         2.2838         76.0699        -56.4952
         2.3612         16.3751         12.0847
         2.4386         42.4661        -14.0980
         2.5160        -54.6535        -19.0789
         2.5934         44.3363        -59.3206
         2.6708         -1.9615        -14.8461
         2.7483       -122.8359        -32.3690
         2.8257        -60.2085        -49.6923
         2.9031        -79.4931        -42.2870
         2.9805        -32.9564         -4.5452
         3.0579         47.3274         -9.8744
         3.1353         82.1192        -10.0391
         3.2127        -59.0486         20.0923
         3.2902         68.5495         33.9087
         3.3676        -19.2568          1.5870
         3.4450         47.1546         -1.7983
         3.5224         64.1993          1.2259
         3.5998        -70.8116         -1.8741
         3.6772        -37.7755        -25.0280
         3.7547        -26.0743        -47.9230
         3.8321         28.5442        -31.2156
