@ title  "Pressure (P) and density (D) over 101 frames"
@ xlabel "Z [nm]"
@ ylabel "P [bar] or D [kg/m^3]"
@ s0 legend "P_T"
@ s1 legend "P_N"
        -3.8314        -13.5116          0.0000
        -3.7540        -26.6709          0.0000
        -3.6766         18.0738          0.0000
        -3.5992         28.8063          0.0000
        -3.5218       -120.8592          0.0000
        -3.4444        -27.8209          0.0000
        -3.3670          3.6766          0.0000
        -3.2896        -36.3960          0.0000
        -3.2122        -23.5354          0.0000
        -3.1348         -5.3014          0.0000
        -3.0574         49.5518          0.0000
        -2.9800        -31.9859          0.0000
        -2.9025        -12.6422          0.0000
        -2.8251         30.6228          0.0000
        -2.7477         26.6903          0.0000
        -2.6703        -83.6684          0.0000
        -2.5929        -77.0357          0.0000
        -2.5155        137.9277          0.0000
        -2.4381        -66.4837          0.0000
        -2.3607        -17.0114          0.0000
        -2.2833       -101.9396          0.0000
        -2.2059         23.6613          0.0000
        -2.1285        -24.1307          0.0000
        -2.0511        -24.3281          0.0000
        -1.9737         10.6816          0.0000
        -1.8963        -32.3667          0.0000
        -1.8189        -71.8122          0.0000
        -1.7415        -84.3962          0.0000
        -1.6641        -56.1504          0.0000
        -1.5867        -11.5942          0.0000
        -1.5093          4.9465          0.0000
        -1.4319         15.6175          0.0000
        -1.3545         26.7220          0.0000
        -1.2771         70.1367          0.0000
        -1.1997         63.3195          0.0000
        -1.1223         64.8602          0.0000
        -1.0449         45.5496          0.0000
        -0.9675         27.8999          0.0000
        -0.8901         13.0562          0.0000
        -0.8127         35.6971          0.0000
        -0.7353        -24.4704          0.0000
        -0.6579         -1.0515          0.0000
        -0.5805         96.5521          0.0000
        -0.5031        -12.5817          0.0000
        -0.4257          7.4003          0.0000
        -0.3483         49.5216          0.0000
        -0.2709         19.7233          0.0000
        -0.1935          4.4375          0.0000
        -0.1161        -30.9051          0.0000
        -0.0387         82.1567          0.0000
         0.0387         54.1019          0.0000
         0.1161        130.8117          0.0000
         0.1935         17.0872          0.0000
         0.2709         26.9923          0.0000
         0.3483        -32.6253          0.0000
         0.4257         16.3515          0.0000
         0.5031         54.8201          0.0000
         0.5805        -24.8516          0.0000
         0.6579         58.4614          0.0000
         0.7353         32.1306          0.0000
         0.8127        -77.6414          0.0000
         0.8901         22.1416          0.0000
         0.9675        -44.6311          0.0000
         1.0449         18.0667          0.0000
         1.1223         57.4373          0.0000
         1.1997        -68.1048          0.0000
         1.2771        -27.7088          0.0000
         1.3545         16.9139          0.0000
         1.4319        -67.8515          0.0000
         1.5093        -11.4661          0.0000
         1.5867         43.9684          0.0000
         1.6641          4.4926          0.0000
         1.7415        170.7421          0.0000
         1.8189       -121.9171          0.0000
         1.8963         23.4273          0.0000
         1.9737         62.0263          0.0000
         2.0511         18.7852          0.0000
         2.1285         -0.9140          0.0000
         2.2059        -72.5201          0.0000
         2.2833         22.7450          0.0000
         2.3607         69.7332          0.0000
         2.4381        161.6480          0.0000
         2.5155        -41.4588          0.0000
         2.5929         10.6315          0.0000
         2.6703         34.7663          0.0000
         2.7477         87.5832          0.0000
         2.8251         18.7392          0.0000
         2.9025         13.1082          0.0000
         2.9800          0.9411          0.0000
         3.0574       -107.4078          0.0000
         3.1348        113.0888          0.0000
         3.2122         44.0427          0.0000
         3.2896         -4.7120          0.0000
         3.3670          5.0240          0.0000
         3.4444         96.1599          0.0000
         3.5218        -68.3871          0.0000
         3.5992         77.0543          0.0000
         3.6766          6.6900          0.0000
         3.7540         20.7560          0.0000
         3.8314         45.4752          0.0000
