@ title  "Pressure (P) and density (D) over 101 frames"
@ xlabel "Z [nm]"
@ ylabel "P [bar] or D [kg/m^3]"
@ s0 legend "P_T"
@ s1 legend "P_N"
        -3.8326         24.0022         21.1848
        -3.7552         13.7502          5.1107
        -3.6777         -2.6245         48.5538
        -3.6003        -58.8185         27.5330
        -3.5229        127.3725        -23.3167
        -3.4455          0.8624        -18.3836
        -3.3680         11.6149        -22.0463
        -3.2906         24.6857        -16.4996
        -3.2132        -47.8023        -50.8103
        -3.1358         26.8956        -38.2116
        -3.0583       -170.6608        -35.8917
        -2.9809        -22.0421        -47.9849
        -2.9035        -50.6093        -44.7236
        -2.8261        -73.0525        -27.6013
        -2.7486       -113.1780        -35.8828
        -2.6712         -2.2958        -18.2903
        -2.5938         18.3184         -3.9901
        -2.5164         39.2006         63.2704
        -2.4389         24.3706         68.2922
        -2.3615          8.5783         59.6254
        -2.2841       -122.9352         27.1597
        -2.2066        -76.0862          1.5586
        -2.1292        -91.0702        -17.4875
        -2.0518        -95.4729        -33.4254
        -1.9744         36.5038         16.6323
        -1.8969         14.0138          9.6101
        -1.8195        -12.0620         39.3021
        -1.7421         85.2572         12.7888
        -1.6647       -117.3904          3.7769
        -1.5872         36.8285        -12.6365
        -1.5098          7.8731         21.0895
        -1.4324        -69.0877         19.5122
        -1.3550         55.9051         -3.3257
        -1.2775         30.6034         -4.8170
        -1.2001        -16.8560         37.8698
        -1.1227        -49.2758         10.7336
        -1.0453        -64.6621          7.6585
        -0.9678        -62.6226          8.8531
        -0.8904         33.6756         24.5971
        -0.8130        -10.7160         12.0740
        -0.7355         16.2089          9.9290
        -0.6581        -40.1875        -10.9565
        -0.5807        -55.1592        -24.6798
        -0.5033        -28.0156        -35.4080
        -0.4258          1.4691        -57.9091
        -0.3484        -10.4837        -53.4346
        -0.2710        -80.8844        -36.4036
        -0.1936         83.5921        -15.5096
        -0.1161        -12.9653          2.0467
        -0.0387          1.1717          4.7099
         0.0387       -143.0096         23.7617
         0.1161         79.6022         26.3338
         0.1936        -52.5183         16.7705
         0.2710         13.9309        -25.9975
         0.3484        -97.5242        -19.9881
         0.4258         35.0684        -24.5739
         0.5033        -35.7453        -31.1621
         0.5807        -29.5029        -18.5975
         0.6581        -29.7150        -30.8567
         0.7355        -26.4449        -32.4049
         0.8130       -109.2649        -27.9610
         0.8904         64.6199        -18.8315
         0.9678        -33.4341        -32.8563
         1.0453        -23.4080        -36.1616
         1.1227         89.2961        -56.5933
         1.2001        -79.6441        -20.8712
         1.2775         40.3551        -16.0593
         1.3550        -25.2133        -21.4379
         1.4324        -31.1068        -15.9519
         1.5098         33.4647          6.2471
         1.5872          5.9569         35.9740
         1.6647         46.4003          2.8463
         1.7421         77.8153         16.2860
         1.8195         13.9913         36.6033
         1.8969       -106.3296         51.0315
         1.9744         -3.3606         77.3434
         2.0518        -86.7383         60.0339
         2.1292         26.9455         15.1634
         2.2066        -27.4977         -4.1975
         2.2841        -77.0109        -58.5317
         2.3615         31.2849        -34.4404
         2.4389       -109.7730        -40.7094
         2.5164        -98.3541        -25.0756
         2.5938        -58.3198         21.2527
         2.6712         34.0491         23.2378
         2.7486          3.0824         66.6518
         2.8261         49.1170         40.6815
         2.9035         77.0181         35.7941
         2.9809         45.1652          9.3885
         3.0583         27.9690        -24.2046
         3.1358          4.7908        -28.0362
         3.2132       -107.0865         -1.5692
         3.2906         82.9716         -9.1688
         3.3680        -59.0349        -70.6498
         3.4455         25.4845        -24.8798
         3.5229        -16.6330          1.9751
         3.6003        -73.1585        -28.6999
         3.6777        -23.5486        -41.3422
         3.7552         11.6157         -9.6246
         3.8326        -35.2061         23.0240
