@ title  "Pressure (P) and density (D) over 101 frames"
@ xlabel "Z [nm]"
@ ylabel "P [bar] or D [kg/m^3]"
@ s0 legend "P_T"
@ s1 legend "P_N"
        -3.8315        868.6615        852.4904
        -3.7541        880.1678        879.5298
        -3.6767        870.6617        870.0378
        -3.5993        881.1697        875.2373
        -3.5219        863.3567        868.6877
        -3.4445        858.8417        854.0591
        -3.3671        857.6453        875.5676
        -3.2897        878.1506        868.7952
        -3.2122        870.8323        856.4074
        -3.1348        849.6746        868.0453
        -3.0574        861.1246        869.4456
        -2.9800        857.7499        857.9449
        -2.9026        869.6598        885.0169
        -2.8252        860.6992        871.7510
        -2.7478        862.0858        871.6932
        -2.6704        867.2913        850.6865
        -2.5930        856.5967        845.3255
        -2.5156        848.5765        875.3729
        -2.4382        870.6155        873.9056
        -2.3608        859.7697        866.8350
        -2.2834        847.5595        844.2358
        -2.2060        864.6848        862.6499
        -2.1286        856.6758        854.7728
        -2.0512        872.6750        872.4869
        -1.9738        861.9156        871.9959
        -1.8964        865.2884        866.9900
        -1.8190        874.0771        887.4633
        -1.7416        862.0406        880.0219
        -1.6642        851.5466        861.2895
        -1.5868        858.4406        859.5600
        -1.5094        842.2675        831.1765
        -1.4320        867.7533        862.8195
        -1.3546        862.1561        864.8369
        -1.2772        860.0331        854.4494
        -1.1998        883.4351        873.4021
        -1.1224        867.7573        878.0846
        -1.0449        843.6109        830.3964
        -0.9675        861.6368        860.7018
        -0.8901        851.3397        875.9277
        -0.8127        869.2361        854.9502
        -0.7353        883.4991        889.4064
        -0.6579        865.6240        863.1653
        -0.5805        861.7945        854.3601
        -0.5031        859.7478        855.0945
        -0.4257        849.2269        847.3088
        -0.3483        873.6895        865.4172
        -0.2709        871.2952        866.0593
        -0.1935        850.1092        855.7753
        -0.1161        862.3268        868.2144
        -0.0387        851.8041        863.8233
         0.0387        859.7097        872.1684
         0.1161        863.5524        875.2692
         0.1935        859.9976        855.5241
         0.2709        882.0966        882.6896
         0.3483        854.1019        845.0118
         0.4257        874.3918        859.8253
         0.5031        865.2025        855.3136
         0.5805        872.4841        873.6327
         0.6579        859.7432        860.8143
         0.7353        851.3024        876.5689
         0.8127        865.4370        874.0551
         0.8901        861.1181        864.5588
         0.9675        861.7025        854.9544
         1.0449        861.7755        851.2749
         1.1224        850.0529        861.7005
         1.1998        854.8834        876.5144
         1.2772        870.0831        847.0067
         1.3546        861.3137        866.1967
         1.4320        863.0248        872.5221
         1.5094        836.8063        859.6986
         1.5868        863.5139        844.8492
         1.6642        865.6591        860.3254
         1.7416        852.2590        860.2979
         1.8190        866.7650        869.6107
         1.8964        866.4017        869.9290
         1.9738        853.5685        855.5237
         2.0512        880.3893        868.4025
         2.1286        883.9434        880.0246
         2.2060        847.5669        863.5961
         2.2834        870.0336        857.8054
         2.3608        870.7220        870.1006
         2.4382        863.1830        874.7421
         2.5156        863.8903        864.6635
         2.5930        856.6536        871.3809
         2.6704        878.7435        858.5415
         2.7478        882.4800        879.2543
         2.8252        858.5627        871.4016
         2.9026        867.7877        848.2078
         2.9800        878.5808        868.9830
         3.0574        860.3299        870.0610
         3.1348        842.7781        836.3145
         3.2122        846.4542        863.7582
         3.2897        859.7067        848.5397
         3.3671        863.5715        871.6355
         3.4445        863.4536        855.7390
         3.5219        864.5824        872.2136
         3.5993        862.9472        880.6634
         3.6767        858.4950        850.7628
         3.7541        862.4740        867.9588
         3.8315        867.3807        853.7247
