@ title  "Pressure (P) and density (D) over 101 frames"
@ xlabel "Z [nm]"
@ ylabel "P [bar] or D [kg/m^3]"
@ s0 legend "P_T"
@ s1 legend "P_N"
        -3.8317         43.0433         -9.8922
        -3.7543        -12.5468          9.4105
        -3.6769         -5.8653         -2.2795
        -3.5995        -74.3459        -22.4569
        -3.5221        -40.1612         -6.2953
        -3.4447        141.8280         -5.5327
        -3.3673        -51.4612         -8.8978
        -3.2898        -61.4472         -1.7330
        -3.2124         86.4609        -14.0505
        -3.1350        -14.2849        -13.1873
        -3.0576        -55.6222         -6.4345
        -2.9802        -24.4921        -38.1352
        -2.9028       -119.6391          0.3750
        -2.8254         68.7850         18.3742
        -2.7480       -129.6811          1.6598
        -2.6706         28.5546         55.5000
        -2.5932        -32.1995         49.6065
        -2.5158        107.3172         65.3876
        -2.4384        -34.7318         64.3933
        -2.3609         67.8036          5.1696
        -2.2835        -62.3852         24.7100
        -2.2061         23.2561         15.1242
        -2.1287          4.9816         -1.4828
        -2.0513         35.5280          1.2055
        -1.9739        -63.6625        -13.1010
        -1.8965         37.9145          8.0842
        -1.8191        -14.4867         -9.7426
        -1.7417        149.2664         -0.8005
        -1.6643         43.0058          6.7243
        -1.5869        -23.7703         -6.2325
        -1.5095        -29.5529        -42.3924
        -1.4321         31.8646         -1.5574
        -1.3546         18.7377         22.3380
        -1.2772        104.6779         22.2521
        -1.1998        -17.8378         32.3398
        -1.1224         89.2084         33.9442
        -1.0450         88.0537         18.0710
        -0.9676         34.8598         14.9537
        -0.8902          7.6735         -8.1651
        -0.8128         15.1414        -30.7282
        -0.7354        100.0236        -10.4715
        -0.6580        -87.5483          8.6010
        -0.5806        -33.8784         32.2121
        -0.5032        108.6241         24.5067
        -0.4257        -34.3386         25.8747
        -0.3483         80.2309         82.2896
        -0.2709        -49.1768         70.5684
        -0.1935        128.0585         60.4219
        -0.1161        -84.2031         18.2725
        -0.0387        -32.5917         13.2052
         0.0387         70.2022         29.9452
         0.1161          2.6051         42.0005
         0.1935         81.1335         71.4645
         0.2709         67.3261        121.3953
         0.3483        111.5568        101.0502
         0.4257         81.7714         93.7737
         0.5032        125.6362         86.2548
         0.5806        -27.8690         79.7746
         0.6580        129.0269         65.6410
         0.7354        -47.0915         27.2321
         0.8128        -16.9473          4.5377
         0.8902        -43.2605         -1.7274
         0.9676          9.0278         -7.5816
         1.0450         40.6114         51.3791
         1.1224          9.4078         14.6128
         1.1998         38.9516         32.9713
         1.2772        -60.2012         58.4822
         1.3546        -12.7436         36.1176
         1.4320         15.7791         39.0747
         1.5095        -15.9086         29.2441
         1.5869        -32.8639         -6.1625
         1.6643         12.1124          2.5436
         1.7417        -78.0460         39.4970
         1.8191         29.9209         59.6895
         1.8965         55.9086         57.3464
         1.9739         23.9645         62.3882
         2.0513         -5.4016         54.7574
         2.1287         18.2163         67.9786
         2.2061        -43.0848         13.9920
         2.2835         34.6980         20.7731
         2.3609         58.8694         18.9268
         2.4384         32.6246         16.2663
         2.5158         31.1015         15.1962
         2.5932        -24.7204         25.2275
         2.6706        120.3253         -7.1689
         2.7480        -47.8190        -10.7604
         2.8254         79.4032        -39.3928
         2.9028        -26.5493        -45.9513
         2.9802         86.5842        -84.0908
         3.0576         -2.6518        -23.0285
         3.1350       -110.3950          2.2672
         3.2124       -119.0332         -1.4216
         3.2898        -60.2297        -12.4884
         3.3673         51.9630        -64.4073
         3.4447         55.4119        -62.7551
         3.5221        -62.6491        -72.9783
         3.5995        -68.1751        -53.5631
         3.6769         32.1517        -69.4390
         3.7543         18.0922        -48.0908
         3.8317         50.2235         -9.2062
