@ title  "Pressure (P) and density (D) over 101 frames"
@ xlabel "Z [nm]"
@ ylabel "P [bar] or D [kg/m^3]"
@ s0 legend "P_T"
@ s1 legend "P_N"
        -3.8316        848.0585        866.9874
        -3.7542        852.8569        877.7031
        -3.6768        855.4772        849.4816
        -3.5994        865.9769        863.8264
        -3.5220        860.4070        863.2069
        -3.4446        870.1837        870.1812
        -3.3672        870.5328        861.9070
        -3.2898        868.1432        857.1681
        -3.2124        852.3756        860.8575
        -3.1350        886.1240        874.7317
        -3.0575        854.4305        861.7440
        -2.9801        864.6958        875.2987
        -2.9027        850.0236        847.9149
        -2.8253        878.7794        860.9696
        -2.7479        863.0144        861.7260
        -2.6705        858.6329        860.7761
        -2.5931        858.1898        853.7856
        -2.5157        858.7048        864.5088
        -2.4383        830.9130        863.4362
        -2.3609        860.6467        901.0520
        -2.2835        870.9972        892.2703
        -2.2061        855.0053        861.8949
        -2.1287        861.6621        875.8184
        -2.0513        856.6093        844.7659
        -1.9739        865.8541        858.4072
        -1.8965        863.4133        842.4955
        -1.8190        880.7493        876.8439
        -1.7416        861.9075        854.2770
        -1.6642        862.0595        865.1573
        -1.5868        851.8384        848.7507
        -1.5094        869.9348        861.4315
        -1.4320        877.5927        881.4765
        -1.3546        869.4484        870.4041
        -1.2772        854.1177        865.2617
        -1.1998        859.4323        866.0308
        -1.1224        865.6658        865.9414
        -1.0450        886.9969        884.9629
        -0.9676        858.7836        846.2453
        -0.8902        851.0849        863.9326
        -0.8128        857.7462        851.5781
        -0.7354        871.6468        880.8126
        -0.6580        872.0851        856.8003
        -0.5805        863.8038        885.4536
        -0.5031        869.5423        872.4620
        -0.4257        846.6648        848.8679
        -0.3483        859.0028        852.8831
        -0.2709        880.0972        869.6094
        -0.1935        873.2324        852.6843
        -0.1161        871.1978        875.4534
        -0.0387        858.7086        861.3647
         0.0387        867.3945        862.8665
         0.1161        855.0073        859.3311
         0.1935        850.9167        872.8109
         0.2709        857.3535        848.1461
         0.3483        853.0209        864.4062
         0.4257        871.7978        861.8273
         0.5031        872.8211        863.8026
         0.5805        858.7650        870.5910
         0.6580        859.1386        873.5693
         0.7354        864.7975        856.0054
         0.8128        865.8383        854.9214
         0.8902        881.7456        869.8355
         0.9676        864.3699        853.7616
         1.0450        856.7614        866.2568
         1.1224        858.9353        872.5641
         1.1998        871.4307        884.2505
         1.2772        857.8514        846.0148
         1.3546        854.4465        853.4269
         1.4320        853.9699        851.3179
         1.5094        852.9049        857.9916
         1.5868        858.3271        871.5778
         1.6642        855.0509        857.4552
         1.7416        854.0573        864.4702
         1.8190        873.8370        891.9801
         1.8964        867.9335        865.3714
         1.9739        868.2418        862.9048
         2.0513        867.8701        866.8722
         2.1287        867.8100        845.7946
         2.2061        871.1421        884.8530
         2.2835        862.8038        860.9121
         2.3609        857.9294        845.2313
         2.4383        871.8593        870.1403
         2.5157        868.7130        867.7913
         2.5931        862.1535        870.7146
         2.6705        858.8372        865.4690
         2.7479        868.7540        862.0275
         2.8253        847.6668        838.0286
         2.9027        874.8486        869.9154
         2.9801        867.9257        872.7830
         3.0575        866.4580        858.2744
         3.1349        849.1502        845.3654
         3.2124        864.6848        882.8444
         3.2898        846.6038        852.1161
         3.3672        871.7239        883.1879
         3.4446        868.8214        868.4992
         3.5220        857.3744        871.1955
         3.5994        839.0027        859.6995
         3.6768        867.0381        851.5754
         3.7542        869.5643        861.8262
         3.8316        889.4189        851.5099
