@ title  "Pressure (P) and density (D) over 101 frames"
@ xlabel "Z [nm]"
@ ylabel "P [bar] or D [kg/m^3]"
@ s0 legend "P_T"
@ s1 legend "P_N"
        -3.8316         69.1132          0.0000
        -3.7542        157.5533          0.0000
        -3.6768        -62.4453          0.0000
        -3.5994        -28.7948          0.0000
        -3.5220         38.3770          0.0000
        -3.4446        -39.8795          0.0000
        -3.3672         31.4422          0.0000
        -3.2898          6.0459          0.0000
        -3.2124         27.1156          0.0000
        -3.1350         23.4384          0.0000
        -3.0576        -28.8983          0.0000
        -2.9802         15.1101          0.0000
        -2.9028         78.2239          0.0000
        -2.8253        152.6538          0.0000
        -2.7479         48.4232          0.0000
        -2.6705        -93.3290          0.0000
        -2.5931         39.7507          0.0000
        -2.5157        -49.8656          0.0000
        -2.4383        -15.3624          0.0000
        -2.3609         74.7890          0.0000
        -2.2835         14.1419          0.0000
        -2.2061        -37.9685          0.0000
        -2.1287         72.8794          0.0000
        -2.0513        -35.3791          0.0000
        -1.9739        -85.4131          0.0000
        -1.8965        -41.2519          0.0000
        -1.8191         25.9811          0.0000
        -1.7417        -68.4699          0.0000
        -1.6642       -117.4197          0.0000
        -1.5868       -122.1201          0.0000
        -1.5094         88.1963          0.0000
        -1.4320         -2.0631          0.0000
        -1.3546        -81.8279          0.0000
        -1.2772          2.8230          0.0000
        -1.1998          2.7198          0.0000
        -1.1224         -8.8015          0.0000
        -1.0450         50.2952          0.0000
        -0.9676        -67.8591          0.0000
        -0.8902         39.9048          0.0000
        -0.8128         47.5763          0.0000
        -0.7354         96.3651          0.0000
        -0.6580         55.5356          0.0000
        -0.5805        -63.9420          0.0000
        -0.5031         -9.4502          0.0000
        -0.4257         84.1751          0.0000
        -0.3483         33.1310          0.0000
        -0.2709          1.6416          0.0000
        -0.1935         -1.6186          0.0000
        -0.1161        -88.2732          0.0000
        -0.0387        -11.6554          0.0000
         0.0387         69.2615          0.0000
         0.1161         10.3328          0.0000
         0.1935        -13.6934          0.0000
         0.2709        105.2086          0.0000
         0.3483        -11.7516          0.0000
         0.4257         39.7519          0.0000
         0.5031         47.1007          0.0000
         0.5806        -49.6230          0.0000
         0.6580         39.9238          0.0000
         0.7354        -32.8076          0.0000
         0.8128         25.6580          0.0000
         0.8902         42.4816          0.0000
         0.9676         48.6644          0.0000
         1.0450        -39.5382          0.0000
         1.1224        -57.0502          0.0000
         1.1998        -22.9531          0.0000
         1.2772        -12.4503          0.0000
         1.3546         48.5771          0.0000
         1.4320        -41.8329          0.0000
         1.5094         79.6211          0.0000
         1.5868         17.1141          0.0000
         1.6642        -27.9669          0.0000
         1.7417         -8.2429          0.0000
         1.8191         56.0722          0.0000
         1.8965        -61.9678          0.0000
         1.9739         28.9774          0.0000
         2.0513         17.5825          0.0000
         2.1287        -16.0280          0.0000
         2.2061          6.0109          0.0000
         2.2835        -38.8321          0.0000
         2.3609        -44.3777          0.0000
         2.4383         12.4798          0.0000
         2.5157       -152.2841          0.0000
         2.5931         17.2543          0.0000
         2.6705        -17.2508          0.0000
         2.7479        -11.3759          0.0000
         2.8253        -48.6936          0.0000
         2.9028        -28.8938          0.0000
         2.9802         84.8498          0.0000
         3.0576         11.5587          0.0000
         3.1350         22.9806          0.0000
         3.2124         48.8171          0.0000
         3.2898        143.2063          0.0000
         3.3672        -20.5910          0.0000
         3.4446         24.2017          0.0000
         3.5220       -135.9222          0.0000
         3.5994         -2.8400          0.0000
         3.6768         72.5025          0.0000
         3.7542         37.6295          0.0000
         3.8316        -11.9083          0.0000
