@ title  "Pressure (P) and density (D) over 101 frames"
@ xlabel "Z [nm]"
@ ylabel "P [bar] or D [kg/m^3]"
@ s0 legend "P_T"
@ s1 legend "P_N"
        -3.8316         37.3610        -66.7932
        -3.7542        -17.0220        -25.5621
        -3.6768         24.8035        -22.6622
        -3.5994         67.0790        -31.6648
        -3.5220         40.2565        -34.6325
        -3.4445        -74.2137         10.9673
        -3.3671        -40.4514         39.2024
        -3.2897         15.3182         40.9030
        -3.2123         37.7111         27.4035
        -3.1349        -36.3647         13.9657
        -3.0575        -37.6264         29.4133
        -2.9801         96.5394         43.2597
        -2.9027        103.2253         26.1090
        -2.8253         12.3197         38.4865
        -2.7479         65.8771         12.6901
        -2.6705         16.2554         44.5144
        -2.5931         29.0265        -20.3986
        -2.5157        -56.1044         -6.1204
        -2.4383        106.7967         20.8878
        -2.3609        122.0344         11.3518
        -2.2835        -37.0345        -12.0813
        -2.2061        -51.5367         11.5723
        -2.1287         30.6828         17.0686
        -2.0512        -20.6360        -10.1623
        -1.9738         -8.2490          6.6735
        -1.8964         53.8788          2.0714
        -1.8190        -49.6062         -8.0912
        -1.7416        -19.1022         -4.8364
        -1.6642          9.9497         -4.6524
        -1.5868        -52.1827          4.4953
        -1.5094          2.5647         -0.3620
        -1.4320         44.7914        -25.6191
        -1.3546         -8.5811          5.1912
        -1.2772         74.4784         23.3877
        -1.1998        -26.5002         15.9598
        -1.1224        -34.7974         55.7590
        -1.0450         49.5231         79.5710
        -0.9676         43.6824         56.0399
        -0.8902         30.3117         80.6506
        -0.8128        -17.3200         48.5354
        -0.7354         28.3228         51.2355
        -0.6579       -110.8785          7.2998
        -0.5805        -58.8620          7.3307
        -0.5031          3.4027         11.1758
        -0.4257         34.4786         11.9261
        -0.3483         90.9072          4.9847
        -0.2709         89.3591         -1.8159
        -0.1935        -50.3286          1.7292
        -0.1161          0.0006        -36.9779
        -0.0387         18.3163        -49.3150
         0.0387        -70.2874        -28.0221
         0.1161         14.9533        -25.6798
         0.1935        -40.7412         -3.0304
         0.2709         32.1048         -4.9988
         0.3483         27.9929         33.6189
         0.4257        -66.3773         22.7944
         0.5031        -61.0140         52.2341
         0.5805         92.9511         18.9880
         0.6579         31.8621          6.7918
         0.7354         80.5405         -7.4914
         0.8128         82.8584        -27.5569
         0.8902        -14.1988        -64.1231
         0.9676       -103.6057        -30.7496
         1.0450         70.4231        -55.2823
         1.1224         30.4134        -41.0433
         1.1998        -11.8628        -34.9800
         1.2772         28.0992        -31.2177
         1.3546        -89.8941         20.7287
         1.4320        -86.6183         18.6615
         1.5094         44.8980        -15.4744
         1.5868         90.3292         19.3357
         1.6642         66.5865         20.5638
         1.7416         42.4942         53.1757
         1.8190        -13.5587         20.2362
         1.8964        -37.5192         17.7485
         1.9738        -11.0081         35.2160
         2.0512        -34.0126         33.7226
         2.1286         63.4521         18.2505
         2.2061        -36.6101         -4.1982
         2.2835        115.9880         -3.4717
         2.3609         74.5041        -13.4626
         2.4383        -11.5777        -53.2500
         2.5157         43.5199        -30.7218
         2.5931        -46.1847        -27.7770
         2.6705        -27.5948        -14.7930
         2.7479         62.2607         46.1070
         2.8253         -5.7206         62.6138
         2.9027         27.4583         99.9229
         2.9801         -5.9434         55.1206
         3.0575         48.5942         66.9552
         3.1349         -5.0965          7.2178
         3.2123        -24.5749        -24.0616
         3.2897        -42.7673         17.2501
         3.3671         64.8158         29.2033
         3.4445         22.9094         28.0883
         3.5219         34.3282          7.7389
         3.5994        -12.3827         37.9095
         3.6768        155.4806         19.3847
         3.7542        -34.7804         16.7136
         3.8316        -42.8117        -32.7540
