@ title  "Pressure (P) and density (D) over 101 frames"
@ xlabel "Z [nm]"
@ ylabel "P [bar] or D [kg/m^3]"
@ s0 legend "P_T"
@ s1 legend "P_N"
        -3.8319        -67.0882          0.0000
        -3.7544         -8.6997          0.0000
        -3.6770        -41.8337          0.0000
        -3.5996         33.1702          0.0000
        -3.5222         10.1806          0.0000
        -3.4448        -53.2936          0.0000
        -3.3674         11.1421          0.0000
        -3.2900         34.8558          0.0000
        -3.2126        -28.8719          0.0000
        -3.1352        105.3846          0.0000
        -3.0577         80.6534          0.0000
        -2.9803         22.0198          0.0000
        -2.9029         18.6486          0.0000
        -2.8255         -9.9431          0.0000
        -2.7481         19.7627          0.0000
        -2.6707         70.8307          0.0000
        -2.5933         76.5518          0.0000
        -2.5159         18.4758          0.0000
        -2.4385        -54.0323          0.0000
        -2.3610         -3.7104          0.0000
        -2.2836        -21.1862          0.0000
        -2.2062        -21.2879          0.0000
        -2.1288        -75.6588          0.0000
        -2.0514        -63.3321          0.0000
        -1.9740         18.3415          0.0000
        -1.8966         17.2282          0.0000
        -1.8192         -6.3334          0.0000
        -1.7418         24.9587          0.0000
        -1.6643        -33.8685          0.0000
        -1.5869         49.3749          0.0000
        -1.5095        -73.8953          0.0000
        -1.4321        -48.2361          0.0000
        -1.3547        -52.3919          0.0000
        -1.2773        -49.2958          0.0000
        -1.1999         27.1796          0.0000
        -1.1225        -13.0808          0.0000
        -1.0451          6.5477          0.0000
        -0.9676         65.2545          0.0000
        -0.8902          0.4913          0.0000
        -0.8128         -4.4838          0.0000
        -0.7354         24.9373          0.0000
        -0.6580        -46.5992          0.0000
        -0.5806         80.6670          0.0000
        -0.5032         66.8164          0.0000
        -0.4258         66.3138          0.0000
        -0.3484         39.2613          0.0000
        -0.2709         31.2565          0.0000
        -0.1935          3.9312          0.0000
        -0.1161         12.6677          0.0000
        -0.0387        -71.0654          0.0000
         0.0387         30.1054          0.0000
         0.1161         37.1128          0.0000
         0.1935        -55.1457          0.0000
         0.2709        -68.4254          0.0000
         0.3484         70.2854          0.0000
         0.4258        -21.3474          0.0000
         0.5032        -11.7214          0.0000
         0.5806         57.7238          0.0000
         0.6580        -32.0250          0.0000
         0.7354         -6.4161          0.0000
         0.8128        -32.7625          0.0000
         0.8902        -24.9023          0.0000
         0.9676        -97.8803          0.0000
         1.0451        -15.4262          0.0000
         1.1225         -4.8129          0.0000
         1.1999         -1.7614          0.0000
         1.2773          6.3665          0.0000
         1.3547         26.6970          0.0000
         1.4321        -22.7209          0.0000
         1.5095         49.7959          0.0000
         1.5869        -43.3220          0.0000
         1.6643         -0.3962          0.0000
         1.7418         18.9069          0.0000
         1.8192         51.7790          0.0000
         1.8966        -15.1552          0.0000
         1.9740        -19.6573          0.0000
         2.0514        -38.2536          0.0000
         2.1288        -70.2731          0.0000
         2.2062        -24.7582          0.0000
         2.2836        -22.5940          0.0000
         2.3610         19.3145          0.0000
         2.4385          3.6755          0.0000
         2.5159         68.4475          0.0000
         2.5933        -16.8784          0.0000
         2.6707         25.8646          0.0000
         2.7481        -29.6438          0.0000
         2.8255        -65.4152          0.0000
         2.9029         37.9913          0.0000
         2.9803         34.0973          0.0000
         3.0577        -29.4403          0.0000
         3.1352         74.5457          0.0000
         3.2126         56.1920          0.0000
         3.2900        -33.9797          0.0000
         3.3674          0.8216          0.0000
         3.4448         63.0925          0.0000
         3.5222         52.4206          0.0000
         3.5996         17.4518          0.0000
         3.6770        -53.5253          0.0000
         3.7544         54.1097          0.0000
         3.8319        -55.3156          0.0000
