@ title  "Pressure (P) and density (D) over 101 frames"
@ xlabel "Z [nm]"
@ ylabel "P [bar] or D [kg/m^3]"
@ s0 legend "P_T"
@ s1 legend "P_N"
        -3.8318        865.6358        857.2885
        -3.7544        882.7893        865.8079
        -3.6770        861.0620        871.7097
        -3.5996        869.3017        846.8026
        -3.5222        858.3154        846.6683
        -3.4448        856.5618        876.9320
        -3.3674        860.6995        870.0727
        -3.2900        855.2656        864.7328
        -3.2125        855.6032        864.7407
        -3.1351        870.1902        866.8421
        -3.0577        871.1422        877.0663
        -2.9803        874.0740        876.3956
        -2.9029        865.4451        877.7502
        -2.8255        861.0002        855.8764
        -2.7481        854.9862        871.0019
        -2.6707        864.9417        868.7739
        -2.5933        871.9297        864.1151
        -2.5158        860.2406        868.3262
        -2.4384        873.0269        881.1237
        -2.3610        870.1810        861.6410
        -2.2836        853.9570        855.1719
        -2.2062        865.1536        862.7867
        -2.1288        874.0359        874.4207
        -2.0514        867.3719        842.3268
        -1.9740        841.2055        821.8120
        -1.8966        857.8376        866.0259
        -1.8192        866.9869        876.0177
        -1.7417        869.3979        875.6448
        -1.6643        866.5747        848.6662
        -1.5869        861.6750        867.5186
        -1.5095        868.3672        884.3100
        -1.4321        860.3333        874.3846
        -1.3547        868.5438        871.1826
        -1.2773        866.7782        868.3294
        -1.1999        846.7897        861.3791
        -1.1225        865.0052        871.6900
        -1.0450        875.3060        870.5553
        -0.9676        853.8015        858.5043
        -0.8902        868.2379        869.8312
        -0.8128        865.7458        858.0495
        -0.7354        847.8016        848.2690
        -0.6580        861.5051        862.3557
        -0.5806        862.4758        865.4586
        -0.5032        871.1411        890.0159
        -0.4258        871.9827        887.8830
        -0.3483        857.8679        853.5147
        -0.2709        866.2980        846.7777
        -0.1935        843.8391        846.3961
        -0.1161        878.2720        872.3547
        -0.0387        863.1187        867.9797
         0.0387        867.2338        877.2734
         0.1161        853.5634        842.9479
         0.1935        849.1177        849.4882
         0.2709        853.8987        840.1417
         0.3483        877.6646        879.4703
         0.4258        880.7557        883.3278
         0.5032        859.0370        837.7994
         0.5806        854.7298        848.9279
         0.6580        857.5604        849.1290
         0.7354        866.3605        862.2759
         0.8128        879.0313        877.5964
         0.8902        863.1890        871.1233
         0.9676        855.8630        863.6385
         1.0450        856.6057        850.4382
         1.1225        852.4995        855.6785
         1.1999        853.4683        851.1914
         1.2773        855.8835        863.2628
         1.3547        866.9485        882.1529
         1.4321        886.7380        888.0089
         1.5095        861.9039        845.8767
         1.5869        861.9011        848.4328
         1.6643        852.6670        858.9456
         1.7417        854.5105        855.0026
         1.8191        864.9255        895.0663
         1.8966        858.8416        864.8274
         1.9740        861.8392        892.8319
         2.0514        875.1689        867.3127
         2.1288        859.7372        859.2079
         2.2062        866.3112        871.6061
         2.2836        865.2195        858.3274
         2.3610        858.5186        853.5137
         2.4384        863.7789        859.1674
         2.5158        872.7255        881.7200
         2.5933        860.9160        849.8821
         2.6707        867.8246        870.1702
         2.7481        866.4935        852.8042
         2.8255        863.9149        843.1254
         2.9029        876.8027        864.3390
         2.9803        848.2242        870.9819
         3.0577        864.4378        882.9122
         3.1351        879.1859        863.8129
         3.2125        870.0323        870.6192
         3.2900        868.4769        855.9519
         3.3674        871.6375        863.2985
         3.4448        864.4036        880.5795
         3.5222        863.9133        851.7490
         3.5996        844.8560        867.7743
         3.6770        855.8182        842.5409
         3.7544        859.3679        855.6368
         3.8318        855.4493        853.5847
