@ title  "Pressure (P) and density (D) over 101 frames"
@ xlabel "Z [nm]"
@ ylabel "P [bar] or D [kg/m^3]"
@ s0 legend "P_T"
@ s1 legend "P_N"
        -3.8326         37.6407          0.0000
        -3.7552        -47.2389          0.0000
        -3.6777        124.8631          0.0000
        -3.6003        -72.2267          0.0000
        -3.5229        -48.2994          0.0000
        -3.4455          5.2641          0.0000
        -3.3680        -17.0102          0.0000
        -3.2906        -30.6272          0.0000
        -3.2132        -48.7838          0.0000
        -3.1358        -23.6946          0.0000
        -3.0583        -32.1420          0.0000
        -2.9809         59.8055          0.0000
        -2.9035         96.9738          0.0000
        -2.8261         22.4648          0.0000
        -2.7486        -85.6719          0.0000
        -2.6712         13.9128          0.0000
        -2.5938       -106.0406          0.0000
        -2.5163        -43.3379          0.0000
        -2.4389        -48.9107          0.0000
        -2.3615         24.1551          0.0000
        -2.2841          2.0847          0.0000
        -2.2066        -70.3283          0.0000
        -2.1292        -76.7528          0.0000
        -2.0518          1.0223          0.0000
        -1.9744         42.3980          0.0000
        -1.8969         36.0014          0.0000
        -1.8195         13.8789          0.0000
        -1.7421         -6.5043          0.0000
        -1.6647        -14.0344          0.0000
        -1.5872         13.7475          0.0000
        -1.5098        -68.5122          0.0000
        -1.4324         -1.5099          0.0000
        -1.3550        -70.5633          0.0000
        -1.2775        101.8579          0.0000
        -1.2001        -35.9417          0.0000
        -1.1227        -66.4835          0.0000
        -1.0453         66.2057          0.0000
        -0.9678         29.5417          0.0000
        -0.8904        -61.8828          0.0000
        -0.8130        -28.2798          0.0000
        -0.7355        -19.0345          0.0000
        -0.6581        -42.0254          0.0000
        -0.5807        -31.5796          0.0000
        -0.5033        -10.0396          0.0000
        -0.4258        -76.1795          0.0000
        -0.3484          2.1230          0.0000
        -0.2710        -94.2572          0.0000
        -0.1936        -94.5776          0.0000
        -0.1161       -146.7782          0.0000
        -0.0387          3.3125          0.0000
         0.0387        -18.4943          0.0000
         0.1161         43.2421          0.0000
         0.1936         33.9887          0.0000
         0.2710        -61.6437          0.0000
         0.3484        -16.1734          0.0000
         0.4258        -67.8572          0.0000
         0.5033        -64.3385          0.0000
         0.5807        -12.8579          0.0000
         0.6581          1.8165          0.0000
         0.7355         16.6849          0.0000
         0.8130        -56.0353          0.0000
         0.8904         -1.6382          0.0000
         0.9678         62.4975          0.0000
         1.0453        -26.8698          0.0000
         1.1227        -26.7508          0.0000
         1.2001         65.6516          0.0000
         1.2775        -10.8691          0.0000
         1.3550        151.1003          0.0000
         1.4324         74.5148          0.0000
         1.5098        109.9343          0.0000
         1.5872         56.7525          0.0000
         1.6647        -47.9320          0.0000
         1.7421         -2.5051          0.0000
         1.8195         37.9028          0.0000
         1.8969        -92.1980          0.0000
         1.9744         21.8458          0.0000
         2.0518         -1.8418          0.0000
         2.1292        -54.5741          0.0000
         2.2066         -4.7960          0.0000
         2.2841        -59.6266          0.0000
         2.3615         51.3964          0.0000
         2.4389        -96.7250          0.0000
         2.5163         13.6482          0.0000
         2.5938         53.8280          0.0000
         2.6712         36.1737          0.0000
         2.7486         16.0114          0.0000
         2.8261        -39.0731          0.0000
         2.9035         -3.8402          0.0000
         2.9809          5.3542          0.0000
         3.0583         14.5533          0.0000
         3.1358         63.1286          0.0000
         3.2132         25.7960          0.0000
         3.2906        -85.2465          0.0000
         3.3680        -99.5477          0.0000
         3.4455        -12.7761          0.0000
         3.5229        -30.3731          0.0000
         3.6003        -19.1971          0.0000
         3.6777         21.6148          0.0000
         3.7552        -55.2704          0.0000
         3.8326         43.2784          0.0000
