@ title  "Pressure (P) and density (D) over 101 frames"
@ xlabel "Z [nm]"
@ ylabel "P [bar] or D [kg/m^3]"
@ s0 legend "P_T"
@ s1 legend "P_N"
        -3.8310       -112.4098          0.0000
        -3.7536         62.2743          0.0000
        -3.6762         18.9346          0.0000
        -3.5988         19.3150          0.0000
        -3.5215          4.0303          0.0000
        -3.4441        -53.4455          0.0000
        -3.3667         41.2044          0.0000
        -3.2893        -43.2251          0.0000
        -3.2119       -112.4840          0.0000
        -3.1345         61.6103          0.0000
        -3.0571         11.4166          0.0000
        -2.9797         18.0605          0.0000
        -2.9023         -7.1059          0.0000
        -2.8249         39.1458          0.0000
        -2.7475         60.5386          0.0000
        -2.6701         51.9495          0.0000
        -2.5927         46.3670          0.0000
        -2.5153         80.9291          0.0000
        -2.4379        -56.7713          0.0000
        -2.3605        -49.7050          0.0000
        -2.2831         82.4550          0.0000
        -2.2057        -79.4833          0.0000
        -2.1284         -3.8993          0.0000
        -2.0510        -55.1784          0.0000
        -1.9736         36.5798          0.0000
        -1.8962        -13.6135          0.0000
        -1.8188        126.5025          0.0000
        -1.7414         12.6735          0.0000
        -1.6640         39.5127          0.0000
        -1.5866        -20.1953          0.0000
        -1.5092         61.8006          0.0000
        -1.4318          6.6778          0.0000
        -1.3544         36.9192          0.0000
        -1.2770         24.9955          0.0000
        -1.1996         40.2722          0.0000
        -1.1222         26.6980          0.0000
        -1.0448       -111.4364          0.0000
        -0.9674        -48.2849          0.0000
        -0.8900        -12.4006          0.0000
        -0.8126        103.1375          0.0000
        -0.7352         20.6897          0.0000
        -0.6579         24.3429          0.0000
        -0.5805         27.5221          0.0000
        -0.5031          1.3304          0.0000
        -0.4257         79.6507          0.0000
        -0.3483         56.8230          0.0000
        -0.2709        -30.7641          0.0000
        -0.1935         40.5442          0.0000
        -0.1161          9.5757          0.0000
        -0.0387        -26.5453          0.0000
         0.0387         84.3689          0.0000
         0.1161         45.2250          0.0000
         0.1935        -31.1952          0.0000
         0.2709        108.4358          0.0000
         0.3483        107.1894          0.0000
         0.4257         22.7898          0.0000
         0.5031         -3.9111          0.0000
         0.5805         48.0238          0.0000
         0.6579         -7.0950          0.0000
         0.7352        -17.2821          0.0000
         0.8126         36.7529          0.0000
         0.8900         42.5422          0.0000
         0.9674        -99.2878          0.0000
         1.0448        -37.5383          0.0000
         1.1222        -59.7041          0.0000
         1.1996        102.0705          0.0000
         1.2770          6.2638          0.0000
         1.3544         15.0350          0.0000
         1.4318         -6.0724          0.0000
         1.5092         64.8170          0.0000
         1.5866         -4.4366          0.0000
         1.6640        -40.0717          0.0000
         1.7414       -103.4833          0.0000
         1.8188        -71.9034          0.0000
         1.8962         28.8561          0.0000
         1.9736         26.8244          0.0000
         2.0510          2.6277          0.0000
         2.1284         97.7205          0.0000
         2.2057        -12.2788          0.0000
         2.2831        -97.5448          0.0000
         2.3605        -95.9348          0.0000
         2.4379         34.9814          0.0000
         2.5153        102.3131          0.0000
         2.5927         58.9594          0.0000
         2.6701         -6.5778          0.0000
         2.7475         -9.0831          0.0000
         2.8249         -8.1349          0.0000
         2.9023         -8.3239          0.0000
         2.9797        -52.8412          0.0000
         3.0571         33.0943          0.0000
         3.1345         14.2598          0.0000
         3.2119        -54.2482          0.0000
         3.2893        -58.0689          0.0000
         3.3667         36.2606          0.0000
         3.4441         93.5302          0.0000
         3.5215       -114.3846          0.0000
         3.5988        -47.7379          0.0000
         3.6762        -51.8339          0.0000
         3.7536          2.6289          0.0000
         3.8310         21.6051          0.0000
