@ title  "Pressure (P) and density (D) over 101 frames"
@ xlabel "Z [nm]"
@ ylabel "P [bar] or D [kg/m^3]"
@ s0 legend "P_T"
@ s1 legend "P_N"
        -3.8321        885.2277        889.1125
        -3.7547        850.5597        864.5180
        -3.6772        851.5173        833.5953
        -3.5998        856.5157        847.2149
        -3.5224        873.7680        858.8394
        -3.4450        857.2601        862.8154
        -3.3676        852.5923        872.3784
        -3.2902        853.2653        851.2256
        -3.2127        857.3264        843.6422
        -3.1353        851.9476        834.6426
        -3.0579        866.3102        879.3679
        -2.9805        873.5765        881.9985
        -2.9031        869.7016        852.2042
        -2.8257        860.4172        856.2601
        -2.7483        857.5550        866.8382
        -2.6708        854.3868        859.7820
        -2.5934        871.2823        881.3264
        -2.5160        864.9973        854.1699
        -2.4386        862.8302        835.4802
        -2.3612        859.1844        847.4048
        -2.2838        860.6228        865.8577
        -2.2063        846.3031        869.0047
        -2.1289        878.3837        881.7523
        -2.0515        853.8942        866.7050
        -1.9741        858.2566        845.3885
        -1.8967        868.3364        870.7676
        -1.8193        853.0410        846.8646
        -1.7418        861.9985        874.7893
        -1.6644        871.0772        870.1758
        -1.5870        858.2515        856.1015
        -1.5096        854.3436        854.5535
        -1.4322        851.8132        863.3629
        -1.3548        866.3025        861.8342
        -1.2774        867.7759        882.6917
        -1.1999        856.5819        855.2870
        -1.1225        866.9568        864.9905
        -1.0451        852.7251        872.3196
        -0.9677        867.1379        887.3265
        -0.8903        861.9845        866.4596
        -0.8129        886.2156        884.3856
        -0.7354        867.5454        868.7560
        -0.6580        846.2836        843.2750
        -0.5806        863.3289        866.4747
        -0.5032        857.4558        850.9244
        -0.4258        862.7791        880.9836
        -0.3484        879.7596        868.8765
        -0.2710        871.0919        841.1912
        -0.1935        847.8033        867.0782
        -0.1161        862.7603        856.5673
        -0.0387        861.1213        867.8200
         0.0387        865.9126        874.0450
         0.1161        866.6685        855.8188
         0.1935        857.9515        858.6968
         0.2710        857.6627        861.2764
         0.3484        862.4984        860.7573
         0.4258        845.7557        843.6994
         0.5032        864.5835        874.8298
         0.5806        868.8559        850.0988
         0.6580        845.5085        856.6328
         0.7354        867.9527        869.5225
         0.8129        857.9243        864.5776
         0.8903        853.2369        862.8431
         0.9677        852.1419        855.7913
         1.0451        872.1534        868.9958
         1.1225        861.7549        888.0787
         1.1999        847.4518        840.8019
         1.2774        848.1014        843.1725
         1.3548        869.8326        882.3500
         1.4322        866.0179        859.6703
         1.5096        854.6261        875.1340
         1.5870        861.0079        856.9323
         1.6644        854.3516        860.1519
         1.7419        855.7395        846.2929
         1.8193        868.8517        858.1540
         1.8967        864.9481        876.5754
         1.9741        861.0585        852.4767
         2.0515        865.1061        864.5986
         2.1289        838.5158        848.7888
         2.2063        879.8536        873.2604
         2.2838        845.2449        833.2994
         2.3612        873.6953        860.5179
         2.4386        876.2106        875.1235
         2.5160        866.3881        866.1116
         2.5934        861.7159        842.5791
         2.6708        857.0652        862.5779
         2.7483        870.6535        862.8887
         2.8257        866.4786        856.5206
         2.9031        873.6711        879.9990
         2.9805        865.6572        865.0656
         3.0579        866.0660        855.6554
         3.1353        860.1356        854.6069
         3.2127        848.0064        859.1569
         3.2902        863.1754        848.7015
         3.3676        876.0259        872.5575
         3.4450        843.5958        855.5188
         3.5224        855.6996        856.1763
         3.5998        856.7207        854.3200
         3.6772        838.2070        845.9971
         3.7547        863.3475        889.1030
         3.8321        858.4370        880.0997
