@ title  "Pressure (P) and density (D) over 101 frames"
@ xlabel "Z [nm]"
@ ylabel "P [bar] or D [kg/m^3]"
@ s0 legend "P_T"
@ s1 legend "P_N"
        -3.8320         42.8638         20.7313
        -3.7546         33.3074         39.4110
        -3.6772         16.7748         12.8687
        -3.5997         64.1714          2.9588
        -3.5223         25.6762        -34.2482
        -3.4449         21.4324        -19.0162
        -3.3675       -146.8189        -37.4792
        -3.2901         -0.8022        -17.6111
        -3.2127         14.8892        -25.2801
        -3.1353         45.1499        -17.8683
        -3.0578         51.1340         33.7068
        -2.9804         58.6799         51.0654
        -2.9030        -37.0479         68.4818
        -2.8256       -125.9822         21.2591
        -2.7482        -97.0081         -3.7700
        -2.6708        -72.3724        -47.7168
        -2.5934         50.7694        -44.0611
        -2.5160        -34.8406        -24.2097
        -2.4385        -42.7677        -48.1848
        -2.3611        -37.5692        -43.1846
        -2.2837        -26.1337        -23.8394
        -2.2063         -4.9037        -14.5997
        -2.1289        106.7195        -29.4737
        -2.0515         28.9156        -15.0486
        -1.9741         25.2432        -32.4090
        -1.8966         19.7726        -28.3371
        -1.8192         22.6450         12.8587
        -1.7418         -2.4608        -24.5395
        -1.6644         55.0352          3.6079
        -1.5870         74.6308         -2.5144
        -1.5096         32.7904         38.3039
        -1.4322         23.9626         16.8065
        -1.3547         31.2779         36.7990
        -1.2773        -50.6076         16.1974
        -1.1999        -29.0596          5.7081
        -1.1225         18.5820        -22.6979
        -1.0451        -90.6778        -30.1387
        -0.9677        -21.0812        -37.3771
        -0.8903        -17.5010         22.5568
        -0.8128         50.5694         21.3093
        -0.7354         29.6082         32.8557
        -0.6580         57.9484         58.5019
        -0.5806         66.2712         12.8307
        -0.5032         34.1595         19.0704
        -0.4258        -19.0863         10.0981
        -0.3484        -72.3194         21.4317
        -0.2709        -11.2551         20.8729
        -0.1935        -67.8063        -14.6183
        -0.1161          5.6029         12.3942
        -0.0387         30.5396         42.5102
         0.0387         44.4531         37.2197
         0.1161         72.1693         34.0332
         0.1935         -3.9472         10.6327
         0.2709         42.3380         53.5504
         0.3484         55.8568         41.9481
         0.4258         12.8918         51.3977
         0.5032         70.8579         38.1586
         0.5806          6.4360          2.6139
         0.6580        -61.8259          2.8346
         0.7354        -35.0954        -32.5225
         0.8128         -6.0987        -13.9857
         0.8903         33.4507          2.5428
         0.9677         -6.4521        -16.2021
         1.0451        -95.1605        -45.1359
         1.1225         98.7859        -29.5373
         1.1999         10.0406         -8.9054
         1.2773          1.6081          5.3885
         1.3547        -83.0337         -6.0794
         1.4322         82.3433         32.3654
         1.5096        108.1592         29.7918
         1.5870         -6.0497         31.8568
         1.6644         58.8602         21.4117
         1.7418        -43.1406          9.3939
         1.8192       -122.4807         12.5298
         1.8966         44.8208         43.7234
         1.9741         14.7961         10.7252
         2.0515        -58.9680          5.9715
         2.1289         37.6588         18.1677
         2.2063       -163.9844         21.7548
         2.2837          9.8037          4.1926
         2.3611         26.1722        -27.1399
         2.4385        -97.0006         -7.0758
         2.5160         31.0774         15.2909
         2.5934        -23.5992          6.5826
         2.6708        -23.6686        -13.1939
         2.7482        -86.0121          1.2959
         2.8256         46.8578         32.7520
         2.9030        -27.9382         62.5748
         2.9804        -15.1823         39.4563
         3.0578        -51.8883         30.6743
         3.1353        -56.8752        -23.5427
         3.2127        -21.1200          1.0305
         3.2901         -1.7648         11.6252
         3.3675        -13.8127        -16.9321
         3.4449        -16.7509        -37.9138
         3.5223        -10.2924        -45.4846
         3.5997        -44.4260        -52.2728
         3.6772        -38.1528         11.2076
         3.7546        -31.3191        -13.0518
         3.8320         17.2087          2.4965
