@ title  "Pressure (P) and density (D) over 101 frames"
@ xlabel "Z [nm]"
@ ylabel "P [bar] or D [kg/m^3]"
@ s0 legend "P_T"
@ s1 legend "P_N"
        -3.8309         42.3085          0.0000
        -3.7535        -13.4816          0.0000
        -3.6762        -69.1425          0.0000
        -3.5988        -27.4839          0.0000
        -3.5214         30.2358          0.0000
        -3.4440         37.1556          0.0000
        -3.3666         43.7245          0.0000
        -3.2892        -17.5577          0.0000
        -3.2118          7.1547          0.0000
        -3.1344        -49.3842          0.0000
        -3.0570         18.6357          0.0000
        -2.9796        -47.8910          0.0000
        -2.9022        -74.6375          0.0000
        -2.8248         27.4782          0.0000
        -2.7474          5.5531          0.0000
        -2.6700          7.3804          0.0000
        -2.5927         -6.7136          0.0000
        -2.5153         24.9965          0.0000
        -2.4379        -99.9767          0.0000
        -2.3605         75.8950          0.0000
        -2.2831         52.4138          0.0000
        -2.2057         16.9362          0.0000
        -2.1283        -24.1189          0.0000
        -2.0509        -33.0139          0.0000
        -1.9735         49.0858          0.0000
        -1.8961         -3.1287          0.0000
        -1.8187         27.3430          0.0000
        -1.7413        -43.1880          0.0000
        -1.6639        -77.5974          0.0000
        -1.5866        -37.3776          0.0000
        -1.5092       -110.8103          0.0000
        -1.4318        -63.4057          0.0000
        -1.3544       -171.7331          0.0000
        -1.2770        136.2490          0.0000
        -1.1996         37.3088          0.0000
        -1.1222        111.1284          0.0000
        -1.0448         44.4295          0.0000
        -0.9674         13.5546          0.0000
        -0.8900         11.5591          0.0000
        -0.8126         46.4373          0.0000
        -0.7352         25.4113          0.0000
        -0.6578        -33.4762          0.0000
        -0.5804         10.7842          0.0000
        -0.5031        118.0301          0.0000
        -0.4257          4.5989          0.0000
        -0.3483         46.4331          0.0000
        -0.2709         -6.3078          0.0000
        -0.1935         15.4956          0.0000
        -0.1161        -58.7523          0.0000
        -0.0387         99.0705          0.0000
         0.0387        -25.3679          0.0000
         0.1161         85.3260          0.0000
         0.1935         25.2239          0.0000
         0.2709         30.0491          0.0000
         0.3483         15.3092          0.0000
         0.4257         67.0647          0.0000
         0.5031        -74.1563          0.0000
         0.5804         75.6518          0.0000
         0.6578         68.0998          0.0000
         0.7352        155.8883          0.0000
         0.8126         74.9980          0.0000
         0.8900         48.8980          0.0000
         0.9674        -35.3882          0.0000
         1.0448        137.1423          0.0000
         1.1222        -22.2697          0.0000
         1.1996          7.4572          0.0000
         1.2770         16.9041          0.0000
         1.3544         14.8128          0.0000
         1.4318        103.3777          0.0000
         1.5092         47.2102          0.0000
         1.5866         11.6233          0.0000
         1.6639         65.7411          0.0000
         1.7413         52.9331          0.0000
         1.8187        166.2178          0.0000
         1.8961         33.2056          0.0000
         1.9735        -26.5132          0.0000
         2.0509         26.5001          0.0000
         2.1283         19.8273          0.0000
         2.2057         -0.6008          0.0000
         2.2831        -14.8296          0.0000
         2.3605        -19.2643          0.0000
         2.4379         93.7480          0.0000
         2.5153        -16.8468          0.0000
         2.5927         32.3757          0.0000
         2.6701         43.9733          0.0000
         2.7474        -80.9386          0.0000
         2.8248        -15.1401          0.0000
         2.9022         75.0971          0.0000
         2.9796         -7.7706          0.0000
         3.0570         29.5557          0.0000
         3.1344         36.2335          0.0000
         3.2118         38.1530          0.0000
         3.2892         83.3673          0.0000
         3.3666         17.8613          0.0000
         3.4440         -0.2524          0.0000
         3.5214         86.6484          0.0000
         3.5988         97.7054          0.0000
         3.6762        -20.1583          0.0000
         3.7535         66.7007          0.0000
         3.8309          0.1533          0.0000
