@ title  "Pressure (P) and density (D) over 101 frames"
@ xlabel "Z [nm]"
@ ylabel "P [bar] or D [kg/m^3]"
@ s0 legend "P_T"
@ s1 legend "P_N"
        -3.8309        100.0243         26.6834
        -3.7535        -36.1180         19.6186
        -3.6761         42.4333          2.6262
        -3.5987         43.8807        -25.5888
        -3.5213         77.9403         24.0075
        -3.4440        -57.0917         20.2994
        -3.3666        -52.1840         -4.5380
        -3.2892        -49.4959        -38.7983
        -3.2118         14.6691         29.2334
        -3.1344         33.8453         51.1297
        -3.0570         36.6824         86.4038
        -2.9796         30.8552         46.5335
        -2.9022          9.3395         36.4968
        -2.8248         18.0232          4.1483
        -2.7474         19.9356         -1.3274
        -2.6700         90.0649          0.9595
        -2.5926        -76.9877          3.8370
        -2.5152         13.7778         12.5335
        -2.4379        -38.9417          8.2943
        -2.3605          5.8110         26.1355
        -2.2831        -42.6037         46.0683
        -2.2057         16.1206         51.3090
        -2.1283         -1.2609         23.9314
        -2.0509         88.5938         26.7322
        -1.9735         71.9333         60.4478
        -1.8961        -59.2005         42.1747
        -1.8187         -7.2962         58.6622
        -1.7413          0.6929         45.9032
        -1.6639        113.8890         55.4396
        -1.5865        -47.3192         37.8214
        -1.5091         22.7941         40.2253
        -1.4318        -30.0036         20.7596
        -1.3544         10.2100        -32.1971
        -1.2770         41.0911         -1.4382
        -1.1996        -30.3243         17.5769
        -1.1222         51.8835         12.2303
        -1.0448         42.4407         16.6385
        -0.9674        -18.0487          2.7959
        -0.8900        -14.0292        -30.6510
        -0.8126         60.5652        -24.1797
        -0.7352          6.9193          3.6164
        -0.6578         41.0991         15.1000
        -0.5804         32.1608          9.8029
        -0.5030         29.7225         10.5115
        -0.4257        -12.5621        -14.0336
        -0.3483         24.4149        -41.4266
        -0.2709         17.1488        -45.8254
        -0.1935         38.4131        -36.7552
        -0.1161        -24.8545        -22.2853
        -0.0387        -30.7394         18.7823
         0.0387        -38.8820         42.9573
         0.1161         10.5842         81.0199
         0.1935         46.6551        131.2133
         0.2709         88.0242        136.6800
         0.3483         21.4372        135.8264
         0.4257          6.5155         99.1768
         0.5031         14.6304         36.1658
         0.5804        -10.0319        -19.4608
         0.6578        -33.6685         22.7508
         0.7352        -81.0874        -22.6332
         0.8126        -44.3084        -20.6636
         0.8900        -59.7279         23.6154
         0.9674        -25.9930         76.2441
         1.0448          1.2225         81.6980
         1.1222         52.6766         60.9254
         1.1996         45.0595         35.2117
         1.2770         26.2623          5.5542
         1.3544        -11.2277         12.1651
         1.4318        -94.4622        -16.1122
         1.5091         28.7699         42.9548
         1.5865        -75.7426         28.4972
         1.6639         34.0808         47.1279
         1.7413         71.1656         51.0375
         1.8187        -44.9031         25.0081
         1.8961         67.6991         45.0506
         1.9735         15.7514         12.1467
         2.0509         28.2699         27.3368
         2.1283         -6.5224         28.0061
         2.2057        -54.4698         71.7441
         2.2831         34.1586         39.7323
         2.3605        -26.4469         26.8484
         2.4379        -46.0706         23.2095
         2.5152        -28.3825         36.5468
         2.5926        -27.2580         50.2209
         2.6700        -12.8030         17.5183
         2.7474         70.8392         52.6441
         2.8248         91.4867         35.8333
         2.9022         -3.0453          4.5488
         2.9796         11.0814         21.9406
         3.0570        -38.6588         29.3795
         3.1344       -114.4633        -13.8778
         3.2118        -47.5364         -9.3953
         3.2892        -47.9007        -48.5654
         3.3666       -110.8754        -44.3857
         3.4440          5.9315         -5.3388
         3.5213         31.8642          3.3621
         3.5987         21.1128         25.5848
         3.6761         -7.0931         48.1021
         3.7535         40.1276         54.6903
         3.8309        107.0804         45.3048
