@ title  "Pressure (P) and density (D) over 101 frames"
@ xlabel "Z [nm]"
@ ylabel "P [bar] or D [kg/m^3]"
@ s0 legend "P_T"
@ s1 legend "P_N"
        -3.8314        -67.4231         -3.6577
        -3.7540          7.0367        -55.4067
        -3.6766        -38.0029        -30.1039
        -3.5992         36.7020        -31.7136
        -3.5218        -61.9538        -26.4740
        -3.4444        -49.4141          0.2028
        -3.3670        -39.8878        -24.5757
        -3.2896         26.7657        -30.4167
        -3.2122        -12.1875        -31.2695
        -3.1348          0.7915        -11.8466
        -3.0574         33.0986        -43.8836
        -2.9800         -0.0120         -9.3160
        -2.9025         -6.6128        -18.3702
        -2.8251         17.0815          7.2662
        -2.7477        -15.2631          9.8540
        -2.6703        -33.1375          8.7393
        -2.5929        -53.0536         -0.2886
        -2.5155         -8.7208        -12.3949
        -2.4381          3.3338        -41.7492
        -2.3607        -22.4050        -23.2471
        -2.2833        -40.3067        -25.4923
        -2.2059        -40.8098        -27.6901
        -2.1285        -79.4647        -20.6577
        -2.0511         49.2057        -24.6340
        -1.9737         57.5178        -36.6404
        -1.8963        -49.2881         -1.4597
        -1.8189        -85.0177        -31.6001
        -1.7415        -60.7810          6.9540
        -1.6641       -163.5134        -11.3139
        -1.5867         17.0605          8.2140
        -1.5093         45.8109         22.8495
        -1.4319         27.5028         52.0764
        -1.3545          9.7319         -2.4454
        -1.2771        116.6989         52.8628
        -1.1997         26.1814         45.4901
        -1.1223         79.9394         64.2896
        -1.0449         21.4730         54.7922
        -0.9675         80.1661         40.5394
        -0.8901        -54.6022         36.2702
        -0.8127         19.4990         22.5983
        -0.7353         38.0489          7.5362
        -0.6579         25.5646          3.6048
        -0.5805         15.1984        -27.0071
        -0.5031         66.7714        -20.4066
        -0.4257        -32.0906          0.0445
        -0.3483         34.2292         -6.0596
        -0.2709         52.8617          5.4377
        -0.1935         16.3496         17.4839
        -0.1161        -29.3658          7.3095
        -0.0387         61.2413        -11.2911
         0.0387         49.1810         -3.9753
         0.1161        144.5273        -21.2093
         0.1935        -77.3710          0.2691
         0.2709         54.5218         -4.0898
         0.3483         37.7214        -17.1048
         0.4257        -38.9461          8.8615
         0.5031         67.8438        -42.1083
         0.5805         11.6928        -33.4270
         0.6579         21.5977        -23.1408
         0.7353        -17.3050        -49.2099
         0.8127         61.9467        -36.0952
         0.8901        -73.0176        -18.3226
         0.9675         20.8768         15.2439
         1.0449         13.2040         15.1141
         1.1223        -15.1367          3.2615
         1.1997        -43.7954        -12.3678
         1.2771        -39.4659         16.2333
         1.3545         37.3659          5.3915
         1.4319        -61.0997         46.5183
         1.5093          6.5374        -16.8953
         1.5867         47.5497        -22.3321
         1.6641        -13.1059        -67.1246
         1.7415         59.1186        -21.3231
         1.8189        -46.1721         -5.5830
         1.8963         52.3102        -15.6258
         1.9737         40.5760         -1.8223
         2.0511          2.0065         10.1059
         2.1285        -10.7976         26.1026
         2.2059        -68.6801         22.1188
         2.2833        -22.4503         30.6479
         2.3607        135.0618         57.6280
         2.4381        167.8755         81.6915
         2.5155         27.6977         44.6215
         2.5929         35.0088         49.9839
         2.6703        -67.5459         21.1295
         2.7477         67.3457         22.2782
         2.8251         66.2360         34.2479
         2.9025         18.3085         48.7585
         2.9800        -59.3099         26.5656
         3.0574        -14.2302         19.6859
         3.1348         51.9609          5.1869
         3.2122        108.2287          2.5244
         3.2896          3.4574         36.4522
         3.3670         41.2885         24.4181
         3.4444        -43.0981         49.7515
         3.5218        -11.3782         65.3115
         3.5992         55.5263         43.7689
         3.6766         15.1622         40.0651
         3.7540         90.8143         36.6216
         3.8314         -8.8060        -15.2325
