#  Job_num     Pt_all_H    Pt_all_IK    Pn_all_IK       Pt_kin       Pn_kin
       000      -0.2259      -0.2259      -0.2279      -0.0030      -0.0050 
       001      -0.2375      -0.2375      -0.2240      -0.0070      -0.0020 
       002      -0.2196      -0.2196      -0.2656       0.0000      -0.0050 
       003      -0.2637      -0.2638      -0.2413      -0.0075      -0.0050 
       004      -0.1935      -0.1935      -0.1762       0.0005      -0.0050 
       005      -0.2312      -0.2312      -0.2126      -0.0025      -0.0050 
       006      -0.1772      -0.1772      -0.1694      -0.0005      -0.0050 
       007      -0.1870      -0.1870      -0.1989       0.0000       0.0020 
       008      -0.1899      -0.1899      -0.2154      -0.0040      -0.0050 
       009      -0.2414      -0.2414      -0.2520      -0.0020      -0.0100 
       010      -0.2086      -0.2086      -0.2637      -0.0030      -0.0060 
       011      -0.2303      -0.2303      -0.2290       0.0030      -0.0030 
       012      -0.1923      -0.1923      -0.1912       0.0000      -0.0040 
       013      -0.2340      -0.2340      -0.2197      -0.0055       0.0000 
       014      -0.2158      -0.2158      -0.2754      -0.0045      -0.0080 
       015      -0.2004      -0.2004      -0.2021      -0.0070      -0.0060 
       016      -0.2135      -0.2135      -0.2182      -0.0015      -0.0010 
       017      -0.3381      -0.3381      -0.2853      -0.0030      -0.0010 
       018      -0.2269      -0.2269      -0.2464      -0.0035      -0.0040 
       019      -0.2293      -0.2293      -0.1979      -0.0045      -0.0030 
       020      -0.2097      -0.2097      -0.1877      -0.0040       0.0040 
       021      -0.2735      -0.2735      -0.2449      -0.0010       0.0040 
       022      -0.1640      -0.1641      -0.1654      -0.0020      -0.0010 
       023      -0.2386      -0.2387      -0.2315      -0.0040       0.0000 
       024      -0.1999      -0.1999      -0.2040       0.0015       0.0000 
       025      -0.1810      -0.1810      -0.1743      -0.0055      -0.0030 
       026      -0.2114      -0.2114      -0.2023      -0.0035      -0.0060 
       027      -0.1941      -0.1941      -0.2100      -0.0050      -0.0060 
       028      -0.2359      -0.2359      -0.2239      -0.0050       0.0030 
       029      -0.3302      -0.3302      -0.2890      -0.0015       0.0010 
       030      -0.2061      -0.2061      -0.2131      -0.0025      -0.0020 
       031      -0.2277      -0.2277      -0.2533       0.0015      -0.0050 
       032      -0.2352      -0.2352      -0.2907       0.0005      -0.0030 
       033      -0.2058      -0.2058      -0.1947       0.0005      -0.0070 
       034      -0.2109      -0.2109      -0.1974      -0.0050      -0.0060 
       035      -0.2081      -0.2081      -0.2095      -0.0025      -0.0050 
       036      -0.2052      -0.2052      -0.1803      -0.0010       0.0010 
       037      -0.1830      -0.1830      -0.1985       0.0030       0.0020 
       038      -0.2196      -0.2196      -0.2605      -0.0005      -0.0060 
       039      -0.2337      -0.2337      -0.2546      -0.0065      -0.0040 
       040      -0.2930      -0.2930      -0.2883      -0.0030      -0.0010 
       041      -0.2054      -0.2054      -0.1940      -0.0045       0.0040 
       042      -0.2532      -0.2532      -0.2213      -0.0040       0.0020 
       043      -0.2357      -0.2357      -0.2559      -0.0050       0.0030 
       044      -0.1759      -0.1759      -0.1736      -0.0010      -0.0030 
       045      -0.3037      -0.3037      -0.2549      -0.0065      -0.0080 
       046      -0.2156      -0.2156      -0.2132       0.0020       0.0030 
       047      -0.2086      -0.2086      -0.2104      -0.0050      -0.0020 
       048      -0.1771      -0.1771      -0.1797       0.0055       0.0050 
       049      -0.2430      -0.2430      -0.2532       0.0010       0.0030 
       AVG      -0.2228      -0.2228      -0.2229      -0.0020      -0.0030 
