#  Job_num         Ptan         Pnor
       000       7.5018      22.0475
       001     -12.7796     -17.0142
       002       8.8442      14.8665
       003       2.2329       9.4815
       004      -2.4676     -16.2414
       005       1.3156      -1.8022
       006       0.7211       3.2950
       007      -2.3909      -3.6722
       008       2.0622       5.2080
       009      11.2395      13.7359
       010       4.9924      23.7157
       011      11.2804       0.4691
       012      10.8493       8.1222
       013       4.6426       4.2870
       014      10.9620       6.0896
       015       8.7119      -4.3889
       016     -11.5942       6.2685
       017      -4.2440      -5.4493
       018       6.0566     -12.9654
       019      -1.8941      -1.7020
       020      -7.9419      -4.5704
       021       7.2004       8.5995
       022      -9.0181       1.4243
       023       8.9234       9.7840
       024      -1.8837       3.6519
       025      -4.8737     -23.5658
       026      16.7872      27.0297
       027      -5.3297       3.1872
       028      -2.4927      -1.8627
       029      -9.8384     -24.5375
       030       6.9671      10.8361
       031     -15.1285      -3.6719
       032      -2.0421       2.7167
       033      10.0005      17.6297
       034       6.7573       9.9735
       035      -5.1761      -2.3929
       036      18.0915       8.5441
       037       0.1829       6.5555
       038      -3.6309      -3.6758
       039       3.9953       7.5423
       040      -6.8089      -3.1607
       041     -11.8232      15.5708
       042      10.4938       2.2893
       043       0.3618      -3.2845
       044       2.4727       0.6663
       045      -0.0901       0.6925
       046      15.3918       3.6294
       047       8.2339       3.1657
       048      -3.5095      10.8749
       049      -9.7033      -3.7715
       AVG       1.4522       2.6844
