@ title  "Pressure (P) and density (D) over 101 frames"
@ xlabel "Z [nm]"
@ ylabel "P [bar] or D [kg/m^3]"
@ s0 legend "P_T"
@ s1 legend "P_N"
        -5.3860        -27.2591         47.3778
        -5.2772        104.0948         63.8746
        -5.1684         60.7819         43.4496
        -5.0596          7.6035         28.3617
        -4.9508         71.1790         95.6093
        -4.8420         -2.3925         17.2581
        -4.7332         22.9844          0.5503
        -4.6244        -11.9898        -31.3969
        -4.5155         28.5349        -50.2261
        -4.4067         -9.2563        -45.2129
        -4.2979         -9.5741        -62.1768
        -4.1891        -38.7268        -35.1827
        -4.0803        -14.5709          2.5571
        -3.9715         88.5513         40.2460
        -3.8627         58.1357         48.1170
        -3.7539         55.1956         89.2382
        -3.6451        -52.4787         69.2863
        -3.5363        -16.6018         62.1807
        -3.4275        -27.4427         48.2259
        -3.3187         85.3926         36.9308
        -3.2098        101.1088         64.1796
        -3.1010        208.8878         88.0984
        -2.9922         95.7136         62.1352
        -2.8834         25.7273         74.1786
        -2.7746        193.4431         30.3942
        -2.6658        191.7900         -0.6841
        -2.5570        263.3300          1.1684
        -2.4482         45.2996         20.5077
        -2.3394          2.5484         50.7001
        -2.2306        -60.7108         59.5158
        -2.1218       -197.0362         83.3244
        -2.0130       -289.8344         45.5815
        -1.9041       -401.4692         63.8276
        -1.7953       -557.2337         35.0754
        -1.6865       -607.7861          5.8268
        -1.5777       -485.7275         21.1332
        -1.4689       -239.7115         27.5531
        -1.3601         -6.5460         20.1260
        -1.2513        245.5927         47.8511
        -1.1425        341.4214         43.6356
        -1.0337        318.5332         29.3580
        -0.9249        197.5263         27.1506
        -0.8161        162.8686         -2.2857
        -0.7073        238.4863         17.9027
        -0.5984        281.4351         39.8600
        -0.4896        193.8730         24.6904
        -0.3808        170.4967         54.6761
        -0.2720        214.6645          8.0021
        -0.1632        157.3309         23.6814
        -0.0544        201.4878         12.7624
         0.0544        237.3386         37.0373
         0.1632        249.6947         34.5382
         0.2720        192.1969          5.1643
         0.3808        149.0002        -10.5534
         0.4896        145.2217         -2.4016
         0.5984        261.6902         34.0469
         0.7073        302.0945         33.9347
         0.8161        299.4047         49.1308
         0.9249        351.7126         52.0562
         1.0337        402.7383         51.1160
         1.1425        358.8886         14.7797
         1.2513        189.5813          5.6921
         1.3601         70.6204         -9.4251
         1.4689        -96.8637          6.9113
         1.5777       -455.2018         31.1175
         1.6865       -608.5365         43.1382
         1.7953       -574.0748         44.7342
         1.9041       -375.3799         36.4972
         2.0130       -264.3177         25.0799
         2.1218       -294.2952        -57.8991
         2.2306       -277.9394        -94.6769
         2.3394       -130.7483        -79.6411
         2.4482        -20.6654        -40.3120
         2.5570         19.0487        -54.9917
         2.6658        109.5788        -62.4986
         2.7746        177.5130        -10.9875
         2.8834        123.8615        -27.6478
         2.9922         82.4283        -31.1423
         3.1010         38.7234        -38.9184
         3.2098        -48.0902        -38.1215
         3.3187         80.9732         -4.6545
         3.4275         29.0174          0.3747
         3.5363        -34.5171        -19.2488
         3.6451         32.4745          8.5110
         3.7539         46.5229          2.9355
         3.8627         59.9991        -16.9896
         3.9715         -1.7060         16.9462
         4.0803         15.5475         25.3397
         4.1891         73.9240         84.3225
         4.2979        123.5242         61.2846
         4.4067         30.3628         33.3335
         4.5155        -35.3131         33.0765
         4.6243        -15.9400         66.9441
         4.7332         80.2704         82.2952
         4.8420         45.4401         66.9204
         4.9508        -22.6961         69.2233
         5.0596         87.8224         72.2102
         5.1684         84.0088         85.6449
         5.2772        -80.5134         33.7976
         5.3860        -82.6976         30.4668
