@ title  "Pressure (P) and density (D) over 101 frames"
@ xlabel "Z [nm]"
@ ylabel "P [bar] or D [kg/m^3]"
@ s0 legend "P_T"
@ s1 legend "P_N"
        -5.4010        -75.3819          0.0000
        -5.2918       -144.8210          0.0000
        -5.1827        -79.7293          0.0000
        -5.0736        -59.2421          0.0000
        -4.9645         68.7844          0.0000
        -4.8554         23.7774          0.0000
        -4.7463        -37.4223          0.0000
        -4.6372        -39.8241          0.0000
        -4.5281        -41.0237          0.0000
        -4.4190         38.4704          0.0000
        -4.3099         63.8955          0.0000
        -4.2007        -25.3924          0.0000
        -4.0916         61.5913          0.0000
        -3.9825         19.8723          0.0000
        -3.8734         53.8700          0.0000
        -3.7643        -30.4794          0.0000
        -3.6552        -45.5309          0.0000
        -3.5461        -66.1886          0.0000
        -3.4370         19.0344          0.0000
        -3.3279        -40.7760          0.0000
        -3.2188          2.1741          0.0000
        -3.1096          7.9192          0.0000
        -3.0005         16.9220          0.0000
        -2.8914         29.6170          0.0000
        -2.7823        -33.8312          0.0000
        -2.6732         18.3259          0.0000
        -2.5641         74.9415          0.0000
        -2.4550         -7.1702          0.0000
        -2.3459          6.3981          0.0000
        -2.2368       -224.8674          0.0000
        -2.1277       -264.8693          0.0000
        -2.0185       -370.6187          0.0000
        -1.9094       -407.3298          0.0000
        -1.8003       -525.8849          0.0000
        -1.6912       -729.1828          0.0000
        -1.5821       -590.3434          0.0000
        -1.4730       -287.2725          0.0000
        -1.3639         44.7499          0.0000
        -1.2548        265.9168          0.0000
        -1.1457        283.1343          0.0000
        -1.0365        310.8127          0.0000
        -0.9274        301.2652          0.0000
        -0.8183        297.2905          0.0000
        -0.7092        329.9937          0.0000
        -0.6001        190.6633          0.0000
        -0.4910        219.1911          0.0000
        -0.3819        189.9582          0.0000
        -0.2728         96.3266          0.0000
        -0.1637        164.0141          0.0000
        -0.0546        250.3093          0.0000
         0.0546        164.9480          0.0000
         0.1637        140.7277          0.0000
         0.2728        186.5908          0.0000
         0.3819        120.1034          0.0000
         0.4910        206.1199          0.0000
         0.6001        249.2982          0.0000
         0.7092        292.7848          0.0000
         0.8183        269.4788          0.0000
         0.9274        297.6159          0.0000
         1.0365        309.9985          0.0000
         1.1457        195.9372          0.0000
         1.2548        178.0098          0.0000
         1.3639        -52.3890          0.0000
         1.4730       -359.2347          0.0000
         1.5821       -725.7686          0.0000
         1.6912       -804.9168          0.0000
         1.8003       -578.3466          0.0000
         1.9094       -477.1093          0.0000
         2.0185       -451.8341          0.0000
         2.1277       -278.9465          0.0000
         2.2368       -178.0950          0.0000
         2.3459        -61.5585          0.0000
         2.4550        -17.2184          0.0000
         2.5641        205.5147          0.0000
         2.6732         77.3949          0.0000
         2.7823         43.1848          0.0000
         2.8914        101.0808          0.0000
         3.0005        -14.8047          0.0000
         3.1096         36.2831          0.0000
         3.2188         41.5514          0.0000
         3.3279        -28.1949          0.0000
         3.4370        -53.4593          0.0000
         3.5461        -11.1177          0.0000
         3.6552        -44.3370          0.0000
         3.7643        -51.1836          0.0000
         3.8734        -69.2982          0.0000
         3.9825        -58.5890          0.0000
         4.0916         32.6875          0.0000
         4.2007        -18.0613          0.0000
         4.3099        -62.3907          0.0000
         4.4190        -46.8356          0.0000
         4.5281        -42.4009          0.0000
         4.6372        -43.2289          0.0000
         4.7463       -134.8252          0.0000
         4.8554         27.2787          0.0000
         4.9645         -6.5442          0.0000
         5.0736        -76.8355          0.0000
         5.1827        -42.4353          0.0000
         5.2918         95.3663          0.0000
         5.4010        -57.4347          0.0000
