@ title  "Pressure (P) and density (D) over 101 frames"
@ xlabel "Z [nm]"
@ ylabel "P [bar] or D [kg/m^3]"
@ s0 legend "P_T"
@ s1 legend "P_N"
        -5.3962         -3.0083          0.0000
        -5.2872        106.9594          0.0000
        -5.1782         -3.1503          0.0000
        -5.0692        -11.1393          0.0000
        -4.9602        -19.9986          0.0000
        -4.8512        -51.3864          0.0000
        -4.7422         24.5252          0.0000
        -4.6331        -15.5605          0.0000
        -4.5241        -50.2356          0.0000
        -4.4151        -47.7986          0.0000
        -4.3061          7.4399          0.0000
        -4.1971         43.3943          0.0000
        -4.0881         -1.1622          0.0000
        -3.9790         41.6291          0.0000
        -3.8700        -12.6072          0.0000
        -3.7610        -10.5470          0.0000
        -3.6520         48.5350          0.0000
        -3.5430         -6.2190          0.0000
        -3.4340         42.6241          0.0000
        -3.3250        -39.6330          0.0000
        -3.2159        -39.3894          0.0000
        -3.1069        -40.8609          0.0000
        -2.9979        115.6794          0.0000
        -2.8889         44.1998          0.0000
        -2.7799         26.0535          0.0000
        -2.6709        152.3204          0.0000
        -2.5619        121.9351          0.0000
        -2.4528        108.8590          0.0000
        -2.3438         -5.7183          0.0000
        -2.2348       -114.1194          0.0000
        -2.1258       -251.7532          0.0000
        -2.0168       -331.8882          0.0000
        -1.9078       -408.3539          0.0000
        -1.7987       -542.6999          0.0000
        -1.6897       -658.8138          0.0000
        -1.5807       -656.1627          0.0000
        -1.4717       -340.9677          0.0000
        -1.3627        -48.4374          0.0000
        -1.2537        181.9911          0.0000
        -1.1447        253.5946          0.0000
        -1.0356        288.9545          0.0000
        -0.9266        314.1958          0.0000
        -0.8176        333.1029          0.0000
        -0.7086        303.8131          0.0000
        -0.5996        295.5355          0.0000
        -0.4906        181.5891          0.0000
        -0.3816        142.8493          0.0000
        -0.2725        164.7131          0.0000
        -0.1635        202.5427          0.0000
        -0.0545        245.3188          0.0000
         0.0545        220.5679          0.0000
         0.1635        181.4951          0.0000
         0.2725        176.3541          0.0000
         0.3816         50.1653          0.0000
         0.4906        147.8900          0.0000
         0.5996        228.4832          0.0000
         0.7086        329.1022          0.0000
         0.8176        198.2386          0.0000
         0.9266        282.3175          0.0000
         1.0356        236.4808          0.0000
         1.1447        280.6490          0.0000
         1.2537        298.6171          0.0000
         1.3627        265.0520          0.0000
         1.4717        -34.1929          0.0000
         1.5807       -475.2391          0.0000
         1.6897       -697.0604          0.0000
         1.7987       -570.2900          0.0000
         1.9078       -509.1259          0.0000
         2.0168       -405.4227          0.0000
         2.1258       -308.2360          0.0000
         2.2348       -233.5124          0.0000
         2.3438       -141.2638          0.0000
         2.4528         -8.0460          0.0000
         2.5619        154.5217          0.0000
         2.6709         -8.4380          0.0000
         2.7799          3.6960          0.0000
         2.8889          8.1766          0.0000
         2.9979       -139.9703          0.0000
         3.1069        -30.4041          0.0000
         3.2159        -24.6403          0.0000
         3.3250        -49.1113          0.0000
         3.4340        -40.1842          0.0000
         3.5430        101.4340          0.0000
         3.6520        -41.9734          0.0000
         3.7610         50.1617          0.0000
         3.8700         25.7050          0.0000
         3.9790        -54.2404          0.0000
         4.0881        -60.4291          0.0000
         4.1971        -14.1579          0.0000
         4.3061         85.7345          0.0000
         4.4151         31.3840          0.0000
         4.5241         30.2474          0.0000
         4.6331         48.4485          0.0000
         4.7422         50.7857          0.0000
         4.8512         11.7745          0.0000
         4.9602         39.6841          0.0000
         5.0692        -31.5110          0.0000
         5.1782         45.6469          0.0000
         5.2872         26.4875          0.0000
         5.3962         42.8453          0.0000
