@ title  "Pressure (P) and density (D) over 101 frames"
@ xlabel "Z [nm]"
@ ylabel "P [bar] or D [kg/m^3]"
@ s0 legend "P_T"
@ s1 legend "P_N"
        -5.4091        319.3051        334.5499
        -5.2999        316.8794        303.9713
        -5.1906        308.9618        318.4592
        -5.0813        330.4995        337.6202
        -4.9720        330.2910        338.2688
        -4.8628        310.2616        304.4994
        -4.7535        315.7630        305.8983
        -4.6442        325.6816        340.7023
        -4.5349        324.0020        332.5406
        -4.4257        319.9820        338.2799
        -4.3164        315.5139        327.5468
        -4.2071        323.2829        318.4660
        -4.0978        328.7173        320.7437
        -3.9886        308.0677        315.1718
        -3.8793        311.0463        307.6859
        -3.7700        300.4415        298.5213
        -3.6607        321.8840        316.8203
        -3.5515        312.8722        307.2554
        -3.4422        315.6534        300.5677
        -3.3329        309.5388        315.3145
        -3.2236        307.5836        312.1469
        -3.1144        325.3026        324.9364
        -3.0051        328.2675        326.4224
        -2.8958        318.8068        320.0260
        -2.7865        325.3979        342.0730
        -2.6773        342.9972        345.5124
        -2.5680        360.4679        358.1215
        -2.4587        375.8121        362.9281
        -2.3494        360.9292        373.6460
        -2.2402        376.8336        382.7881
        -2.1309        385.6854        366.6449
        -2.0216        388.9225        397.6009
        -1.9123        417.8291        413.5077
        -1.8030        405.7834        410.3866
        -1.6938        401.6199        413.0199
        -1.5845        428.1363        418.2148
        -1.4752        424.6336        415.9592
        -1.3659        420.8935        407.1152
        -1.2567        396.6890        383.8940
        -1.1474        415.6052        414.7802
        -1.0381        393.1315        395.0935
        -0.9288        396.5473        398.1241
        -0.8196        415.0668        417.9840
        -0.7103        404.3866        405.1667
        -0.6010        377.4737        387.9561
        -0.4917        415.1624        410.7309
        -0.3825        397.5345        388.1533
        -0.2732        385.0716        370.6835
        -0.1639        354.9683        371.8591
        -0.0546        350.5443        351.7067
         0.0546        357.1961        352.8262
         0.1639        344.8530        339.8328
         0.2732        378.5951        380.0598
         0.3825        385.0072        396.5125
         0.4917        411.4564        403.0361
         0.6010        388.9575        394.1252
         0.7103        401.7362        394.3749
         0.8196        395.2804        374.9712
         0.9288        411.8718        394.2237
         1.0381        397.1347        422.1286
         1.1474        387.5960        377.5153
         1.2567        407.9432        424.2672
         1.3659        418.4938        413.4571
         1.4752        394.2980        394.5942
         1.5845        433.8647        449.1620
         1.6938        443.2285        441.0017
         1.8030        394.8088        378.7457
         1.9123        386.7639        381.3041
         2.0216        440.4166        424.0937
         2.1309        410.3515        411.0186
         2.2401        339.7943        350.5077
         2.3494        340.8128        343.1227
         2.4587        383.1389        385.0198
         2.5680        363.5928        365.8897
         2.6773        330.4845        328.6218
         2.7865        329.5647        341.4434
         2.8958        338.3157        334.9619
         3.0051        345.0887        340.6904
         3.1144        317.3182        337.3753
         3.2236        324.4207        318.0586
         3.3329        326.3009        323.5029
         3.4422        330.2066        331.2449
         3.5515        312.2826        298.7136
         3.6607        308.2243        325.1769
         3.7700        331.5457        332.7767
         3.8793        314.2057        323.5061
         3.9886        320.6565        325.5053
         4.0978        305.2485        329.2315
         4.2071        323.8765        324.5483
         4.3164        305.5678        295.2924
         4.4257        309.4176        317.4461
         4.5349        322.4508        321.3889
         4.6442        321.7646        312.5497
         4.7535        318.1797        317.7287
         4.8628        312.4555        312.9229
         4.9720        319.6776        328.5382
         5.0813        320.2717        322.9156
         5.1906        319.4436        304.6221
         5.2999        321.4732        317.5304
         5.4091        314.4389        312.5472
