@ title  "Pressure (P) and density (D) over 101 frames"
@ xlabel "Z [nm]"
@ ylabel "P [bar] or D [kg/m^3]"
@ s0 legend "P_T"
@ s1 legend "P_N"
        -5.4310        -58.3458          0.0000
        -5.3212        -43.2881          0.0000
        -5.2115         70.1885          0.0000
        -5.1018        -15.7475          0.0000
        -4.9921          6.9442          0.0000
        -4.8824         24.3748          0.0000
        -4.7727         -9.9846          0.0000
        -4.6629       -109.0600          0.0000
        -4.5532        -42.9269          0.0000
        -4.4435        -70.9884          0.0000
        -4.3338        -39.7051          0.0000
        -4.2241        -21.3273          0.0000
        -4.1144        -74.1241          0.0000
        -4.0046        -89.4071          0.0000
        -3.8949        -87.5950          0.0000
        -3.7852        -50.1237          0.0000
        -3.6755        -43.5043          0.0000
        -3.5658         28.8020          0.0000
        -3.4561        -81.1323          0.0000
        -3.3463         -5.6016          0.0000
        -3.2366        -25.1403          0.0000
        -3.1269         -2.9518          0.0000
        -3.0172         27.6703          0.0000
        -2.9075         25.2287          0.0000
        -2.7978         81.3676          0.0000
        -2.6881         95.1978          0.0000
        -2.5783         40.6743          0.0000
        -2.4686        -48.6754          0.0000
        -2.3589         31.9433          0.0000
        -2.2492       -148.7156          0.0000
        -2.1395       -256.8436          0.0000
        -2.0298       -383.9980          0.0000
        -1.9200       -432.7624          0.0000
        -1.8103       -494.0665          0.0000
        -1.7006       -676.9614          0.0000
        -1.5909       -921.1044          0.0000
        -1.4812       -634.3971          0.0000
        -1.3715       -256.6224          0.0000
        -1.2617        110.8870          0.0000
        -1.1520        247.0900          0.0000
        -1.0423        181.8570          0.0000
        -0.9326        337.6473          0.0000
        -0.8229        209.1967          0.0000
        -0.7132        344.7730          0.0000
        -0.6034        293.1944          0.0000
        -0.4937        222.6017          0.0000
        -0.3840        245.5577          0.0000
        -0.2743        223.6700          0.0000
        -0.1646        168.9104          0.0000
        -0.0549        104.1247          0.0000
         0.0549        146.4015          0.0000
         0.1646        168.9836          0.0000
         0.2743        151.5869          0.0000
         0.3840        117.6427          0.0000
         0.4937        161.2122          0.0000
         0.6034        248.2754          0.0000
         0.7132        298.1445          0.0000
         0.8229        250.7455          0.0000
         0.9326        238.4874          0.0000
         1.0423        239.7207          0.0000
         1.1520        150.6387          0.0000
         1.2617        206.7674          0.0000
         1.3715        134.4844          0.0000
         1.4812        -40.7854          0.0000
         1.5909       -279.1783          0.0000
         1.7006       -666.7661          0.0000
         1.8103       -729.0491          0.0000
         1.9200       -514.4565          0.0000
         2.0298       -459.9744          0.0000
         2.1395       -407.7224          0.0000
         2.2492       -217.3106          0.0000
         2.3589       -113.6499          0.0000
         2.4686         11.1474          0.0000
         2.5783         81.2654          0.0000
         2.6881         71.2503          0.0000
         2.7978        104.0636          0.0000
         2.9075        103.3887          0.0000
         3.0172        -16.8900          0.0000
         3.1269         95.9005          0.0000
         3.2366          4.1126          0.0000
         3.3464        -91.3506          0.0000
         3.4561         26.8444          0.0000
         3.5658        -20.8442          0.0000
         3.6755        -76.6734          0.0000
         3.7852        -29.2955          0.0000
         3.8949        -41.9833          0.0000
         4.0047        -54.1461          0.0000
         4.1144        -50.8801          0.0000
         4.2241         29.5837          0.0000
         4.3338         -5.4789          0.0000
         4.4435        -10.8453          0.0000
         4.5532        -69.4108          0.0000
         4.6629         58.7339          0.0000
         4.7727       -124.9653          0.0000
         4.8824        -38.6042          0.0000
         4.9921        -26.7307          0.0000
         5.1018          5.6499          0.0000
         5.2115        -23.2611          0.0000
         5.3212        -13.0165          0.0000
         5.4310         32.9964          0.0000
