@ title  "Pressure (P) and density (D) over 101 frames"
@ xlabel "Z [nm]"
@ ylabel "P [bar] or D [kg/m^3]"
@ s0 legend "P_T"
@ s1 legend "P_N"
        -5.5277        -78.3902          0.0000
        -5.4161         22.9372          0.0000
        -5.3044         -4.4677          0.0000
        -5.1927        -21.5740          0.0000
        -5.0811         23.7717          0.0000
        -4.9694         -5.1864          0.0000
        -4.8577        -58.7814          0.0000
        -4.7460        -58.4858          0.0000
        -4.6344         26.1566          0.0000
        -4.5227         36.3998          0.0000
        -4.4110         -8.6293          0.0000
        -4.2994        -53.5863          0.0000
        -4.1877        -38.7840          0.0000
        -4.0760        -50.2867          0.0000
        -3.9643          1.5067          0.0000
        -3.8527        -54.3329          0.0000
        -3.7410        -43.5026          0.0000
        -3.6293        -94.9492          0.0000
        -3.5177          8.4242          0.0000
        -3.4060         -7.2066          0.0000
        -3.2943          1.8494          0.0000
        -3.1826        -37.7879          0.0000
        -3.0710        -14.8610          0.0000
        -2.9593        -69.6092          0.0000
        -2.8476          6.5210          0.0000
        -2.7360         39.8736          0.0000
        -2.6243         98.5838          0.0000
        -2.5126        124.8340          0.0000
        -2.4009         58.5239          0.0000
        -2.2893        -96.7294          0.0000
        -2.1776       -338.1172          0.0000
        -2.0659       -292.9300          0.0000
        -1.9543       -313.3757          0.0000
        -1.8426       -360.6270          0.0000
        -1.7309       -479.4852          0.0000
        -1.6192       -676.9860          0.0000
        -1.5076       -365.2583          0.0000
        -1.3959       -107.2326          0.0000
        -1.2842        225.3079          0.0000
        -1.1726        232.1027          0.0000
        -1.0609        239.1129          0.0000
        -0.9492        211.2739          0.0000
        -0.8375        252.0676          0.0000
        -0.7259        178.2555          0.0000
        -0.6142        197.1748          0.0000
        -0.5025        278.5830          0.0000
        -0.3909        206.2247          0.0000
        -0.2792        151.1480          0.0000
        -0.1675        204.3565          0.0000
        -0.0558        154.0921          0.0000
         0.0558        176.4288          0.0000
         0.1675        117.7924          0.0000
         0.2792        144.6815          0.0000
         0.3909        119.5314          0.0000
         0.5025        208.9334          0.0000
         0.6142        135.1442          0.0000
         0.7259        245.3085          0.0000
         0.8375        264.6304          0.0000
         0.9492        253.1797          0.0000
         1.0609        253.8638          0.0000
         1.1726        277.0124          0.0000
         1.2842        239.9321          0.0000
         1.3959        158.9366          0.0000
         1.5076       -154.4389          0.0000
         1.6192       -465.1424          0.0000
         1.7309       -681.4833          0.0000
         1.8426       -698.1052          0.0000
         1.9543       -452.2332          0.0000
         2.0659       -358.8041          0.0000
         2.1776       -367.6003          0.0000
         2.2893       -252.6665          0.0000
         2.4009        -55.6266          0.0000
         2.5126        -23.7009          0.0000
         2.6243         32.7925          0.0000
         2.7360         17.6966          0.0000
         2.8476         82.4896          0.0000
         2.9593         20.6969          0.0000
         3.0710        -16.8933          0.0000
         3.1826        -66.5588          0.0000
         3.2943        -61.9308          0.0000
         3.4060       -101.2084          0.0000
         3.5177        -83.6455          0.0000
         3.6293         -6.3234          0.0000
         3.7410        -68.1339          0.0000
         3.8527        -34.4057          0.0000
         3.9643         -1.5498          0.0000
         4.0760         -7.2477          0.0000
         4.1877        -58.8479          0.0000
         4.2994         60.3204          0.0000
         4.4110        -46.6782          0.0000
         4.5227        -80.6049          0.0000
         4.6344        -66.4961          0.0000
         4.7460        -26.5376          0.0000
         4.8577        -25.1908          0.0000
         4.9694         -5.4509          0.0000
         5.0811         19.8353          0.0000
         5.1927        -17.6484          0.0000
         5.3044          1.2590          0.0000
         5.4161        -44.3512          0.0000
         5.5277         41.9833          0.0000
