@ title  "Pressure (P) and density (D) over 101 frames"
@ xlabel "Z [nm]"
@ ylabel "P [bar] or D [kg/m^3]"
@ s0 legend "P_T"
@ s1 legend "P_N"
        -5.4435        -74.7664         27.2518
        -5.3335         71.9635         -7.6949
        -5.2236        -12.7642          5.7434
        -5.1136         84.2652         16.2857
        -5.0036         38.4606         31.0997
        -4.8936        -78.8670         28.5771
        -4.7837         36.2591         58.2904
        -4.6737         59.6854         72.2684
        -4.5637        101.6539         23.7013
        -4.4538         51.0056         27.5110
        -4.3438         26.5204         10.5746
        -4.2338        -46.6768         38.0488
        -4.1239        -15.4170          7.7696
        -4.0139        -50.3015         27.3500
        -3.9039        -52.4263         19.6141
        -3.7940        -12.0109         34.0882
        -3.6840       -105.0128         -1.5528
        -3.5740        -61.9549          0.7399
        -3.4640         47.1052         18.8332
        -3.3541         20.4984          8.9187
        -3.2441         20.8377         25.9746
        -3.1341        -56.2263          2.6593
        -3.0242         78.3207         10.3407
        -2.9142        116.4591         39.0483
        -2.8042         29.6732         -2.2812
        -2.6943         87.1725        -27.6638
        -2.5843        173.6434         -9.6226
        -2.4743        154.6522        -57.8588
        -2.3643         18.5546        -35.5585
        -2.2544       -305.7624        -14.5065
        -2.1444       -186.3684         13.7137
        -2.0344       -141.5292        -12.0726
        -1.9245       -305.4271          6.1078
        -1.8145       -672.9034        -29.2047
        -1.7045       -862.5167        -12.4601
        -1.5946       -811.9578        -14.0443
        -1.4846       -457.2299         12.3995
        -1.3746         91.2030         48.6278
        -1.2646        279.2646         13.0287
        -1.1547        309.0499        -12.8857
        -1.0447        167.8063        -17.8913
        -0.9347        184.5359        -46.0295
        -0.8248        244.3316        -10.5419
        -0.7148        317.4748         15.0504
        -0.6048        250.2115         34.8162
        -0.4949        245.1100         53.1168
        -0.3849        173.6129         61.4638
        -0.2749        220.4449         75.1501
        -0.1650        288.0383         77.4541
        -0.0550        209.3430         41.9382
         0.0550        240.1767          6.7347
         0.1650        168.5411         34.8527
         0.2749        126.9013        -17.5195
         0.3849        158.2755        -20.1760
         0.4949        145.3899         22.0422
         0.6048        215.5667         -4.7125
         0.7148        238.1348         22.8823
         0.8248        290.9079         17.7273
         0.9347        415.1593         46.0949
         1.0447        363.0238         43.3567
         1.1547        321.6225         13.9930
         1.2647        520.4857          0.7770
         1.3746        438.6031        -13.1894
         1.4846         -8.7835        -38.3935
         1.5946       -557.8861        -32.0615
         1.7045       -824.2430        -44.0532
         1.8145       -936.0420        -43.5267
         1.9245       -693.2142        -52.1825
         2.0344       -246.8569        -30.9204
         2.1444       -152.3752        -15.0344
         2.2544       -195.2967        -19.4785
         2.3643       -269.3741          4.4979
         2.4743         18.7765         -6.2515
         2.5843        147.9908         -5.1681
         2.6943        110.8344         23.7303
         2.8042         65.9496         57.0754
         2.9142         75.2628         81.7798
         3.0242        161.9516         64.4030
         3.1341         69.9831         55.3313
         3.2441        100.5478         74.3279
         3.3541         -7.2669         40.1801
         3.4640        113.2340         16.2927
         3.5740        -46.8971        -18.4148
         3.6840       -106.5862        -56.4221
         3.7940        -89.7467         -6.7487
         3.9039        -68.4906         29.4862
         4.0139        -78.5278         14.8837
         4.1239         21.2424         47.5500
         4.2338          4.8276         45.5275
         4.3438         14.6812         56.2864
         4.4538        -14.9607         64.2837
         4.5637         64.6414         87.2450
         4.6737         39.5847         47.4014
         4.7837        137.0857         37.5576
         4.8936         13.2742         -3.4809
         5.0036         18.0203         21.6254
         5.1136         29.3255         58.3418
         5.2236         53.6104         95.0045
         5.3335         39.4873         97.3064
         5.4435         52.0060         74.6445
