@ title  "Pressure (P) and density (D) over 101 frames"
@ xlabel "Z [nm]"
@ ylabel "P [bar] or D [kg/m^3]"
@ s0 legend "P_T"
@ s1 legend "P_N"
        -5.3393        337.1110        309.9268
        -5.2315        335.9273        333.8266
        -5.1236        312.6989        328.3761
        -5.0157        325.7086        340.0863
        -4.9079        331.9162        333.3956
        -4.8000        315.9202        318.6723
        -4.6921        319.3832        319.2833
        -4.5843        316.6879        314.0020
        -4.4764        320.7176        334.8943
        -4.3685        314.1674        312.4894
        -4.2607        314.7808        311.1505
        -4.1528        313.7417        321.4045
        -4.0450        314.4612        323.7062
        -3.9371        308.0507        312.4264
        -3.8292        315.1053        308.2410
        -3.7214        313.3099        299.8951
        -3.6135        320.4448        321.2850
        -3.5056        314.9062        309.0326
        -3.3978        321.4404        325.5367
        -3.2899        326.3452        322.5303
        -3.1820        320.3534        325.3862
        -3.0742        327.4292        315.9742
        -2.9663        315.9970        329.9448
        -2.8584        343.6299        333.1245
        -2.7506        336.2243        344.9426
        -2.6427        333.5094        332.4981
        -2.5348        340.4649        342.9302
        -2.4270        368.9684        364.8853
        -2.3191        364.9688        368.5388
        -2.2112        350.8196        340.9447
        -2.1034        378.6666        372.3744
        -1.9955        414.5900        424.7945
        -1.8876        411.9710        403.9742
        -1.7798        390.3130        383.0086
        -1.6719        411.5862        412.6637
        -1.5640        422.4297        424.1742
        -1.4562        412.3303        420.7657
        -1.3483        408.8880        402.3724
        -1.2405        411.9061        398.6870
        -1.1326        401.2133        407.8122
        -1.0247        399.5536        399.5059
        -0.9169        409.2798        392.8108
        -0.8090        379.1343        393.4156
        -0.7011        397.0988        392.4674
        -0.5933        414.5924        414.8912
        -0.4854        390.9504        399.2850
        -0.3775        398.9797        408.0242
        -0.2697        379.6931        382.3769
        -0.1618        380.7324        381.8809
        -0.0539        350.4641        352.8611
         0.0539        351.7738        348.5876
         0.1618        350.7396        357.0319
         0.2697        361.4520        360.1844
         0.3775        376.8562        373.7521
         0.4854        387.2925        401.9077
         0.5933        392.6641        380.9357
         0.7011        397.0564        397.2677
         0.8090        394.2606        399.9427
         0.9169        398.1322        399.5111
         1.0247        400.7350        407.9071
         1.1326        414.6580        398.0392
         1.2405        400.1448        399.4180
         1.3483        419.0635        418.8488
         1.4562        424.7248        414.9983
         1.5640        423.4634        411.4825
         1.6719        435.0565        432.5547
         1.7798        403.7277        403.9820
         1.8876        397.7520        418.6186
         1.9955        395.4528        404.2505
         2.1034        414.0504        418.1950
         2.2112        393.3433        393.2637
         2.3191        353.0143        352.6202
         2.4270        361.7160        372.8115
         2.5348        366.5134        361.9000
         2.6427        351.0698        358.3590
         2.7506        341.4265        338.7766
         2.8584        344.5551        322.5899
         2.9663        335.5032        331.5160
         3.0742        342.8181        322.6590
         3.1820        309.9023        316.0103
         3.2899        312.9281        306.3849
         3.3978        324.4016        327.7865
         3.5056        318.2225        324.5313
         3.6135        327.0356        313.1245
         3.7214        310.9808        298.1364
         3.8292        304.1413        301.0521
         3.9371        317.8102        311.4554
         4.0450        318.0424        321.6963
         4.1528        340.2852        337.3442
         4.2607        320.0540        317.2734
         4.3686        322.8683        315.7560
         4.4764        315.5933        314.6575
         4.5843        313.5257        329.8590
         4.6921        311.7203        304.8858
         4.8000        320.6935        312.0556
         4.9079        334.6300        314.8123
         5.0157        311.6140        302.1619
         5.1236        323.0813        324.6458
         5.2315        322.5685        317.6565
         5.3393        320.7087        318.8302
