@ title  "Pressure (P) and density (D) over 101 frames"
@ xlabel "Z [nm]"
@ ylabel "P [bar] or D [kg/m^3]"
@ s0 legend "P_T"
@ s1 legend "P_N"
        -5.3188        -12.2896          0.0000
        -5.2114       -131.7402          0.0000
        -5.1039        -78.9251          0.0000
        -4.9965        -16.8485          0.0000
        -4.8890        -83.0138          0.0000
        -4.7816        -93.6539          0.0000
        -4.6741        -18.3549          0.0000
        -4.5667        -63.1524          0.0000
        -4.4592        -39.4978          0.0000
        -4.3518        -52.8635          0.0000
        -4.2443        -23.4318          0.0000
        -4.1369          9.7394          0.0000
        -4.0294          3.8277          0.0000
        -3.9220          0.2326          0.0000
        -3.8145         -9.4815          0.0000
        -3.7071         37.5675          0.0000
        -3.5996         -1.5166          0.0000
        -3.4922        -24.4481          0.0000
        -3.3847        -31.7266          0.0000
        -3.2773        -65.5133          0.0000
        -3.1698       -115.3405          0.0000
        -3.0624        -37.5573          0.0000
        -2.9549        -31.4418          0.0000
        -2.8475        -41.2540          0.0000
        -2.7400        -24.1376          0.0000
        -2.6326        -36.6548          0.0000
        -2.5251         79.3880          0.0000
        -2.4176        -10.0623          0.0000
        -2.3102        -29.6868          0.0000
        -2.2027       -114.0471          0.0000
        -2.0953        -75.3956          0.0000
        -1.9878       -272.3615          0.0000
        -1.8804       -360.9193          0.0000
        -1.7729       -423.2301          0.0000
        -1.6655       -476.3836          0.0000
        -1.5580       -616.4387          0.0000
        -1.4506       -491.1397          0.0000
        -1.3431       -151.3019          0.0000
        -1.2357        187.9798          0.0000
        -1.1282        306.9720          0.0000
        -1.0208        313.6137          0.0000
        -0.9133        325.9072          0.0000
        -0.8059        268.1547          0.0000
        -0.6984        238.5793          0.0000
        -0.5910        251.7476          0.0000
        -0.4835        126.5062          0.0000
        -0.3761         80.2976          0.0000
        -0.2686         76.8208          0.0000
        -0.1612        112.9038          0.0000
        -0.0537        164.5965          0.0000
         0.0537        161.5661          0.0000
         0.1612        148.1501          0.0000
         0.2686        167.0951          0.0000
         0.3761        122.2516          0.0000
         0.4835         54.0224          0.0000
         0.5910        115.0903          0.0000
         0.6984        137.0654          0.0000
         0.8059        248.4474          0.0000
         0.9133        154.3033          0.0000
         1.0208        215.1235          0.0000
         1.1282        117.2124          0.0000
         1.2357        240.4388          0.0000
         1.3431        164.5063          0.0000
         1.4506         44.4817          0.0000
         1.5580       -339.0051          0.0000
         1.6655       -584.3910          0.0000
         1.7729       -693.5311          0.0000
         1.8804       -581.0129          0.0000
         1.9878       -507.7798          0.0000
         2.0953       -381.4558          0.0000
         2.2027       -318.1473          0.0000
         2.3102       -271.0046          0.0000
         2.4177        -25.2771          0.0000
         2.5251        122.3998          0.0000
         2.6326         95.6999          0.0000
         2.7400        131.7925          0.0000
         2.8475         62.6612          0.0000
         2.9549         71.4217          0.0000
         3.0624        -26.0303          0.0000
         3.1698          1.9170          0.0000
         3.2773        -27.4921          0.0000
         3.3847         18.9399          0.0000
         3.4922        -70.4794          0.0000
         3.5996          2.4642          0.0000
         3.7071        -82.8927          0.0000
         3.8145       -128.7995          0.0000
         3.9220        -30.5935          0.0000
         4.0294        -97.3815          0.0000
         4.1369        -37.2409          0.0000
         4.2443        -50.1343          0.0000
         4.3518         -9.4937          0.0000
         4.4592         -1.9115          0.0000
         4.5667        -61.2878          0.0000
         4.6741        -81.9387          0.0000
         4.7816          8.5887          0.0000
         4.8890        -36.2894          0.0000
         4.9965        -72.4185          0.0000
         5.1039        -30.0145          0.0000
         5.2114        -74.4266          0.0000
         5.3188        -51.6205          0.0000
