@ title  "Pressure (P) and density (D) over 101 frames"
@ xlabel "Z [nm]"
@ ylabel "P [bar] or D [kg/m^3]"
@ s0 legend "P_T"
@ s1 legend "P_N"
        -5.4397        316.6620        319.7697
        -5.3298        307.8372        323.9425
        -5.2199        303.9761        326.0932
        -5.1100        320.5499        327.5488
        -5.0001        317.4108        309.7744
        -4.8902        320.9829        314.4625
        -4.7803        310.1386        306.3953
        -4.6704        314.5598        317.4107
        -4.5605        323.8087        329.9237
        -4.4506        312.5550        333.9858
        -4.3407        338.2928        336.4518
        -4.2308        333.1984        333.3889
        -4.1210        317.1027        312.3223
        -4.0111        334.0319        328.1319
        -3.9012        322.6887        313.2391
        -3.7913        319.0974        316.0006
        -3.6814        305.9188        315.8449
        -3.5715        308.1704        311.0272
        -3.4616        309.8386        323.0983
        -3.3517        338.1568        319.3648
        -3.2418        317.6103        305.3539
        -3.1319        318.2848        320.9056
        -3.0220        333.7360        334.3039
        -2.9121        351.4931        343.6669
        -2.8023        333.4086        332.0464
        -2.6924        340.5778        342.9394
        -2.5825        358.2494        360.6530
        -2.4726        377.2279        372.8118
        -2.3627        365.8076        355.4374
        -2.2528        352.9343        347.8205
        -2.1429        384.7765        395.3583
        -2.0330        400.1043        402.3068
        -1.9231        408.0979        411.6552
        -1.8132        396.8521        369.4232
        -1.7033        424.7375        426.2456
        -1.5934        418.3662        421.7416
        -1.4835        408.7740        421.9391
        -1.3737        410.0219        422.3026
        -1.2638        420.3932        403.3318
        -1.1539        424.7245        413.3503
        -1.0440        386.5387        362.4282
        -0.9341        400.3879        397.4182
        -0.8242        394.8772        391.7638
        -0.7143        406.4193        387.6552
        -0.6044        391.2563        395.0195
        -0.4945        398.8667        389.5605
        -0.3846        390.1962        389.5494
        -0.2747        383.3301        372.8372
        -0.1648        362.7747        357.4352
        -0.0549        351.5916        346.0709
         0.0549        342.3435        352.5905
         0.1648        346.6420        351.4455
         0.2747        376.0784        382.6742
         0.3846        386.5682        374.8246
         0.4945        407.2324        402.4579
         0.6044        392.5116        403.0540
         0.7143        406.7855        388.4255
         0.8242        401.7225        398.8417
         0.9341        414.7913        415.3001
         1.0440        396.7193        385.5832
         1.1539        389.1296        387.8433
         1.2638        403.4312        403.0576
         1.3737        421.9908        417.2955
         1.4835        417.4348        425.0407
         1.5934        421.4149        421.7346
         1.7033        433.1111        433.3842
         1.8132        401.1434        418.7101
         1.9231        384.6971        388.8057
         2.0330        417.8838        410.5376
         2.1429        397.2463        418.8824
         2.2528        375.1254        368.3281
         2.3627        349.5513        365.8451
         2.4726        366.3478        357.3503
         2.5825        371.6073        360.2240
         2.6924        352.6969        371.9634
         2.8023        341.1037        346.9596
         2.9121        349.5292        342.8012
         3.0220        343.5794        334.0775
         3.1319        335.5226        349.9716
         3.2418        308.9263        302.5309
         3.3517        319.9885        301.8065
         3.4616        312.2939        320.0112
         3.5715        320.2984        318.0023
         3.6814        302.7684        329.7552
         3.7913        308.4518        314.0865
         3.9012        322.6251        312.8612
         4.0111        324.9460        331.9045
         4.1210        320.9952        318.1100
         4.2308        305.3846        320.7328
         4.3407        321.5702        310.2301
         4.4506        329.0102        323.4720
         4.5605        327.0581        317.8867
         4.6704        313.5006        315.5217
         4.7803        323.6159        314.8397
         4.8902        321.2816        305.6367
         5.0001        313.4970        310.3191
         5.1100        315.4221        319.9874
         5.2199        315.8973        329.0345
         5.3298        317.1974        292.1750
         5.4397        319.1003        300.1093
