@ title  "Pressure (P) and density (D) over 101 frames"
@ xlabel "Z [nm]"
@ ylabel "P [bar] or D [kg/m^3]"
@ s0 legend "P_T"
@ s1 legend "P_N"
        -5.3683        323.0712        324.8826
        -5.2598        311.2723        313.3515
        -5.1514        336.7973        334.8581
        -5.0429        313.9456        322.9396
        -4.9345        317.6988        323.1022
        -4.8260        323.3137        325.0938
        -4.7176        319.7640        325.5720
        -4.6091        330.4852        328.6031
        -4.5007        313.6926        330.1897
        -4.3922        332.5659        343.8715
        -4.2838        304.7660        298.3674
        -4.1753        333.2524        333.2306
        -4.0669        330.1520        333.5123
        -3.9584        311.9296        315.1322
        -3.8500        317.4527        314.1867
        -3.7415        327.2241        330.8869
        -3.6331        314.4687        324.5202
        -3.5246        309.9546        313.3064
        -3.4162        315.5263        324.6050
        -3.3077        324.5328        310.3625
        -3.1993        320.9014        310.6583
        -3.0908        321.9928        322.3698
        -2.9824        323.3441        338.2446
        -2.8739        341.1368        337.4796
        -2.7655        342.9714        339.5821
        -2.6570        351.6520        359.0472
        -2.5486        358.6146        348.6851
        -2.4401        353.9677        363.0435
        -2.3317        354.8296        360.6875
        -2.2232        381.1113        355.5132
        -2.1148        379.1602        393.0913
        -2.0063        401.5854        386.9779
        -1.8979        402.0652        388.3145
        -1.7894        421.3792        409.9864
        -1.6810        408.9044        403.0828
        -1.5725        415.9838        405.8566
        -1.4641        411.1171        423.5343
        -1.3556        414.8297        430.8948
        -1.2472        401.1960        401.0070
        -1.1387        409.4080        415.6182
        -1.0303        410.6511        400.4113
        -0.9218        401.5038        382.5951
        -0.8134        395.5728        372.8002
        -0.7049        400.3387        396.8382
        -0.5965        399.8192        388.0218
        -0.4880        396.3642        385.9389
        -0.3796        389.3660        379.4098
        -0.2711        381.7433        379.9362
        -0.1627        362.6849        355.6249
        -0.0542        357.1476        355.4816
         0.0542        349.6752        344.8464
         0.1627        369.2429        360.2372
         0.2711        369.0161        357.1549
         0.3796        386.1220        382.4908
         0.4880        390.8327        384.6119
         0.5965        409.6563        396.7241
         0.7049        394.1929        399.4418
         0.8134        405.6138        394.7416
         0.9218        414.0184        431.8180
         1.0303        400.2192        397.1073
         1.1387        405.9241        379.2286
         1.2472        393.9407        408.9839
         1.3556        414.1884        418.0314
         1.4641        419.5075        409.9045
         1.5725        418.9366        394.7399
         1.6810        430.1137        418.0657
         1.7894        429.4945        440.5139
         1.8979        400.3342        390.5216
         2.0063        385.1151        392.4095
         2.1148        393.6910        410.1898
         2.2232        394.2091        380.2915
         2.3317        371.6378        377.8144
         2.4401        363.9758        364.2780
         2.5486        354.6357        350.6088
         2.6570        365.1164        351.6091
         2.7655        345.3588        342.5092
         2.8739        329.5119        327.2397
         2.9824        333.7213        336.0916
         3.0908        322.5540        329.5309
         3.1993        323.7556        313.4601
         3.3077        307.6343        317.5325
         3.4162        310.4282        306.2832
         3.5246        310.1784        306.4347
         3.6331        296.5946        295.6602
         3.7415        311.6666        311.3079
         3.8500        306.1295        308.3264
         3.9584        317.0153        309.7584
         4.0669        322.2910        309.4805
         4.1753        297.6361        305.7702
         4.2838        322.7607        315.7512
         4.3922        324.7904        322.5827
         4.5007        304.1479        323.3065
         4.6091        324.0817        315.7774
         4.7176        303.7360        306.9826
         4.8260        313.0792        317.0941
         4.9345        319.3432        318.4328
         5.0429        310.9055        321.7448
         5.1514        318.0605        307.5885
         5.2598        328.5878        328.9825
         5.3683        332.2473        333.5688
