@ title  "Pressure (P) and density (D) over 101 frames"
@ xlabel "Z [nm]"
@ ylabel "P [bar] or D [kg/m^3]"
@ s0 legend "P_T"
@ s1 legend "P_N"
        -5.3047        -79.9634        -71.1254
        -5.1976        -77.3101        -98.0563
        -5.0904        -75.2300        -93.2338
        -4.9832         43.7525        -60.0191
        -4.8761         43.4459        -59.3163
        -4.7689        -16.8013        -19.3691
        -4.6617        114.7700         -3.6018
        -4.5546        129.1570         15.3114
        -4.4474         28.5856         15.7921
        -4.3402         35.8175         19.3111
        -4.2331          7.1474         40.9176
        -4.1259         47.9187         30.7190
        -4.0187         54.1948         33.3377
        -3.9116         25.5213         14.4826
        -3.8044         19.5785        -25.8423
        -3.6972         70.1891        -27.1363
        -3.5901         13.4472        -17.5361
        -3.4829         18.9320          4.0476
        -3.3757         54.1800         41.7926
        -3.2686         77.9861         70.4158
        -3.1614          5.0360         44.3118
        -3.0542        -27.7843          3.9218
        -2.9471        -21.2566        -15.4309
        -2.8399          4.7884        -41.2752
        -2.7327         64.7609        -70.6787
        -2.6256         68.8964        -37.6169
        -2.5184         53.9443        -71.0645
        -2.4112        207.4455        -23.0094
        -2.3041        -10.6227         15.3387
        -2.1969       -176.9482         -4.6494
        -2.0897       -253.9377        -33.7243
        -1.9826       -124.6851         -2.7997
        -1.8754       -192.9064         36.7159
        -1.7682       -593.0961         39.6386
        -1.6611       -796.5682         48.2604
        -1.5539       -780.9952         45.0556
        -1.4467       -459.3158          6.0837
        -1.3396        -91.0706        -20.7342
        -1.2324        205.5833        -18.1879
        -1.1252        429.4548        -27.0599
        -1.0181        321.3062        -22.5161
        -0.9109        233.1342        -27.7031
        -0.8037        169.0884         -7.7560
        -0.6966        106.4559         12.5914
        -0.5894        237.3016         52.0222
        -0.4822         98.6824          2.8253
        -0.3751        149.3792         -4.4475
        -0.2679        105.7055        -39.6169
        -0.1607        198.6943         -7.5403
        -0.0536        260.8663          1.6440
         0.0536        185.9099        -27.3737
         0.1607        209.9630         -0.6967
         0.2679        109.0961        -25.4510
         0.3751        135.0115         22.8899
         0.4822        232.1619         42.6352
         0.5894        229.2375        -14.9739
         0.6966        332.0911        -43.7665
         0.8037        251.0097        -49.5959
         0.9109        280.0842         -3.8464
         1.0181        321.7768         49.9474
         1.1252        267.9794         44.9471
         1.2324        368.8001         13.6099
         1.3396        339.3350          4.9482
         1.4467         61.4786         29.0238
         1.5539       -347.1603         66.8226
         1.6611       -693.6521         57.4035
         1.7682       -864.1115         49.9894
         1.8754       -627.6625         54.0214
         1.9826       -502.3527         -2.2239
         2.0897       -324.7317        -45.3765
         2.1969       -125.5516        -47.9875
         2.3041       -225.6830        -18.7178
         2.4112       -114.0396        -30.3367
         2.5184         83.5286          5.9435
         2.6256        106.6932          8.1139
         2.7327        116.3979        -40.4593
         2.8399         38.2818        -28.0232
         2.9471        110.4263         22.5344
         3.0542         21.4528          2.4693
         3.1614         31.1967          9.3546
         3.2686         22.4468          2.6662
         3.3757        -27.6725        -33.3172
         3.4829        -33.0647        -35.7442
         3.5901         39.5482         14.0893
         3.6972         30.5544          6.4403
         3.8044        -71.2943        -39.9642
         3.9116       -114.2046        -40.2496
         4.0187         25.6897          8.8456
         4.1259         10.8186        -26.5359
         4.2331         39.0168         17.6946
         4.3402        -40.3178         -1.2061
         4.4474         46.3558        -38.8257
         4.5546         19.2985        -37.8076
         4.6617        -38.8813         -4.7524
         4.7689         -7.7640         -2.0493
         4.8761        -41.8495        -16.9641
         4.9832        -25.1336        -19.2858
         5.0904         18.9415        -17.1349
         5.1976         23.7976         -7.1898
         5.3047        -79.3262        -27.1366
