@ title  "Pressure (P) and density (D) over 101 frames"
@ xlabel "Z [nm]"
@ ylabel "P [bar] or D [kg/m^3]"
@ s0 legend "P_T"
@ s1 legend "P_N"
        -5.4645        312.9467        306.5365
        -5.3541        320.2601        311.4206
        -5.2437        327.3817        310.9187
        -5.1333        318.2103        317.8755
        -5.0229        317.9818        328.2537
        -4.9125        335.7267        322.4575
        -4.8022        319.0503        335.1525
        -4.6918        300.3917        325.4650
        -4.5814        332.2048        323.3451
        -4.4710        314.3878        335.1694
        -4.3606        308.5972        305.4538
        -4.2502        311.7696        299.0466
        -4.1398        317.4656        331.8160
        -4.0294        322.1851        315.9115
        -3.9190        307.1752        291.8409
        -3.8086        315.2373        307.0731
        -3.6982        309.1404        317.0623
        -3.5878        311.6538        310.5093
        -3.4774        317.6461        309.8650
        -3.3670        316.2170        325.6841
        -3.2566        328.1212        314.8358
        -3.1462        317.0584        306.2044
        -3.0358        330.9190        330.3893
        -2.9255        345.8988        348.9117
        -2.8151        345.9158        361.7179
        -2.7047        339.4431        340.9401
        -2.5943        355.8499        355.9374
        -2.4839        371.7978        374.8002
        -2.3735        375.1810        370.8860
        -2.2631        349.8441        348.0768
        -2.1527        389.1317        384.8809
        -2.0423        408.0211        413.5272
        -1.9319        416.4558        421.2264
        -1.8215        400.0775        391.6190
        -1.7111        411.4164        423.1104
        -1.6007        447.5234        439.7087
        -1.4903        412.7545        402.4632
        -1.3799        409.5509        413.7453
        -1.2695        403.4656        420.5345
        -1.1591        404.8184        387.4106
        -1.0487        393.4109        386.3511
        -0.9384        389.8897        381.4751
        -0.8280        415.6733        405.1132
        -0.7176        374.6516        384.9744
        -0.6072        409.4547        408.7054
        -0.4968        399.6290        391.1598
        -0.3864        393.1307        379.6577
        -0.2760        382.3630        377.4373
        -0.1656        357.1387        354.8420
        -0.0552        355.0529        352.1680
         0.0552        349.3645        351.7799
         0.1656        361.2809        354.7618
         0.2760        378.0635        389.8055
         0.3864        393.6630        382.7491
         0.4968        385.0805        391.3550
         0.6072        401.8496        412.7508
         0.7176        397.4299        389.4406
         0.8280        405.2084        404.4333
         0.9384        395.8086        391.8109
         1.0487        397.1753        399.2195
         1.1591        395.8026        410.8587
         1.2695        422.2934        428.5275
         1.3799        421.0186        407.2200
         1.4903        404.1425        404.0603
         1.6007        424.1447        422.8980
         1.7111        423.7872        428.2288
         1.8215        417.8870        398.4211
         1.9319        393.8994        390.8641
         2.0423        401.7155        414.8300
         2.1527        404.8380        407.1824
         2.2631        372.3792        378.5043
         2.3735        348.3315        349.1903
         2.4839        370.9690        391.1405
         2.5943        370.6135        376.7351
         2.7047        335.5805        344.4092
         2.8151        334.8375        337.9981
         2.9255        339.9998        356.1448
         3.0358        333.9000        334.9882
         3.1462        322.9479        326.3459
         3.2566        315.4195        316.3093
         3.3670        330.5163        328.3543
         3.4774        306.5379        323.4030
         3.5878        323.7793        321.8061
         3.6982        314.0930        304.2906
         3.8086        305.5147        294.7560
         3.9190        302.9756        287.5146
         4.0294        310.5751        311.2598
         4.1398        309.6179        319.8362
         4.2502        311.2519        318.1799
         4.3606        321.1345        313.0055
         4.4710        316.7773        335.3504
         4.5814        327.6067        309.3574
         4.6918        325.3253        310.8373
         4.8022        312.9463        318.8817
         4.9126        334.8824        338.2344
         5.0229        308.1813        316.8837
         5.1333        324.3835        317.9741
         5.2437        315.0379        323.2012
         5.3541        336.4794        325.8743
         5.4645        310.0667        311.8418
