@ title  "Pressure (P) and density (D) over 101 frames"
@ xlabel "Z [nm]"
@ ylabel "P [bar] or D [kg/m^3]"
@ s0 legend "P_T"
@ s1 legend "P_N"
        -5.4445         60.2178        -12.0246
        -5.3345         -6.0991        -55.9882
        -5.2245        -67.3110        -87.3039
        -5.1145         29.9090        -69.6115
        -5.0046        -52.9649        -93.8736
        -4.8946        -16.6127          7.7170
        -4.7846        -85.3689          6.7372
        -4.6746          5.6230         32.3965
        -4.5646         88.7656         -9.4302
        -4.4546          4.4066        -16.4496
        -4.3446        -66.4805         -7.1687
        -4.2346         25.9121        -16.7240
        -4.1246         42.0528          3.9605
        -4.0146         25.5555          8.3889
        -3.9047         29.9930         31.8474
        -3.7947        -39.6573          8.9973
        -3.6847        -37.4600        -24.4526
        -3.5747        -93.2637        -57.5105
        -3.4647         55.4921        -32.1628
        -3.3547        127.8569         14.5606
        -3.2447         -0.3144        -23.0294
        -3.1347         55.2522        -10.3658
        -3.0247        208.5021         19.5517
        -2.9147        157.9364         39.1299
        -2.8048        125.6419         75.4190
        -2.6948         42.6175         26.2459
        -2.5848        282.0254         42.3006
        -2.4748         86.2872        -18.9988
        -2.3648        -57.5530          0.0510
        -2.2548        -87.8327         42.5112
        -2.1448       -204.8349        -18.1979
        -2.0348       -307.3127        -50.8089
        -1.9248       -594.9357        -26.6169
        -1.8148       -929.1221          1.4187
        -1.7048       -961.8194        -14.0118
        -1.5949       -734.9303         -7.0083
        -1.4849       -327.2383         44.6726
        -1.3749        191.1659         47.7059
        -1.2649        380.9719         24.7925
        -1.1549        322.7983         -4.3578
        -1.0449        273.8311        -37.2298
        -0.9349        188.9132        -81.6431
        -0.8249        278.5591        -26.7012
        -0.7149        229.1308        -32.4336
        -0.6049        165.4409        -45.2677
        -0.4950        221.4618        -22.0222
        -0.3850        268.2007        -11.0103
        -0.2750        188.1119         -4.1122
        -0.1650        155.8727         -1.0132
        -0.0550        143.7108        -16.4385
         0.0550        208.7836        -58.8406
         0.1650        122.0262        -59.4037
         0.2750        116.3955        -44.5544
         0.3850        165.7265        -58.7802
         0.4950        143.0282        -74.4176
         0.6049        181.9777        -22.1821
         0.7149        295.9753         17.6491
         0.8249        248.7984         14.3616
         0.9349        264.5533         57.3279
         1.0449        399.4838         89.0971
         1.1549        463.2459         61.1667
         1.2649        304.9883         13.0275
         1.3749        180.3412          8.5656
         1.4849       -158.7707         29.5780
         1.5949       -597.4006         -0.6137
         1.7048       -832.7719         -4.6607
         1.8148       -666.0392         21.4615
         1.9248       -424.0584          9.5661
         2.0348       -245.8877         33.1438
         2.1448        -87.3480         37.4284
         2.2548       -241.3530         11.6290
         2.3648       -196.1893          7.5790
         2.4748         92.2322         70.3919
         2.5848        197.4432         62.6683
         2.6948        173.5659         34.5392
         2.8048        132.5607         11.2353
         2.9147        -41.0035        -35.7779
         3.0247         -2.9323        -26.5211
         3.1347         38.2892          7.0390
         3.2447         14.7365        -19.9894
         3.3547         67.7606         -9.4890
         3.4647        -39.4623        -26.2379
         3.5747        -91.9747        -27.7969
         3.6847        -43.2903          2.7722
         3.7947          0.9936         42.4010
         3.9047        -54.5337         35.6340
         4.0146        -69.5201         -0.4105
         4.1246         46.4607        -13.9723
         4.2346         38.5603          8.9158
         4.3446         18.8909          3.8650
         4.4546       -100.9226          6.3244
         4.5646        -58.8484        -11.9072
         4.6746         14.6523         27.1444
         4.7846        -50.4368         -2.3439
         4.8946        -76.5802        -18.2096
         5.0046         -3.5449         -8.2128
         5.1145        -19.9937         15.1778
         5.2245         41.7831         25.5899
         5.3345        -54.6246          5.5310
         5.4445         12.8167        -19.0953
