@ title  "Pressure (P) and density (D) over 101 frames"
@ xlabel "Z [nm]"
@ ylabel "P [bar] or D [kg/m^3]"
@ s0 legend "P_T"
@ s1 legend "P_N"
        -5.3971        320.2184        299.5125
        -5.2881        321.7792        331.6938
        -5.1791        330.0144        322.6465
        -5.0700        325.8637        324.1158
        -4.9610        313.4824        313.1219
        -4.8520        324.7086        315.1071
        -4.7429        311.9080        315.3217
        -4.6339        316.4392        318.1604
        -4.5249        312.5952        326.5038
        -4.4158        312.5145        322.9715
        -4.3068        314.4261        321.9267
        -4.1978        316.2317        307.7519
        -4.0887        307.3809        305.6170
        -3.9797        310.0130        327.1695
        -3.8707        326.1220        313.5726
        -3.7616        324.6813        317.5815
        -3.6526        295.7767        301.7615
        -3.5436        314.1828        311.7443
        -3.4345        316.4557        322.8324
        -3.3255        311.3754        317.2706
        -3.2165        319.5688        328.5483
        -3.1074        323.5743        315.8575
        -2.9984        332.8298        345.2372
        -2.8894        343.7139        331.2288
        -2.7803        336.1794        343.0231
        -2.6713        352.3154        323.7899
        -2.5623        373.6664        378.2070
        -2.4532        358.5519        359.2314
        -2.3442        344.8350        360.4930
        -2.2352        347.9470        385.4405
        -2.1261        404.4413        395.4760
        -2.0171        402.6105        395.1061
        -1.9081        387.5683        391.2291
        -1.7990        404.1669        417.9297
        -1.6900        422.2061        445.2539
        -1.5810        414.9670        429.3105
        -1.4719        399.2923        411.7688
        -1.3629        411.2792        418.1043
        -1.2539        397.9826        396.5426
        -1.1448        386.3140        396.5448
        -1.0358        397.8593        409.1923
        -0.9268        408.4344        393.0950
        -0.8177        391.1124        414.1394
        -0.7087        396.8331        395.7458
        -0.5997        400.8017        397.3520
        -0.4906        392.6555        376.7525
        -0.3816        383.2942        392.0707
        -0.2726        375.4938        379.6241
        -0.1635        368.5399        378.3887
        -0.0545        352.4651        347.2465
         0.0545        350.1318        342.1797
         0.1635        354.7082        365.5777
         0.2726        381.6298        377.1653
         0.3816        384.6827        387.2925
         0.4906        406.9591        399.9207
         0.5997        396.8267        396.9324
         0.7087        389.1829        393.2476
         0.8177        406.8950        385.9030
         0.9268        409.6915        396.6754
         1.0358        402.3469        409.7957
         1.1448        398.0020        394.2208
         1.2539        406.8158        404.5642
         1.3629        399.0010        398.1497
         1.4719        426.0374        399.8271
         1.5810        427.1396        420.4465
         1.6900        442.4166        434.3887
         1.7990        399.7024        391.1686
         1.9081        412.0919        419.8444
         2.0171        406.8950        398.6720
         2.1261        396.9173        388.8382
         2.2352        361.1591        375.7324
         2.3442        338.9659        346.6658
         2.4532        366.3611        373.5205
         2.5623        355.2505        353.2639
         2.6713        337.9228        338.0856
         2.7803        336.2432        359.6296
         2.8894        349.2623        353.7230
         2.9984        341.2162        344.3530
         3.1074        317.7698        311.4984
         3.2165        307.9977        314.1557
         3.3255        315.5366        322.8860
         3.4345        322.4187        332.7863
         3.5436        316.7162        306.2992
         3.6526        305.0576        301.4440
         3.7616        300.4027        303.7519
         3.8707        311.6034        325.6932
         3.9797        304.9502        319.2369
         4.0887        310.0014        314.9370
         4.1978        310.6795        306.1504
         4.3068        326.4881        328.7784
         4.4158        309.2253        320.0225
         4.5249        303.9736        297.7534
         4.6339        303.3447        308.3176
         4.7429        326.1319        330.6857
         4.8520        323.7430        329.6122
         4.9610        319.1313        318.4054
         5.0700        314.3556        332.7094
         5.1791        310.3909        314.3896
         5.2881        319.7386        311.3802
         5.3971        319.1812        328.5839
