@ title  "Pressure (P) and density (D) over 101 frames"
@ xlabel "Z [nm]"
@ ylabel "P [bar] or D [kg/m^3]"
@ s0 legend "P_T"
@ s1 legend "P_N"
        -5.4445        -28.8816          0.0000
        -5.3345          0.7498          0.0000
        -5.2245        -14.7836          0.0000
        -5.1145         11.7174          0.0000
        -5.0046        -31.9571          0.0000
        -4.8946        -36.6356          0.0000
        -4.7846        -92.2675          0.0000
        -4.6746         13.3017          0.0000
        -4.5646        107.7411          0.0000
        -4.4546        -18.5831          0.0000
        -4.3446        -71.5283          0.0000
        -4.2346         24.7563          0.0000
        -4.1246         34.3695          0.0000
        -4.0146         35.8678          0.0000
        -3.9047         44.0896          0.0000
        -3.7947        -57.5456          0.0000
        -3.6847        -31.8047          0.0000
        -3.5747        -23.5637          0.0000
        -3.4647         14.3164          0.0000
        -3.3547         26.7611          0.0000
        -3.2447         79.8282          0.0000
        -3.1347        122.1192          0.0000
        -3.0247        144.6017          0.0000
        -2.9147         68.1342          0.0000
        -2.8048        173.5544          0.0000
        -2.6948        116.3758          0.0000
        -2.5848        101.9295          0.0000
        -2.4748         80.0917          0.0000
        -2.3648         55.0187          0.0000
        -2.2548        -37.0006          0.0000
        -2.1448       -375.6627          0.0000
        -2.0348       -357.3097          0.0000
        -1.9248       -573.3326          0.0000
        -1.8148       -648.8773          0.0000
        -1.7048       -862.8135          0.0000
        -1.5949       -680.7202          0.0000
        -1.4849       -338.6733          0.0000
        -1.3749         83.3000          0.0000
        -1.2649        211.0299          0.0000
        -1.1549        284.2465          0.0000
        -1.0449        305.9825          0.0000
        -0.9349        276.9406          0.0000
        -0.8249        267.0158          0.0000
        -0.7149        228.8425          0.0000
        -0.6049        176.1867          0.0000
        -0.4950        270.9517          0.0000
        -0.3850        265.7245          0.0000
        -0.2750        180.7170          0.0000
        -0.1650         90.9576          0.0000
        -0.0550        116.8798          0.0000
         0.0550        195.3264          0.0000
         0.1650         88.0582          0.0000
         0.2750         70.5823          0.0000
         0.3850        204.9763          0.0000
         0.4950        165.8705          0.0000
         0.6049        193.2728          0.0000
         0.7149        297.8931          0.0000
         0.8249        247.4770          0.0000
         0.9349        330.4475          0.0000
         1.0449        398.7051          0.0000
         1.1549        398.9538          0.0000
         1.2649        201.0195          0.0000
         1.3749        101.1927          0.0000
         1.4849       -213.4442          0.0000
         1.5949       -536.2094          0.0000
         1.7048       -666.9294          0.0000
         1.8148       -517.1169          0.0000
         1.9248       -354.7889          0.0000
         2.0348       -354.7705          0.0000
         2.1448       -164.7181          0.0000
         2.2548       -187.3896          0.0000
         2.3648        -74.2973          0.0000
         2.4748         71.5250          0.0000
         2.5848         97.1632          0.0000
         2.6948        141.4164          0.0000
         2.8048         98.8297          0.0000
         2.9147          8.4090          0.0000
         3.0247        -35.2760          0.0000
         3.1347         77.5677          0.0000
         3.2447        -23.8367          0.0000
         3.3547         42.1637          0.0000
         3.4647         -9.4254          0.0000
         3.5747        -81.8446          0.0000
         3.6847        -13.8053          0.0000
         3.7947        -52.8089          0.0000
         3.9047        -91.0326          0.0000
         4.0146          4.6740          0.0000
         4.1246         72.9239          0.0000
         4.2346        -18.0777          0.0000
         4.3446        -12.6934          0.0000
         4.4546        -73.0812          0.0000
         4.5646        -44.1438          0.0000
         4.6746        -16.2165          0.0000
         4.7846        -38.1393          0.0000
         4.8946        -62.1191          0.0000
         5.0046          2.3360          0.0000
         5.1145          0.7299          0.0000
         5.2245         23.4769          0.0000
         5.3345        -83.4919          0.0000
         5.4445         78.1935          0.0000
