@ title  "Pressure (P) and density (D) over 101 frames"
@ xlabel "Z [nm]"
@ ylabel "P [bar] or D [kg/m^3]"
@ s0 legend "P_T"
@ s1 legend "P_N"
        -5.3100        119.4393          0.0000
        -5.2027         30.7939          0.0000
        -5.0954         75.6167          0.0000
        -4.9882        -58.7801          0.0000
        -4.8809        -41.0147          0.0000
        -4.7736         -1.1116          0.0000
        -4.6664        123.9001          0.0000
        -4.5591         80.9693          0.0000
        -4.4518         52.7934          0.0000
        -4.3445        119.9639          0.0000
        -4.2373         25.9534          0.0000
        -4.1300         66.7282          0.0000
        -4.0227        135.9979          0.0000
        -3.9154         10.4373          0.0000
        -3.8082         55.1649          0.0000
        -3.7009         33.6173          0.0000
        -3.5936         -7.7634          0.0000
        -3.4864         -1.4034          0.0000
        -3.3791         25.6601          0.0000
        -3.2718        -43.5947          0.0000
        -3.1645         30.8349          0.0000
        -3.0573         78.3082          0.0000
        -2.9500          1.9578          0.0000
        -2.8427        103.5251          0.0000
        -2.7355        -23.3671          0.0000
        -2.6282         97.5123          0.0000
        -2.5209         53.7153          0.0000
        -2.4136        151.3494          0.0000
        -2.3064         29.8751          0.0000
        -2.1991       -158.3755          0.0000
        -2.0918       -225.1763          0.0000
        -1.9845       -284.8456          0.0000
        -1.8773       -380.2594          0.0000
        -1.7700       -437.5177          0.0000
        -1.6627       -515.6094          0.0000
        -1.5555       -615.3995          0.0000
        -1.4482       -267.8474          0.0000
        -1.3409        -34.6022          0.0000
        -1.2336        186.1436          0.0000
        -1.1264        289.4789          0.0000
        -1.0191        305.6111          0.0000
        -0.9118        282.5130          0.0000
        -0.8045        209.7233          0.0000
        -0.6973        268.2074          0.0000
        -0.5900        268.7311          0.0000
        -0.4827        217.0633          0.0000
        -0.3755        123.2145          0.0000
        -0.2682         88.2849          0.0000
        -0.1609        126.3716          0.0000
        -0.0536        139.2852          0.0000
         0.0536        243.7646          0.0000
         0.1609        196.0678          0.0000
         0.2682        178.7031          0.0000
         0.3755        128.2582          0.0000
         0.4827        199.6209          0.0000
         0.5900        292.0305          0.0000
         0.6973        208.6012          0.0000
         0.8045        214.1680          0.0000
         0.9118        112.3564          0.0000
         1.0191        123.1642          0.0000
         1.1264        234.0486          0.0000
         1.2336        243.6210          0.0000
         1.3409        142.9599          0.0000
         1.4482        -84.9252          0.0000
         1.5555       -382.6299          0.0000
         1.6627       -584.6448          0.0000
         1.7700       -668.2298          0.0000
         1.8773       -480.7206          0.0000
         1.9845       -497.4324          0.0000
         2.0918       -289.1345          0.0000
         2.1991       -195.3762          0.0000
         2.3064       -117.1866          0.0000
         2.4136        124.2867          0.0000
         2.5209        225.9213          0.0000
         2.6282        190.0134          0.0000
         2.7355         86.7696          0.0000
         2.8427         44.4965          0.0000
         2.9500        -27.1774          0.0000
         3.0573         81.7229          0.0000
         3.1645         15.8087          0.0000
         3.2718        -35.4550          0.0000
         3.3791         -6.3094          0.0000
         3.4864          3.3867          0.0000
         3.5936        -70.0248          0.0000
         3.7009         32.9080          0.0000
         3.8082         53.5447          0.0000
         3.9154          1.4679          0.0000
         4.0227        122.2710          0.0000
         4.1300          2.0785          0.0000
         4.2373         84.9371          0.0000
         4.3445         74.6171          0.0000
         4.4518         56.4211          0.0000
         4.5591        -37.8728          0.0000
         4.6664        -28.3299          0.0000
         4.7736         48.6230          0.0000
         4.8809        -23.3748          0.0000
         4.9882         12.9099          0.0000
         5.0954          0.7626          0.0000
         5.2027        -20.7411          0.0000
         5.3100          2.9753          0.0000
