@ title  "Pressure (P) and density (D) over 101 frames"
@ xlabel "Z [nm]"
@ ylabel "P [bar] or D [kg/m^3]"
@ s0 legend "P_T"
@ s1 legend "P_N"
        -5.2916        -26.6576          0.0000
        -5.1847         40.6630          0.0000
        -5.0778        -33.2323          0.0000
        -4.9709        -38.1467          0.0000
        -4.8640          5.0389          0.0000
        -4.7571         38.4683          0.0000
        -4.6502        -84.4569          0.0000
        -4.5433          9.4780          0.0000
        -4.4364         81.3930          0.0000
        -4.3295        -47.0136          0.0000
        -4.2226         -7.1259          0.0000
        -4.1157         34.0129          0.0000
        -4.0088        -11.6342          0.0000
        -3.9019        -12.5414          0.0000
        -3.7950         40.4515          0.0000
        -3.6881         24.5726          0.0000
        -3.5812         63.2666          0.0000
        -3.4743        123.1935          0.0000
        -3.3674         35.0452          0.0000
        -3.2605         39.6532          0.0000
        -3.1536         56.5234          0.0000
        -3.0467          9.0054          0.0000
        -2.9398         92.6481          0.0000
        -2.8329          2.8868          0.0000
        -2.7260        108.6678          0.0000
        -2.6191        131.8764          0.0000
        -2.5122        240.9115          0.0000
        -2.4053        175.3698          0.0000
        -2.2984        108.0945          0.0000
        -2.1915        -33.2302          0.0000
        -2.0846       -223.7267          0.0000
        -1.9777       -320.7601          0.0000
        -1.8708       -454.2385          0.0000
        -1.7639       -509.4797          0.0000
        -1.6570       -698.5709          0.0000
        -1.5501       -738.4213          0.0000
        -1.4432       -642.0297          0.0000
        -1.3363       -209.5409          0.0000
        -1.2294         64.3437          0.0000
        -1.1225        218.4439          0.0000
        -1.0156        353.7725          0.0000
        -0.9087        381.8853          0.0000
        -0.8018        375.4879          0.0000
        -0.6949        378.1899          0.0000
        -0.5880        273.9743          0.0000
        -0.4811        215.6477          0.0000
        -0.3742        230.7868          0.0000
        -0.2673        115.4946          0.0000
        -0.1604         82.3197          0.0000
        -0.0535        187.1201          0.0000
         0.0535        194.6997          0.0000
         0.1604        138.2360          0.0000
         0.2673        206.8386          0.0000
         0.3742        142.0659          0.0000
         0.4811        119.0786          0.0000
         0.5880        209.1193          0.0000
         0.6949        210.6988          0.0000
         0.8018        229.7789          0.0000
         0.9087        275.2914          0.0000
         1.0156        303.8290          0.0000
         1.1225        322.0738          0.0000
         1.2294        313.2767          0.0000
         1.3363        248.8233          0.0000
         1.4432         35.4319          0.0000
         1.5501       -375.2539          0.0000
         1.6570       -661.4145          0.0000
         1.7639       -666.6407          0.0000
         1.8708       -545.6307          0.0000
         1.9777       -459.5914          0.0000
         2.0846       -304.5815          0.0000
         2.1915       -232.1943          0.0000
         2.2984       -212.1370          0.0000
         2.4053         71.0426          0.0000
         2.5122        139.4343          0.0000
         2.6191        100.7626          0.0000
         2.7260         29.0087          0.0000
         2.8329         67.6492          0.0000
         2.9398        -30.3423          0.0000
         3.0467         16.9195          0.0000
         3.1536         52.5057          0.0000
         3.2605        -48.8597          0.0000
         3.3674        -42.0024          0.0000
         3.4743        -57.6866          0.0000
         3.5812        -39.9180          0.0000
         3.6881        -34.3981          0.0000
         3.7950         47.7294          0.0000
         3.9019        -23.8115          0.0000
         4.0088         -1.4874          0.0000
         4.1157          9.3575          0.0000
         4.2226        -40.6488          0.0000
         4.3295        -28.0605          0.0000
         4.4364        -29.5601          0.0000
         4.5433         65.6636          0.0000
         4.6502         65.6548          0.0000
         4.7571         17.6803          0.0000
         4.8640         16.6011          0.0000
         4.9709         60.4145          0.0000
         5.0778        114.2482          0.0000
         5.1847         33.3881          0.0000
         5.2916        -12.9382          0.0000
