@ title  "Pressure (P) and density (D) over 101 frames"
@ xlabel "Z [nm]"
@ ylabel "P [bar] or D [kg/m^3]"
@ s0 legend "P_T"
@ s1 legend "P_N"
        -5.3575         75.5018         49.4616
        -5.2493         -9.6871         26.6605
        -5.1411         -0.6027         15.9464
        -5.0328        -22.5366        -20.0872
        -4.9246        -27.1240         11.2849
        -4.8164        -49.6958         24.3687
        -4.7081       -106.1316         -4.2387
        -4.5999       -102.7439        -47.9708
        -4.4917       -120.5427        -73.9171
        -4.3834        -66.0989        -70.5786
        -4.2752        -47.5914        -78.0025
        -4.1670        -72.2938        -55.3562
        -4.0587        -44.6414        -48.2995
        -3.9505        -28.1838        -24.4268
        -3.8423       -106.1672        -25.8282
        -3.7340        -36.3963         16.4823
        -3.6258        -12.6821         26.6783
        -3.5176        -34.2749         -7.3500
        -3.4093         25.7930        -36.9783
        -3.3011        -30.1600        -44.7653
        -3.1929        -79.3739        -91.9168
        -3.0846         27.3241        -56.9881
        -2.9764         41.2190        -26.5755
        -2.8682        103.4599         46.5750
        -2.7599         67.0822         41.9966
        -2.6517        115.2581         68.2160
        -2.5435        205.7841         69.4890
        -2.4352        258.9676         41.9743
        -2.3270         65.8575         -3.1720
        -2.2188       -155.9399        -22.9616
        -2.1105       -309.8115        -22.8088
        -2.0023        -78.8424         31.4907
        -1.8941       -150.4785         37.2797
        -1.7858       -594.3970         33.8997
        -1.6776       -823.8121         12.5056
        -1.5694       -865.6022        -37.4361
        -1.4611       -560.4918        -30.5523
        -1.3529       -100.0620        -27.0647
        -1.2447        286.0668          8.5912
        -1.1364        373.7545        -20.6977
        -1.0282        224.4929        -60.8420
        -0.9200        112.5564        -27.2981
        -0.8117        271.8651          8.1398
        -0.7035        374.6092         24.0873
        -0.5953        297.9128         27.4914
        -0.4870        236.9527         15.8418
        -0.3788        237.1918         26.4317
        -0.2706        132.7669         21.4583
        -0.1624         92.1131          2.9206
        -0.0541        186.2256         12.0578
         0.0541        246.9016         34.1775
         0.1623        176.0457         -4.4538
         0.2706        183.1304          6.3814
         0.3788        256.7457         33.8967
         0.4870        232.4962         24.2271
         0.5953        157.6390          8.3987
         0.7035        291.9514         22.0583
         0.8117        301.9840         -5.8417
         0.9200        328.1172         12.9217
         1.0282        143.5076         47.1356
         1.1364        270.1596         51.5547
         1.2447        336.4205         21.2157
         1.3529        187.5124        -50.9962
         1.4611          5.7649        -68.0841
         1.5694       -311.2105        -70.1410
         1.6776       -689.7191        -10.8829
         1.7858       -831.5380         -3.4045
         1.8941       -802.7832        -24.7589
         2.0023       -512.9542          4.3504
         2.1105       -196.1839         23.5048
         2.2188       -183.7272         18.5418
         2.3270       -271.2639         59.7384
         2.4352        -20.1102         37.0074
         2.5435        115.5623        -10.9802
         2.6517        103.1966         -0.4251
         2.7599         14.7572         -5.6155
         2.8682        140.1068          7.7720
         2.9764        145.2913         -1.7819
         3.0846         81.0983         24.6435
         3.1929         -2.9060         31.5492
         3.3011        -35.0693         51.7902
         3.4093        -11.2609         -2.4450
         3.5176        -84.7742        -14.5369
         3.6258        -57.0763        -45.7078
         3.7340        -78.1550        -31.9093
         3.8423        -47.6990        -10.8062
         3.9505         19.4098         -2.4148
         4.0587         10.2211        -10.7364
         4.1670        -66.9848        -24.6619
         4.2752          9.0439        -15.5881
         4.3834        -96.9435        -10.8929
         4.4917        -58.0337         -1.6378
         4.5999        -76.0030         17.6874
         4.7081         23.0863         18.2803
         4.8164          6.9912        -37.2669
         4.9246         22.8498        -23.4234
         5.0328        -58.7055        -58.6206
         5.1411        -32.6874        -60.7317
         5.2493         31.3821        -36.8756
         5.3575         78.5002        -10.0248
