@ title  "Pressure (P) and density (D) over 101 frames"
@ xlabel "Z [nm]"
@ ylabel "P [bar] or D [kg/m^3]"
@ s0 legend "P_T"
@ s1 legend "P_N"
        -5.3145         47.9212          0.0000
        -5.2071         77.9264          0.0000
        -5.0998          1.2951          0.0000
        -4.9924        -81.0683          0.0000
        -4.8850         18.1827          0.0000
        -4.7777        -34.6580          0.0000
        -4.6703        -51.7418          0.0000
        -4.5629        -70.4486          0.0000
        -4.4556        -19.9944          0.0000
        -4.3482        -61.4574          0.0000
        -4.2409        -46.7632          0.0000
        -4.1335        -94.6183          0.0000
        -4.0261         23.4342          0.0000
        -3.9188        -29.3774          0.0000
        -3.8114         -9.8320          0.0000
        -3.7040         53.9442          0.0000
        -3.5967         28.1981          0.0000
        -3.4893        -90.8750          0.0000
        -3.3819         58.7068          0.0000
        -3.2746         36.1489          0.0000
        -3.1672         11.7731          0.0000
        -3.0599         42.0748          0.0000
        -2.9525         21.4429          0.0000
        -2.8451         76.2603          0.0000
        -2.7378        117.5837          0.0000
        -2.6304         40.3306          0.0000
        -2.5230         35.7005          0.0000
        -2.4157         77.1531          0.0000
        -2.3083         13.7596          0.0000
        -2.2009          1.8681          0.0000
        -2.0936       -182.6378          0.0000
        -1.9862       -333.4669          0.0000
        -1.8789       -453.7559          0.0000
        -1.7715       -391.0196          0.0000
        -1.6641       -628.3751          0.0000
        -1.5568       -641.0972          0.0000
        -1.4494       -392.0252          0.0000
        -1.3420        -17.4333          0.0000
        -1.2347        246.3367          0.0000
        -1.1273        332.7138          0.0000
        -1.0200        371.0702          0.0000
        -0.9126        347.3149          0.0000
        -0.8052        355.4189          0.0000
        -0.6979        287.9965          0.0000
        -0.5905        310.1055          0.0000
        -0.4831        335.8030          0.0000
        -0.3758        196.0883          0.0000
        -0.2684        186.6093          0.0000
        -0.1610        201.9653          0.0000
        -0.0537        187.6507          0.0000
         0.0537        279.4327          0.0000
         0.1610        197.6390          0.0000
         0.2684        178.7213          0.0000
         0.3758        176.0126          0.0000
         0.4831        256.6305          0.0000
         0.5905        222.7479          0.0000
         0.6979        163.4187          0.0000
         0.8052        246.2680          0.0000
         0.9126        240.3075          0.0000
         1.0200        194.7641          0.0000
         1.1273        242.4940          0.0000
         1.2347        273.5242          0.0000
         1.3420        223.4664          0.0000
         1.4494        -86.1386          0.0000
         1.5568       -440.7491          0.0000
         1.6641       -647.8017          0.0000
         1.7715       -727.3518          0.0000
         1.8789       -457.7110          0.0000
         1.9862       -342.1015          0.0000
         2.0936       -373.1890          0.0000
         2.2010       -278.9356          0.0000
         2.3083         14.5600          0.0000
         2.4157         49.4356          0.0000
         2.5230        146.8191          0.0000
         2.6304         83.7473          0.0000
         2.7378        116.6926          0.0000
         2.8451         38.2783          0.0000
         2.9525         59.0810          0.0000
         3.0599         79.6744          0.0000
         3.1672         70.1561          0.0000
         3.2746         56.1274          0.0000
         3.3819          8.9227          0.0000
         3.4893         40.8300          0.0000
         3.5967        -34.2523          0.0000
         3.7040         -7.1441          0.0000
         3.8114        -67.6756          0.0000
         3.9188        -11.2002          0.0000
         4.0261        107.5633          0.0000
         4.1335          2.8934          0.0000
         4.2409          0.4256          0.0000
         4.3482         34.2286          0.0000
         4.4556         15.4132          0.0000
         4.5629         20.4037          0.0000
         4.6703         47.7438          0.0000
         4.7777        -25.8016          0.0000
         4.8850         16.5519          0.0000
         4.9924        139.5765          0.0000
         5.0998        -20.6643          0.0000
         5.2071         -7.5317          0.0000
         5.3145         50.0556          0.0000
