@ title  "Pressure (P) and density (D) over 101 frames"
@ xlabel "Z [nm]"
@ ylabel "P [bar] or D [kg/m^3]"
@ s0 legend "P_T"
@ s1 legend "P_N"
        -4.9532        -39.3643         -9.2752
        -4.8531        -36.8235        -43.9314
        -4.7531        -53.7642        -17.5918
        -4.6530        -69.5864          2.7357
        -4.5529         93.3361         41.5718
        -4.4529          2.8052         43.5518
        -4.3528        134.7878         81.9393
        -4.2527         24.1072         51.4514
        -4.1527        -39.1454         18.9876
        -4.0526        -11.1433         25.6122
        -3.9525        -27.0314        -10.6311
        -3.8525         26.3014        -12.1557
        -3.7524         -5.8541        -13.6277
        -3.6523         25.9204        -67.3155
        -3.5523       -106.1800        -78.1370
        -3.4522        -15.5047        -68.2948
        -3.3522          2.2815        -32.7145
        -3.2521         -7.1471          2.4580
        -3.1520         31.0746        -25.0416
        -3.0520         27.6844        -13.6746
        -2.9519         -1.3133         -1.1677
        -2.8518        -21.3504         14.4433
        -2.7518        -73.7308         11.1293
        -2.6517        -30.7069         29.3198
        -2.5516        -33.6375         23.0280
        -2.4516         21.9517         10.1781
        -2.3515        -11.3046          3.8924
        -2.2514        -41.6615        -59.6211
        -2.1514        -19.2463        -41.5836
        -2.0513         -1.5083        -48.0200
        -1.9513        -11.6102        -56.1211
        -1.8512        -26.3723        -73.1673
        -1.7511        -40.4740        -55.8089
        -1.6511        -88.6797        -65.0147
        -1.5510        -68.0626        -61.9931
        -1.4509         91.7083         34.6235
        -1.3509         86.6651         52.7585
        -1.2508          6.1167         36.3279
        -1.1507         -8.4100         -0.8571
        -1.0507        -28.3474        -65.4247
        -0.9506        -89.3562       -102.4988
        -0.8505          0.2883        -46.7394
        -0.7505         -6.3217        -25.0751
        -0.6504         -7.9121         -3.0633
        -0.5504         14.1766          8.4572
        -0.4503         42.0741          5.1052
        -0.3502        -10.9019        -41.7840
        -0.2502          9.8200        -25.3667
        -0.1501        -56.7344         -6.1419
        -0.0500        -22.0257         16.1001
         0.0500         10.2228         33.6851
         0.1501        -58.8371         -0.1912
         0.2502         12.9546        -12.0691
         0.3502         13.4477         -7.9953
         0.4503        -24.6056        -31.7537
         0.5504        -13.8755         -5.9796
         0.6504         20.8825         18.1427
         0.7505         -0.9728         12.8880
         0.8505         46.7551          3.6936
         0.9506       -120.1447        -13.1513
         1.0507          2.0137        -13.7512
         1.1507         45.2102        -26.7914
         1.2508         20.7298        -53.8191
         1.3509        -21.4598        -42.2451
         1.4509        -81.9305        -16.0429
         1.5510        -19.2934          1.3090
         1.6511         21.7655         -3.7745
         1.7511        -29.6929        -17.4459
         1.8512        -96.6935         -0.5393
         1.9513        -34.5408         11.7101
         2.0513         65.3736         44.8872
         2.1514         76.8070         16.7408
         2.2514         16.5315         16.3305
         2.3515         -2.5899         23.4740
         2.4516         -6.4424         35.7760
         2.5516          0.1101         17.4708
         2.6517         47.2375         -3.2248
         2.7518         17.7373         35.0095
         2.8518          0.2120         42.9144
         2.9519          9.1156         33.3694
         3.0520         43.1020         38.1427
         3.1520        -37.2192          6.2120
         3.2521          2.8063         22.1553
         3.3522        -12.0432         13.7786
         3.4522        -13.0670         -6.3702
         3.5523         23.6891        -40.9438
         3.6524        -36.2592        -34.9394
         3.7524        -69.5723        -74.1318
         3.8525        -54.0846        -79.3609
         3.9525          4.2854        -59.6828
         4.0526        -14.3583        -61.5241
         4.1527        -58.3344        -64.6832
         4.2527        -73.7656        -39.1440
         4.3528        -98.8199        -27.4897
         4.4529         -8.3504        -33.5887
         4.5529       -106.9628        -39.9673
         4.6530       -100.5327         -0.9720
         4.7531          7.6970         33.4515
         4.8531        -94.4028         20.5032
         4.9532        -27.7856         -2.5401
