@ title  "Pressure (P) and density (D) over 101 frames"
@ xlabel "Z [nm]"
@ ylabel "P [bar] or D [kg/m^3]"
@ s0 legend "P_T"
@ s1 legend "P_N"
        -4.9498         37.5836          0.0000
        -4.8498         58.2044          0.0000
        -4.7498         53.3679          0.0000
        -4.6498        -21.4772          0.0000
        -4.5498        -48.8592          0.0000
        -4.4499        -50.8344          0.0000
        -4.3499          9.7844          0.0000
        -4.2499         59.7524          0.0000
        -4.1499        -46.7029          0.0000
        -4.0499        -11.6990          0.0000
        -3.9499         54.0963          0.0000
        -3.8499         47.6629          0.0000
        -3.7499         51.1223          0.0000
        -3.6499         -1.6005          0.0000
        -3.5499        -17.0830          0.0000
        -3.4499          0.1620          0.0000
        -3.3499         -2.5395          0.0000
        -3.2499        -75.9270          0.0000
        -3.1499        -39.2676          0.0000
        -3.0499        -71.6644          0.0000
        -2.9499         -2.7854          0.0000
        -2.8499         -9.7290          0.0000
        -2.7499        -18.9070          0.0000
        -2.6499          4.1535          0.0000
        -2.5499        -40.6970          0.0000
        -2.4499         33.3928          0.0000
        -2.3499         31.8460          0.0000
        -2.2499        -27.9439          0.0000
        -2.1499         -5.7378          0.0000
        -2.0499        -33.3354          0.0000
        -1.9499        -29.8156          0.0000
        -1.8499        -37.6844          0.0000
        -1.7499        -34.8704          0.0000
        -1.6499        -30.0361          0.0000
        -1.5499          3.7978          0.0000
        -1.4500         18.6342          0.0000
        -1.3500         50.7075          0.0000
        -1.2500        -10.7290          0.0000
        -1.1500        -59.5917          0.0000
        -1.0500         22.3555          0.0000
        -0.9500         41.6044          0.0000
        -0.8500         18.2326          0.0000
        -0.7500        -11.7041          0.0000
        -0.6500         -3.8771          0.0000
        -0.5500         22.4887          0.0000
        -0.4500          3.3598          0.0000
        -0.3500         13.4544          0.0000
        -0.2500        -48.2059          0.0000
        -0.1500        -56.3370          0.0000
        -0.0500         66.9320          0.0000
         0.0500         17.4862          0.0000
         0.1500         67.3104          0.0000
         0.2500         28.7126          0.0000
         0.3500        -43.9506          0.0000
         0.4500         20.1396          0.0000
         0.5500         69.3801          0.0000
         0.6500        -95.7008          0.0000
         0.7500         46.2508          0.0000
         0.8500         14.0533          0.0000
         0.9500         36.0170          0.0000
         1.0500         70.6434          0.0000
         1.1500        -31.3455          0.0000
         1.2500         -8.7209          0.0000
         1.3500        -78.7522          0.0000
         1.4500        -67.3944          0.0000
         1.5500        -27.8086          0.0000
         1.6499       -129.0385          0.0000
         1.7499        -34.6504          0.0000
         1.8499        -36.2672          0.0000
         1.9499          5.0314          0.0000
         2.0499         28.8178          0.0000
         2.1499          0.1547          0.0000
         2.2499         42.4449          0.0000
         2.3499        -11.3230          0.0000
         2.4499         61.0294          0.0000
         2.5499         64.1599          0.0000
         2.6499         52.3825          0.0000
         2.7499         -1.0159          0.0000
         2.8499         -4.9543          0.0000
         2.9499         10.4574          0.0000
         3.0499        -26.5563          0.0000
         3.1499         23.5306          0.0000
         3.2499        -28.3887          0.0000
         3.3499        -24.6474          0.0000
         3.4499          8.3023          0.0000
         3.5499         71.0097          0.0000
         3.6499          1.0990          0.0000
         3.7499        -11.3337          0.0000
         3.8499         37.3428          0.0000
         3.9499          9.0050          0.0000
         4.0499        -21.1803          0.0000
         4.1499       -111.3194          0.0000
         4.2499         38.0153          0.0000
         4.3499        -42.6373          0.0000
         4.4499         37.8652          0.0000
         4.5499         37.4429          0.0000
         4.6498         13.0912          0.0000
         4.7498        -20.5315          0.0000
         4.8498        -46.5383          0.0000
         4.9498         22.5054          0.0000
