@ title  "Pressure (P) and density (D) over 101 frames"
@ xlabel "Z [nm]"
@ ylabel "P [bar] or D [kg/m^3]"
@ s0 legend "P_T"
@ s1 legend "P_N"
        -4.9494        -10.6885         -9.2280
        -4.8494         32.9081        -13.7855
        -4.7494        -22.4931         18.0130
        -4.6494         -5.3706         25.8645
        -4.5494         57.7037         33.0998
        -4.4494        -32.3470         -8.0588
        -4.3495        -20.5542        -41.0893
        -4.2495        -20.4592        -30.6411
        -4.1495         30.5483         -0.2344
        -4.0495        -45.0688        -38.8220
        -3.9495        -78.9940        -38.8509
        -3.8495         26.3208        -26.0820
        -3.7495         32.6048         24.1719
        -3.6495        -24.9236         42.0384
        -3.5496         -6.4798         20.5139
        -3.4496         72.2196         62.2671
        -3.3496         14.8597         33.5733
        -3.2496         17.0650         67.2951
        -3.1496         32.4190         80.2732
        -3.0496         -9.2509         80.8400
        -2.9496         34.8661         55.3766
        -2.8496         59.8972         59.3240
        -2.7497        -30.8869         -7.1877
        -2.6497        -92.8509        -11.8610
        -2.5497         -9.6228          0.1450
        -2.4497         31.8038        -16.5330
        -2.3497          9.3041        -41.6721
        -2.2497        -19.0924        -15.3386
        -2.1497         32.9093         12.6065
        -2.0497         32.7017         -7.3655
        -1.9498         -2.3952         -5.5774
        -1.8498        -68.2153        -26.4596
        -1.7498        -10.0314        -50.1467
        -1.6498         57.2599        -21.8116
        -1.5498         36.1735        -10.1799
        -1.4498        -12.8119         19.0955
        -1.3498        -18.7805         22.6249
        -1.2498        -37.5740         50.4240
        -1.1499         17.3018         42.0022
        -1.0499         -3.2913         28.6788
        -0.9499        -44.6735         28.5379
        -0.8499        -41.2604         82.3416
        -0.7499         -3.1014         98.1461
        -0.6499         -2.1074         63.1449
        -0.5499         61.7663         11.1124
        -0.4499         28.2442          4.3714
        -0.3500         11.2548          9.0448
        -0.2500        -81.9446          4.7426
        -0.1500         42.1116         32.7887
        -0.0500         37.7984         35.5199
         0.0500        -57.9661          5.4204
         0.1500         83.9901        -21.4827
         0.2500         28.7276        -56.5055
         0.3500         31.9420        -69.8128
         0.4499         82.2515        -56.4708
         0.5499         96.0944        -65.3789
         0.6499        -20.5182         -8.4332
         0.7499        -59.5233         -3.4784
         0.8499         37.8841         -9.4472
         0.9499         39.1447         11.2780
         1.0499         60.8033         33.4523
         1.1499        -11.9427         31.1930
         1.2498        -46.7901         14.8910
         1.3498         34.5342         15.3366
         1.4498         -1.5187         18.1556
         1.5498        -42.8259        -31.2625
         1.6498        -26.6195        -59.1099
         1.7498        -44.7866        -23.3862
         1.8498         -6.4612        -45.7505
         1.9498         -7.0986        -20.0964
         2.0497         23.7181        -40.2277
         2.1497         -8.4710        -35.2699
         2.2497         64.2144        -66.8127
         2.3497         -6.6554        -54.5993
         2.4497         19.3043        -16.8181
         2.5497         23.4930          5.7521
         2.6497         -3.2680        -16.7714
         2.7497         17.7434        -28.0727
         2.8496        -49.1558         -2.2384
         2.9496          8.5791          5.9680
         3.0496        -10.9212         -2.6546
         3.1496        -50.6992        -28.9996
         3.2496        -54.7145        -19.6397
         3.3496        -37.2847        -24.8660
         3.4496        -12.9228         -9.5167
         3.5496         88.8867         15.9135
         3.6495        102.8347         17.3313
         3.7495         24.5003         -7.4999
         3.8495         93.0742         -7.2941
         3.9495         54.0900         -8.8396
         4.0495        -77.6375        -25.7780
         4.1495         18.8300        -46.9082
         4.2495         51.1805        -26.3139
         4.3495        -38.2130        -43.8118
         4.4494         23.7629        -72.2551
         4.5494        -21.0969        -52.5188
         4.6494         54.7823        -48.2071
         4.7494         56.2181         -8.2035
         4.8494         44.6039        -32.2757
         4.9494         56.6029        -36.3295
