@ title  "Pressure (P) and density (D) over 101 frames"
@ xlabel "Z [nm]"
@ ylabel "P [bar] or D [kg/m^3]"
@ s0 legend "P_T"
@ s1 legend "P_N"
        -4.9509         31.5312          0.0000
        -4.8509        -23.7616          0.0000
        -4.7508        -52.9807          0.0000
        -4.6508        -33.0707          0.0000
        -4.5508         20.6821          0.0000
        -4.4508        -25.3185          0.0000
        -4.3508        -14.0399          0.0000
        -4.2507         18.5077          0.0000
        -4.1507        -58.2925          0.0000
        -4.0507         -7.7674          0.0000
        -3.9507         25.6588          0.0000
        -3.8507        -31.9507          0.0000
        -3.7507         -0.6468          0.0000
        -3.6506         33.8492          0.0000
        -3.5506         37.8966          0.0000
        -3.4506        -36.5380          0.0000
        -3.3506          9.3334          0.0000
        -3.2506         34.2476          0.0000
        -3.1506          1.9511          0.0000
        -3.0505         62.4514          0.0000
        -2.9505         70.7707          0.0000
        -2.8505        -24.2439          0.0000
        -2.7505          7.0104          0.0000
        -2.6505        -15.5662          0.0000
        -2.5504          9.8901          0.0000
        -2.4504        -20.6574          0.0000
        -2.3504        -23.9583          0.0000
        -2.2504        -65.1989          0.0000
        -2.1504         28.8885          0.0000
        -2.0504        -90.9708          0.0000
        -1.9503        -10.6416          0.0000
        -1.8503        -31.9392          0.0000
        -1.7503         19.3174          0.0000
        -1.6503        -35.1520          0.0000
        -1.5503        -70.3958          0.0000
        -1.4503        -43.2560          0.0000
        -1.3502         12.6132          0.0000
        -1.2502        -13.7603          0.0000
        -1.1502        -63.0242          0.0000
        -1.0502        -66.4360          0.0000
        -0.9502        -15.7000          0.0000
        -0.8501         -9.9268          0.0000
        -0.7501         12.5145          0.0000
        -0.6501          6.2800          0.0000
        -0.5501         -6.1468          0.0000
        -0.4501         -3.6148          0.0000
        -0.3501         -0.5520          0.0000
        -0.2500         27.7404          0.0000
        -0.1500         56.3799          0.0000
        -0.0500        -20.5485          0.0000
         0.0500         71.6970          0.0000
         0.1500         62.2832          0.0000
         0.2500         22.4543          0.0000
         0.3501        -14.5496          0.0000
         0.4501         -3.0205          0.0000
         0.5501         23.5309          0.0000
         0.6501         56.1618          0.0000
         0.7501         51.3132          0.0000
         0.8502         49.9609          0.0000
         0.9502         14.2415          0.0000
         1.0502         -1.8986          0.0000
         1.1502         13.4263          0.0000
         1.2502        -95.5651          0.0000
         1.3502         10.6462          0.0000
         1.4503        -37.2385          0.0000
         1.5503        -44.5521          0.0000
         1.6503        -26.2634          0.0000
         1.7503         27.3572          0.0000
         1.8503         32.4673          0.0000
         1.9503         48.6534          0.0000
         2.0504        -45.5363          0.0000
         2.1504         10.1707          0.0000
         2.2504       -104.6979          0.0000
         2.3504         16.8218          0.0000
         2.4504         57.5362          0.0000
         2.5505         10.0284          0.0000
         2.6505        -31.1110          0.0000
         2.7505         83.9241          0.0000
         2.8505         34.5353          0.0000
         2.9505          4.3601          0.0000
         3.0505         37.5101          0.0000
         3.1506        -72.1315          0.0000
         3.2506        -80.4401          0.0000
         3.3506        -50.4526          0.0000
         3.4506        -30.9331          0.0000
         3.5506         -9.2536          0.0000
         3.6506         53.1975          0.0000
         3.7507         11.8421          0.0000
         3.8507         21.8733          0.0000
         3.9507         54.0221          0.0000
         4.0507         50.0489          0.0000
         4.1507        -49.7818          0.0000
         4.2508        -13.7427          0.0000
         4.3508         16.3352          0.0000
         4.4508         28.3698          0.0000
         4.5508        -18.5935          0.0000
         4.6508         18.8060          0.0000
         4.7508        -11.2888          0.0000
         4.8509         42.7241          0.0000
         4.9509        -27.8543          0.0000
