@ title  "Pressure (P) and density (D) over 101 frames"
@ xlabel "Z [nm]"
@ ylabel "P [bar] or D [kg/m^3]"
@ s0 legend "P_T"
@ s1 legend "P_N"
        -4.9512         16.1946          0.0000
        -4.8512         43.2893          0.0000
        -4.7511        -13.5841          0.0000
        -4.6511        -97.8644          0.0000
        -4.5511        -56.5175          0.0000
        -4.4511       -103.2841          0.0000
        -4.3510        -40.8088          0.0000
        -4.2510         -5.2730          0.0000
        -4.1510         10.3599          0.0000
        -4.0510          3.5885          0.0000
        -3.9509         24.4029          0.0000
        -3.8509         70.9279          0.0000
        -3.7509         83.8775          0.0000
        -3.6509         -8.9461          0.0000
        -3.5508         25.3460          0.0000
        -3.4508        -42.5110          0.0000
        -3.3508        -18.8353          0.0000
        -3.2508         57.6160          0.0000
        -3.1508          8.9391          0.0000
        -3.0507         18.5543          0.0000
        -2.9507        -16.5548          0.0000
        -2.8507        -28.7782          0.0000
        -2.7507        -79.6554          0.0000
        -2.6506        -40.1099          0.0000
        -2.5506         59.2348          0.0000
        -2.4506         65.8274          0.0000
        -2.3506         27.6318          0.0000
        -2.2505         41.0993          0.0000
        -2.1505         58.5405          0.0000
        -2.0505         -1.1258          0.0000
        -1.9505        -44.5337          0.0000
        -1.8504        -43.6162          0.0000
        -1.7504        -10.7600          0.0000
        -1.6504         11.0212          0.0000
        -1.5504        -30.1184          0.0000
        -1.4503        -80.4038          0.0000
        -1.3503         -0.4369          0.0000
        -1.2503        -12.8436          0.0000
        -1.1503        -47.9895          0.0000
        -1.0503        -17.9195          0.0000
        -0.9502        -19.5765          0.0000
        -0.8502          9.4477          0.0000
        -0.7502         -7.4074          0.0000
        -0.6502        -37.0112          0.0000
        -0.5501        -21.0757          0.0000
        -0.4501         39.4613          0.0000
        -0.3501         22.2077          0.0000
        -0.2501          3.3225          0.0000
        -0.1500        -15.8302          0.0000
        -0.0500         26.3647          0.0000
         0.0500         63.0413          0.0000
         0.1500        -45.7752          0.0000
         0.2501        -20.4730          0.0000
         0.3501         31.7666          0.0000
         0.4501        -33.8824          0.0000
         0.5501        -93.9089          0.0000
         0.6502        -37.4168          0.0000
         0.7502        -56.3976          0.0000
         0.8502         -3.8603          0.0000
         0.9502         61.2781          0.0000
         1.0503         24.8611          0.0000
         1.1503         47.7157          0.0000
         1.2503        -56.6038          0.0000
         1.3503         22.7259          0.0000
         1.4503         45.0340          0.0000
         1.5504         90.0298          0.0000
         1.6504         58.9173          0.0000
         1.7504         66.2353          0.0000
         1.8504         -0.4016          0.0000
         1.9505         51.6800          0.0000
         2.0505         68.2561          0.0000
         2.1505         16.5430          0.0000
         2.2505         30.0971          0.0000
         2.3506        -72.7601          0.0000
         2.4506        -86.3740          0.0000
         2.5506        -60.2336          0.0000
         2.6506         17.6242          0.0000
         2.7507         16.7814          0.0000
         2.8507        -33.4746          0.0000
         2.9507        -40.7849          0.0000
         3.0507         71.8329          0.0000
         3.1508         24.2543          0.0000
         3.2508         49.0743          0.0000
         3.3508        -21.8378          0.0000
         3.4508         72.9124          0.0000
         3.5509        -38.2238          0.0000
         3.6509         59.3397          0.0000
         3.7509         31.0379          0.0000
         3.8509         26.1834          0.0000
         3.9509        -30.2026          0.0000
         4.0510        -11.0578          0.0000
         4.1510        -37.7855          0.0000
         4.2510        -37.6050          0.0000
         4.3510       -116.0407          0.0000
         4.4511         14.0107          0.0000
         4.5511        -34.6034          0.0000
         4.6511         16.5358          0.0000
         4.7511        -75.9097          0.0000
         4.8512          3.4590          0.0000
         4.9512        -41.0481          0.0000
