@ title  "Pressure (P) and density (D) over 101 frames"
@ xlabel "Z [nm]"
@ ylabel "P [bar] or D [kg/m^3]"
@ s0 legend "P_T"
@ s1 legend "P_N"
        -4.9522        -23.7416        -13.4000
        -4.8521         -5.5253        -23.9085
        -4.7521        -25.9160        -25.6072
        -4.6520        -31.8661        -34.5907
        -4.5520        -41.9355        -33.9646
        -4.4520        -25.1390        -23.8331
        -4.3519         44.1585        -10.4647
        -4.2519        -76.1899        -30.9924
        -4.1518        -46.2042        -36.4120
        -4.0518       -105.0052        -35.5403
        -3.9517       -115.2075        -57.6873
        -3.8517        -34.0961        -67.6083
        -3.7516        -20.5299        -70.3661
        -3.6516         27.1561        -45.8803
        -3.5516         32.0000        -25.7051
        -3.4515          7.1953         -9.7150
        -3.3515         50.8382        -26.1868
        -3.2514        112.5686        -41.9319
        -3.1514        -21.7149        -32.5148
        -3.0513       -115.9370        -49.6667
        -2.9513         12.5979        -39.9722
        -2.8513        -25.3308        -49.8274
        -2.7512         78.7404         -1.4969
        -2.6512         76.0373         34.0148
        -2.5511         99.1480         37.5640
        -2.4511        113.1923         61.9766
        -2.3510         22.0385         -3.0454
        -2.2510        112.2360          6.8581
        -2.1509         75.8316          1.1800
        -2.0509         28.9541        -11.1747
        -1.9509        -39.4014          7.7019
        -1.8508         53.4269        -20.1648
        -1.7508          2.0646         -7.1505
        -1.6507         21.4715         -2.1322
        -1.5507         35.7976         -9.6077
        -1.4506          8.6238         -8.1902
        -1.3506         83.0532         21.3635
        -1.2505         60.7753          7.8388
        -1.1505         -5.9015         15.0755
        -1.0505        -61.6325        -13.8415
        -0.9504         -4.2366         -8.8052
        -0.8504         45.4831        -13.8597
        -0.7503          3.8394        -31.8762
        -0.6503        -16.9670        -32.5222
        -0.5502        -15.2251         -9.8313
        -0.4502         50.1214          2.4488
        -0.3502         -9.3028         -4.2693
        -0.2501         33.7619          9.3121
        -0.1501         29.1495        -14.3084
        -0.0500        -69.2958        -34.2255
         0.0500         -4.6862        -17.4641
         0.1501        -31.9633        -12.7126
         0.2501        -59.2801        -68.9775
         0.3502         -2.6125        -14.6637
         0.4502        -43.5253         -4.6772
         0.5502        -48.8500         -5.0989
         0.6503         39.1290         37.4646
         0.7503        108.2014         67.9650
         0.8504         13.5208          4.7623
         0.9504        -77.0145        -18.6228
         1.0505         -2.4610         41.3652
         1.1505        -19.8721         16.6774
         1.2505        -60.4328         -8.4465
         1.3506         80.9980         -5.1281
         1.4506         39.0251         -0.4338
         1.5507         40.3176        -13.2367
         1.6507        -18.2085        -28.7011
         1.7508        -31.0412        -24.8283
         1.8508         -6.0690        -10.2017
         1.9509        -45.3041         20.9293
         2.0509         23.7127         35.9324
         2.1509        -51.0938         67.2315
         2.2510        -55.0819         42.1575
         2.3510         15.6340         18.3435
         2.4511         23.9669         -5.9717
         2.5511        -78.6279         -0.0446
         2.6512         24.6371         14.7036
         2.7512         86.8238          5.8112
         2.8513         14.9551          0.9457
         2.9513        -27.9891        -23.1580
         3.0513          4.7826        -29.1286
         3.1514         60.3237        -24.5401
         3.2514         91.2681        -16.0612
         3.3515        -48.6312        -45.9223
         3.4515        -54.0720        -49.4500
         3.5516        -19.5996        -56.6138
         3.6516        -83.3649        -56.5738
         3.7516         -2.8065        -46.4029
         3.8517          0.0719        -13.4685
         3.9517        -31.8313          4.0085
         4.0518        -27.7146        -23.0100
         4.1518        -12.5632          8.4331
         4.2519         24.5274        -12.7502
         4.3519         86.8169          5.4613
         4.4520          1.1758        -28.8667
         4.5520        -15.7742        -42.8572
         4.6520       -122.4080        -77.0700
         4.7521        -31.3240        -37.6666
         4.8521        -63.0166        -22.6308
         4.9522        -31.4365        -22.6254
