@ title  "Pressure (P) and density (D) over 101 frames"
@ xlabel "Z [nm]"
@ ylabel "P [bar] or D [kg/m^3]"
@ s0 legend "P_T"
@ s1 legend "P_N"
        -4.9513         52.0032        -37.8837
        -4.8513        -43.8172        -42.5020
        -4.7513        -23.6610        -18.2018
        -4.6512        -60.8364         11.9310
        -4.5512         91.0682         13.2972
        -4.4512         45.1040         -8.5279
        -4.3512          1.1138        -31.7761
        -4.2511        -29.8252        -55.5094
        -4.1511         -3.3362        -13.0515
        -4.0511         43.5656        -45.7668
        -3.9511         76.6912        -17.1899
        -3.8510         16.6951         14.7307
        -3.7510        -18.1004         24.0909
        -3.6510         25.6763         10.9736
        -3.5510          1.3713        -29.6203
        -3.4509        -32.1756        -54.9798
        -3.3509        -21.1540        -47.3567
        -3.2509        -62.8359          0.4666
        -3.1508        -19.4126         25.6409
        -3.0508        -14.8602         13.6289
        -2.9508          4.9523         -6.0528
        -2.8508        -31.4702        -31.2034
        -2.7507         -8.4834         -9.1209
        -2.6507         33.9606         -4.3383
        -2.5507         70.0379         51.7883
        -2.4507         73.4184         29.0956
        -2.3506         -8.0926        -13.6029
        -2.2506        -26.6327        -48.8728
        -2.1506        -78.8469        -55.4409
        -2.0505        -94.5246        -57.5453
        -1.9505         46.9327        -33.3142
        -1.8505         31.8232        -24.7277
        -1.7505         -3.1682        -46.1588
        -1.6504         56.3608        -18.3903
        -1.5504         23.0010        -24.8376
        -1.4504        -14.8560        -43.7734
        -1.3504         -8.8017         -1.7813
        -1.2503         -2.9004         31.9054
        -1.1503         47.0772          8.3381
        -1.0503         54.5742         -5.1329
        -0.9503         58.5081         26.8901
        -0.8502         -4.7016          9.0222
        -0.7502         29.4031        -11.0335
        -0.6502        -32.6858         13.2021
        -0.5501        -29.6681         16.8712
        -0.4501         61.6345         12.6230
        -0.3501         16.6335         25.8638
        -0.2501         24.1003         23.5126
        -0.1500         19.2353         26.2427
        -0.0500         -9.7956         10.9434
         0.0500        -44.6487         -3.3796
         0.1500         43.3367          7.5089
         0.2501         38.9830         31.2038
         0.3501         28.3136         12.5659
         0.4501         -4.7165          3.2214
         0.5501         37.2611        -23.3249
         0.6502         24.2608        -39.3857
         0.7502         58.6607         -2.4394
         0.8502         63.4035         -0.8663
         0.9503        -58.8945         24.0981
         1.0503         -5.6060         65.4345
         1.1503         28.6702         49.9729
         1.2503         95.6818         48.6827
         1.3504         69.9006         30.0406
         1.4504         54.6535         34.5814
         1.5504         29.5617         25.2756
         1.6504          5.1315         39.0907
         1.7505         48.6552         66.0659
         1.8505         63.1855         76.1408
         1.9505        -53.2669         29.7741
         2.0506        -46.0360         30.9427
         2.1506         41.4484         71.2153
         2.2506        -57.5007         53.1768
         2.3506          0.0814         16.3044
         2.4507        -11.5010          9.7017
         2.5507        -19.4532          2.7970
         2.6507        -44.0109        -17.1476
         2.7507          8.7131         -6.8547
         2.8508         25.6370         -3.7597
         2.9508         60.0504         28.3127
         3.0508         31.9833          5.9597
         3.1508         56.6272         -8.2222
         3.2509        -36.3831        -19.7847
         3.3509        -18.0410        -51.3707
         3.4509        -26.2276        -92.8866
         3.5510       -105.8994        -94.8988
         3.6510         -7.4858        -63.4146
         3.7510         96.6677        -17.5919
         3.8510         43.1328        -41.7949
         3.9511       -111.4601        -56.8501
         4.0511         -0.5541        -64.0924
         4.1511        -17.0297        -62.0051
         4.2511        -11.0212        -25.7862
         4.3512        -63.9755        -18.0385
         4.4512        -68.0683          9.2641
         4.5512        -16.7700          3.8851
         4.6513        -34.1043         19.2331
         4.7513         49.8044         30.7181
         4.8513        -88.8605        -29.1428
         4.9513        -17.0104        -51.6631
