@ title  "Pressure (P) and density (D) over 101 frames"
@ xlabel "Z [nm]"
@ ylabel "P [bar] or D [kg/m^3]"
@ s0 legend "P_T"
@ s1 legend "P_N"
        -4.9504        -15.0401         16.1415
        -4.8503         -3.1453        -17.0172
        -4.7503         55.1535        -18.7371
        -4.6503         30.1261          7.8163
        -4.5503         44.0783          3.0841
        -4.4503        -24.6342         14.3298
        -4.3503         65.0685         24.0406
        -4.2503         58.2666         52.2537
        -4.1503         19.8910         48.2114
        -4.0503          8.3181         -5.7869
        -3.9503         39.3673        -26.9160
        -3.8503         66.6578        -15.1977
        -3.7503        113.4092        -16.2037
        -3.6503        -38.5119        -10.6088
        -3.5503         17.5648        -19.2287
        -3.4502         84.2736         20.9219
        -3.3502        -11.9329         21.6362
        -3.2502         -2.6503         11.2246
        -3.1502        -35.8871          5.6826
        -3.0502         11.2313         16.9229
        -2.9502        -38.9917          1.7533
        -2.8502        -11.2005        -19.9171
        -2.7502        -19.4654         -9.1284
        -2.6502         18.9214        -22.5093
        -2.5502         46.1847        -10.7947
        -2.4502        -43.0883        -23.0113
        -2.3502         -7.2973        -24.3698
        -2.2502        -84.0633        -24.6360
        -2.1502        -34.7433        -17.6492
        -2.0501         45.7876         25.2106
        -1.9501        109.0753         60.2767
        -1.8501         22.3608         39.3502
        -1.7501        -70.7707         21.7782
        -1.6501         20.1813         30.9298
        -1.5501        -62.0970        -17.7913
        -1.4501         -7.7231        -21.6105
        -1.3501        -44.6599        -37.2023
        -1.2501        -28.9940        -10.9617
        -1.1501        -43.5478          1.5821
        -1.0501         29.0479         -7.9239
        -0.9501         69.4462         17.2886
        -0.8501        -10.2025         53.6859
        -0.7501         -9.6348         65.6805
        -0.6500          7.9075         51.6852
        -0.5500         22.4173          7.1630
        -0.4500        -41.1890        -21.8854
        -0.3500         30.3276          1.0191
        -0.2500        -26.7682        -24.3959
        -0.1500         10.8412        -13.4949
        -0.0500         47.2385        -31.1119
         0.0500        -38.5669        -48.4685
         0.1500         21.7604        -62.7511
         0.2500         10.1268        -58.4359
         0.3500        -24.6335        -40.5169
         0.4500         24.1302        -75.3101
         0.5500        -59.0420        -63.1045
         0.6500        -11.8896        -52.0388
         0.7501         23.1682        -35.1495
         0.8501        -23.5817        -52.5782
         0.9501         12.7357        -66.5603
         1.0501        -25.7897        -53.6056
         1.1501       -102.1996        -55.6758
         1.2501        -56.6350        -60.4410
         1.3501         33.5721        -30.1519
         1.4501         13.5185        -23.9657
         1.5501        -22.5928        -43.3160
         1.6501        -12.4483        -80.2735
         1.7501        -71.1798        -50.7762
         1.8501        -48.2505        -70.3426
         1.9501        -68.9217        -90.3379
         2.0501        -62.4098        -60.7875
         2.1502        -44.6438        -25.5334
         2.2502        -23.2783        -20.2088
         2.3502         70.6952         -5.8343
         2.4502         50.7150         13.4081
         2.5502          3.7696          0.6949
         2.6502        -12.7667        -23.6240
         2.7502        -37.4973        -31.8893
         2.8502        -51.6333        -24.0007
         2.9502        -36.9606        -42.8876
         3.0502         -8.1053        -37.0976
         3.1502        -35.4590        -32.9189
         3.2502        -59.0733        -66.6169
         3.3502        -75.3622        -59.6807
         3.4502        -38.5929        -45.8594
         3.5503        -57.3649        -33.4406
         3.6503         58.9172         -3.4959
         3.7503        -24.6758         28.0649
         3.8503         22.0856         36.6021
         3.9503         30.4830          4.9819
         4.0503         -9.5152         -0.2140
         4.1503        -48.3069         -3.6177
         4.2503        -12.2324        -30.7403
         4.3503         -3.1213          3.1607
         4.4503        -61.4780         29.9001
         4.5503         -9.4774         10.4843
         4.6503        -14.8710         37.7923
         4.7503         61.3009          2.2827
         4.8503         -5.3533         12.8713
         4.9504        -50.5943         -0.8229
