@ title  "Pressure (P) and density (D) over 101 frames"
@ xlabel "Z [nm]"
@ ylabel "P [bar] or D [kg/m^3]"
@ s0 legend "P_T"
@ s1 legend "P_N"
        -4.9525        -13.8678         37.1268
        -4.8525         58.5783         36.4797
        -4.7524        108.9241         13.3677
        -4.6524         77.2856         15.0345
        -4.5523          3.9404          9.6969
        -4.4523        -65.2599        -15.7060
        -4.3522        -82.0180        -60.3914
        -4.2522         -0.8638        -39.9163
        -4.1521         16.4241        -22.5402
        -4.0521         -0.1661         20.2153
        -3.9520          0.7960         -0.1004
        -3.8520          1.5350         12.1541
        -3.7519        -42.2729        -25.2963
        -3.6519         -6.7553        -21.7563
        -3.5518        -28.6044         14.0293
        -3.4518        -65.3856         21.9599
        -3.3517        -62.7850          5.3100
        -3.2517          5.9538         44.0035
        -3.1516         71.1108         29.0940
        -3.0516        -59.1097         46.5541
        -2.9515         38.2124         58.4841
        -2.8515        -13.5033         19.1977
        -2.7514        -48.4247        -27.5590
        -2.6514        -87.1735        -25.1712
        -2.5513        -29.5274        -24.0787
        -2.4513          7.7108         35.2790
        -2.3512          9.1311         34.6387
        -2.2512         36.5780         62.1393
        -2.1511          0.8094          2.0379
        -2.0511          4.8335        -18.5055
        -1.9510        -21.8968        -42.1989
        -1.8510         90.2616        -43.1104
        -1.7509         40.1138        -21.0767
        -1.6508         72.7828        -27.9021
        -1.5508        -16.5277        -30.5342
        -1.4507        111.6033          2.3709
        -1.3507        -14.7154          2.5590
        -1.2506        -63.1570          7.3208
        -1.1506        -17.6078         18.5930
        -1.0505         65.8540          7.6618
        -0.9505        -23.6501         15.8932
        -0.8504         69.3953          0.7963
        -0.7504         26.1579        -30.2593
        -0.6503         36.5580         10.5837
        -0.5503        110.7032         21.5098
        -0.4502        -25.4927         16.6587
        -0.3502        -30.9688          5.2777
        -0.2501        -31.8891         -7.1206
        -0.1501        -27.0610        -16.1451
        -0.0500         22.2880        -21.2951
         0.0500         42.0636        -12.4521
         0.1501         32.5860         10.3959
         0.2501         38.8634         34.9959
         0.3502        -38.4845        -18.1975
         0.4502        -66.7329        -73.4146
         0.5503        -77.4323        -49.3016
         0.6503        -14.2710        -56.6409
         0.7504         -9.3231        -28.4784
         0.8504         -6.5250        -20.2430
         0.9505         -5.9616        -27.7196
         1.0505         28.5526        -22.9804
         1.1506        -22.1404          2.4839
         1.2506       -100.9620        -21.7020
         1.3507        110.4052         28.1121
         1.4507        -26.4515         37.2372
         1.5508         23.4352         33.0084
         1.6508        -11.1753         46.1913
         1.7509         33.2138         53.0699
         1.8510         46.4686         -5.9856
         1.9510        -51.8145         33.4399
         2.0511         -6.0246         27.7852
         2.1511         11.7480         20.9713
         2.2512        -65.4771         -5.9805
         2.3512        -37.1839        -43.9068
         2.4513        -40.4495        -51.3873
         2.5513         78.5365          1.1296
         2.6514        112.0481         12.6828
         2.7514         45.9674         16.6018
         2.8515          1.2229        -25.3647
         2.9515        -32.4586         -6.9874
         3.0516        -48.9699        -37.5993
         3.1516        -10.9272        -52.1543
         3.2517        -90.2141        -51.6473
         3.3517         -8.4493         -7.9950
         3.4518        -45.6420         13.3900
         3.5518        -67.4707         38.0409
         3.6519         55.8706         54.3345
         3.7519        -42.3252         49.1066
         3.8520         -5.5286         11.6012
         3.9520        -75.1378        -33.3248
         4.0521         29.2990        -72.6170
         4.1521         -2.4863        -44.3340
         4.2522        -60.9091        -50.4200
         4.3522         35.0423        -40.2701
         4.4523         29.1711         -8.0711
         4.5523         11.2558         -2.4329
         4.6524         26.6326         30.4060
         4.7524        -13.7982         66.3110
         4.8525          5.5276         60.7355
         4.9525          7.7877         61.6961
