@ title  "Pressure (P) and density (D) over 101 frames"
@ xlabel "Z [nm]"
@ ylabel "P [bar] or D [kg/m^3]"
@ s0 legend "P_T"
@ s1 legend "P_N"
        -4.9524         12.8873          0.0000
        -4.8523        -67.2111          0.0000
        -4.7523         22.7621          0.0000
        -4.6522        -58.8859          0.0000
        -4.5522        -68.7557          0.0000
        -4.4521          1.6983          0.0000
        -4.3521          0.4280          0.0000
        -4.2521          5.0132          0.0000
        -4.1520        -17.2780          0.0000
        -4.0520         18.9274          0.0000
        -3.9519        -25.4066          0.0000
        -3.8519        -12.1192          0.0000
        -3.7518         43.4466          0.0000
        -3.6518        -33.8867          0.0000
        -3.5517         -5.2625          0.0000
        -3.4517         19.6790          0.0000
        -3.3516        -37.8687          0.0000
        -3.2516        -16.8123          0.0000
        -3.1515          5.5770          0.0000
        -3.0515         42.7854          0.0000
        -2.9514        -21.5413          0.0000
        -2.8514       -128.4123          0.0000
        -2.7513         -2.6310          0.0000
        -2.6513        -53.7396          0.0000
        -2.5512        -25.8755          0.0000
        -2.4512        -60.2601          0.0000
        -2.3511          3.2130          0.0000
        -2.2511         22.8756          0.0000
        -2.1510          3.0204          0.0000
        -2.0510         48.3392          0.0000
        -1.9509        -21.2860          0.0000
        -1.8509         30.3029          0.0000
        -1.7508        -33.2958          0.0000
        -1.6508         11.0142          0.0000
        -1.5507          2.5845          0.0000
        -1.4507        -49.5520          0.0000
        -1.3507         -6.6374          0.0000
        -1.2506        -24.0051          0.0000
        -1.1506         10.9053          0.0000
        -1.0505         73.5794          0.0000
        -0.9505        -57.9660          0.0000
        -0.8504         18.9698          0.0000
        -0.7504        -71.2076          0.0000
        -0.6503          6.5206          0.0000
        -0.5503        -15.1578          0.0000
        -0.4502        -24.8372          0.0000
        -0.3502        -44.2200          0.0000
        -0.2501        -37.8274          0.0000
        -0.1501         68.5213          0.0000
        -0.0500         38.8380          0.0000
         0.0500         11.3147          0.0000
         0.1501        -21.6793          0.0000
         0.2501        -48.5521          0.0000
         0.3502        -21.0675          0.0000
         0.4502         78.3687          0.0000
         0.5503         44.1298          0.0000
         0.6503        -50.7992          0.0000
         0.7504        -38.4391          0.0000
         0.8504        -85.0833          0.0000
         0.9505         26.9081          0.0000
         1.0505        -54.4932          0.0000
         1.1506        -36.9157          0.0000
         1.2506        -96.2108          0.0000
         1.3507        -53.8224          0.0000
         1.4507         27.5555          0.0000
         1.5508          5.3866          0.0000
         1.6508         45.1430          0.0000
         1.7508        -69.3676          0.0000
         1.8509        -16.5849          0.0000
         1.9509          1.5167          0.0000
         2.0510         66.8756          0.0000
         2.1510         -0.4268          0.0000
         2.2511         19.0991          0.0000
         2.3511         36.6991          0.0000
         2.4512         56.9776          0.0000
         2.5512        -46.9539          0.0000
         2.6513         21.8966          0.0000
         2.7513         15.6246          0.0000
         2.8514        -29.2994          0.0000
         2.9514         13.2887          0.0000
         3.0515        -86.6809          0.0000
         3.1515        -64.2889          0.0000
         3.2516        -15.9606          0.0000
         3.3516        -42.2494          0.0000
         3.4517        -17.5715          0.0000
         3.5517         29.4424          0.0000
         3.6518         43.9441          0.0000
         3.7518        -19.0415          0.0000
         3.8519        -53.3765          0.0000
         3.9519        114.9096          0.0000
         4.0520        -15.0862          0.0000
         4.1520        -35.2500          0.0000
         4.2521         41.1441          0.0000
         4.3521       -101.9651          0.0000
         4.4522        -41.5515          0.0000
         4.5522        -10.9633          0.0000
         4.6522         78.6999          0.0000
         4.7523        -50.6172          0.0000
         4.8523          2.9223          0.0000
         4.9524          0.3519          0.0000
