@ title  "Pressure (P) and density (D) over 101 frames"
@ xlabel "Z [nm]"
@ ylabel "P [bar] or D [kg/m^3]"
@ s0 legend "P_T"
@ s1 legend "P_N"
        -4.9502         -2.9285          0.0000
        -4.8502        -24.8218          0.0000
        -4.7502         -3.6306          0.0000
        -4.6502         -4.2828          0.0000
        -4.5502        -20.6056          0.0000
        -4.4502        -36.4926          0.0000
        -4.3502         28.4499          0.0000
        -4.2502        -28.4948          0.0000
        -4.1502         53.0716          0.0000
        -4.0502        -54.3229          0.0000
        -3.9502        -36.1093          0.0000
        -3.8502        -15.8284          0.0000
        -3.7502         45.6205          0.0000
        -3.6502         12.1565          0.0000
        -3.5502          8.7628          0.0000
        -3.4502         21.2932          0.0000
        -3.3502         41.4181          0.0000
        -3.2501         -4.2330          0.0000
        -3.1501         99.4503          0.0000
        -3.0501         45.4240          0.0000
        -2.9501         -6.7765          0.0000
        -2.8501        -58.5634          0.0000
        -2.7501         -8.8445          0.0000
        -2.6501          2.4574          0.0000
        -2.5501         58.3726          0.0000
        -2.4501         -2.0356          0.0000
        -2.3501         -5.6085          0.0000
        -2.2501         -9.7300          0.0000
        -2.1501        -72.5179          0.0000
        -2.0501         52.0749          0.0000
        -1.9501        -17.1899          0.0000
        -1.8501          3.4849          0.0000
        -1.7501         56.4165          0.0000
        -1.6501         16.5203          0.0000
        -1.5501        -69.6329          0.0000
        -1.4501        -63.8689          0.0000
        -1.3501        -44.9701          0.0000
        -1.2501        -22.3562          0.0000
        -1.1501        -69.6253          0.0000
        -1.0500        -31.1531          0.0000
        -0.9500         19.5681          0.0000
        -0.8500        -46.0318          0.0000
        -0.7500         -8.5534          0.0000
        -0.6500        -47.5238          0.0000
        -0.5500       -104.4673          0.0000
        -0.4500         -6.9944          0.0000
        -0.3500        -56.7338          0.0000
        -0.2500          6.9338          0.0000
        -0.1500        -43.3503          0.0000
        -0.0500         72.9672          0.0000
         0.0500        -21.8278          0.0000
         0.1500         -2.2260          0.0000
         0.2500         18.6473          0.0000
         0.3500         29.3829          0.0000
         0.4500         58.4988          0.0000
         0.5500        -74.5323          0.0000
         0.6500         15.9715          0.0000
         0.7500         11.8991          0.0000
         0.8500         -2.3957          0.0000
         0.9500        -90.2667          0.0000
         1.0500         10.2687          0.0000
         1.1501         -9.2698          0.0000
         1.2501        -54.2558          0.0000
         1.3501         66.1322          0.0000
         1.4501        -28.0960          0.0000
         1.5501        -18.6809          0.0000
         1.6501         13.7316          0.0000
         1.7501        -11.6927          0.0000
         1.8501        -60.5090          0.0000
         1.9501         15.3506          0.0000
         2.0501         37.7388          0.0000
         2.1501         18.5249          0.0000
         2.2501         23.3534          0.0000
         2.3501         51.7614          0.0000
         2.4501        -19.0658          0.0000
         2.5501         54.3726          0.0000
         2.6501        -27.4654          0.0000
         2.7501         73.9047          0.0000
         2.8501          7.6648          0.0000
         2.9501         83.3768          0.0000
         3.0501        -33.5574          0.0000
         3.1501        -65.7072          0.0000
         3.2501         25.6370          0.0000
         3.3502         17.8820          0.0000
         3.4502         88.5768          0.0000
         3.5502        -51.9069          0.0000
         3.6502        -38.7078          0.0000
         3.7502        -43.8430          0.0000
         3.8502         36.9348          0.0000
         3.9502         24.2812          0.0000
         4.0502         54.8741          0.0000
         4.1502         48.9679          0.0000
         4.2502        -24.6659          0.0000
         4.3502         34.5606          0.0000
         4.4502         10.7256          0.0000
         4.5502         57.1618          0.0000
         4.6502         23.1117          0.0000
         4.7502         17.0366          0.0000
         4.8502         83.8553          0.0000
         4.9502        -34.5423          0.0000
