@ title  "Pressure (P) and density (D) over 101 frames"
@ xlabel "Z [nm]"
@ ylabel "P [bar] or D [kg/m^3]"
@ s0 legend "P_T"
@ s1 legend "P_N"
        -4.9494          3.8150          0.0000
        -4.8494         41.2774          0.0000
        -4.7494        -49.7025          0.0000
        -4.6494         28.8698          0.0000
        -4.5494         -0.0857          0.0000
        -4.4494          4.7351          0.0000
        -4.3495         33.1570          0.0000
        -4.2495        -77.8094          0.0000
        -4.1495         26.1468          0.0000
        -4.0495        -19.4041          0.0000
        -3.9495        -70.0371          0.0000
        -3.8495         -8.3548          0.0000
        -3.7495         10.2573          0.0000
        -3.6495         11.9968          0.0000
        -3.5496         29.6506          0.0000
        -3.4496         36.2222          0.0000
        -3.3496         45.5694          0.0000
        -3.2496        -27.2436          0.0000
        -3.1496         43.0881          0.0000
        -3.0496         31.0410          0.0000
        -2.9496        -27.5609          0.0000
        -2.8496         49.0149          0.0000
        -2.7497        -47.1760          0.0000
        -2.6497        -10.5143          0.0000
        -2.5497         -8.1455          0.0000
        -2.4497        -29.6385          0.0000
        -2.3497         30.5566          0.0000
        -2.2497        -25.2427          0.0000
        -2.1497         30.7944          0.0000
        -2.0497         76.3740          0.0000
        -1.9498        -42.1607          0.0000
        -1.8498        -39.3991          0.0000
        -1.7498         -2.8604          0.0000
        -1.6498         53.2202          0.0000
        -1.5498         13.1879          0.0000
        -1.4498        -20.7819          0.0000
        -1.3498        -13.7337          0.0000
        -1.2498        -30.0624          0.0000
        -1.1499        -29.2709          0.0000
        -1.0499         22.9500          0.0000
        -0.9499         -9.9733          0.0000
        -0.8499        -83.0990          0.0000
        -0.7499         15.9210          0.0000
        -0.6499        -23.1973          0.0000
        -0.5499         77.2006          0.0000
        -0.4499         24.7217          0.0000
        -0.3500         26.2059          0.0000
        -0.2500        -49.9426          0.0000
        -0.1500         36.8711          0.0000
        -0.0500         -8.3274          0.0000
         0.0500        -50.6693          0.0000
         0.1500        115.5756          0.0000
         0.2500         -6.7602          0.0000
         0.3500         39.2651          0.0000
         0.4499         78.8016          0.0000
         0.5499        116.4480          0.0000
         0.6499         -8.8043          0.0000
         0.7499        -62.7748          0.0000
         0.8499         27.0212          0.0000
         0.9499         67.8129          0.0000
         1.0499          2.1890          0.0000
         1.1499         11.3843          0.0000
         1.2498        -34.7570          0.0000
         1.3498         19.7705          0.0000
         1.4498        -19.6411          0.0000
         1.5498        -33.5552          0.0000
         1.6498         32.3051          0.0000
         1.7498        -59.9321          0.0000
         1.8498        -32.8636          0.0000
         1.9498        -11.9913          0.0000
         2.0497         19.8055          0.0000
         2.1497        -27.2710          0.0000
         2.2497         75.4537          0.0000
         2.3497         20.1876          0.0000
         2.4497          1.2548          0.0000
         2.5497         24.8109          0.0000
         2.6497         -7.2652          0.0000
         2.7497         30.6247          0.0000
         2.8496        -37.5381          0.0000
         2.9496        -48.8547          0.0000
         3.0496         -1.7932          0.0000
         3.1496        -22.3751          0.0000
         3.2496        -43.4363          0.0000
         3.3496         -8.2235          0.0000
         3.4496        -21.9517          0.0000
         3.5496         46.3020          0.0000
         3.6495         82.5129          0.0000
         3.7495         53.9207          0.0000
         3.8495         87.3577          0.0000
         3.9495         45.7021          0.0000
         4.0495        -75.0881          0.0000
         4.1495         39.2134          0.0000
         4.2495         20.9032          0.0000
         4.3495        -23.9675          0.0000
         4.4494         19.3080          0.0000
         4.5494         27.0441          0.0000
         4.6494         52.5289          0.0000
         4.7494          9.0876          0.0000
         4.8494         60.8722          0.0000
         4.9494         42.3998          0.0000
