@ title  "Pressure (P) and density (D) over 101 frames"
@ xlabel "Z [nm]"
@ ylabel "P [bar] or D [kg/m^3]"
@ s0 legend "P_T"
@ s1 legend "P_N"
        -4.9513        -90.2727          0.0000
        -4.8513        -99.6184          0.0000
        -4.7512        -78.6621          0.0000
        -4.6512        -25.2637          0.0000
        -4.5512         -9.5891          0.0000
        -4.4512        -29.7764          0.0000
        -4.3511         50.2462          0.0000
        -4.2511         10.4486          0.0000
        -4.1511         19.1927          0.0000
        -4.0511        109.3260          0.0000
        -3.9510         27.1861          0.0000
        -3.8510        -14.8035          0.0000
        -3.7510         31.2677          0.0000
        -3.6510         40.8100          0.0000
        -3.5509        -43.4634          0.0000
        -3.4509        -66.2321          0.0000
        -3.3509        -24.1599          0.0000
        -3.2509          1.8347          0.0000
        -3.1508         16.4093          0.0000
        -3.0508         37.7868          0.0000
        -2.9508         10.5546          0.0000
        -2.8507         32.4363          0.0000
        -2.7507         43.6683          0.0000
        -2.6507         35.3828          0.0000
        -2.5507         29.3105          0.0000
        -2.4506        -10.3784          0.0000
        -2.3506        -17.1298          0.0000
        -2.2506        -12.7928          0.0000
        -2.1506         -4.6480          0.0000
        -2.0505         21.6112          0.0000
        -1.9505         30.2988          0.0000
        -1.8505         46.8141          0.0000
        -1.7505        -12.8707          0.0000
        -1.6504         22.3263          0.0000
        -1.5504        -44.2660          0.0000
        -1.4504         24.3585          0.0000
        -1.3504         -1.0792          0.0000
        -1.2503         44.4231          0.0000
        -1.1503         17.5703          0.0000
        -1.0503         15.1513          0.0000
        -0.9502        -58.6015          0.0000
        -0.8502         -7.7412          0.0000
        -0.7502         38.5984          0.0000
        -0.6502         -1.2526          0.0000
        -0.5501         97.2342          0.0000
        -0.4501        -24.8646          0.0000
        -0.3501        -21.8391          0.0000
        -0.2501          7.5913          0.0000
        -0.1500        -67.8837          0.0000
        -0.0500        -59.4609          0.0000
         0.0500        -50.3102          0.0000
         0.1500         21.8471          0.0000
         0.2501         40.3013          0.0000
         0.3501         22.1728          0.0000
         0.4501         46.8657          0.0000
         0.5501         63.7672          0.0000
         0.6502        -45.8845          0.0000
         0.7502        -18.4017          0.0000
         0.8502         -2.5530          0.0000
         0.9503         -4.5091          0.0000
         1.0503        -38.6795          0.0000
         1.1503        -13.1225          0.0000
         1.2503          8.0145          0.0000
         1.3504         -4.0160          0.0000
         1.4504        -36.9746          0.0000
         1.5504        -35.1021          0.0000
         1.6504        -86.7415          0.0000
         1.7505        -52.3469          0.0000
         1.8505         66.6608          0.0000
         1.9505         -9.7368          0.0000
         2.0505        -22.6332          0.0000
         2.1506        -24.4692          0.0000
         2.2506         61.7473          0.0000
         2.3506        -54.3978          0.0000
         2.4506         39.9833          0.0000
         2.5507         26.6803          0.0000
         2.6507        -16.5980          0.0000
         2.7507         10.6506          0.0000
         2.8508         32.9727          0.0000
         2.9508        -33.4797          0.0000
         3.0508        -26.7899          0.0000
         3.1508        -25.2991          0.0000
         3.2509         -8.8423          0.0000
         3.3509        -79.1750          0.0000
         3.4509        -43.2693          0.0000
         3.5509        -29.4141          0.0000
         3.6510         14.5591          0.0000
         3.7510         -9.2620          0.0000
         3.8510        -27.4157          0.0000
         3.9510         34.2520          0.0000
         4.0511        -18.6375          0.0000
         4.1511        -18.6382          0.0000
         4.2511        -56.2179          0.0000
         4.3511        -69.5147          0.0000
         4.4512        -40.2061          0.0000
         4.5512         22.0985          0.0000
         4.6512         91.9543          0.0000
         4.7513        -44.8735          0.0000
         4.8513        -34.9087          0.0000
         4.9513        -41.7991          0.0000
