@ title  "Pressure (P) and density (D) over 101 frames"
@ xlabel "Z [nm]"
@ ylabel "P [bar] or D [kg/m^3]"
@ s0 legend "P_T"
@ s1 legend "P_N"
        -4.9503        -16.2480        -20.7999
        -4.8503          9.0057        -22.3739
        -4.7503          4.8825          8.5105
        -4.6503         11.4816          9.3317
        -4.5503        -16.7836         28.2626
        -4.4503        -11.4286         11.9869
        -4.3503         52.9338         10.6409
        -4.2503        -29.3008         27.6091
        -4.1503          0.5083         16.0869
        -4.0503         21.8244          7.7349
        -3.9502         65.5807         24.2308
        -3.8502         70.5010         36.7054
        -3.7502         47.3743         42.3697
        -3.6502          1.6786         67.8650
        -3.5502         28.5517         77.0478
        -3.4502         12.8319         42.2583
        -3.3502        -23.6490         25.9213
        -3.2502          7.7691         34.4570
        -3.1502         28.8184         14.0444
        -3.0502         29.8588         28.4287
        -2.9502        -80.4108        -13.9218
        -2.8502        -45.0072        -59.6501
        -2.7502        -44.1646        -45.2681
        -2.6502         20.7041        -16.4609
        -2.5502          3.1171        -22.4966
        -2.4502        -28.5950        -69.2404
        -2.3501        -76.1292        -25.4679
        -2.2501        -54.8470        -41.8159
        -2.1501          5.7198        -29.3294
        -2.0501        -89.6143         10.7173
        -1.9501          7.9594         51.7120
        -1.8501         46.1241         46.8847
        -1.7501         -1.3559          1.1371
        -1.6501        -70.1347        -31.6512
        -1.5501        -57.3826        -15.3421
        -1.4501         45.9729          1.4883
        -1.3501        -28.8298          4.1832
        -1.2501         45.1441          4.8406
        -1.1501         40.9060        -23.0691
        -1.0501        -77.5186        -68.6350
        -0.9501       -108.1584        -65.4108
        -0.8501         -3.2736        -28.8257
        -0.7500         52.7472        -21.8941
        -0.6500          5.9350          4.2225
        -0.5500        105.7084          3.8405
        -0.4500         31.6148         27.9214
        -0.3500         13.5888         40.9120
        -0.2500         48.7673         50.0674
        -0.1500         46.8360         59.5908
        -0.0500         64.8358         67.5923
         0.0500         70.9856         70.0508
         0.1500         56.0992         37.4582
         0.2500        -15.2511         34.8981
         0.3500        -90.6361          2.2629
         0.4500         20.1581        -45.2798
         0.5500         -4.6822        -33.4953
         0.6500         47.2015        -20.3260
         0.7500         -8.1781        -20.9614
         0.8501         36.0757        -27.2325
         0.9501         51.0371          0.9238
         1.0501         60.8388         15.2993
         1.1501          7.0244         14.6164
         1.2501        -14.8328         11.2342
         1.3501       -117.5662          0.9275
         1.4501          1.0276         18.7829
         1.5501         45.1944         69.3044
         1.6501        -22.7261         37.0595
         1.7501        -60.1008         18.8636
         1.8501          6.8929         28.2340
         1.9501          6.3881          1.4301
         2.0501          5.7621         51.1093
         2.1501        -27.1358          1.9482
         2.2501        -23.3771          3.8705
         2.3501         -5.3724        -17.0519
         2.4502        -39.0894        -21.3565
         2.5502         63.6735         14.8593
         2.6502         36.0779         18.5221
         2.7502         27.4311         -1.4333
         2.8502        -32.4605        -16.1049
         2.9502         43.1964        -42.5027
         3.0502         23.1376        -40.8674
         3.1502         35.7063        -20.3380
         3.2502         41.9068          4.5337
         3.3502        -63.5070         -4.1376
         3.4502         -7.8679          3.4917
         3.5502         50.3071         25.2734
         3.6502        -46.2239         35.4048
         3.7502         24.9158         20.7641
         3.8502         12.8201         32.4492
         3.9502         55.9109         29.7081
         4.0503         14.9446         29.4299
         4.1503        -77.0764         16.1985
         4.2503        -50.6148          5.6564
         4.3503         43.5032         19.5393
         4.4503        -30.8522         10.8949
         4.5503        -22.0111         51.6079
         4.6503         44.8819         48.2044
         4.7503         30.9263         -2.2441
         4.8503         81.9289          1.0409
         4.9503         55.4856        -17.7543
