@ title  "Pressure (P) and density (D) over 101 frames"
@ xlabel "Z [nm]"
@ ylabel "P [bar] or D [kg/m^3]"
@ s0 legend "P_T"
@ s1 legend "P_N"
        -4.9484         -4.1299         -7.2543
        -4.8485         11.0060          8.7028
        -4.7485        -34.9636         -7.1284
        -4.6485        -80.6200          1.9788
        -4.5485         61.7327          6.5179
        -4.4486        101.6704         -7.2744
        -4.3486         50.3641        -23.6034
        -4.2486         13.8171        -20.3923
        -4.1487         38.2173        -31.5534
        -4.0487        -33.3292        -40.7588
        -3.9487         52.4643          3.2524
        -3.8488         33.1828         11.7120
        -3.7488        -16.4959         35.0808
        -3.6488         -3.6758         19.4285
        -3.5489        -38.0704         13.8012
        -3.4489         25.3533         41.7029
        -3.3489         45.2845         32.6315
        -3.2490         11.6849         12.9503
        -3.1490         -8.0872        -11.1860
        -3.0490         -0.1607          5.8909
        -2.9491         -8.2954         -1.1840
        -2.8491         11.8769         37.6090
        -2.7491         62.0239         33.0414
        -2.6492        -28.2697         31.7223
        -2.5492        -22.8608         30.2035
        -2.4492         42.8322         -4.0558
        -2.3493         -6.6382         -7.1961
        -2.2493         65.4660        -24.5929
        -2.1493        -60.7703        -38.5470
        -2.0493        -77.2879        -61.2948
        -1.9494        -16.9839        -43.9921
        -1.8494         -8.2414        -17.6474
        -1.7494         27.5708         -8.6688
        -1.6495         32.2751          9.9742
        -1.5495         66.7793         48.7261
        -1.4495        121.2635         13.6887
        -1.3496         91.6579          2.0948
        -1.2496         13.6455        -36.8273
        -1.1496         -6.9833        -26.9957
        -1.0497        -26.1217         -0.3666
        -0.9497          1.8788         -0.9191
        -0.8497        -73.0091         10.0088
        -0.7498        -73.3597         17.3094
        -0.6498          6.1456         24.8703
        -0.5498        -28.1630         23.8688
        -0.4499         84.5469         21.3073
        -0.3499         82.7010         58.4094
        -0.2499         67.3367         71.2305
        -0.1500         39.0985         52.6739
        -0.0500          0.7666         44.2884
         0.0500          3.8296         51.1926
         0.1500          1.1942         25.4386
         0.2499         25.4242         19.6161
         0.3499         64.1802         -7.9873
         0.4499        -40.9401          7.4189
         0.5498        -39.1466         13.2827
         0.6498         43.5589         35.9640
         0.7498        -26.3110         10.2711
         0.8497          5.4621         24.1597
         0.9497         29.6990         11.6095
         1.0497        -59.7668        -16.2488
         1.1496        -26.4206        -12.9199
         1.2496         -0.5372        -24.8035
         1.3496        -88.3307        -21.8982
         1.4495        -32.3419        -51.2798
         1.5495         35.2661          0.4327
         1.6495         48.4696         44.9971
         1.7494         90.0185         27.0660
         1.8494          1.5680         47.3105
         1.9494         14.9779         39.6142
         2.0493         -7.8335         -1.3702
         2.1493        -17.3139        -21.7481
         2.2493        -14.7313        -23.2753
         2.3493        -40.2550        -50.6549
         2.4492          0.2058         -4.8157
         2.5492         51.8474          6.9020
         2.6492         57.5627        -22.5267
         2.7491         10.3909        -17.5864
         2.8491         15.6660        -13.5427
         2.9491         37.4650         16.4471
         3.0490         23.0864         23.9871
         3.1490         68.7942         86.2837
         3.2490         43.9757         43.3080
         3.3489         19.3394          4.9912
         3.4489       -102.6323        -54.8980
         3.5489        -12.5176        -27.4823
         3.6488         56.2760        -14.1730
         3.7488         99.3328         45.4772
         3.8488         15.8648         25.0797
         3.9487         14.3133         58.3822
         4.0487        -32.7295         -3.4257
         4.1487         42.2903        -27.2810
         4.2486        121.0959        -27.5502
         4.3486        -11.2071        -47.4867
         4.4486         19.3254        -29.6707
         4.5485          1.4403         -5.4308
         4.6485        -67.3964          5.0187
         4.7485       -129.3167         -3.0503
         4.8485        -33.7744         15.4603
         4.9484          5.5660         19.9312
