@ title  "Pressure (P) and density (D) over 101 frames"
@ xlabel "Z [nm]"
@ ylabel "P [bar] or D [kg/m^3]"
@ s0 legend "P_T"
@ s1 legend "P_N"
        -4.9522         -5.9661          0.0000
        -4.8521         23.4003          0.0000
        -4.7521        -79.6995          0.0000
        -4.6520        -21.2146          0.0000
        -4.5520        -22.5345          0.0000
        -4.4520          0.5263          0.0000
        -4.3519        -23.3914          0.0000
        -4.2519        -26.8434          0.0000
        -4.1518        -84.1997          0.0000
        -4.0518        -63.7628          0.0000
        -3.9517       -118.8013          0.0000
        -3.8517        -73.1908          0.0000
        -3.7516         -8.7405          0.0000
        -3.6516         54.3075          0.0000
        -3.5516         33.3865          0.0000
        -3.4515          4.2817          0.0000
        -3.3515         33.4869          0.0000
        -3.2514        123.6246          0.0000
        -3.1514        -44.2483          0.0000
        -3.0513        -48.8994          0.0000
        -2.9513        -55.4687          0.0000
        -2.8513          4.9756          0.0000
        -2.7512        121.8498          0.0000
        -2.6512         44.8441          0.0000
        -2.5511         81.9118          0.0000
        -2.4511         88.1133          0.0000
        -2.3510         32.5092          0.0000
        -2.2510        137.7161          0.0000
        -2.1509         69.4360          0.0000
        -2.0509        -11.0849          0.0000
        -1.9509          2.9674          0.0000
        -1.8508         47.5637          0.0000
        -1.7508        -20.4283          0.0000
        -1.6507        -15.2809          0.0000
        -1.5507         66.6099          0.0000
        -1.4506         60.7565          0.0000
        -1.3506         46.4470          0.0000
        -1.2505         40.5348          0.0000
        -1.1505          9.9273          0.0000
        -1.0505        -47.1453          0.0000
        -0.9504         17.6317          0.0000
        -0.8504         44.6668          0.0000
        -0.7503        -12.2784          0.0000
        -0.6503        -16.9565          0.0000
        -0.5502        -13.4132          0.0000
        -0.4502          8.3074          0.0000
        -0.3502         50.4478          0.0000
        -0.2501        -13.8711          0.0000
        -0.1501         41.5204          0.0000
        -0.0500        -55.7275          0.0000
         0.0500        -31.2051          0.0000
         0.1501        -33.0005          0.0000
         0.2501        -17.3814          0.0000
         0.3502        -78.4519          0.0000
         0.4502         31.9919          0.0000
         0.5502        -25.0299          0.0000
         0.6503         -0.9917          0.0000
         0.7503         55.9497          0.0000
         0.8504         12.5194          0.0000
         0.9504         10.8784          0.0000
         1.0505         -4.0975          0.0000
         1.1505        -89.1941          0.0000
         1.2505        -34.3226          0.0000
         1.3506         48.7060          0.0000
         1.4506         54.3994          0.0000
         1.5507         60.7664          0.0000
         1.6507         29.4286          0.0000
         1.7508        -55.0923          0.0000
         1.8508        -38.8773          0.0000
         1.9509          2.4305          0.0000
         2.0509          7.3249          0.0000
         2.1509       -108.8087          0.0000
         2.2510        -31.4356          0.0000
         2.3510         40.7110          0.0000
         2.4511         12.5107          0.0000
         2.5511        -80.9255          0.0000
         2.6512         43.4273          0.0000
         2.7512         63.1136          0.0000
         2.8513         23.1132          0.0000
         2.9513        -11.4393          0.0000
         3.0513          1.3747          0.0000
         3.1514         45.8017          0.0000
         3.2514         50.8334          0.0000
         3.3515        -36.9243          0.0000
         3.4515        -13.5783          0.0000
         3.5516        -49.7985          0.0000
         3.6516        -46.3249          0.0000
         3.7516        -18.4149          0.0000
         3.8517          3.7315          0.0000
         3.9517        -94.3084          0.0000
         4.0518         -4.5929          0.0000
         4.1518         39.6734          0.0000
         4.2519         32.0175          0.0000
         4.3519         53.4212          0.0000
         4.4520        -16.8530          0.0000
         4.5520        -40.9065          0.0000
         4.6520        -53.2821          0.0000
         4.7521        -25.5646          0.0000
         4.8521        -36.9449          0.0000
         4.9522        -99.7914          0.0000
