@ title  "Pressure (P) and density (D) over 101 frames"
@ xlabel "Z [nm]"
@ ylabel "P [bar] or D [kg/m^3]"
@ s0 legend "P_T"
@ s1 legend "P_N"
        -4.9488        -89.6046         24.5288
        -4.8489         49.4349         33.5960
        -4.7489         17.9708         43.5728
        -4.6489         55.7610         80.9423
        -4.5489         70.2083         67.5919
        -4.4490          3.4480         -3.5425
        -4.3490         20.7552         15.7424
        -4.2490          8.9297        -27.8553
        -4.1490         96.3690         -3.3374
        -4.0490         92.6018        -24.0557
        -3.9491         43.6522         -4.2213
        -3.8491         46.8185         -7.9643
        -3.7491         86.7164          6.2645
        -3.6491         79.6510          9.6220
        -3.5492        -32.3671          9.3499
        -3.4492        -18.6043         20.1144
        -3.3492         42.8747         20.3232
        -3.2492         13.2290        -19.4763
        -3.1493         52.4002        -13.9267
        -3.0493         -5.5167        -33.0793
        -2.9493         83.9500        -27.8105
        -2.8493        117.9274          0.7537
        -2.7494         52.5347         17.1820
        -2.6494         23.4948         65.8058
        -2.5494         60.3122         58.7040
        -2.4494          8.9170         59.5495
        -2.3494          3.7029         68.3855
        -2.2495         29.1933         45.2851
        -2.1495         36.3889          8.9088
        -2.0495          1.4894         21.5290
        -1.9495        -45.3131         20.7218
        -1.8496          1.6275         -6.1598
        -1.7496        -63.1687          7.7375
        -1.6496       -100.6741          7.2414
        -1.5496         15.3486         23.2112
        -1.4497         52.5472         71.6873
        -1.3497         44.0856         63.2422
        -1.2497        -20.4911         33.0869
        -1.1497        -37.9359         58.7440
        -1.0498         19.4954          6.1171
        -0.9498         21.7757         -2.9737
        -0.8498         49.2979          1.2683
        -0.7498        -94.5203        -11.5920
        -0.6498        -42.6342        -48.4919
        -0.5499          0.7807        -20.8264
        -0.4499         84.3012        -15.9793
        -0.3499        -22.2013         14.1562
        -0.2499        -64.4111        -12.3693
        -0.1500        -81.0491        -49.8347
        -0.0500         14.9036        -46.9556
         0.0500        -66.3963        -40.4134
         0.1500        -38.7339        -29.8864
         0.2499        -33.4189        -25.6157
         0.3499        -40.3573         16.2298
         0.4499        -31.0456        -30.2306
         0.5499        -15.7039        -29.1603
         0.6498        -39.5024        -34.2606
         0.7498        -16.4643         -1.1778
         0.8498        -44.1359          8.4474
         0.9498          5.0364          4.9239
         1.0498          5.9347         20.1666
         1.1497        -32.4876         38.3761
         1.2497        -13.1502         34.6769
         1.3497         39.3792         41.5361
         1.4497         25.9300         58.8290
         1.5496        -11.6888         66.8832
         1.6496         12.7291         30.4215
         1.7496         52.1352         52.3619
         1.8496         31.0272         20.8057
         1.9495        -66.7372         -1.5011
         2.0495        -68.7996        -29.6027
         2.1495         -6.5854          3.9936
         2.2495         56.7081         25.4955
         2.3494         -0.3311          0.2916
         2.4494        -37.9175         -6.5224
         2.5494        -17.9089        -29.1567
         2.6494         -2.0392        -28.6801
         2.7494         -4.4038        -38.1573
         2.8493        -62.6755        -39.9904
         2.9493         67.8206          9.0110
         3.0493         27.8178         10.5187
         3.1493         16.4529         -6.9292
         3.2492         54.3828         22.7788
         3.3492        -69.4820        -29.9212
         3.4492        -22.0540        -25.9638
         3.5492        -63.6319        -59.7148
         3.6491        -68.3892        -44.1906
         3.7491         76.3299        -39.2955
         3.8491        -34.7932        -60.1087
         3.9491          5.6921        -36.7507
         4.0491         -7.3200        -24.1073
         4.1490         -7.6410         20.5592
         4.2490         -1.7186         27.3308
         4.3490        -60.2371         34.6630
         4.4490         -4.2196         10.2355
         4.5489        -18.7834         19.7616
         4.6489         18.3698          8.0047
         4.7489         44.7996         38.3328
         4.8489         -0.7023         42.2056
         4.9488         65.0370         46.2001
