@ title  "Pressure (P) and density (D) over 101 frames"
@ xlabel "Z [nm]"
@ ylabel "P [bar] or D [kg/m^3]"
@ s0 legend "P_T"
@ s1 legend "P_N"
        -4.9545        339.0553        349.2072
        -4.8544        337.8080        336.7808
        -4.7543        341.6332        329.1221
        -4.6542        321.3920        329.9625
        -4.5541        326.1204        337.1085
        -4.4540        336.4195        324.2757
        -4.3539        318.2375        336.5939
        -4.2538        318.1518        326.2050
        -4.1537        324.1596        333.2045
        -4.0536        329.7985        326.7208
        -3.9536        326.2968        329.4959
        -3.8535        344.3922        347.5424
        -3.7534        336.2074        338.1386
        -3.6533        329.9476        339.0560
        -3.5532        328.8886        318.1493
        -3.4531        336.9326        331.8329
        -3.3530        340.2585        326.5124
        -3.2529        327.4329        330.2674
        -3.1528        324.5773        328.4193
        -3.0527        343.5275        352.5170
        -2.9527        322.7509        319.9830
        -2.8526        347.7903        345.6348
        -2.7525        332.8996        330.4428
        -2.6524        325.7565        327.4495
        -2.5523        321.8012        333.0327
        -2.4522        349.7696        347.9583
        -2.3521        339.5988        327.4900
        -2.2520        333.8668        327.7136
        -2.1519        333.5810        325.3625
        -2.0518        334.6674        342.3426
        -1.9518        334.7108        331.6329
        -1.8517        335.4207        346.9167
        -1.7516        336.0000        324.5355
        -1.6515        326.7274        317.1329
        -1.5514        339.2296        337.8144
        -1.4513        331.5797        331.8846
        -1.3512        333.6087        349.3972
        -1.2511        328.4543        334.2250
        -1.1510        329.3445        312.5114
        -1.0509        350.1373        346.2827
        -0.9509        337.9464        324.8968
        -0.8508        339.5177        342.0503
        -0.7507        327.1392        341.1574
        -0.6506        335.0515        335.8365
        -0.5505        329.5508        332.7063
        -0.4504        338.1217        342.1269
        -0.3503        351.3600        351.1839
        -0.2502        332.6329        338.6783
        -0.1501        340.6984        331.3936
        -0.0500        340.9578        332.0141
         0.0500        345.4057        336.1254
         0.1501        342.7446        347.4880
         0.2502        336.4234        342.8536
         0.3503        334.2024        333.0682
         0.4504        329.4297        326.2586
         0.5505        351.2896        354.2287
         0.6506        329.3413        343.0414
         0.7507        341.3795        337.4582
         0.8508        343.7592        330.5526
         0.9509        331.7049        344.1916
         1.0509        336.2301        339.0354
         1.1510        343.8249        329.9810
         1.2511        334.4645        330.4956
         1.3512        339.5994        333.4139
         1.4513        340.6622        345.3947
         1.5514        333.2860        340.6680
         1.6515        338.3881        346.8950
         1.7516        337.0818        341.0415
         1.8517        332.7173        331.1673
         1.9518        344.3351        342.6447
         2.0518        343.0819        339.7554
         2.1519        322.7045        334.3577
         2.2520        337.1697        344.0140
         2.3521        322.4191        322.6307
         2.4522        339.5510        343.4809
         2.5523        330.7937        330.4886
         2.6524        339.2118        330.2696
         2.7525        336.5460        337.1016
         2.8526        345.0299        340.3184
         2.9527        320.1574        328.0466
         3.0527        346.9330        342.1948
         3.1528        333.5281        337.2142
         3.2529        324.7751        328.3412
         3.3530        329.6962        327.4037
         3.4531        330.3202        327.0336
         3.5532        330.4426        322.1973
         3.6533        332.7004        337.1355
         3.7534        325.7675        319.2827
         3.8535        332.2645        324.5443
         3.9536        325.9642        317.2112
         4.0536        349.6328        323.9648
         4.1537        334.6367        334.2222
         4.2538        341.3759        340.5710
         4.3539        322.2296        329.6353
         4.4540        329.2327        327.7004
         4.5541        336.5462        343.8274
         4.6542        329.6976        316.0073
         4.7543        341.6978        339.0705
         4.8544        320.2183        327.8924
         4.9544        328.8484        327.3922
