@ title  "Pressure (P) and density (D) over 101 frames"
@ xlabel "Z [nm]"
@ ylabel "P [bar] or D [kg/m^3]"
@ s0 legend "P_T"
@ s1 legend "P_N"
        -4.9512          4.2545          4.4869
        -4.8512         64.6158         32.2398
        -4.7512         19.1741         56.6705
        -4.6512        -22.2844         26.6350
        -4.5511         83.7351          2.6444
        -4.4511        -10.9208         -0.0079
        -4.3511         14.7128         23.0817
        -4.2511        -35.4961          2.7845
        -4.1510        -69.4213        -17.9150
        -4.0510       -101.5949        -26.1359
        -3.9510          9.0201        -10.9515
        -3.8510        -16.8643        -36.0715
        -3.7509        -55.8813        -34.5696
        -3.6509          1.8171        -13.9858
        -3.5509         41.2644         -2.6598
        -3.4509         28.1743         14.9403
        -3.3508        -36.1671         -7.4595
        -3.2508         58.3155         17.7997
        -3.1508        -30.2783         -2.0453
        -3.0508        -66.8803        -21.3120
        -2.9507        -35.3691         20.4371
        -2.8507        103.2575         30.1755
        -2.7507        122.8948         17.4955
        -2.6507         14.5610         22.3293
        -2.5506          0.1296          8.0087
        -2.4506         64.9050         13.8994
        -2.3506        145.0517         49.7802
        -2.2506         19.4896         12.7670
        -2.1505        -72.8562        -18.3762
        -2.0505        -46.9961         -1.0414
        -1.9505        -21.5667         12.4584
        -1.8505         71.2632         21.3782
        -1.7504         41.6867         37.8100
        -1.6504          9.9772         25.0179
        -1.5504         -5.1193         19.6711
        -1.4504          9.7486        -20.2332
        -1.3503         46.8980        -44.5646
        -1.2503        -30.6405        -50.6871
        -1.1503         62.4777        -40.9358
        -1.0503        -31.8171        -44.2968
        -0.9502         -2.3110        -17.9138
        -0.8502        -76.8620        -34.3066
        -0.7502        -90.2911        -60.8744
        -0.6502          1.8957        -39.3553
        -0.5501         32.4300        -20.5672
        -0.4501        -37.4628        -15.1842
        -0.3501         12.4110         14.9937
        -0.2501        -82.1911          5.1773
        -0.1500         -7.1726         28.8712
        -0.0500         26.4883         22.3645
         0.0500         10.0823         14.1161
         0.1500         -7.5789         -4.0938
         0.2501         21.5687         22.4230
         0.3501        -22.2567         12.6134
         0.4501         -5.5811         50.9564
         0.5501         50.8190         48.8356
         0.6502         -5.5641         53.4698
         0.7502         22.1232         34.0476
         0.8502         47.1067         -3.6761
         0.9502          1.1567         -8.8343
         1.0503        -46.4414         -3.8987
         1.1503         26.2220         17.1960
         1.2503        103.0626         15.9982
         1.3503         23.2760         -4.6741
         1.4504        -50.6560         42.6394
         1.5504        -71.4472         33.1475
         1.6504         -8.1940         22.4965
         1.7504         81.7137         47.8694
         1.8505        -18.7106         22.8963
         1.9505        -70.0808        -24.0850
         2.0505          1.0661        -24.3093
         2.1505         -1.4874        -40.8254
         2.2506        -28.5618        -55.8752
         2.3506         47.1910        -36.8184
         2.4506        -14.0103        -38.3155
         2.5506          6.4602          6.7339
         2.6507         -7.1440         21.7599
         2.7507       -102.5438         21.7387
         2.8507         11.0385         67.7910
         2.9507         20.1921         61.7716
         3.0508         67.4733         47.3001
         3.1508        -65.8606         35.6022
         3.2508         27.7900         21.7269
         3.3508         58.2383         73.6540
         3.4509         46.4358         14.7893
         3.5509        -54.0387        -31.2967
         3.6509         50.9205        -19.8742
         3.7509        -17.2241        -29.0531
         3.8510         -5.2846        -27.5322
         3.9510         43.5053          4.9407
         4.0510         35.5178         27.9566
         4.1510         60.3025         37.8874
         4.2511         45.2512         11.4415
         4.3511          7.6740          3.2301
         4.4511          5.6818         -8.8478
         4.5511        -61.5669        -21.5932
         4.6512        -57.6477        -28.8894
         4.7512        -79.6225        -51.1997
         4.8512        -37.7819        -41.2183
         4.9512        -12.7953        -15.0015
