@ title  "Pressure (P) and density (D) over 101 frames"
@ xlabel "Z [nm]"
@ ylabel "P [bar] or D [kg/m^3]"
@ s0 legend "P_T"
@ s1 legend "P_N"
        -4.9474         56.6894          8.6608
        -4.8474         -3.9903        -33.3133
        -4.7475        -12.3288        -49.5873
        -4.6475       -114.0197        -20.6981
        -4.5476         14.6886          1.4747
        -4.4476        -34.2381         10.6406
        -4.3477         44.9986         33.1672
        -4.2477         -2.7424         26.2540
        -4.1478         19.8609         43.9355
        -4.0478         68.0944         51.7290
        -3.9479         43.0234         56.4008
        -3.8480        -69.6265         43.5885
        -3.7480        -32.2922         15.8728
        -3.6481        -77.4985          7.1343
        -3.5481        -48.0525         22.6603
        -3.4482         57.4247         25.1213
        -3.3482         22.1490          5.3343
        -3.2483        -31.3715          2.8946
        -3.1483         56.5655         12.7890
        -3.0484         13.1452         22.7377
        -2.9484         47.0178          8.5370
        -2.8485        -75.4383        -19.3386
        -2.7485        -85.1920         12.2348
        -2.6486         -8.7285         46.0759
        -2.5486         28.4454         24.0284
        -2.4487          4.1359         -6.2069
        -2.3487          3.6308        -19.3923
        -2.2488          3.2348          0.5506
        -2.1489         52.4060         27.3078
        -2.0489        -72.6706        -21.8090
        -1.9490        -40.4308         -0.7537
        -1.8490         29.2565         23.8240
        -1.7491        -13.5932         25.7790
        -1.6491         27.8538         29.2624
        -1.5492        -30.6639         57.3902
        -1.4492        -97.3007         28.1988
        -1.3493        -10.6952         16.9262
        -1.2493          3.4810         73.4937
        -1.1494         88.7801         74.3999
        -1.0494        -74.0807         26.1564
        -0.9495        -28.3983         35.1957
        -0.8495        -34.8062        -32.1603
        -0.7496         55.3829        -38.8828
        -0.6497        -25.1413        -39.2301
        -0.5497         -3.0249          6.4229
        -0.4498         96.0316         13.4284
        -0.3498         98.3483         -6.0882
        -0.2499         25.1367        -36.1306
        -0.1499        -17.0322        -66.3908
        -0.0500        -14.6931        -55.6475
         0.0500        -23.8323        -41.5871
         0.1499         49.5583         -9.6058
         0.2499         21.6432          9.5959
         0.3498         51.2155         52.6507
         0.4498         70.6571         61.2372
         0.5497         44.9174         82.7971
         0.6497        -49.5826         54.2045
         0.7496         80.0517         57.9197
         0.8495         34.0015         24.5957
         0.9495         39.6750        -23.0249
         1.0494          6.6025         -1.4936
         1.1494        -41.8519        -16.0851
         1.2493        -18.6716         32.1669
         1.3493        -64.8257          0.5976
         1.4492        -77.5990        -12.1341
         1.5492         86.0525          4.3488
         1.6491         30.6901          3.5438
         1.7491        -29.7055         -2.3156
         1.8490        -69.0990         23.0373
         1.9490        -10.2334         27.4472
         2.0489          9.7158         10.3549
         2.1489        103.2096          8.0631
         2.2488        -26.9204        -22.8874
         2.3487         12.4967        -31.8807
         2.4487          1.3991        -50.7680
         2.5486         86.7083        -19.6258
         2.6486          7.5856        -16.4466
         2.7485         19.3400          9.0686
         2.8485        -32.0590         18.9949
         2.9484        -21.1995         12.5279
         3.0484         28.4912          4.1614
         3.1483        -28.6020         -2.5397
         3.2483         25.5457         25.0957
         3.3482         49.1442         29.8688
         3.4482        -55.8079         18.0041
         3.5481        -71.3646         21.9310
         3.6481        -33.6180         14.3977
         3.7480        -68.2719         10.9831
         3.8479         14.5227          6.1234
         3.9479         32.4145         -7.6442
         4.0478        -15.2282        -10.3849
         4.1478          3.3441         -0.1838
         4.2477         37.0011         15.8798
         4.3477        -11.3018        -11.5697
         4.4476        -49.8975         -1.9532
         4.5476         -9.9068         31.5751
         4.6475         26.6571         27.3320
         4.7475         45.5380        -10.0442
         4.8474        -26.4293         -9.2856
         4.9474         32.5737          3.4177
