@ title  "Pressure (P) and density (D) over 101 frames"
@ xlabel "Z [nm]"
@ ylabel "P [bar] or D [kg/m^3]"
@ s0 legend "P_T"
@ s1 legend "P_N"
        -4.9501        -16.6207          0.0000
        -4.8501        -33.3368          0.0000
        -4.7501        -11.6304          0.0000
        -4.6501        -61.1813          0.0000
        -4.5501        -38.5141          0.0000
        -4.4501        -32.2619          0.0000
        -4.3500         40.1883          0.0000
        -4.2500         41.4525          0.0000
        -4.1500        -18.4981          0.0000
        -4.0500         37.2638          0.0000
        -3.9500        -34.1693          0.0000
        -3.8500         51.1964          0.0000
        -3.7500         46.9058          0.0000
        -3.6500         80.2392          0.0000
        -3.5500        -18.3712          0.0000
        -3.4500        -31.8030          0.0000
        -3.3500        -59.0940          0.0000
        -3.2500         53.0334          0.0000
        -3.1500        -24.3070          0.0000
        -3.0500        -34.3727          0.0000
        -2.9500          0.9317          0.0000
        -2.8500       -101.4350          0.0000
        -2.7500        -10.6059          0.0000
        -2.6500        -36.4896          0.0000
        -2.5500        -26.9205          0.0000
        -2.4500        -28.5476          0.0000
        -2.3500         20.1682          0.0000
        -2.2500       -113.7476          0.0000
        -2.1500         46.6332          0.0000
        -2.0500        -69.0980          0.0000
        -1.9500        -39.5148          0.0000
        -1.8500         44.8643          0.0000
        -1.7500         -5.1129          0.0000
        -1.6500         35.4042          0.0000
        -1.5500       -133.6046          0.0000
        -1.4500          7.6550          0.0000
        -1.3500          2.3491          0.0000
        -1.2500        -12.3080          0.0000
        -1.1500        -75.2059          0.0000
        -1.0500        -43.5898          0.0000
        -0.9500        -74.0293          0.0000
        -0.8500        -40.2299          0.0000
        -0.7500         63.3731          0.0000
        -0.6500         21.2046          0.0000
        -0.5500        -36.4419          0.0000
        -0.4500        -10.3792          0.0000
        -0.3500        -70.0059          0.0000
        -0.2500         90.8773          0.0000
        -0.1500        -21.4268          0.0000
        -0.0500          6.3394          0.0000
         0.0500        -36.1511          0.0000
         0.1500        -33.4597          0.0000
         0.2500        -12.4899          0.0000
         0.3500        -43.7110          0.0000
         0.4500         31.9556          0.0000
         0.5500        -24.5808          0.0000
         0.6500        -35.6083          0.0000
         0.7500         78.8661          0.0000
         0.8500         15.9872          0.0000
         0.9500         56.4925          0.0000
         1.0500         35.6930          0.0000
         1.1500        -27.8189          0.0000
         1.2500         31.4345          0.0000
         1.3500         22.5036          0.0000
         1.4500       -103.6167          0.0000
         1.5500        -31.7086          0.0000
         1.6500         23.4306          0.0000
         1.7500        -16.5560          0.0000
         1.8500         62.7673          0.0000
         1.9500        -14.1900          0.0000
         2.0500         47.1539          0.0000
         2.1500          5.3189          0.0000
         2.2500          9.5690          0.0000
         2.3500        -37.2237          0.0000
         2.4500         -2.5733          0.0000
         2.5500        -10.9458          0.0000
         2.6500         -2.0428          0.0000
         2.7500         34.5021          0.0000
         2.8500         18.4005          0.0000
         2.9500        -60.7356          0.0000
         3.0500         21.3172          0.0000
         3.1500         -5.4499          0.0000
         3.2500        -81.9878          0.0000
         3.3500       -113.3287          0.0000
         3.4500         55.7627          0.0000
         3.5500         44.6160          0.0000
         3.6500         -9.9773          0.0000
         3.7500         70.6115          0.0000
         3.8500         28.5313          0.0000
         3.9500          6.2465          0.0000
         4.0500         37.1770          0.0000
         4.1500        -41.8257          0.0000
         4.2501         25.9368          0.0000
         4.3501        -41.2432          0.0000
         4.4501         14.6106          0.0000
         4.5501         56.6430          0.0000
         4.6501         11.0678          0.0000
         4.7501         32.3931          0.0000
         4.8501          8.1195          0.0000
         4.9501         28.4973          0.0000
