@ title  "Pressure (P) and density (D) over 101 frames"
@ xlabel "Z [nm]"
@ ylabel "P [bar] or D [kg/m^3]"
@ s0 legend "P_T"
@ s1 legend "P_N"
        -4.9490         32.0593          0.0000
        -4.8490        -35.3755          0.0000
        -4.7490         40.3334          0.0000
        -4.6491         58.2867          0.0000
        -4.5491          2.6522          0.0000
        -4.4491          0.1714          0.0000
        -4.3491         37.2188          0.0000
        -4.2491         99.8138          0.0000
        -4.1492         85.9831          0.0000
        -4.0492         18.5610          0.0000
        -3.9492         40.3937          0.0000
        -3.8492        -56.6354          0.0000
        -3.7492         17.2570          0.0000
        -3.6493         -2.6200          0.0000
        -3.5493         42.2124          0.0000
        -3.4493         21.2320          0.0000
        -3.3493          2.8774          0.0000
        -3.2493          7.2629          0.0000
        -3.1494        -24.4999          0.0000
        -3.0494         65.3922          0.0000
        -2.9494         36.2092          0.0000
        -2.8494         18.5263          0.0000
        -2.7494        113.7936          0.0000
        -2.6495         16.6520          0.0000
        -2.5495         -9.4893          0.0000
        -2.4495        -10.3841          0.0000
        -2.3495        -27.7395          0.0000
        -2.2495         -2.6451          0.0000
        -2.1496         41.7533          0.0000
        -2.0496         47.2584          0.0000
        -1.9496         -7.3821          0.0000
        -1.8496         84.0043          0.0000
        -1.7496         97.8205          0.0000
        -1.6497         94.6026          0.0000
        -1.5497         55.4174          0.0000
        -1.4497        -28.6129          0.0000
        -1.3497         37.0646          0.0000
        -1.2497         54.7987          0.0000
        -1.1498         16.8769          0.0000
        -1.0498        -52.3060          0.0000
        -0.9498         53.1969          0.0000
        -0.8498         -8.2101          0.0000
        -0.7498          8.8970          0.0000
        -0.6499        -37.3306          0.0000
        -0.5499         70.1242          0.0000
        -0.4499        -57.3989          0.0000
        -0.3499        -10.1870          0.0000
        -0.2499        -18.5490          0.0000
        -0.1500        -22.3286          0.0000
        -0.0500         27.9658          0.0000
         0.0500        -10.2071          0.0000
         0.1500          3.5211          0.0000
         0.2500          9.1028          0.0000
         0.3499         85.5980          0.0000
         0.4499        -40.9064          0.0000
         0.5499         25.0793          0.0000
         0.6499        -70.1127          0.0000
         0.7499        -27.9496          0.0000
         0.8498       -113.2164          0.0000
         0.9498         13.5691          0.0000
         1.0498        -23.6815          0.0000
         1.1498         -4.2600          0.0000
         1.2498        -24.7559          0.0000
         1.3497        -40.6351          0.0000
         1.4497        -66.3707          0.0000
         1.5497        -21.9938          0.0000
         1.6497          6.9760          0.0000
         1.7497         13.3921          0.0000
         1.8496        -34.9467          0.0000
         1.9496         46.8245          0.0000
         2.0496        -13.3392          0.0000
         2.1496         -1.6649          0.0000
         2.2496         28.3415          0.0000
         2.3495        -37.5436          0.0000
         2.4495         19.6868          0.0000
         2.5495         24.3093          0.0000
         2.6495        -19.5002          0.0000
         2.7495         40.5080          0.0000
         2.8494        -20.0861          0.0000
         2.9494         39.8785          0.0000
         3.0494         24.8727          0.0000
         3.1494         14.3476          0.0000
         3.2494        119.8474          0.0000
         3.3493        -66.2475          0.0000
         3.4493         -2.8284          0.0000
         3.5493        -23.2236          0.0000
         3.6493        -36.7829          0.0000
         3.7493         -8.6515          0.0000
         3.8492         20.7365          0.0000
         3.9492         -3.7305          0.0000
         4.0492         13.4607          0.0000
         4.1492        -97.1656          0.0000
         4.2492        -28.9604          0.0000
         4.3491         -8.5446          0.0000
         4.4491         83.8359          0.0000
         4.5491         15.2722          0.0000
         4.6491         20.7487          0.0000
         4.7491         -3.2656          0.0000
         4.8490         14.5632          0.0000
         4.9490        -63.2644          0.0000
