@ title  "Pressure (P) and density (D) over 101 frames"
@ xlabel "Z [nm]"
@ ylabel "P [bar] or D [kg/m^3]"
@ s0 legend "P_T"
@ s1 legend "P_N"
        -9.1075         13.6854          0.0000
        -8.9235         -3.5346          0.0000
        -8.7395         10.9544          0.0000
        -8.5555         31.4284          0.0000
        -8.3715          1.8075          0.0000
        -8.1876         33.8654          0.0000
        -8.0036         45.9154          0.0000
        -7.8196        -30.2073          0.0000
        -7.6356        -13.1342          0.0000
        -7.4516        -35.4296          0.0000
        -7.2676         42.0319          0.0000
        -7.0836        -12.9404          0.0000
        -6.8996         15.5623          0.0000
        -6.7156         39.0728          0.0000
        -6.5316        -32.6057          0.0000
        -6.3477        -17.0398          0.0000
        -6.1637         72.2812          0.0000
        -5.9797         49.4716          0.0000
        -5.7957         88.7727          0.0000
        -5.6117        -57.8482          0.0000
        -5.4277         55.2261          0.0000
        -5.2437         28.4733          0.0000
        -5.0597        -18.1002          0.0000
        -4.8757         18.4787          0.0000
        -4.6917         43.4533          0.0000
        -4.5078         75.2542          0.0000
        -4.3238         20.7724          0.0000
        -4.1398        157.8342          0.0000
        -3.9558        135.5993          0.0000
        -3.7718         58.0326          0.0000
        -3.5878         64.4600          0.0000
        -3.4038         -4.9811          0.0000
        -3.2198        -62.2556          0.0000
        -3.0358       -127.9035          0.0000
        -2.8518       -172.5500          0.0000
        -2.6679       -162.1856          0.0000
        -2.4839       -106.2962          0.0000
        -2.2999        -24.5507          0.0000
        -2.1159        -38.8660          0.0000
        -1.9319        -55.2392          0.0000
        -1.7479          6.0434          0.0000
        -1.5639         23.7765          0.0000
        -1.3799         16.6741          0.0000
        -1.1959         34.0896          0.0000
        -1.0119        -40.0675          0.0000
        -0.8280        -52.3298          0.0000
        -0.6440        -60.4735          0.0000
        -0.4600          8.3865          0.0000
        -0.2760         79.5490          0.0000
        -0.0920         25.3999          0.0000
         0.0920         86.3455          0.0000
         0.2760         64.3428          0.0000
         0.4600         43.8925          0.0000
         0.6440        -20.4612          0.0000
         0.8280         -3.9221          0.0000
         1.0119          1.3328          0.0000
         1.1959         25.9281          0.0000
         1.3799         13.6192          0.0000
         1.5639         19.3151          0.0000
         1.7479         10.2791          0.0000
         1.9319         26.2917          0.0000
         2.1159        -62.3940          0.0000
         2.2999        -12.7635          0.0000
         2.4839        -64.4033          0.0000
         2.6679        -99.0036          0.0000
         2.8518       -214.1409          0.0000
         3.0358       -160.3150          0.0000
         3.2198       -122.0889          0.0000
         3.4038        -37.7101          0.0000
         3.5878        -37.2488          0.0000
         3.7718         59.1729          0.0000
         3.9558        106.3588          0.0000
         4.1398        130.3054          0.0000
         4.3238         98.1926          0.0000
         4.5078         58.1614          0.0000
         4.6917        111.7592          0.0000
         4.8757         61.1583          0.0000
         5.0597         56.7749          0.0000
         5.2437         70.7180          0.0000
         5.4277         -0.3425          0.0000
         5.6117          6.1335          0.0000
         5.7957          3.4530          0.0000
         5.9797         20.0710          0.0000
         6.1637         16.0050          0.0000
         6.3477          6.3036          0.0000
         6.5316          5.5799          0.0000
         6.7156         29.6505          0.0000
         6.8996         55.3436          0.0000
         7.0836         32.2463          0.0000
         7.2676        -21.0512          0.0000
         7.4516         22.9229          0.0000
         7.6356         11.1007          0.0000
         7.8196         36.2607          0.0000
         8.0036         67.0262          0.0000
         8.1876         10.8864          0.0000
         8.3715         13.1852          0.0000
         8.5555        -35.8361          0.0000
         8.7395         45.7897          0.0000
         8.9235          9.1499          0.0000
         9.1075         41.8121          0.0000
