@ title  "Pressure (P) and density (D) over 101 frames"
@ xlabel "Z [nm]"
@ ylabel "P [bar] or D [kg/m^3]"
@ s0 legend "P_T"
@ s1 legend "P_N"
        -9.2031         32.1969        -14.7424
        -9.0172         11.9618         23.5260
        -8.8313         29.8019         35.9980
        -8.6454         21.0403         14.8465
        -8.4594         17.7041         -7.0023
        -8.2735        -22.0292          0.6476
        -8.0876         36.5121          4.8993
        -7.9017         11.6856          6.8897
        -7.7158        -26.3806         -0.2224
        -7.5298         -1.0103          9.6711
        -7.3439         42.8064         31.6935
        -7.1580          9.0318         39.4365
        -6.9721         86.5046         51.3235
        -6.7862         36.1149         20.6943
        -6.6002         45.7053        -17.0828
        -6.4143         48.1205        -26.2875
        -6.2284         22.3624        -11.5469
        -6.0425         60.7008         36.2726
        -5.8565         91.7241         25.0690
        -5.6706         46.7488         30.5543
        -5.4847         96.2357         61.8915
        -5.2988        -22.6852         61.0371
        -5.1129          1.6691          0.7448
        -4.9269         66.1256         43.2590
        -4.7410        122.8451         62.3105
        -4.5551         97.8951         -4.6678
        -4.3692        145.1265         45.8228
        -4.1832        148.6416         41.0849
        -3.9973         64.5990         53.7166
        -3.8114         46.5271         -8.9165
        -3.6255         54.6417        -29.7846
        -3.4396        -66.6951        -13.3480
        -3.2536       -106.8195        -11.5143
        -3.0677       -165.3148         -4.4369
        -2.8818        -83.1937         -6.2690
        -2.6959       -107.0182         53.5048
        -2.5099       -103.2694         48.8824
        -2.3240        -23.0454          9.5583
        -2.1381         17.5379         -5.2140
        -1.9522        -40.1410         33.7333
        -1.7663         -1.4421         24.7772
        -1.5803         38.7314         22.6694
        -1.3944         34.0363         23.6459
        -1.2085         21.7981          8.2342
        -1.0226          0.0006         12.0634
        -0.8366        -57.1300         36.0170
        -0.6507        -12.7436         22.1606
        -0.4648         55.3657         -2.5356
        -0.2789        -63.8338        -24.4929
        -0.0930         16.0717         -4.4881
         0.0930        -54.8887         -3.2961
         0.2789         12.2124          3.9475
         0.4648         73.8145        -30.6447
         0.6507         71.6328        -21.0411
         0.8367         62.2529          2.7786
         1.0226         46.4433         36.3001
         1.2085        116.8374         12.7864
         1.3944         48.8700        -13.7808
         1.5803        -32.5779        -23.5830
         1.7663         78.9704         41.0725
         1.9522         48.3502         28.2874
         2.1381        -19.7218          9.2783
         2.3240        -70.5866        -22.9147
         2.5100        -34.4889        -19.4874
         2.6959        -83.0448         -3.3825
         2.8818       -125.1477         11.2457
         3.0677       -127.6626         54.3147
         3.2536       -146.1081         29.0780
         3.4396         30.8384        -30.1228
         3.6255          9.6833        -44.7147
         3.8114         26.1567        -15.7180
         3.9973        116.4366         -3.1601
         4.1832        103.9778         43.4916
         4.3692        145.6441         15.5796
         4.5551        142.8510          0.2539
         4.7410         26.0816        -64.8785
         4.9269         35.6866        -22.3774
         5.1129          7.9102         14.8875
         5.2988         61.2850         29.2905
         5.4847         79.6329         11.1359
         5.6706         21.9865          7.5411
         5.8565         15.7450         35.7816
         6.0425         53.6519         55.9653
         6.2284        -20.1454         20.6779
         6.4143         11.0102         26.4282
         6.6002         29.0423         44.2609
         6.7862          0.6529         -9.0174
         6.9721        -20.7868        -30.9132
         7.1580         27.1595         12.7288
         7.3439        -26.3982         29.0318
         7.5298         17.4342         16.6519
         7.7158          1.0155        -12.3421
         7.9017         -3.8660         16.6152
         8.0876         -1.1175         -5.8637
         8.2735          5.5453         12.6305
         8.4595         13.4681          9.8139
         8.6454        -13.5575          9.8119
         8.8313        100.7493         11.3923
         9.0172         -1.9932        -13.7557
         9.2031        -21.6359        -33.3253
