@ title  "Pressure (P) and density (D) over 101 frames"
@ xlabel "Z [nm]"
@ ylabel "P [bar] or D [kg/m^3]"
@ s0 legend "P_T"
@ s1 legend "P_N"
        -9.2119        867.4207        865.7155
        -9.0258        861.0397        867.4701
        -8.8397        852.6195        855.5959
        -8.6536        867.7890        864.6413
        -8.4675        856.6105        857.6919
        -8.2814        857.3958        856.0997
        -8.0953        860.0714        871.1743
        -7.9092        863.5276        863.8163
        -7.7231        857.4818        851.0769
        -7.5370        862.8586        861.8444
        -7.3509        876.3058        868.4668
        -7.1648        858.6391        863.4955
        -6.9787        866.4724        870.1213
        -6.7926        861.5921        849.8358
        -6.6065        850.2275        856.5585
        -6.4204        866.5969        872.2015
        -6.2343        861.5359        868.5070
        -6.0482        853.9266        863.8598
        -5.8621        833.7565        827.8705
        -5.6760        844.7343        854.6789
        -5.4899        830.1646        833.0510
        -5.3038        821.8613        816.4634
        -5.1177        820.8721        811.7682
        -4.9316        805.7641        815.0762
        -4.7455        802.1789        796.3208
        -4.5594        795.4188        784.7660
        -4.3733        786.7692        783.8596
        -4.1872        780.6660        771.1317
        -4.0011        782.0503        768.2216
        -3.8150        757.4802        753.4989
        -3.6289        740.8880        748.7408
        -3.4428        717.9888        723.0532
        -3.2567        677.5880        686.3541
        -3.0706        618.9804        613.2154
        -2.8845        556.1624        558.8525
        -2.6984        498.7568        506.6464
        -2.5123        467.5892        469.1053
        -2.3262        417.2576        420.6485
        -2.1401        403.1243        400.4459
        -1.9540        376.7247        381.9505
        -1.7679        375.9145        375.8064
        -1.5818        382.6009        383.2711
        -1.3957        377.3983        374.8794
        -1.2096        382.7307        381.5865
        -1.0235        374.0652        368.1291
        -0.8374        374.9725        375.0493
        -0.6513        372.4286        379.4417
        -0.4652        375.1096        373.5104
        -0.2791        369.6538        375.5089
        -0.0931        376.7350        377.9775
         0.0930        376.4567        373.4687
         0.2791        375.8366        377.0223
         0.4652        378.8925        377.2032
         0.6513        375.8942        371.0455
         0.8374        365.0157        367.3295
         1.0235        377.9127        380.9579
         1.2096        385.9169        384.2994
         1.3957        372.2894        369.8419
         1.5818        375.4248        372.0079
         1.7679        375.3429        367.4826
         1.9540        378.4066        378.7281
         2.1401        381.3754        394.6433
         2.3262        405.3081        407.6585
         2.5123        429.6077        429.4706
         2.6984        466.9826        469.5565
         2.8845        538.8719        539.2889
         3.0706        597.1995        609.2363
         3.2567        652.6194        656.8041
         3.4428        701.1719        701.4227
         3.6289        729.7841        722.9084
         3.8150        763.9338        747.0138
         4.0011        783.2776        767.5552
         4.1872        790.0577        773.3561
         4.3733        773.8975        764.2870
         4.5594        793.2670        784.4663
         4.7455        791.2548        771.8564
         4.9316        789.7206        788.1873
         5.1177        804.3478        795.8903
         5.3038        812.8511        807.2798
         5.4899        810.1108        811.0351
         5.6760        836.5002        841.2221
         5.8621        833.4435        838.6840
         6.0482        856.8452        857.1736
         6.2343        846.1189        850.1483
         6.4204        868.1643        859.9273
         6.6065        871.2043        856.3389
         6.7926        865.5564        862.2992
         6.9787        861.1879        861.0101
         7.1648        861.2614        861.9429
         7.3509        855.5771        861.9111
         7.5370        864.6148        859.1035
         7.7231        857.6387        852.4034
         7.9092        864.5019        865.0024
         8.0953        859.4081        864.5161
         8.2814        859.9875        872.6902
         8.4675        865.6988        859.8798
         8.6536        863.3797        854.0841
         8.8397        859.6422        873.9033
         9.0258        864.5343        863.5861
         9.2119        860.4832        857.1909
