@ title  "Pressure (P) and density (D) over 101 frames"
@ xlabel "Z [nm]"
@ ylabel "P [bar] or D [kg/m^3]"
@ s0 legend "P_T"
@ s1 legend "P_N"
        -9.2831        859.7800        870.2389
        -9.0956        862.4293        864.8157
        -8.9081        860.9274        860.9782
        -8.7205        872.0494        873.1540
        -8.5330        851.0707        844.6713
        -8.3454        871.7348        882.3622
        -8.1579        861.8830        856.5538
        -7.9704        870.7559        865.0637
        -7.7828        863.2238        861.1357
        -7.5953        856.3832        859.1943
        -7.4077        871.7285        862.2368
        -7.2202        868.3870        865.8335
        -7.0327        859.3949        855.1576
        -6.8451        859.7877        876.2527
        -6.6576        864.0379        851.4803
        -6.4701        860.9973        861.2407
        -6.2825        863.4305        871.1531
        -6.0950        857.5029        865.6135
        -5.9074        853.6390        845.3152
        -5.7199        845.6755        841.3696
        -5.5324        835.6636        833.6669
        -5.3448        835.1770        825.0211
        -5.1573        828.7073        825.6570
        -4.9698        824.8971        821.2997
        -4.7822        818.0671        826.3741
        -4.5947        813.8516        797.9874
        -4.4071        796.8401        800.6571
        -4.2196        777.6997        776.0209
        -4.0321        771.5673        766.1204
        -3.8445        753.6682        743.5671
        -3.6570        743.8546        744.1933
        -3.4695        707.0823        703.9891
        -3.2819        669.8445        680.6016
        -3.0944        618.7636        634.0747
        -2.9068        546.5748        551.2188
        -2.7193        507.1223        511.2393
        -2.5318        434.2766        439.3517
        -2.3442        410.4114        407.7967
        -2.1567        389.7548        387.1492
        -1.9691        378.6309        379.9818
        -1.7816        377.6617        377.2896
        -1.5941        379.6843        379.3729
        -1.4065        371.1008        373.8408
        -1.2190        370.3658        376.3384
        -1.0315        379.4162        371.9485
        -0.8439        368.7243        371.2383
        -0.6564        374.2024        383.7042
        -0.4688        378.1467        380.8448
        -0.2813        380.1777        379.4065
        -0.0938        379.2313        374.4883
         0.0938        382.4034        382.9243
         0.2813        376.8341        377.6134
         0.4688        370.5687        365.0460
         0.6564        383.8698        380.0723
         0.8439        368.5700        360.7812
         1.0315        375.9979        369.5757
         1.2190        377.0762        378.1768
         1.4065        384.2219        380.4234
         1.5941        371.4111        376.1509
         1.7816        380.4537        379.9484
         1.9691        381.6409        382.4337
         2.1567        391.1075        393.0694
         2.3442        416.6397        408.9973
         2.5318        433.8182        421.0742
         2.7193        469.3766        470.4896
         2.9068        508.5881        508.4854
         3.0944        593.5562        592.6199
         3.2819        649.7021        659.7169
         3.4694        701.3602        706.8726
         3.6570        717.5644        725.5609
         3.8445        750.4137        747.8990
         4.0321        781.0932        763.6505
         4.2196        785.4017        765.9058
         4.4071        782.9667        772.0435
         4.5947        790.0623        786.5193
         4.7822        789.3325        784.3421
         4.9698        794.4657        792.5981
         5.1573        809.9522        805.4149
         5.3448        830.1541        817.0126
         5.5324        824.8596        820.9471
         5.7199        833.3987        828.4119
         5.9074        849.5750        849.5399
         6.0950        851.7884        847.0063
         6.2825        865.7852        858.1762
         6.4701        861.2958        859.6086
         6.6576        866.8677        863.4957
         6.8451        857.8088        857.2549
         7.0327        864.0533        873.6194
         7.2202        859.7249        869.3892
         7.4077        858.3173        875.3120
         7.5953        850.1537        857.8676
         7.7828        853.7025        852.3226
         7.9704        867.8296        873.8036
         8.1579        862.3961        859.8309
         8.3454        868.0022        867.7450
         8.5330        854.0228        848.6365
         8.7205        871.2314        864.3755
         8.9080        852.6694        863.9008
         9.0956        863.8600        864.9791
         9.2831        864.2177        869.4163
