@ title  "Pressure (P) and density (D) over 101 frames"
@ xlabel "Z [nm]"
@ ylabel "P [bar] or D [kg/m^3]"
@ s0 legend "P_T"
@ s1 legend "P_N"
        -9.2152        -58.2866        -30.5031
        -9.0290        -15.0325          3.1791
        -8.8428        -50.4963         17.4258
        -8.6567         11.9223         20.3296
        -8.4705        -11.1288          1.1657
        -8.2843        -40.1750         -6.1407
        -8.0982         18.8159          7.6536
        -7.9120        -13.5219          3.5675
        -7.7258        -13.1741        -28.4867
        -7.5397        -23.5417        -38.6977
        -7.3535         -9.9307        -47.2153
        -7.1673         41.0224        -35.1157
        -6.9812        -36.1815         -9.7437
        -6.7950        -63.6156         20.5126
        -6.6089         -1.5614         22.0246
        -6.4227         15.9168         -9.6860
        -6.2365         32.9237          6.4825
        -6.0504         56.8848         38.2289
        -5.8642         49.2222         67.9097
        -5.6780          0.4640         28.5959
        -5.4919          1.2158          7.2883
        -5.3057          8.3271        -13.2607
        -5.1195         59.9767         -3.3085
        -4.9334         61.3281         19.3690
        -4.7472         -0.4687        -42.5541
        -4.5610         40.0213        -52.8292
        -4.3749          5.2711        -22.2698
        -4.1887         57.7554        -29.5357
        -4.0025        105.2049         14.2170
        -3.8164         67.0197        -17.2223
        -3.6302         77.7623         17.5707
        -3.4441        -19.2213         30.6231
        -3.2579       -105.6733         46.6413
        -3.0717       -139.1566         31.6120
        -2.8856       -183.7894         33.9883
        -2.6994       -142.1923         49.6487
        -2.5132       -162.3272         32.0667
        -2.3271        -44.7868         21.2714
        -2.1409        -76.0515         54.5508
        -1.9547        -15.1926         44.7715
        -1.7686         28.9857          5.8967
        -1.5824         14.8385         -9.3397
        -1.3962         39.1002         -8.9996
        -1.2101         -0.5787         -1.8907
        -1.0239        -36.8251         27.3117
        -0.8377         50.7777         19.0803
        -0.6516         24.0541         -4.5423
        -0.4654        -17.3671        -21.4949
        -0.2792        -29.5030        -18.2306
        -0.0931         16.2981          1.1435
         0.0931         23.3703          3.3560
         0.2792        -36.6671        -14.9855
         0.4654         -4.9097        -34.1407
         0.6516        -20.7075        -22.2516
         0.8377         21.0816        -31.0813
         1.0239         38.0507        -28.4105
         1.2101          4.5014        -22.2077
         1.3962         31.2239         -9.0811
         1.5824         41.8713         23.3604
         1.7686         41.3488         22.0308
         1.9547         22.6664         10.3438
         2.1409          9.4087         30.7355
         2.3271        -19.1986         34.1993
         2.5132       -103.3863         11.1991
         2.6994       -168.0222         19.4405
         2.8856       -171.8675         27.9075
         3.0717       -178.8061        -13.7777
         3.2579       -107.0208        -27.9895
         3.4440        -21.4440        -71.1784
         3.6302        -80.9176         -1.4002
         3.8164         67.7248         -1.2084
         4.0025         94.4084         -8.8069
         4.1887         74.1179         38.2936
         4.3749        108.1596         10.7122
         4.5610         45.0637        -12.3939
         4.7472         31.3501        -32.0479
         4.9334         78.1058         13.6021
         5.1195        106.0289          8.4633
         5.3057        121.2805         55.3421
         5.4919         97.4274          8.8449
         5.6780         15.3012        -70.7044
         5.8642         23.0227        -14.9133
         6.0504         28.6926         17.3895
         6.2365         32.3757          4.2452
         6.4227        -22.6501          6.2253
         6.6089         31.7549        -12.6531
         6.7950         -6.3246        -21.5214
         6.9812         -3.3733         -2.1945
         7.1673         -7.5270          4.6282
         7.3535         51.1041         21.7588
         7.5397         19.1010         21.1085
         7.7258         60.3152         34.9069
         7.9120          9.2070         60.9162
         8.0982         26.6657         53.5818
         8.2843         13.9159         23.1872
         8.4705         43.2601          4.2010
         8.6567         -5.3221        -16.1312
         8.8428         -4.2603        -17.1292
         9.0290         15.6194          6.5274
         9.2152         17.7986        -11.9218
