@ title  "Pressure (P) and density (D) over 101 frames"
@ xlabel "Z [nm]"
@ ylabel "P [bar] or D [kg/m^3]"
@ s0 legend "P_T"
@ s1 legend "P_N"
        -9.1478         15.7265          0.0000
        -8.9630          0.1720          0.0000
        -8.7782         16.8132          0.0000
        -8.5934         18.6271          0.0000
        -8.4086        -21.8709          0.0000
        -8.2238         20.7239          0.0000
        -8.0390        -51.9659          0.0000
        -7.8542         25.7634          0.0000
        -7.6693         70.4539          0.0000
        -7.4845        -31.4183          0.0000
        -7.2997         -0.9519          0.0000
        -7.1149        -13.1160          0.0000
        -6.9301        -18.4160          0.0000
        -6.7453        -21.1199          0.0000
        -6.5605         14.8753          0.0000
        -6.3757         76.8694          0.0000
        -6.1909         30.1488          0.0000
        -6.0061        -10.2985          0.0000
        -5.8213        -55.3496          0.0000
        -5.6365        -15.7767          0.0000
        -5.4517         55.3432          0.0000
        -5.2669         63.3998          0.0000
        -5.0821         23.0040          0.0000
        -4.8973         -7.0672          0.0000
        -4.7125         84.5510          0.0000
        -4.5277         15.1516          0.0000
        -4.3429          5.4612          0.0000
        -4.1581         54.5063          0.0000
        -3.9733         96.9777          0.0000
        -3.7885        111.8166          0.0000
        -3.6037         71.2689          0.0000
        -3.4189        -27.3536          0.0000
        -3.2341         -4.4353          0.0000
        -3.0493       -107.6176          0.0000
        -2.8645        -83.6951          0.0000
        -2.6797       -210.9432          0.0000
        -2.4948       -167.1617          0.0000
        -2.3100        -80.5289          0.0000
        -2.1252        -72.2212          0.0000
        -1.9404        -47.3912          0.0000
        -1.7556        -43.1263          0.0000
        -1.5708         -3.4932          0.0000
        -1.3860        -18.5904          0.0000
        -1.2012         32.9290          0.0000
        -1.0164         16.9032          0.0000
        -0.8316         50.4239          0.0000
        -0.6468         35.8268          0.0000
        -0.4620        -22.0409          0.0000
        -0.2772          8.8914          0.0000
        -0.0924        -19.2785          0.0000
         0.0924        -15.1188          0.0000
         0.2772         65.6749          0.0000
         0.4620         59.4919          0.0000
         0.6468         24.5024          0.0000
         0.8316         45.2852          0.0000
         1.0164        -26.9881          0.0000
         1.2012        -55.2946          0.0000
         1.3860        -51.1608          0.0000
         1.5708         14.1808          0.0000
         1.7556         61.5403          0.0000
         1.9404         70.5645          0.0000
         2.1252         -0.4408          0.0000
         2.3100        -30.3755          0.0000
         2.4949       -124.0943          0.0000
         2.6797       -196.5291          0.0000
         2.8645       -277.5457          0.0000
         3.0493       -210.9098          0.0000
         3.2341        -94.5348          0.0000
         3.4189        -80.7476          0.0000
         3.6037         52.7870          0.0000
         3.7885         99.0470          0.0000
         3.9733         51.7285          0.0000
         4.1581         58.0035          0.0000
         4.3429         87.1119          0.0000
         4.5277         76.1932          0.0000
         4.7125         92.0770          0.0000
         4.8973        -16.4785          0.0000
         5.0821         50.4333          0.0000
         5.2669         26.9078          0.0000
         5.4517        -20.2664          0.0000
         5.6365         48.0741          0.0000
         5.8213         10.0594          0.0000
         6.0061         29.9539          0.0000
         6.1909         23.6871          0.0000
         6.3757         74.7788          0.0000
         6.5605          5.4023          0.0000
         6.7453        -28.7825          0.0000
         6.9301        -76.0573          0.0000
         7.1149        -41.4127          0.0000
         7.2997         13.3823          0.0000
         7.4845         41.7202          0.0000
         7.6694         15.2720          0.0000
         7.8542        -13.6736          0.0000
         8.0390        -16.8997          0.0000
         8.2238          9.0143          0.0000
         8.4086          1.8945          0.0000
         8.5934        -30.8917          0.0000
         8.7782         -5.8594          0.0000
         8.9630        -29.5312          0.0000
         9.1478        -42.1523          0.0000
