@ title  "Pressure (P) and density (D) over 101 frames"
@ xlabel "Z [nm]"
@ ylabel "P [bar] or D [kg/m^3]"
@ s0 legend "P_T"
@ s1 legend "P_N"
        -9.2907          3.8308         59.1468
        -9.1030        -15.3681         14.6596
        -8.9153         47.2536         10.8381
        -8.7276         85.9086         25.9819
        -8.5399        -12.2720         12.3068
        -8.3522         29.5128         51.5148
        -8.1645        -37.4111         52.5562
        -7.9768         75.0719         14.6326
        -7.7891        -46.6238        -31.2309
        -7.6014         -1.7614         -2.3905
        -7.4138         62.3007          7.7722
        -7.2261         -5.1075        -22.4752
        -7.0384        109.5066         -4.8351
        -6.8507        -22.3966         30.2631
        -6.6630        -57.7090         41.5321
        -6.4753        -15.6228          8.2629
        -6.2876         20.5937        -43.1360
        -6.0999         28.4676        -43.5687
        -5.9122        -17.8713        -10.5664
        -5.7245          6.6588         15.5135
        -5.5369         29.3039         55.1595
        -5.3492         60.3523         58.7946
        -5.1615        100.3898         42.5145
        -4.9738         34.7710         35.4868
        -4.7861        134.6855         31.9142
        -4.5984         63.0012        -49.7885
        -4.4107         36.9966        -42.4274
        -4.2230         56.9195        -63.7713
        -4.0353        171.8593         -0.9680
        -3.8476         78.3428         24.9710
        -3.6600          9.2453         13.7760
        -3.4723        -21.4863         34.0338
        -3.2846       -130.8954         30.5576
        -3.0969       -186.4152          8.7573
        -2.9092       -211.8480         -3.2887
        -2.7215       -203.4335         16.5397
        -2.5338       -142.9247         -8.7821
        -2.3461        -92.6595         26.0145
        -2.1584        -36.2073        -25.5532
        -1.9707         53.4499          7.1633
        -1.7831         62.3957         21.3551
        -1.5954         42.1579         16.6651
        -1.4077          0.9618          7.8895
        -1.2200         44.6881         39.5515
        -1.0323         27.2886          3.4654
        -0.8446         -5.6351         17.9525
        -0.6569        -78.9495         11.8439
        -0.4692        -18.1560         15.1963
        -0.2815        -31.2130         25.2116
        -0.0938        -22.4224        -12.1199
         0.0938         42.8675         28.4344
         0.2815         46.7619         57.7208
         0.4692         87.7816         73.7932
         0.6569         -5.0733         51.0510
         0.8446         24.2559          7.2449
         1.0323         29.8948        -15.3842
         1.2200         -3.0936        -20.8201
         1.4077         41.9973          7.8636
         1.5954         55.0421          7.6080
         1.7831          9.3124        -26.6137
         1.9707         63.5416        -32.0896
         2.1584         55.6962         -8.3404
         2.3461        -37.0030        -10.6455
         2.5338       -125.4173        -13.1041
         2.7215       -180.5384         -5.8131
         2.9092       -252.2131        -22.6785
         3.0969       -207.4401         10.3331
         3.2846        -89.7458         17.9519
         3.4723         18.3311          2.8068
         3.6600         67.2800         33.4632
         3.8476         99.7467         15.8047
         4.0353        105.4036         52.5315
         4.2230        159.0407         65.0699
         4.4107         87.0868         41.9080
         4.5984        150.9061         43.6745
         4.7861        160.3302         11.2670
         4.9738        128.5952         16.4555
         5.1615         81.2596          4.0632
         5.3492        107.1370         55.8306
         5.5369         48.2046        101.6022
         5.7245         93.4686        106.6496
         5.9122         29.3045         73.5802
         6.0999         16.5863         46.8032
         6.2876        -37.4193         60.1480
         6.4753         10.6408         53.7245
         6.6630         39.0014         23.6391
         6.8507         76.7914          5.3058
         7.0384         23.9109        -20.7528
         7.2261        -77.9392        -20.7883
         7.4138         70.9636        -15.2417
         7.6014        -72.4836         17.0532
         7.7891         52.6159         52.5485
         7.9768         39.4422         30.8489
         8.1645        -12.3144         -0.4246
         8.3522        -24.1536          4.3951
         8.5399         38.0571          5.9718
         8.7276         39.8478         34.3825
         8.9153         18.7758         51.4767
         9.1030         49.2505         85.7885
         9.2907         26.0798         87.1282
