@ title  "Pressure (P) and density (D) over 101 frames"
@ xlabel "Z [nm]"
@ ylabel "P [bar] or D [kg/m^3]"
@ s0 legend "P_T"
@ s1 legend "P_N"
        -9.2112         -4.0164          0.0000
        -9.0251         20.9794          0.0000
        -8.8390         48.6034          0.0000
        -8.6529          0.4448          0.0000
        -8.4668         31.1851          0.0000
        -8.2807        -53.0360          0.0000
        -8.0947         40.8596          0.0000
        -7.9086         -2.1027          0.0000
        -7.7225        -24.8922          0.0000
        -7.5364        -27.6234          0.0000
        -7.3503        -29.3545          0.0000
        -7.1642         45.5245          0.0000
        -6.9781         39.8592          0.0000
        -6.7921         -6.1550          0.0000
        -6.6060         18.1414          0.0000
        -6.4199         28.1273          0.0000
        -6.2338         -7.7062          0.0000
        -6.0477         75.6471          0.0000
        -5.8616          0.8139          0.0000
        -5.6756        -15.0595          0.0000
        -5.4895         -9.9185          0.0000
        -5.3034         17.4868          0.0000
        -5.1173         50.1726          0.0000
        -4.9312         52.6115          0.0000
        -4.7451         23.9204          0.0000
        -4.5591         83.3008          0.0000
        -4.3730         71.4353          0.0000
        -4.1869        153.5690          0.0000
        -4.0008        115.3583          0.0000
        -3.8147         54.0568          0.0000
        -3.6286         92.9088          0.0000
        -3.4426         14.6857          0.0000
        -3.2565       -122.9357          0.0000
        -3.0704       -241.7375          0.0000
        -2.8843       -237.4876          0.0000
        -2.6982       -188.5835          0.0000
        -2.5121       -113.0726          0.0000
        -2.3261       -105.9621          0.0000
        -2.1400        -37.1471          0.0000
        -1.9539         36.2852          0.0000
        -1.7678         44.6603          0.0000
        -1.5817         32.6985          0.0000
        -1.3956         28.9155          0.0000
        -1.2095         34.2814          0.0000
        -1.0235        -63.1594          0.0000
        -0.8374        -51.6097          0.0000
        -0.6513        -61.1574          0.0000
        -0.4652         39.9733          0.0000
        -0.2791         21.7527          0.0000
        -0.0930          5.0180          0.0000
         0.0930         17.6800          0.0000
         0.2791         -2.2051          0.0000
         0.4652        -17.0933          0.0000
         0.6513        -13.3671          0.0000
         0.8374         -1.1041          0.0000
         1.0235          6.1013          0.0000
         1.2095         48.8918          0.0000
         1.3956         42.1017          0.0000
         1.5817         35.2633          0.0000
         1.7678         44.6219          0.0000
         1.9539         23.5959          0.0000
         2.1400         27.6377          0.0000
         2.3260        -60.7800          0.0000
         2.5121        -94.9185          0.0000
         2.6982       -170.2784          0.0000
         2.8843       -169.2805          0.0000
         3.0704       -167.2801          0.0000
         3.2565        -65.8895          0.0000
         3.4426         75.2547          0.0000
         3.6286         96.3057          0.0000
         3.8147        106.9631          0.0000
         4.0008        218.7921          0.0000
         4.1869        111.2663          0.0000
         4.3730         83.3555          0.0000
         4.5591         71.1028          0.0000
         4.7451        108.8549          0.0000
         4.9312        103.7189          0.0000
         5.1173         -7.1290          0.0000
         5.3034         18.4619          0.0000
         5.4895         34.8605          0.0000
         5.6756         47.5663          0.0000
         5.8616         52.2953          0.0000
         6.0477         37.7138          0.0000
         6.2338        -21.2620          0.0000
         6.4199        -17.9524          0.0000
         6.6060         -8.3033          0.0000
         6.7921        -16.7474          0.0000
         6.9781        -22.9890          0.0000
         7.1642         13.6581          0.0000
         7.3503         50.7422          0.0000
         7.5364         57.4243          0.0000
         7.7225          6.9700          0.0000
         7.9086         10.1278          0.0000
         8.0947          1.3005          0.0000
         8.2807        -30.0319          0.0000
         8.4668        -16.8827          0.0000
         8.6529         -8.7439          0.0000
         8.8390          3.1564          0.0000
         9.0251         -6.1659          0.0000
         9.2112        -31.2678          0.0000
