@ title  "Pressure (P) and density (D) over 101 frames"
@ xlabel "Z [nm]"
@ ylabel "P [bar] or D [kg/m^3]"
@ s0 legend "P_T"
@ s1 legend "P_N"
        -9.1338        -14.9794          0.0000
        -8.9493         21.4869          0.0000
        -8.7648        -24.1797          0.0000
        -8.5803        -56.6982          0.0000
        -8.3958          5.7414          0.0000
        -8.2112          3.4585          0.0000
        -8.0267        -34.4125          0.0000
        -7.8422        -60.4900          0.0000
        -7.6577         13.8731          0.0000
        -7.4731        -26.9790          0.0000
        -7.2886         44.2250          0.0000
        -7.1041        -21.6436          0.0000
        -6.9196          6.7256          0.0000
        -6.7351        -70.9502          0.0000
        -6.5505        -15.0678          0.0000
        -6.3660         43.4297          0.0000
        -6.1815        -11.2273          0.0000
        -5.9970         30.5224          0.0000
        -5.8124        -12.7665          0.0000
        -5.6279        -39.5294          0.0000
        -5.4434         64.1898          0.0000
        -5.2589        140.0723          0.0000
        -5.0744         -3.2779          0.0000
        -4.8898         41.4566          0.0000
        -4.7053         56.3228          0.0000
        -4.5208         11.1223          0.0000
        -4.3363         77.4094          0.0000
        -4.1518        133.8087          0.0000
        -3.9672        120.8985          0.0000
        -3.7827         70.0125          0.0000
        -3.5982         98.0023          0.0000
        -3.4137        -12.7573          0.0000
        -3.2291        -71.0214          0.0000
        -3.0446       -203.0766          0.0000
        -2.8601       -196.8381          0.0000
        -2.6756       -171.8945          0.0000
        -2.4911       -115.6454          0.0000
        -2.3065        -83.8232          0.0000
        -2.1220         14.3657          0.0000
        -1.9375          2.5378          0.0000
        -1.7530         25.9229          0.0000
        -1.5684         15.2864          0.0000
        -1.3839         -5.5342          0.0000
        -1.1994         15.8985          0.0000
        -1.0149        -19.2377          0.0000
        -0.8304         26.9788          0.0000
        -0.6458         20.2224          0.0000
        -0.4613        -29.3058          0.0000
        -0.2768        -31.0104          0.0000
        -0.0923        -31.5540          0.0000
         0.0923          4.4326          0.0000
         0.2768          5.0362          0.0000
         0.4613         -3.2909          0.0000
         0.6458         15.4723          0.0000
         0.8303         27.2001          0.0000
         1.0149         13.7041          0.0000
         1.1994        -20.6489          0.0000
         1.3839         11.1452          0.0000
         1.5684         55.7509          0.0000
         1.7530         89.1789          0.0000
         1.9375         33.4460          0.0000
         2.1220         38.4350          0.0000
         2.3065        -16.7381          0.0000
         2.4910        -76.5713          0.0000
         2.6756        -69.1445          0.0000
         2.8601       -135.7402          0.0000
         3.0446       -112.4940          0.0000
         3.2291       -100.6262          0.0000
         3.4137          9.4701          0.0000
         3.5982        -38.1474          0.0000
         3.7827        -75.0928          0.0000
         3.9672         38.4186          0.0000
         4.1517         59.3931          0.0000
         4.3363         69.0957          0.0000
         4.5208         81.7704          0.0000
         4.7053         43.6911          0.0000
         4.8898         51.0079          0.0000
         5.0744         91.9942          0.0000
         5.2589         41.4876          0.0000
         5.4434         48.7269          0.0000
         5.6279         18.1668          0.0000
         5.8124          9.4238          0.0000
         5.9970         25.9060          0.0000
         6.1815         45.7989          0.0000
         6.3660         -4.1461          0.0000
         6.5505         18.2472          0.0000
         6.7351        -23.3725          0.0000
         6.9196        -75.0674          0.0000
         7.1041         30.1943          0.0000
         7.2886         -1.2167          0.0000
         7.4731        -13.8766          0.0000
         7.6577         15.4191          0.0000
         7.8422        -23.2187          0.0000
         8.0267        -15.7037          0.0000
         8.2112        -57.5107          0.0000
         8.3958        -27.0585          0.0000
         8.5803         50.6229          0.0000
         8.7648        -24.0706          0.0000
         8.9493         -2.4154          0.0000
         9.1338        -45.9974          0.0000
