@ title  "Pressure (P) and density (D) over 101 frames"
@ xlabel "Z [nm]"
@ ylabel "P [bar] or D [kg/m^3]"
@ s0 legend "P_T"
@ s1 legend "P_N"
        -9.3345         58.1886          0.0000
        -9.1459         32.8897          0.0000
        -8.9574         25.0436          0.0000
        -8.7688         35.8085          0.0000
        -8.5802          8.2380          0.0000
        -8.3916         41.5561          0.0000
        -8.2031         22.6829          0.0000
        -8.0145          5.7526          0.0000
        -7.8259         13.6155          0.0000
        -7.6373         33.4836          0.0000
        -7.4488        -33.3843          0.0000
        -7.2602        -13.7753          0.0000
        -7.0716          0.7668          0.0000
        -6.8830         -9.5200          0.0000
        -6.6945         40.9420          0.0000
        -6.5059        -14.1986          0.0000
        -6.3173         25.3965          0.0000
        -6.1287          0.9047          0.0000
        -5.9401        -26.8058          0.0000
        -5.7516         46.5692          0.0000
        -5.5630        -10.7491          0.0000
        -5.3744         33.9641          0.0000
        -5.1858        -11.3709          0.0000
        -4.9973         34.3188          0.0000
        -4.8087         40.4161          0.0000
        -4.6201        108.0829          0.0000
        -4.4315        109.6136          0.0000
        -4.2430         65.8831          0.0000
        -4.0544         94.8539          0.0000
        -3.8658        100.2257          0.0000
        -3.6772        -35.9047          0.0000
        -3.4887        -11.5197          0.0000
        -3.3001        -96.9580          0.0000
        -3.1115       -149.9486          0.0000
        -2.9229       -167.7541          0.0000
        -2.7344       -182.7321          0.0000
        -2.5458       -194.2259          0.0000
        -2.3572       -106.8276          0.0000
        -2.1686        -54.8624          0.0000
        -1.9801         52.1711          0.0000
        -1.7915         51.7103          0.0000
        -1.6029          8.6857          0.0000
        -1.4143         19.2921          0.0000
        -1.2257         19.6084          0.0000
        -1.0372         -6.3833          0.0000
        -0.8486         -4.1159          0.0000
        -0.6600         -8.5976          0.0000
        -0.4714         -9.8554          0.0000
        -0.2829        -28.4143          0.0000
        -0.0943        -70.2485          0.0000
         0.0943         20.0373          0.0000
         0.2829        -74.8384          0.0000
         0.4714         -9.7372          0.0000
         0.6600          8.3498          0.0000
         0.8486        -16.6314          0.0000
         1.0372         58.5250          0.0000
         1.2257         74.6467          0.0000
         1.4143         -7.4370          0.0000
         1.6029         23.0835          0.0000
         1.7915         38.5890          0.0000
         1.9800         -3.3322          0.0000
         2.1686        -20.2844          0.0000
         2.3572       -106.9215          0.0000
         2.5458       -107.8003          0.0000
         2.7344       -187.7374          0.0000
         2.9229       -203.7285          0.0000
         3.1115       -171.6823          0.0000
         3.3001        -61.4513          0.0000
         3.4887          2.5901          0.0000
         3.6772        111.0800          0.0000
         3.8658         99.6285          0.0000
         4.0544        170.9276          0.0000
         4.2430        101.3770          0.0000
         4.4315         46.1742          0.0000
         4.6201        102.8330          0.0000
         4.8087         93.6186          0.0000
         4.9973         66.9996          0.0000
         5.1858         75.2210          0.0000
         5.3744        104.1099          0.0000
         5.5630         26.2701          0.0000
         5.7516         19.0158          0.0000
         5.9401          2.1518          0.0000
         6.1287         39.9182          0.0000
         6.3173        -16.9181          0.0000
         6.5059          0.9283          0.0000
         6.6944         15.2071          0.0000
         6.8830        -22.3641          0.0000
         7.0716         55.3487          0.0000
         7.2602         68.7266          0.0000
         7.4488          5.3396          0.0000
         7.6373        -18.6197          0.0000
         7.8259         -5.3162          0.0000
         8.0145         27.4536          0.0000
         8.2031         31.1045          0.0000
         8.3916         37.7037          0.0000
         8.5802         28.2738          0.0000
         8.7688        -27.9954          0.0000
         8.9574          4.4904          0.0000
         9.1459         37.7217          0.0000
         9.3345        -11.9786          0.0000
