@ title  "Pressure (P) and density (D) over 101 frames"
@ xlabel "Z [nm]"
@ ylabel "P [bar] or D [kg/m^3]"
@ s0 legend "P_T"
@ s1 legend "P_N"
        -9.0444        851.6277        847.5889
        -8.8617        863.8295        862.0632
        -8.6790        855.0255        862.8456
        -8.4963        872.8511        870.4228
        -8.3135        857.8351        864.3260
        -8.1308        861.9208        873.7483
        -7.9481        853.5214        854.9973
        -7.7654        868.1331        856.9034
        -7.5827        858.0415        857.0967
        -7.4000        860.0416        853.3159
        -7.2172        865.1338        877.7609
        -7.0345        860.6178        861.2004
        -6.8518        859.8646        865.2865
        -6.6691        861.4481        866.5455
        -6.4864        861.5115        855.4633
        -6.3037        860.3261        849.8258
        -6.1210        857.8372        847.8183
        -5.9382        863.5748        843.0850
        -5.7555        847.7678        839.5038
        -5.5728        842.5284        839.0656
        -5.3901        824.2466        829.7419
        -5.2074        827.1031        828.4492
        -5.0247        815.9840        819.3654
        -4.8420        805.9968        804.6624
        -4.6592        789.5193        801.4459
        -4.4765        786.2599        773.3491
        -4.2938        782.6189        786.8381
        -4.1111        777.8121        768.2758
        -3.9284        767.9116        762.2676
        -3.7457        767.5157        765.6213
        -3.5629        741.8888        736.7344
        -3.3802        707.9075        698.5876
        -3.1975        677.7229        684.9087
        -3.0148        618.6174        626.6730
        -2.8321        570.3510        572.6978
        -2.6494        504.7814        506.9122
        -2.4667        450.6487        452.3353
        -2.2839        429.6898        432.6083
        -2.1012        399.8065        396.4635
        -1.9185        386.1700        381.7778
        -1.7358        373.5525        371.7017
        -1.5531        376.7256        374.7928
        -1.3704        372.4573        367.7550
        -1.1876        370.8709        367.9344
        -1.0049        379.9087        381.2093
        -0.8222        371.5934        376.1924
        -0.6395        376.2685        376.0157
        -0.4568        381.2260        376.9041
        -0.2741        371.8707        367.2701
        -0.0914        375.8394        391.9240
         0.0914        374.2368        375.5493
         0.2741        364.0043        370.4115
         0.4568        380.9127        379.4140
         0.6395        364.0451        364.8042
         0.8222        382.0573        382.5778
         1.0049        371.0062        376.8257
         1.1876        381.9219        382.3817
         1.3704        375.8991        378.1936
         1.5531        377.6617        374.4330
         1.7358        382.9719        378.0337
         1.9185        379.2021        380.7541
         2.1012        397.2824        400.4809
         2.2839        401.6538        401.4933
         2.4667        451.2993        452.2383
         2.6494        498.6209        491.8477
         2.8321        534.0566        542.4236
         3.0148        600.8106        596.8355
         3.1975        621.8812        623.3546
         3.3802        691.9255        689.0539
         3.5629        739.7863        737.4655
         3.7457        755.6530        752.5728
         3.9284        776.7366        772.7575
         4.1111        787.8299        780.6160
         4.2938        799.5547        794.0993
         4.4765        799.5020        794.7378
         4.6592        793.4117        790.7638
         4.8420        802.9172        797.7786
         5.0247        801.8206        807.4194
         5.2074        808.7085        795.0208
         5.3901        818.8151        803.2905
         5.5728        817.5153        824.4139
         5.7555        832.8211        839.6169
         5.9382        847.5455        859.5110
         6.1210        845.5276        836.5517
         6.3037        859.4287        849.9052
         6.4864        857.1918        855.4666
         6.6691        860.1146        866.0905
         6.8518        863.3311        865.5270
         7.0345        856.2518        856.4775
         7.2173        860.7289        873.1958
         7.4000        857.1248        849.1050
         7.5827        863.3993        858.8953
         7.7654        864.6238        867.1712
         7.9481        848.8251        844.2615
         8.1308        866.2831        858.5746
         8.3135        861.2985        855.9758
         8.4963        867.8680        869.9767
         8.6790        863.5626        861.9036
         8.8617        863.6382        855.5696
         9.0444        864.0984        866.5059
