@ title  "Pressure (P) and density (D) over 101 frames"
@ xlabel "Z [nm]"
@ ylabel "P [bar] or D [kg/m^3]"
@ s0 legend "P_T"
@ s1 legend "P_N"
        -9.0693         10.5528          0.0000
        -8.8861        -16.3637          0.0000
        -8.7029         -0.9860          0.0000
        -8.5197         11.8360          0.0000
        -8.3364        -72.8854          0.0000
        -8.1532         13.2115          0.0000
        -7.9700         51.9765          0.0000
        -7.7868          5.5740          0.0000
        -7.6036         25.1589          0.0000
        -7.4204         48.4772          0.0000
        -7.2371         75.1676          0.0000
        -7.0539         45.8875          0.0000
        -6.8707        -37.1018          0.0000
        -6.6875         28.2202          0.0000
        -6.5043          5.7108          0.0000
        -6.3210         35.7610          0.0000
        -6.1378         28.7560          0.0000
        -5.9546         24.7033          0.0000
        -5.7714        -24.9156          0.0000
        -5.5882         13.8936          0.0000
        -5.4049         67.9815          0.0000
        -5.2217         85.8598          0.0000
        -5.0385         79.9498          0.0000
        -4.8553         76.5465          0.0000
        -4.6721         55.2403          0.0000
        -4.4889         93.0733          0.0000
        -4.3056         89.6218          0.0000
        -4.1224         64.7096          0.0000
        -3.9392        171.2026          0.0000
        -3.7560        118.0761          0.0000
        -3.5728        -21.3504          0.0000
        -3.3895        -62.8392          0.0000
        -3.2063       -121.8698          0.0000
        -3.0231       -100.6949          0.0000
        -2.8399       -184.5460          0.0000
        -2.6567       -137.8628          0.0000
        -2.4734        -90.0744          0.0000
        -2.2902        -34.4810          0.0000
        -2.1070         13.9914          0.0000
        -1.9238         59.5437          0.0000
        -1.7406         70.9284          0.0000
        -1.5574         85.1618          0.0000
        -1.3741         89.1931          0.0000
        -1.1909         50.9370          0.0000
        -1.0077         31.4933          0.0000
        -0.8245        -13.6342          0.0000
        -0.6413         11.1985          0.0000
        -0.4580          5.0586          0.0000
        -0.2748         58.2670          0.0000
        -0.0916        -23.5938          0.0000
         0.0916        -53.6847          0.0000
         0.2748         -4.7368          0.0000
         0.4580         66.2709          0.0000
         0.6413         14.8184          0.0000
         0.8245         -7.6713          0.0000
         1.0077         23.4004          0.0000
         1.1909        -34.3885          0.0000
         1.3741        -51.9230          0.0000
         1.5574         11.0851          0.0000
         1.7406         33.4546          0.0000
         1.9238         19.9638          0.0000
         2.1070          0.8955          0.0000
         2.2902        -23.2718          0.0000
         2.4735       -112.5109          0.0000
         2.6567       -226.3405          0.0000
         2.8399       -196.0001          0.0000
         3.0231       -136.2196          0.0000
         3.2063        -94.5550          0.0000
         3.3895         -6.9717          0.0000
         3.5728        -41.6963          0.0000
         3.7560         36.1577          0.0000
         3.9392         51.5804          0.0000
         4.1224         44.2137          0.0000
         4.3056        121.4106          0.0000
         4.4889        136.0184          0.0000
         4.6721         77.1931          0.0000
         4.8553         57.3451          0.0000
         5.0385         80.8316          0.0000
         5.2217         57.0587          0.0000
         5.4049         35.8926          0.0000
         5.5882         10.1641          0.0000
         5.7714        -15.8580          0.0000
         5.9546         10.4417          0.0000
         6.1378         47.4562          0.0000
         6.3210         16.8435          0.0000
         6.5043         39.7932          0.0000
         6.6875          6.4873          0.0000
         6.8707          2.4293          0.0000
         7.0539        -17.0378          0.0000
         7.2371       -107.5051          0.0000
         7.4204         63.9254          0.0000
         7.6036        -14.7706          0.0000
         7.7868        -12.8427          0.0000
         7.9700        -43.2459          0.0000
         8.1532         -3.1707          0.0000
         8.3364         45.2285          0.0000
         8.5197         56.7260          0.0000
         8.7029         64.0886          0.0000
         8.8861          1.5480          0.0000
         9.0693        -41.5917          0.0000
