@ title  "Pressure (P) and density (D) over 101 frames"
@ xlabel "Z [nm]"
@ ylabel "P [bar] or D [kg/m^3]"
@ s0 legend "P_T"
@ s1 legend "P_N"
        -9.1260        856.4648        857.2223
        -8.9416        857.5330        860.9582
        -8.7572        865.4355        868.9170
        -8.5729        866.7659        861.2250
        -8.3885        865.1257        850.9406
        -8.2041        865.3679        874.0428
        -8.0198        861.6273        857.1645
        -7.8354        867.3441        872.9838
        -7.6511        867.4407        853.8796
        -7.4667        867.5441        858.6930
        -7.2823        851.9965        857.2046
        -7.0980        845.9337        849.9904
        -6.9136        872.0406        869.5594
        -6.7292        851.4214        854.7400
        -6.5449        866.5807        858.7451
        -6.3605        850.9360        851.9576
        -6.1761        859.6240        854.2987
        -5.9918        851.5410        859.7758
        -5.8074        831.6999        838.8476
        -5.6231        832.6943        826.0013
        -5.4387        833.1852        838.5856
        -5.2543        809.6957        815.9356
        -5.0700        809.4108        819.5895
        -4.8856        802.3412        804.3207
        -4.7012        793.7128        788.0237
        -4.5169        797.8853        790.0510
        -4.3325        784.0090        780.3181
        -4.1482        786.5733        780.5653
        -3.9638        776.2352        775.9265
        -3.7794        754.2175        761.8777
        -3.5951        738.8173        732.0753
        -3.4107        705.4091        693.0562
        -3.2263        675.2083        679.4280
        -3.0420        615.3484        620.8751
        -2.8576        562.5270        564.7778
        -2.6733        517.6943        510.3532
        -2.4889        454.6853        461.3050
        -2.3045        433.1387        439.8396
        -2.1202        401.3104        402.7591
        -1.9358        388.8749        392.2720
        -1.7514        386.3416        389.4315
        -1.5671        376.6446        372.1283
        -1.3827        380.6560        376.8394
        -1.1984        364.5156        366.9960
        -1.0140        384.3484        380.5596
        -0.8296        369.6739        374.1226
        -0.6453        366.6858        371.9339
        -0.4609        376.4025        370.9697
        -0.2765        376.7489        371.1871
        -0.0922        381.3969        381.0202
         0.0922        373.5786        376.8616
         0.2765        377.3166        384.9752
         0.4609        371.5435        372.3401
         0.6453        375.0233        379.4500
         0.8296        378.8831        380.4076
         1.0140        371.2724        371.5731
         1.1984        392.4669        388.3222
         1.3827        362.7060        368.7305
         1.5671        382.8580        381.0316
         1.7514        380.1115        369.4733
         1.9358        380.6708        377.6132
         2.1202        396.3824        397.7884
         2.3045        417.5195        425.2869
         2.4889        425.8555        429.0616
         2.6733        469.7723        477.6611
         2.8576        515.5416        521.1359
         3.0420        588.6164        581.7369
         3.2263        656.6354        651.2141
         3.4107        697.3656        698.3190
         3.5951        735.4214        728.3799
         3.7794        750.8765        745.4910
         3.9638        766.7170        765.7361
         4.1482        787.8514        775.9404
         4.3325        794.3479        777.2004
         4.5169        797.9658        800.8471
         4.7012        784.6299        773.6988
         4.8856        801.4935        803.4332
         5.0700        813.0869        791.7634
         5.2543        814.9730        829.6835
         5.4387        817.0549        818.8594
         5.6231        833.9030        835.5241
         5.8074        836.2897        837.6706
         5.9918        843.7045        842.8044
         6.1762        845.2869        848.6933
         6.3605        856.1644        861.1946
         6.5449        863.0803        864.8736
         6.7292        873.3014        861.6989
         6.9136        866.1389        857.0240
         7.0980        857.1693        858.6420
         7.2823        860.9113        853.5930
         7.4667        871.3772        862.3907
         7.6511        858.1921        855.7361
         7.8354        858.6681        856.1521
         8.0198        863.4427        863.0757
         8.2041        859.5783        859.1823
         8.3885        863.0145        868.3784
         8.5729        858.8790        858.0573
         8.7572        860.1154        855.5223
         8.9416        862.1274        871.1114
         9.1260        862.3878        866.7009
