@ title  "Pressure (P) and density (D) over 101 frames"
@ xlabel "Z [nm]"
@ ylabel "P [bar] or D [kg/m^3]"
@ s0 legend "P_T"
@ s1 legend "P_N"
        -9.1368        -12.5497          0.0000
        -8.9522        -27.7604          0.0000
        -8.7676         51.0903          0.0000
        -8.5831        -19.8771          0.0000
        -8.3985         44.0779          0.0000
        -8.2139          4.8002          0.0000
        -8.0293         15.3051          0.0000
        -7.8447         25.6493          0.0000
        -7.6602        -57.9864          0.0000
        -7.4756        -20.2023          0.0000
        -7.2910        -39.0298          0.0000
        -7.1064        -66.8362          0.0000
        -6.9218        -37.3149          0.0000
        -6.7372         -1.8278          0.0000
        -6.5527        -39.5183          0.0000
        -6.3681        -40.6173          0.0000
        -6.1835         11.7022          0.0000
        -5.9989        -10.3244          0.0000
        -5.8143         30.3385          0.0000
        -5.6298         11.1576          0.0000
        -5.4452         48.1807          0.0000
        -5.2606         19.9562          0.0000
        -5.0760         24.6638          0.0000
        -4.8914         57.1095          0.0000
        -4.7068        -30.9555          0.0000
        -4.5223         27.6153          0.0000
        -4.3377         28.6229          0.0000
        -4.1531         94.6809          0.0000
        -3.9685        103.3437          0.0000
        -3.7839         92.6289          0.0000
        -3.5993        107.1850          0.0000
        -3.4148         11.2238          0.0000
        -3.2302        -90.2664          0.0000
        -3.0456       -156.8021          0.0000
        -2.8610       -285.6501          0.0000
        -2.6764       -275.1426          0.0000
        -2.4919       -136.6324          0.0000
        -2.3073       -103.5391          0.0000
        -2.1227        -36.1036          0.0000
        -1.9381         13.4145          0.0000
        -1.7535         43.5825          0.0000
        -1.5689          7.4584          0.0000
        -1.3844          3.4209          0.0000
        -1.1998         64.6048          0.0000
        -1.0152         59.7170          0.0000
        -0.8306         32.6228          0.0000
        -0.6460         41.8378          0.0000
        -0.4615          5.3049          0.0000
        -0.2769        -69.2078          0.0000
        -0.0923        -30.3987          0.0000
         0.0923        -43.8759          0.0000
         0.2769        -43.0208          0.0000
         0.4615         61.5952          0.0000
         0.6460         38.2252          0.0000
         0.8306        -13.2284          0.0000
         1.0152         -9.9497          0.0000
         1.1998        -23.1345          0.0000
         1.3844        -15.6728          0.0000
         1.5689        -15.2820          0.0000
         1.7535         -5.0841          0.0000
         1.9381         27.0017          0.0000
         2.1227        -19.9769          0.0000
         2.3073       -101.3467          0.0000
         2.4919       -131.4390          0.0000
         2.6764       -162.8538          0.0000
         2.8610       -205.6846          0.0000
         3.0456       -223.0337          0.0000
         3.2302       -178.5848          0.0000
         3.4148        -23.4180          0.0000
         3.5994         48.0258          0.0000
         3.7839         82.4462          0.0000
         3.9685         81.1323          0.0000
         4.1531         89.5154          0.0000
         4.3377          6.8995          0.0000
         4.5223        123.0858          0.0000
         4.7068          5.6910          0.0000
         4.8914         28.0751          0.0000
         5.0760         31.9569          0.0000
         5.2606         67.1331          0.0000
         5.4452        -21.5684          0.0000
         5.6298         -4.2332          0.0000
         5.8143         22.4075          0.0000
         5.9989         24.4318          0.0000
         6.1835        -22.5497          0.0000
         6.3681        -18.5930          0.0000
         6.5527         19.0319          0.0000
         6.7372        -13.3898          0.0000
         6.9218        -19.5502          0.0000
         7.1064         32.9867          0.0000
         7.2910        -23.7074          0.0000
         7.4756        -51.5426          0.0000
         7.6602        -44.3409          0.0000
         7.8447        -41.1170          0.0000
         8.0293         15.4830          0.0000
         8.2139         30.6709          0.0000
         8.3985         -2.1679          0.0000
         8.5831         19.3748          0.0000
         8.7677          1.7981          0.0000
         8.9522         -0.1250          0.0000
         9.1368          6.2990          0.0000
