@ title  "Pressure (P) and density (D) over 101 frames"
@ xlabel "Z [nm]"
@ ylabel "P [bar] or D [kg/m^3]"
@ s0 legend "P_T"
@ s1 legend "P_N"
        -9.1540        861.6666        861.1575
        -8.9691        858.6229        855.6631
        -8.7841        867.0375        869.8868
        -8.5992        856.5216        855.4853
        -8.4143        862.7824        858.2087
        -8.2294        863.7740        852.8696
        -8.0444        862.8199        871.9740
        -7.8595        868.7828        866.5695
        -7.6746        852.8599        858.2413
        -7.4896        868.9003        860.7717
        -7.3047        861.5669        854.9768
        -7.1198        867.7557        861.8558
        -6.9349        856.5333        848.2119
        -6.7499        861.4832        857.7245
        -6.5650        870.6277        873.2387
        -6.3801        852.2293        850.9792
        -6.1951        859.0468        862.0125
        -6.0102        848.9832        848.0588
        -5.8253        844.9858        846.0513
        -5.6403        839.6998        835.6742
        -5.4554        833.0627        829.6576
        -5.2705        816.4639        814.1868
        -5.0856        808.1879        810.7385
        -4.9006        803.4233        801.4294
        -4.7157        804.7002        798.2822
        -4.5308        796.2163        793.0522
        -4.3458        791.3286        772.4886
        -4.1609        773.3806        771.9792
        -3.9760        758.3961        755.4891
        -3.7911        767.5740        764.0497
        -3.6061        763.8277        761.3713
        -3.4212        731.3257        722.4688
        -3.2363        691.1782        689.4031
        -3.0513        632.3791        626.3828
        -2.8664        575.4572        580.3589
        -2.6815        491.4800        492.4943
        -2.4965        453.2494        454.6291
        -2.3116        420.0483        413.1714
        -2.1267        385.0563        388.8300
        -1.9418        386.9140        392.6111
        -1.7568        372.3648        370.6446
        -1.5719        369.0486        374.2072
        -1.3870        382.0266        387.2749
        -1.2020        367.5732        367.5026
        -1.0171        373.8306        376.1440
        -0.8322        372.1457        367.0947
        -0.6473        369.5233        362.6024
        -0.4623        372.3975        372.8860
        -0.2774        382.8658        378.6772
        -0.0925        371.6866        370.7600
         0.0925        379.2517        379.6808
         0.2774        381.4911        379.6051
         0.4623        373.8754        375.0117
         0.6472        377.5516        370.8353
         0.8322        362.6900        360.5686
         1.0171        374.3082        385.2679
         1.2020        368.6581        367.3788
         1.3870        375.8089        387.1900
         1.5719        378.0045        366.8750
         1.7568        378.5856        379.9979
         1.9418        379.8270        379.8995
         2.1267        390.0034        382.5126
         2.3116        412.3816        417.3824
         2.4965        446.9235        446.8857
         2.6815        498.1331        505.8265
         2.8664        559.2599        562.9622
         3.0513        600.0248        582.0419
         3.2363        641.5613        646.3232
         3.4212        677.2224        684.8320
         3.6061        710.9180        711.2353
         3.7910        747.9519        747.4908
         3.9760        758.6831        765.0923
         4.1609        777.8521        783.0592
         4.3458        786.7633        771.7285
         4.5308        788.7593        776.1130
         4.7157        795.4039        792.0457
         4.9006        805.2469        790.8978
         5.0856        806.4483        804.4539
         5.2705        820.7097        817.9943
         5.4554        818.1686        813.8627
         5.6403        829.5496        830.6311
         5.8253        843.6646        848.9510
         6.0102        845.6868        839.8699
         6.1951        831.8214        838.2139
         6.3801        851.9298        848.6246
         6.5650        855.8863        862.4745
         6.7499        859.5098        860.8022
         6.9348        866.9496        863.4146
         7.1198        859.2425        865.2362
         7.3047        861.1620        864.8288
         7.4896        863.4918        847.6960
         7.6746        868.4061        856.1125
         7.8595        872.1011        876.3377
         8.0444        855.7731        874.9221
         8.2294        859.0219        858.6746
         8.4143        864.9485        868.1842
         8.5992        858.4757        861.6638
         8.7841        868.5712        866.5357
         8.9691        863.5743        856.4444
         9.1540        857.1506        866.5235
