@ title  "Pressure (P) and density (D) over 101 frames"
@ xlabel "Z [nm]"
@ ylabel "P [bar] or D [kg/m^3]"
@ s0 legend "P_T"
@ s1 legend "P_N"
        -9.2636         17.4460          0.0000
        -9.0765         35.3228          0.0000
        -8.8893         -0.7444          0.0000
        -8.7022        -24.7364          0.0000
        -8.5151         -4.4369          0.0000
        -8.3279         55.9952          0.0000
        -8.1408        -16.9093          0.0000
        -7.9536         21.6948          0.0000
        -7.7665         36.3076          0.0000
        -7.5793        -40.9481          0.0000
        -7.3922         -7.2609          0.0000
        -7.2050        -14.4780          0.0000
        -7.0179        -24.7927          0.0000
        -6.8308          5.8162          0.0000
        -6.6436         87.8105          0.0000
        -6.4565         78.5596          0.0000
        -6.2693          3.0771          0.0000
        -6.0822        -22.9226          0.0000
        -5.8950        -29.3902          0.0000
        -5.7079        -16.2047          0.0000
        -5.5207         60.7034          0.0000
        -5.3336         41.9644          0.0000
        -5.1465         34.4986          0.0000
        -4.9593         73.4215          0.0000
        -4.7722         47.3849          0.0000
        -4.5850        106.9940          0.0000
        -4.3979        113.7721          0.0000
        -4.2107        123.2207          0.0000
        -4.0236        156.3525          0.0000
        -3.8365        104.6565          0.0000
        -3.6493         33.4566          0.0000
        -3.4622        -37.9460          0.0000
        -3.2750        -96.3763          0.0000
        -3.0879       -160.5315          0.0000
        -2.9007       -200.0840          0.0000
        -2.7136       -155.3578          0.0000
        -2.5264        -79.0651          0.0000
        -2.3393        -74.5061          0.0000
        -2.1522        -28.8365          0.0000
        -1.9650        -26.2076          0.0000
        -1.7779        -62.8010          0.0000
        -1.5907         55.0139          0.0000
        -1.4036         34.3294          0.0000
        -1.2164          3.2683          0.0000
        -1.0293        -48.2153          0.0000
        -0.8421         -1.6982          0.0000
        -0.6550        -27.9304          0.0000
        -0.4679         19.2891          0.0000
        -0.2807        -17.9686          0.0000
        -0.0936         30.4918          0.0000
         0.0936         -7.3528          0.0000
         0.2807        -40.1885          0.0000
         0.4679         19.1310          0.0000
         0.6550         11.3223          0.0000
         0.8421        -17.2174          0.0000
         1.0293        -20.1698          0.0000
         1.2164         -2.4704          0.0000
         1.4036        -48.5696          0.0000
         1.5907         -3.7669          0.0000
         1.7779        -25.4079          0.0000
         1.9650         48.2488          0.0000
         2.1522         54.0081          0.0000
         2.3393         24.6280          0.0000
         2.5264        -47.8894          0.0000
         2.7136       -125.8649          0.0000
         2.9007       -268.6568          0.0000
         3.0879       -268.6109          0.0000
         3.2750       -123.9645          0.0000
         3.4622        -43.9090          0.0000
         3.6493        100.4455          0.0000
         3.8365         50.3084          0.0000
         4.0236         36.2715          0.0000
         4.2107         79.7658          0.0000
         4.3979         66.8153          0.0000
         4.5850        -14.2796          0.0000
         4.7722         28.6286          0.0000
         4.9593         24.1564          0.0000
         5.1465         27.9647          0.0000
         5.3336         60.0734          0.0000
         5.5207         34.5644          0.0000
         5.7079          8.1552          0.0000
         5.8950         16.2511          0.0000
         6.0822         60.0169          0.0000
         6.2693         17.9469          0.0000
         6.4565         27.6603          0.0000
         6.6436         59.0287          0.0000
         6.8308         59.7309          0.0000
         7.0179        -18.8717          0.0000
         7.2050        -27.5760          0.0000
         7.3922        -43.8534          0.0000
         7.5793        -67.9551          0.0000
         7.7665         40.5402          0.0000
         7.9536         23.1585          0.0000
         8.1408         23.6672          0.0000
         8.3279         22.5499          0.0000
         8.5151         38.6374          0.0000
         8.7022        -37.3756          0.0000
         8.8893         14.6602          0.0000
         9.0765        -17.1329          0.0000
         9.2636         16.7830          0.0000
