@ title  "Pressure (P) and density (D) over 101 frames"
@ xlabel "Z [nm]"
@ ylabel "P [bar] or D [kg/m^3]"
@ s0 legend "P_T"
@ s1 legend "P_N"
        -9.0119        865.7881        869.8783
        -8.8299        855.4085        855.1706
        -8.6478        858.8635        865.8947
        -8.4658        860.5114        863.3240
        -8.2837        854.3904        855.6843
        -8.1016        858.9845        868.4196
        -7.9196        857.4288        865.7231
        -7.7375        866.0861        863.3786
        -7.5555        864.7307        856.7782
        -7.3734        865.0162        865.7153
        -7.1913        865.2546        869.8531
        -7.0093        867.9453        859.9998
        -6.8272        861.2030        854.3725
        -6.6452        854.2272        859.5180
        -6.4631        853.6432        865.6488
        -6.2810        849.3713        845.2993
        -6.0990        841.7139        863.3677
        -5.9169        842.4326        839.8944
        -5.7349        842.0529        846.8682
        -5.5528        820.7656        824.3318
        -5.3707        811.0287        807.3223
        -5.1887        818.5473        809.4804
        -5.0066        808.1462        803.5765
        -4.8246        803.7565        798.5428
        -4.6425        803.9398        796.6829
        -4.4605        796.9663        803.9268
        -4.2784        789.8811        779.3705
        -4.0963        783.6664        789.3719
        -3.9143        763.8602        769.2036
        -3.7322        758.4837        766.6599
        -3.5502        733.0966        734.2000
        -3.3681        711.5345        716.6220
        -3.1860        668.7332        665.1157
        -3.0040        618.8641        614.0682
        -2.8219        559.7914        566.0530
        -2.6399        505.3756        508.9727
        -2.4578        474.9618        474.7731
        -2.2757        427.7107        432.9398
        -2.0937        419.5956        410.4936
        -1.9116        382.4544        383.9560
        -1.7296        382.5079        380.9766
        -1.5475        367.5204        374.3946
        -1.3654        376.6432        373.7821
        -1.1834        376.6854        380.5225
        -1.0013        377.3833        385.6631
        -0.8193        374.0932        372.0688
        -0.6372        382.0689        378.5171
        -0.4552        369.5591        370.0910
        -0.2731        366.8544        371.4317
        -0.0910        371.1965        367.6178
         0.0910        368.2415        371.7658
         0.2731        375.6584        375.1957
         0.4551        374.2659        374.5339
         0.6372        374.0513        379.7002
         0.8193        385.0074        376.0606
         1.0013        372.8405        377.1575
         1.1834        375.4511        371.8346
         1.3654        372.1468        370.5074
         1.5475        378.7708        378.6932
         1.7296        377.4734        370.8929
         1.9116        388.1396        384.8254
         2.0937        383.4078        382.3594
         2.2757        398.7122        397.3916
         2.4578        448.4599        446.6245
         2.6399        474.7230        486.9366
         2.8219        539.4523        547.9122
         3.0040        600.0294        596.2186
         3.1860        642.6439        637.3624
         3.3681        705.3871        700.7012
         3.5501        737.9427        745.1313
         3.7322        761.8090        761.2722
         3.9143        762.1785        760.5001
         4.0963        767.3639        762.4369
         4.2784        776.7281        770.4049
         4.4604        779.6917        768.1815
         4.6425        798.1110        790.2122
         4.8246        803.5195        799.8393
         5.0066        824.1530        811.6876
         5.1887        821.3269        811.9349
         5.3707        831.1816        836.2826
         5.5528        844.3994        839.1213
         5.7349        840.6722        843.0064
         5.9169        857.7408        853.6194
         6.0990        861.0159        860.6765
         6.2810        862.6680        846.2313
         6.4631        870.2758        868.0065
         6.6452        856.0153        858.4364
         6.8272        864.6446        869.6534
         7.0093        859.7488        871.6920
         7.1913        854.7750        861.6478
         7.3734        862.8064        864.6588
         7.5555        866.5308        860.8923
         7.7375        859.6830        865.6696
         7.9196        871.9890        871.7968
         8.1016        861.1544        848.1707
         8.2837        867.2746        864.5492
         8.4657        859.9677        849.0755
         8.6478        870.9836        867.0380
         8.8299        861.6873        865.3404
         9.0119        868.7725        866.7368
