@ title  "Pressure (P) and density (D) over 101 frames"
@ xlabel "Z [nm]"
@ ylabel "P [bar] or D [kg/m^3]"
@ s0 legend "P_T"
@ s1 legend "P_N"
        -9.2864          7.4342         32.7323
        -9.0988         60.5299         49.3283
        -8.9111        -33.4123         31.7155
        -8.7235         -8.1805         37.5599
        -8.5359         20.7866         52.4686
        -8.3483        -21.6434         69.6088
        -8.1607         29.3064         64.5422
        -7.9731         -0.5684         58.5509
        -7.7855         26.9789         47.0303
        -7.5979         47.7966         11.8527
        -7.4103        -34.7575        -32.5712
        -7.2227         20.3048        -15.2633
        -7.0351         64.0235         32.5378
        -6.8475         15.7305         -9.4734
        -6.6599         61.1066        -49.5281
        -6.4723         23.4976         -1.2809
        -6.2847         54.4689         21.6279
        -6.0971         -6.2923        -19.9735
        -5.9095        -19.6024        -39.7075
        -5.7219        -21.8745          2.2805
        -5.5343         64.8671         44.8650
        -5.3467         79.1677         37.5202
        -5.1591         78.1718         30.2786
        -4.9715         51.5669         33.4349
        -4.7839         90.7064         10.7761
        -4.5963         97.3386        -10.4957
        -4.4087         38.8018        -11.8274
        -4.2211         80.6345        -15.0066
        -4.0335        122.3355         -7.5423
        -3.8459        176.8727         34.4577
        -3.6583        122.6729         36.1754
        -3.4707         17.5860          5.5267
        -3.2831        -37.1975          2.4569
        -3.0955       -259.2328        -33.4111
        -2.9078       -191.9725         26.9342
        -2.7202       -177.7480         38.5518
        -2.5326       -193.2103         16.7275
        -2.3450        -92.6652        -12.5945
        -2.1574         26.1445         -0.1994
        -1.9698         94.0940         25.2656
        -1.7822         10.0310         -0.9922
        -1.5946         16.3845        -25.1063
        -1.4070         55.0668        -18.4566
        -1.2194         38.3574        -12.2030
        -1.0318         76.6737         -8.7277
        -0.8442         23.6080         -6.8156
        -0.6566          2.4145        -18.2999
        -0.4690        -34.3300        -44.8753
        -0.2814        -10.1601         -9.9893
        -0.0938         14.0946         -2.9861
         0.0938         38.7662          1.0889
         0.2814        -15.4935         -4.1846
         0.4690         34.5507          5.5127
         0.6566         40.6383          6.5517
         0.8442         58.9542          6.8832
         1.0318         75.3568          7.4434
         1.2194         31.8384        -11.8960
         1.4070         83.9379        -12.6518
         1.5946         71.1421         13.5770
         1.7822         23.0738          6.4085
         1.9698         32.2062         -2.5170
         2.1574         47.1156        -14.8585
         2.3450        -50.7202        -43.2802
         2.5326       -115.2250        -16.8224
         2.7202       -190.1101         21.6640
         2.9078       -198.1268         -2.8586
         3.0955       -276.2796        -36.7889
         3.2831       -180.9137        -30.9551
         3.4707        -57.0825         32.7320
         3.6583         -8.1645        -21.8915
         3.8459         99.1820        -39.9080
         4.0335        107.8448        -53.8635
         4.2211        170.8967         46.9129
         4.4087         44.7495         26.8787
         4.5963         85.5120         20.7929
         4.7839        102.5976         45.8432
         4.9715        112.6134         42.2345
         5.1591         74.6760         24.6136
         5.3467        101.7921         16.2489
         5.5343        -15.7681          2.2443
         5.7219         43.6845         -9.5545
         5.9095         30.5555         47.1113
         6.0971         15.1690         42.3419
         6.2847         18.9729         59.4515
         6.4723         -7.1518         15.0524
         6.6599        -11.0283         14.6875
         6.8475         -7.0691         54.4181
         7.0351          2.9761         36.1513
         7.2227         30.6312         12.3178
         7.4103        -50.6890         -9.3247
         7.5979        -87.5475        -26.1380
         7.7855         36.9474        -38.6367
         7.9731          4.6371        -32.4876
         8.1607         31.5749         32.6301
         8.3483        -39.8037         19.5432
         8.5359         29.6414         10.8121
         8.7235        -40.5371         24.7244
         8.9111         16.2416         76.2198
         9.0988        -50.9799         29.7926
         9.2864         18.2494         25.2162
