@ title  "Pressure (P) and density (D) over 101 frames"
@ xlabel "Z [nm]"
@ ylabel "P [bar] or D [kg/m^3]"
@ s0 legend "P_T"
@ s1 legend "P_N"
        -9.1928         74.8488         -7.0389
        -9.0071         30.0677        -26.2743
        -8.8214        -38.8481        -32.9476
        -8.6356        -18.7364         -9.1356
        -8.4499        -34.9178         -0.0059
        -8.2642         30.5256          0.5988
        -8.0785         10.5099         10.3404
        -7.8928         42.8314         34.0249
        -7.7071         12.1875         16.1644
        -7.5214         80.3556         -9.0332
        -7.3357        -55.3528         -6.1697
        -7.1499        -40.6574        -15.2762
        -6.9642        -40.1088        -66.6349
        -6.7785         17.4036        -40.3814
        -6.5928         14.5450         13.2256
        -6.4071         41.4228         35.2874
        -6.2214          4.0106          6.0325
        -6.0357        -83.3221         13.4402
        -5.8500         73.1154         59.6951
        -5.6642         26.6928         37.4323
        -5.4785         63.4493         -6.9381
        -5.2928        111.4547         -0.7452
        -5.1071         90.3796         35.9782
        -4.9214        157.9787         21.8728
        -4.7357          8.3226         -2.9608
        -4.5500         38.9093         -2.2060
        -4.3642         96.1043         -8.0281
        -4.1785         26.7173        -16.5113
        -3.9928         79.0834        -23.2684
        -3.8071        164.9933         -7.3665
        -3.6214         30.8351        -55.7370
        -3.4357         47.1534        -68.7785
        -3.2500        -73.5276        -23.7767
        -3.0643       -218.4274         70.9211
        -2.8785       -222.9441         36.1653
        -2.6928       -121.3727          5.0102
        -2.5071       -111.8739        -28.6237
        -2.3214        -55.5502        -57.5339
        -2.1357        -19.6347        -11.9255
        -1.9500         24.4290         11.3233
        -1.7643         23.1439        -26.0384
        -1.5786         10.4391        -40.5756
        -1.3928         -9.5638        -29.3254
        -1.2071         23.7021          6.5482
        -1.0214         12.5525         35.9288
        -0.8357        -57.1645         26.3837
        -0.6500        -81.7205          8.3679
        -0.4643        -47.8435         -7.2092
        -0.2786        -36.4341        -19.4006
        -0.0929        -11.3813        -34.9278
         0.0929        -16.9958        -29.3162
         0.2786        -34.7336        -24.1296
         0.4643        -19.7430        -24.2867
         0.6500         -5.3343         13.6739
         0.8357          9.5362         18.8729
         1.0214          0.6271        -20.2938
         1.2071        -24.1016        -28.7491
         1.3928        -27.3170        -19.7792
         1.5786          4.8118          7.5894
         1.7643        -70.7246         -4.7947
         1.9500         11.5958         -0.9153
         2.1357          6.6224         -5.1737
         2.3214         85.2284         12.2267
         2.5071       -179.8177          5.8170
         2.6928       -277.4722          0.5034
         2.8785       -242.3870          7.5234
         3.0643       -276.1865         -2.7019
         3.2500       -131.0235         10.0294
         3.4357        -15.1968         18.2290
         3.6214        118.0016         41.4928
         3.8071        149.4240         32.8724
         3.9928        106.8541        -29.9584
         4.1785        187.0626        -46.3067
         4.3643         12.4364        -39.4001
         4.5500         77.5129        -34.8716
         4.7357        -34.6242        -42.9157
         4.9214          5.8627        -24.2691
         5.1071          8.7991        -28.8090
         5.2928         25.5884          7.0897
         5.4785         82.7457          8.5510
         5.6642         15.2587        -10.6973
         5.8500         15.2537        -10.1956
         6.0357        -25.1396        -45.4743
         6.2214        -39.8973        -33.1852
         6.4071         -3.5484        -10.2341
         6.5928         30.2658         15.7253
         6.7785         30.3700          8.4570
         6.9642        -57.6952         19.9212
         7.1499          0.7473         11.5137
         7.3357         13.8209         42.0670
         7.5214        -36.7466         33.4248
         7.7071        -14.8985         29.6904
         7.8928         21.9948          3.4688
         8.0785         10.5140        -23.1372
         8.2642         28.8534         21.3599
         8.4499         -2.5108          7.2483
         8.6356        -32.6208        -11.7559
         8.8214         35.3948         24.8695
         9.0071        -47.1057          3.8099
         9.1928         41.4819        -11.1404
