@ title  "Pressure (P) and density (D) over 101 frames"
@ xlabel "Z [nm]"
@ ylabel "P [bar] or D [kg/m^3]"
@ s0 legend "P_T"
@ s1 legend "P_N"
        -9.3630        -41.5423          0.0000
        -9.1738          2.1979          0.0000
        -8.9847         56.1688          0.0000
        -8.7955        -46.5287          0.0000
        -8.6064        -24.8890          0.0000
        -8.4172         -2.7418          0.0000
        -8.2281        -32.6237          0.0000
        -8.0389         -4.9755          0.0000
        -7.8498        -24.3641          0.0000
        -7.6606         40.1580          0.0000
        -7.4715         33.8500          0.0000
        -7.2823         23.2810          0.0000
        -7.0932         -0.2068          0.0000
        -6.9040          8.3076          0.0000
        -6.7149        -76.2510          0.0000
        -6.5257         -4.4784          0.0000
        -6.3366         -3.8798          0.0000
        -6.1474         44.5292          0.0000
        -5.9583         24.4677          0.0000
        -5.7691         19.6831          0.0000
        -5.5800         -0.7530          0.0000
        -5.3908         16.3704          0.0000
        -5.2017         29.9591          0.0000
        -5.0125         59.1725          0.0000
        -4.8234         71.0752          0.0000
        -4.6342         75.4142          0.0000
        -4.4451         23.3579          0.0000
        -4.2559         44.7915          0.0000
        -4.0668         34.9832          0.0000
        -3.8776         35.7992          0.0000
        -3.6885         75.4382          0.0000
        -3.4993        -42.7963          0.0000
        -3.3101       -109.5832          0.0000
        -3.1210       -161.6856          0.0000
        -2.9318       -214.2812          0.0000
        -2.7427       -250.5547          0.0000
        -2.5535       -187.2016          0.0000
        -2.3644        -24.6145          0.0000
        -2.1752        -28.7626          0.0000
        -1.9861        -29.1075          0.0000
        -1.7969         67.0644          0.0000
        -1.6078         40.6459          0.0000
        -1.4186          1.1701          0.0000
        -1.2295        -16.5510          0.0000
        -1.0403         -8.7433          0.0000
        -0.8512         24.6365          0.0000
        -0.6620         55.8948          0.0000
        -0.4729        -14.8164          0.0000
        -0.2837        -54.0239          0.0000
        -0.0946         -8.1035          0.0000
         0.0946          2.2205          0.0000
         0.2837         37.2662          0.0000
         0.4729         29.9688          0.0000
         0.6620         14.3515          0.0000
         0.8512         72.6451          0.0000
         1.0403         12.3371          0.0000
         1.2295         18.7841          0.0000
         1.4186        -16.4345          0.0000
         1.6078        -26.5013          0.0000
         1.7969         38.6708          0.0000
         1.9861        -17.1466          0.0000
         2.1752        -54.7099          0.0000
         2.3644        -29.6022          0.0000
         2.5535       -115.6824          0.0000
         2.7427       -181.8686          0.0000
         2.9318       -222.7572          0.0000
         3.1210       -204.3376          0.0000
         3.3101        -79.9849          0.0000
         3.4993          4.0852          0.0000
         3.6885         45.3530          0.0000
         3.8776         41.0440          0.0000
         4.0668         54.0719          0.0000
         4.2559        122.1553          0.0000
         4.4451         76.8404          0.0000
         4.6342         84.9788          0.0000
         4.8234         63.4785          0.0000
         5.0125         44.4568          0.0000
         5.2017         41.5268          0.0000
         5.3908         -2.6398          0.0000
         5.5800         -2.9772          0.0000
         5.7691         11.8507          0.0000
         5.9583        -11.7433          0.0000
         6.1474        -28.0929          0.0000
         6.3366          2.9885          0.0000
         6.5257         88.1043          0.0000
         6.7149         40.0091          0.0000
         6.9040         44.3798          0.0000
         7.0932          7.9025          0.0000
         7.2823        -20.5198          0.0000
         7.4715         -7.4552          0.0000
         7.6606          6.1582          0.0000
         7.8498        -65.0709          0.0000
         8.0389        -56.1508          0.0000
         8.2281        -23.7732          0.0000
         8.4172        -28.2554          0.0000
         8.6064        -11.9790          0.0000
         8.7955        -13.9231          0.0000
         8.9847         -7.4665          0.0000
         9.1738        -30.3570          0.0000
         9.3630        -54.1084          0.0000
