#  Job_num         Ptan         Pnor
       000      -2.1330       0.0000
       001      14.3407       0.0000
       002      -4.4889       0.0000
       003      -5.5356       0.0000
       004       0.8139       0.0000
       005      -0.5392       0.0000
       006      -5.7869       0.0000
       007      -9.2197       0.0000
       008      -1.7944       0.0000
       009      -0.2657       0.0000
       010       2.2040       0.0000
       011       8.0341       0.0000
       012      -8.1355       0.0000
       013      -0.4495       0.0000
       014       2.4080       0.0000
       015      -1.2929       0.0000
       016       5.3081       0.0000
       017      -3.5436       0.0000
       018      -0.0139       0.0000
       019      -1.4946       0.0000
       020      12.3171       0.0000
       021      -0.1547       0.0000
       022      -4.1558       0.0000
       023       0.5231       0.0000
       024       7.5300       0.0000
       025      -1.2126       0.0000
       026       5.0940       0.0000
       027      16.1512       0.0000
       028       3.8168       0.0000
       029       2.5589       0.0000
       030       0.0203       0.0000
       031      -1.8464       0.0000
       032      -0.0811       0.0000
       033       1.9453       0.0000
       034       6.4143       0.0000
       035       8.4645       0.0000
       036     -11.2245       0.0000
       037      -6.6105       0.0000
       038       9.8074       0.0000
       039       5.6145       0.0000
       040      -2.3755       0.0000
       041       0.6934       0.0000
       042       5.2667       0.0000
       043       0.3783       0.0000
       044       9.7321       0.0000
       045      -3.9038       0.0000
       046      12.3190       0.0000
       047       4.0518       0.0000
       048       0.5825       0.0000
       049       5.3509       0.0000
       AVG       1.5097       0.0000
