@ title  "Pressure (P) and density (D) over 101 frames"
@ xlabel "Z [nm]"
@ ylabel "P [bar] or D [kg/m^3]"
@ s0 legend "P_T"
@ s1 legend "P_N"
        -9.2112         -3.3193          0.0000
        -9.0251         20.0653          0.0000
        -8.8390         48.7359          0.0000
        -8.6529          0.9165          0.0000
        -8.4668         30.9543          0.0000
        -8.2807        -53.3519          0.0000
        -8.0947         40.9674          0.0000
        -7.9086         -2.0161          0.0000
        -7.7225        -24.8043          0.0000
        -7.5364        -27.1211          0.0000
        -7.3503        -29.4820          0.0000
        -7.1642         45.3602          0.0000
        -6.9781         39.4278          0.0000
        -6.7921         -6.1019          0.0000
        -6.6060         18.3133          0.0000
        -6.4199         28.4048          0.0000
        -6.2338         -7.0832          0.0000
        -6.0477         75.6332          0.0000
        -5.8616         -0.0475          0.0000
        -5.6756        -13.5862          0.0000
        -5.4895         -9.6675          0.0000
        -5.3034         18.5121          0.0000
        -5.1173         50.2952          0.0000
        -4.9312         52.4847          0.0000
        -4.7451         23.1949          0.0000
        -4.5591         83.1206          0.0000
        -4.3730         71.9594          0.0000
        -4.1869        152.5381          0.0000
        -4.0008        114.8708          0.0000
        -3.8147         56.3178          0.0000
        -3.6286         92.3299          0.0000
        -3.4426         13.4853          0.0000
        -3.2565       -123.9075          0.0000
        -3.0704       -241.1502          0.0000
        -2.8843       -236.9389          0.0000
        -2.6982       -188.2353          0.0000
        -2.5121       -114.0950          0.0000
        -2.3261       -103.5898          0.0000
        -2.1400        -34.8757          0.0000
        -1.9539         32.3296          0.0000
        -1.7678         41.6873          0.0000
        -1.5817         34.0822          0.0000
        -1.3956         26.2156          0.0000
        -1.2095         31.7184          0.0000
        -1.0235        -63.5146          0.0000
        -0.8374        -46.2881          0.0000
        -0.6513        -58.3809          0.0000
        -0.4652         38.9677          0.0000
        -0.2791         23.1673          0.0000
        -0.0930          6.1328          0.0000
         0.0930         15.9100          0.0000
         0.2791         -3.1768          0.0000
         0.4652        -17.5904          0.0000
         0.6513        -12.1506          0.0000
         0.8374         -0.9640          0.0000
         1.0235          7.5506          0.0000
         1.2095         43.8804          0.0000
         1.3956         42.4719          0.0000
         1.5817         35.4654          0.0000
         1.7678         45.8284          0.0000
         1.9539         24.0110          0.0000
         2.1400         22.2371          0.0000
         2.3260        -61.3983          0.0000
         2.5121        -91.4288          0.0000
         2.6982       -170.4411          0.0000
         2.8843       -169.6457          0.0000
         3.0704       -166.4439          0.0000
         3.2565        -66.9469          0.0000
         3.4426         75.0043          0.0000
         3.6286         96.7113          0.0000
         3.8147        108.6501          0.0000
         4.0008        216.8426          0.0000
         4.1869        112.2664          0.0000
         4.3730         81.2977          0.0000
         4.5591         72.5963          0.0000
         4.7451        108.1096          0.0000
         4.9312        104.3192          0.0000
         5.1173         -6.5860          0.0000
         5.3034         18.2096          0.0000
         5.4895         35.2149          0.0000
         5.6756         47.6917          0.0000
         5.8616         52.1952          0.0000
         6.0477         38.1810          0.0000
         6.2338        -20.9239          0.0000
         6.4199        -17.7687          0.0000
         6.6060         -8.4423          0.0000
         6.7921        -15.9758          0.0000
         6.9781        -23.1273          0.0000
         7.1642         13.8921          0.0000
         7.3503         50.3416          0.0000
         7.5364         57.1808          0.0000
         7.7225          7.1828          0.0000
         7.9086         10.4764          0.0000
         8.0947          1.7333          0.0000
         8.2807        -29.8976          0.0000
         8.4668        -16.3121          0.0000
         8.6529         -9.3669          0.0000
         8.8390          3.1287          0.0000
         9.0251         -6.1632          0.0000
         9.2112        -31.7883          0.0000
