@ title  "Pressure (P) and density (D) over 101 frames"
@ xlabel "Z [nm]"
@ ylabel "P [bar] or D [kg/m^3]"
@ s0 legend "P_T"
@ s1 legend "P_N"
        -8.9983          9.7034          0.0000
        -8.8165         23.6489          0.0000
        -8.6348         35.2121          0.0000
        -8.4530         24.3068          0.0000
        -8.2712        -19.1263          0.0000
        -8.0894          2.9142          0.0000
        -7.9076         -1.5413          0.0000
        -7.7258         30.7477          0.0000
        -7.5441          5.0479          0.0000
        -7.3623         30.4972          0.0000
        -7.1805         38.7260          0.0000
        -6.9987         25.8303          0.0000
        -6.8169         -7.9860          0.0000
        -6.6351        -32.7141          0.0000
        -6.4534         35.6782          0.0000
        -6.2716        -12.9371          0.0000
        -6.0898         21.0253          0.0000
        -5.9080         18.7157          0.0000
        -5.7262         15.1657          0.0000
        -5.5444         63.5774          0.0000
        -5.3626         84.1891          0.0000
        -5.1809         77.2603          0.0000
        -4.9991        -14.9669          0.0000
        -4.8173         17.5659          0.0000
        -4.6355         44.4826          0.0000
        -4.4537         75.0504          0.0000
        -4.2719        101.7474          0.0000
        -4.0902         82.8790          0.0000
        -3.9084         59.5567          0.0000
        -3.7266        168.1791          0.0000
        -3.5448         31.9081          0.0000
        -3.3630         84.1129          0.0000
        -3.1812        -32.4139          0.0000
        -2.9994       -146.8402          0.0000
        -2.8177       -202.8050          0.0000
        -2.6359       -112.0140          0.0000
        -2.4541        -77.0005          0.0000
        -2.2723        -75.7095          0.0000
        -2.0905        -10.4099          0.0000
        -1.9087         27.0307          0.0000
        -1.7270         16.3633          0.0000
        -1.5452         26.9861          0.0000
        -1.3634          2.8951          0.0000
        -1.1816        -29.7791          0.0000
        -0.9998        -44.6732          0.0000
        -0.8180         33.6351          0.0000
        -0.6362         35.2549          0.0000
        -0.4545         29.9472          0.0000
        -0.2727         24.0076          0.0000
        -0.0909         55.9580          0.0000
         0.0909         28.6092          0.0000
         0.2727        -15.5692          0.0000
         0.4545        -15.3701          0.0000
         0.6362         -5.8166          0.0000
         0.8180         10.5655          0.0000
         0.9998         30.1701          0.0000
         1.1816         56.1907          0.0000
         1.3634         29.4278          0.0000
         1.5452         26.0346          0.0000
         1.7270         57.3575          0.0000
         1.9087        115.7647          0.0000
         2.0905         17.5866          0.0000
         2.2723        -79.6707          0.0000
         2.4541        -81.6227          0.0000
         2.6359        -32.6620          0.0000
         2.8177        -29.2841          0.0000
         2.9994       -132.7682          0.0000
         3.1812       -115.6715          0.0000
         3.3630        -17.4081          0.0000
         3.5448          8.0555          0.0000
         3.7266        119.1066          0.0000
         3.9084         49.9092          0.0000
         4.0901         62.3363          0.0000
         4.2719         63.2367          0.0000
         4.4537        106.9742          0.0000
         4.6355         60.0136          0.0000
         4.8173         46.5175          0.0000
         4.9991         27.9231          0.0000
         5.1809         22.5160          0.0000
         5.3626         20.1874          0.0000
         5.5444         46.5621          0.0000
         5.7262         64.6674          0.0000
         5.9080         19.7868          0.0000
         6.0898         14.8381          0.0000
         6.2716         56.7894          0.0000
         6.4533         -3.4756          0.0000
         6.6351        -23.3903          0.0000
         6.8169         -4.8110          0.0000
         6.9987         34.3856          0.0000
         7.1805        -19.0985          0.0000
         7.3623        -52.9233          0.0000
         7.5441          5.0432          0.0000
         7.7258         16.5121          0.0000
         7.9076         33.6201          0.0000
         8.0894         54.7195          0.0000
         8.2712         17.9395          0.0000
         8.4530         27.3872          0.0000
         8.6348          7.9332          0.0000
         8.8165         11.2176          0.0000
         8.9983         54.8384          0.0000
