@ title  "Pressure (P) and density (D) over 101 frames"
@ xlabel "Z [nm]"
@ ylabel "P [bar] or D [kg/m^3]"
@ s0 legend "P_T"
@ s1 legend "P_N"
        -9.2112         34.9511         -2.2255
        -9.0251          7.1364         36.0434
        -8.8390         46.2326         56.7962
        -8.6529         12.3507         35.3090
        -8.4668          6.5112         12.7117
        -8.2807        -26.6118        -21.4404
        -8.0947        -24.0511        -34.3516
        -7.9086         59.2723          8.7341
        -7.7225        -24.5742         10.3576
        -7.5364        -63.8207         14.4911
        -7.3503         36.5214         27.4965
        -7.1642         -8.8883         24.2379
        -6.9781         59.0005         -0.2043
        -6.7921         -8.8029         -2.7830
        -6.6060         15.5003         -4.6782
        -6.4199         51.8191          8.2121
        -6.2338         12.3211         -2.0931
        -6.0477         61.5227         -1.0386
        -5.8616        -22.7965         16.3181
        -5.6756         22.0517         10.6339
        -5.4895         -8.4873        -16.0887
        -5.3034         12.8447        -15.8290
        -5.1173         49.9079          6.0960
        -4.9312         37.2182          6.5979
        -4.7451         59.8074        -24.2105
        -4.5591         35.3989        -35.6600
        -4.3730         95.8269         26.4424
        -4.1869        154.7622         25.9759
        -4.0008         99.7269         27.9874
        -3.8147         78.7496        -17.9309
        -3.6286         82.0620        -26.9296
        -3.4426          8.0163         85.1585
        -3.2565       -121.1585         82.3362
        -3.0704       -267.8434         19.7434
        -2.8843       -258.0180         15.5126
        -2.6982       -216.8530         43.5137
        -2.5121       -102.4951         37.2485
        -2.3261       -105.4640         -0.3229
        -2.1400        -18.2825         19.6805
        -1.9539         22.4797         15.9534
        -1.7678         64.3580         28.5933
        -1.5817         45.2093         29.7064
        -1.3956         19.1585          8.6806
        -1.2095         22.9105         42.3909
        -1.0235        -47.6108         69.5639
        -0.8374        -40.3497         38.3528
        -0.6513        -67.1937         25.4909
        -0.4652         23.9529        -22.9433
        -0.2791         60.4900         -1.9148
        -0.0930        -33.0745         21.0302
         0.0930         30.5662         36.2179
         0.2791          6.5568          6.3736
         0.4652        -36.7230         -1.2722
         0.6513         20.6937         29.1875
         0.8374        -46.4155         18.4751
         1.0235         40.0924         14.3222
         1.2095         40.3572          3.5787
         1.3956         42.4821        -22.2766
         1.5817         27.6538        -25.5881
         1.7678         58.1860         -4.6506
         1.9539         34.7806        -18.1908
         2.1400         28.5263         31.2616
         2.3260        -50.3970         41.0664
         2.5121        -76.7471         24.8434
         2.6982       -180.2243          8.9711
         2.8843       -183.8001         15.7169
         3.0704       -214.4952         -8.5766
         3.2565        -64.7892         33.7606
         3.4426         49.4350         21.7538
         3.6286        123.6503         98.4798
         3.8147         99.0587         49.9419
         4.0008        240.7879         70.8247
         4.1869         89.3503         46.0445
         4.3730         88.8726          7.5170
         4.5591         47.9637         -5.8441
         4.7451        119.8347         45.0413
         4.9312        110.7427         16.8499
         5.1173          1.5294        -23.6213
         5.3034         15.1424        -47.7671
         5.4895         33.3611        -70.6403
         5.6756         45.2503        -35.6845
         5.8616         27.7831        -31.5058
         6.0477         54.6150        -44.2232
         6.2338        -16.2051        -51.7197
         6.4199          5.7429        -22.4355
         6.6060        -22.0954        -27.6706
         6.7921        -11.1109        -26.4298
         6.9781         -9.3655         -7.1654
         7.1642         11.7625         -9.8546
         7.3503         48.2833         20.1308
         7.5364         49.3158        -19.9730
         7.7225         19.4077         -9.8363
         7.9086         26.7066        -26.0620
         8.0947        -22.1354        -42.9109
         8.2807         -5.5085        -45.8104
         8.4668        -33.6926        -25.9460
         8.6529        -24.0423        -21.2689
         8.8390          9.3027         -9.8985
         9.0251         23.6424        -17.0056
         9.2112        -78.7102        -24.9881
