@ title  "Pressure (P) and density (D) over 101 frames"
@ xlabel "Z [nm]"
@ ylabel "P [bar] or D [kg/m^3]"
@ s0 legend "P_T"
@ s1 legend "P_N"
        -9.0192         35.0026         16.5081
        -8.8370         -2.9227         30.5477
        -8.6548        -22.3629         32.6637
        -8.4726          3.4735         54.3404
        -8.2904        -29.7952         -9.9632
        -8.1082         50.7014        -60.9474
        -7.9260         20.1754        -39.4758
        -7.7438        -44.4296         48.4247
        -7.5616         57.5811         29.7383
        -7.3793         -7.7914         22.1830
        -7.1971          0.1578         -9.4255
        -7.0149         29.8715        -18.7862
        -6.8327        -37.7466         28.3706
        -6.6505         21.4767         20.4836
        -6.4683        -32.2188        -14.8002
        -6.2861         30.1322        -24.7581
        -6.1039         11.5088         12.2686
        -5.9217         55.2192         23.7353
        -5.7395         20.1055          3.0579
        -5.5573         59.6473         12.0771
        -5.3751         -8.0582         16.2940
        -5.1929        -37.1910        -18.4749
        -5.0107         14.8334        -21.3437
        -4.8285         -5.2461         24.0739
        -4.6463         55.7727         -1.0049
        -4.4640        128.6711         -4.2199
        -4.2818         -4.8437         23.4027
        -4.0996         38.5005         47.0040
        -3.9174         80.3103         34.0264
        -3.7352         33.7059        -17.5186
        -3.5530         28.0844        -35.5607
        -3.3708         16.1798         27.2767
        -3.1886       -165.3529         -5.4528
        -3.0064       -236.5378         -2.2126
        -2.8242       -260.2202        -38.7425
        -2.6420       -168.2930        -12.0148
        -2.4598       -130.5739         -6.5607
        -2.2776        -68.2506         20.9264
        -2.0954         11.8761        -20.4288
        -1.9132         -6.6344        -57.1473
        -1.7310         23.0945        -18.5520
        -1.5488         41.4015          7.6208
        -1.3665         49.6496         21.1313
        -1.1843        -11.2614        -25.4573
        -1.0021          7.6246        -62.0323
        -0.8199         13.6655        -18.4921
        -0.6377        -82.8199          4.4140
        -0.4555        -39.9689         -2.5490
        -0.2733        -41.1938         -3.9585
        -0.0911        -16.4756         10.3538
         0.0911        -10.1178         12.5571
         0.2733         18.7912         -2.3377
         0.4555         -5.3292        -20.8926
         0.6377        -25.2282        -51.1227
         0.8199         -7.3404        -22.9925
         1.0021         28.2909         12.2091
         1.1843         13.6215         12.4366
         1.3665        -11.9603        -38.3920
         1.5488         -9.2982        -26.8382
         1.7310         -9.1087        -44.8397
         1.9132         21.6201        -35.2921
         2.0954         34.6130        -24.7568
         2.2776        -29.0392         12.8163
         2.4598       -108.9628          0.2784
         2.6420       -189.4804        -18.3722
         2.8242       -174.3383        -31.1719
         3.0064       -194.3827        -16.1048
         3.1886        -56.3506         19.3766
         3.3708        -20.6796         15.4667
         3.5530        103.3725         65.9380
         3.7352         32.1988         26.8386
         3.9174         66.7244         26.9734
         4.0996        178.0768        -17.1631
         4.2818         64.0101        -20.0476
         4.4640        147.3122         26.9360
         4.6463         14.8264         20.1549
         4.8285          1.8946         30.0122
         5.0107        -29.5339         -7.0619
         5.1929         -4.0195         -8.4040
         5.3751        -15.4654         -8.8066
         5.5573         12.7523         11.9073
         5.7395         66.8153         39.4235
         5.9217         40.4649          0.1231
         6.1039         -7.2628        -21.8707
         6.2861          9.1680        -23.5645
         6.4683        -10.7076          9.2291
         6.6505         -9.1506         50.5428
         6.8327         39.5850         40.7850
         7.0149         -2.0216         11.9485
         7.1971         21.5468         25.2395
         7.3793          6.8389          6.9809
         7.5616         26.2320          7.3646
         7.7438         29.4113         -1.2950
         7.9260        -33.0172         22.8058
         8.1082        -46.0504         -3.5697
         8.2904        -15.7034        -16.4466
         8.4726         25.9816         -5.5071
         8.6548        -13.4545         19.0009
         8.8370         -5.3806         23.3638
         9.0192        -17.6887         14.7868
